{"status":"success","data":[{"id":"01944c07-4dd0-777f-a934-4cfc1b447eab","meta":null,"created_on":"2025-01-09T17:05:34.672Z","created_by":null,"modified_on":"2025-01-09T17:16:10.950Z","modified_by":null,"deleted_on":null,"deleted_by":null,"tenant_id":"00000000-0000-0000-0000-000000000000","first_name":"Kobe","last_name":"Kobe","email":"morgan+1@assurdly.com","twofa_enabled":false,"status":"active","role_id":"019311aa-f7df-7cca-a550-a941c7c94d0a","last_active":"2025-01-09T17:08:58.158Z","last_ip":"::ffff:10.0.3.166","last_time_zone":null,"role":{"id":"019311aa-f7df-7cca-a550-a941c7c94d0a","meta":null,"created_on":"2024-11-09T16:03:57.533Z","created_by":null,"modified_on":"2024-11-09T16:03:57.533Z","modified_by":null,"deleted_on":null,"deleted_by":null,"name":"New Role test","slug":"new-role-test","description":"New Role test","status":"active","tenant_id":"00000000-0000-0000-0000-000000000000"}},{"id":"01942b99-ca29-7eea-9486-778b937b8893","meta":null,"created_on":"2025-01-03T09:58:06.633Z","created_by":null,"modified_on":"2025-01-03T10:12:38.534Z","modified_by":null,"deleted_on":null,"deleted_by":null,"tenant_id":"00000000-0000-0000-0000-000000000000","first_name":"Feee","last_name":"sod","email":"frank@yopmail.com","twofa_enabled":false,"status":"active","role_id":"019295e4-b39f-7dd9-892d-46959f7d679d","last_active":"2025-01-03T10:12:38.529Z","last_ip":"::ffff:10.0.1.174","last_time_zone":null,"role":{"id":"019295e4-b39f-7dd9-892d-46959f7d679d","meta":null,"created_on":"2024-10-16T15:14:06.278Z","created_by":null,"modified_on":"2024-11-10T16:10:00.176Z","modified_by":null,"deleted_on":null,"deleted_by":null,"name":"Manager","slug":"manager","description":"Manager","status":"active","tenant_id":"00000000-0000-0000-0000-000000000000"}},{"id":"0193f215-9d89-799a-85b2-dd0a382184e3","meta":null,"created_on":"2024-12-23T05:55:23.146Z","created_by":null,"modified_on":"2024-12-24T16:35:14.043Z","modified_by":null,"deleted_on":null,"deleted_by":null,"tenant_id":"00000000-0000-0000-0000-000000000000","first_name":"Ibrahim","last_name":"Azeez","email":"azeez+11@assurdly.com","twofa_enabled":false,"status":"active","role_id":"01927265-d8bc-7195-996f-e131d5e13339","last_active":"2024-12-23T05:55:23.146Z","last_ip":null,"last_time_zone":null,"role":{"id":"01927265-d8bc-7195-996f-e131d5e13339","meta":null,"created_on":"2024-12-02T20:59:05.761Z","created_by":null,"modified_on":"2024-12-02T20:59:05.761Z","modified_by":null,"deleted_on":null,"deleted_by":null,"name":"Admin","slug":"admin","description":"","status":"active","tenant_id":null}},{"id":"0193f0a8-2a9f-7553-8587-8d9c31b51fcf","meta":null,"created_on":"2024-12-22T23:16:13.076Z","created_by":null,"modified_on":"2024-12-22T23:16:13.076Z","modified_by":null,"deleted_on":null,"deleted_by":null,"tenant_id":"00000000-0000-0000-0000-000000000000","first_name":null,"last_name":null,"email":"daresodiq000+233@gmail.com","twofa_enabled":false,"status":"pending","role_id":"01927265-d8bc-7195-996f-e131d5e13339","last_active":"2024-12-22T23:16:13.076Z","last_ip":null,"last_time_zone":null,"role":{"id":"01927265-d8bc-7195-996f-e131d5e13339","meta":null,"created_on":"2024-12-02T20:59:05.761Z","created_by":null,"modified_on":"2024-12-02T20:59:05.761Z","modified_by":null,"deleted_on":null,"deleted_by":null,"name":"Admin","slug":"admin","description":"","status":"active","tenant_id":null}},{"id":"0193ded4-27af-7ddc-9297-025dcac7847e","meta":null,"created_on":"2024-12-19T12:11:06.031Z","created_by":null,"modified_on":"2024-12-19T21:11:40.331Z","modified_by":null,"deleted_on":null,"deleted_by":null,"tenant_id":"00000000-0000-0000-0000-000000000000","first_name":"Adex","last_name":"Play","email":"adex@yopmail.com","twofa_enabled":false,"status":"active","role_id":"01927265-d8bc-7195-996f-e131d5e13339","last_active":"2024-12-19T21:11:40.325Z","last_ip":"::ffff:10.0.3.166","last_time_zone":null,"role":{"id":"01927265-d8bc-7195-996f-e131d5e13339","meta":null,"created_on":"2024-12-02T20:59:05.761Z","created_by":null,"modified_on":"2024-12-02T20:59:05.761Z","modified_by":null,"deleted_on":null,"deleted_by":null,"name":"Admin","slug":"admin","description":"","status":"active","tenant_id":null}},{"id":"0193dec1-9749-7ddc-9296-bf9ae0215add","meta":null,"created_on":"2024-12-19T11:50:49.418Z","created_by":null,"modified_on":"2024-12-19T16:25:57.000Z","modified_by":null,"deleted_on":null,"deleted_by":null,"tenant_id":"00000000-0000-0000-0000-000000000000","first_name":"Adetutu","last_name":"Adex","email":"adetutu@assurdly.com","twofa_enabled":false,"status":"active","role_id":"019295e4-b39f-7dd9-892d-46959f7d679d","last_active":"2024-12-19T12:27:01.275Z","last_ip":"::ffff:10.0.3.166","last_time_zone":null,"role":{"id":"019295e4-b39f-7dd9-892d-46959f7d679d","meta":null,"created_on":"2024-10-16T15:14:06.278Z","created_by":null,"modified_on":"2024-11-10T16:10:00.176Z","modified_by":null,"deleted_on":null,"deleted_by":null,"name":"Manager","slug":"manager","description":"Manager","status":"active","tenant_id":"00000000-0000-0000-0000-000000000000"}},{"id":"0193de96-c4e3-7ddc-9296-7276ab14854b","meta":null,"created_on":"2024-12-19T11:04:03.040Z","created_by":null,"modified_on":"2024-12-19T11:34:56.031Z","modified_by":null,"deleted_on":null,"deleted_by":null,"tenant_id":"00000000-0000-0000-0000-000000000000","first_name":"Thursday","last_name":"Friday","email":"thursday@yopmail.com","twofa_enabled":false,"status":"active","role_id":"019368b0-3295-7dd8-85d7-909406e80d9a","last_active":"2024-12-19T11:04:03.040Z","last_ip":null,"last_time_zone":null,"role":{"id":"019368b0-3295-7dd8-85d7-909406e80d9a","meta":null,"created_on":"2024-11-26T13:36:38.036Z","created_by":null,"modified_on":"2024-12-05T11:20:35.768Z","modified_by":null,"deleted_on":null,"deleted_by":null,"name":"admin manager","slug":"admin-manager","description":"Approver","status":"active","tenant_id":"00000000-0000-0000-0000-000000000000"}},{"id":"0193daf1-a824-7334-a275-f9c6cf07e230","meta":null,"created_on":"2024-12-18T18:04:50.596Z","created_by":null,"modified_on":"2024-12-18T18:13:42.803Z","modified_by":null,"deleted_on":null,"deleted_by":null,"tenant_id":"00000000-0000-0000-0000-000000000000","first_name":"Mohammed","last_name":"Yayah","email":"yayahmohammed+3@gmail.com","twofa_enabled":false,"status":"active","role_id":"019368b0-3295-7dd8-85d7-909406e80d9a","last_active":"2024-12-18T18:04:50.596Z","last_ip":null,"last_time_zone":null,"role":{"id":"019368b0-3295-7dd8-85d7-909406e80d9a","meta":null,"created_on":"2024-11-26T13:36:38.036Z","created_by":null,"modified_on":"2024-12-05T11:20:35.768Z","modified_by":null,"deleted_on":null,"deleted_by":null,"name":"admin manager","slug":"admin-manager","description":"Approver","status":"active","tenant_id":"00000000-0000-0000-0000-000000000000"}},{"id":"0193da0c-dfc3-7aa3-88d0-5fd01b85fbe0","meta":null,"created_on":"2024-12-18T13:54:57.092Z","created_by":null,"modified_on":"2025-01-03T10:25:34.423Z","modified_by":null,"deleted_on":null,"deleted_by":null,"tenant_id":"00000000-0000-0000-0000-000000000000","first_name":"Wunmi","last_name":"Ade","email":"tabbb@yopmail.com","twofa_enabled":false,"status":"inactive","role_id":"019295e4-b39f-7dd9-892d-46959f7d679d","last_active":"2024-12-18T13:54:57.092Z","last_ip":null,"last_time_zone":null,"role":{"id":"019295e4-b39f-7dd9-892d-46959f7d679d","meta":null,"created_on":"2024-10-16T15:14:06.278Z","created_by":null,"modified_on":"2024-11-10T16:10:00.176Z","modified_by":null,"deleted_on":null,"deleted_by":null,"name":"Manager","slug":"manager","description":"Manager","status":"active","tenant_id":"00000000-0000-0000-0000-000000000000"}},{"id":"0193d9da-b8f0-7aa3-88cf-b4bad6bd3dac","meta":null,"created_on":"2024-12-18T13:00:10.353Z","created_by":null,"modified_on":"2024-12-18T14:31:07.953Z","modified_by":null,"deleted_on":null,"deleted_by":null,"tenant_id":"00000000-0000-0000-0000-000000000000","first_name":"Mohammed","last_name":"Mohammed","email":"yayahmohammed+2@gmail.com","twofa_enabled":false,"status":"active","role_id":"019295e4-b39f-7dd9-892d-46959f7d679d","last_active":"2024-12-18T13:00:10.353Z","last_ip":null,"last_time_zone":null,"role":{"id":"019295e4-b39f-7dd9-892d-46959f7d679d","meta":null,"created_on":"2024-10-16T15:14:06.278Z","created_by":null,"modified_on":"2024-11-10T16:10:00.176Z","modified_by":null,"deleted_on":null,"deleted_by":null,"name":"Manager","slug":"manager","description":"Manager","status":"active","tenant_id":"00000000-0000-0000-0000-000000000000"}}],"meta":{"page":1,"total_pages":5,"total_items":41}}