{"status":"success","data":[{"id":"019518e4-c48c-788d-b54b-64deb36d7837","meta":null,"created_on":"2025-03-11T10:37:01.389Z","created_by_id":"01927265-4ed2-79cc-a0e6-e11339a359f3","modified_on":"2025-03-11T10:37:01.389Z","modified_by_id":null,"deleted_on":null,"deleted_by_id":"01927265-4ed2-79cc-a0e6-e11339a359f3","tenant_id":"00000000-0000-0000-0000-000000000000","profile_type":null,"slug":"random","name":"random","description":"random definitions","version":1,"schemas":[]},{"id":"019558b5-9bc6-7dd1-9970-e5a0048cb1a4","meta":null,"created_on":"2025-03-02T21:14:11.782Z","created_by_id":"0193d109-a926-7446-abe5-7dafe8b742bd","modified_on":"2025-03-02T21:14:11.782Z","modified_by_id":null,"deleted_on":null,"deleted_by_id":null,"tenant_id":"00000000-0000-0000-0000-000000000000","profile_type":"personal","slug":"new","name":"new","description":"form","version":1,"schemas":[{"id":"019558b5-9bc9-7dd1-9970-ed9560ef6515","meta":null,"created_on":"2025-03-02T21:14:11.786Z","created_by_id":"0193d109-a926-7446-abe5-7dafe8b742bd","modified_on":"2025-03-02T21:14:11.786Z","modified_by_id":null,"deleted_on":null,"deleted_by_id":null,"tenant_id":"00000000-0000-0000-0000-000000000000","profile_type":"personal","slug":"field-name-1","name":"Field name 1","tags":null,"options":[{"name":"a","value":"1"},{"name":"b","value":"2"},{"name":"c","value":"4"}],"version":1,"type":"select","default":"","enabled":true,"editable":true,"required":false,"regex":null,"order":1,"storage_strategy":"plain","definition_id":"019558b5-9bc6-7dd1-9970-e5a0048cb1a4"}]},{"id":"019558b4-2076-7dd1-9970-d7a1cf9e2df5","meta":null,"created_on":"2025-03-02T21:12:34.678Z","created_by_id":"0193d109-a926-7446-abe5-7dafe8b742bd","modified_on":"2025-03-02T21:12:34.678Z","modified_by_id":null,"deleted_on":null,"deleted_by_id":null,"tenant_id":"00000000-0000-0000-0000-000000000000","profile_type":"personal","slug":"hey","name":"hey","description":"eeeee","version":1,"schemas":[{"id":"019558b4-2079-7dd1-9970-db884196fd7c","meta":null,"created_on":"2025-03-02T21:12:34.682Z","created_by_id":"0193d109-a926-7446-abe5-7dafe8b742bd","modified_on":"2025-03-02T21:12:34.682Z","modified_by_id":null,"deleted_on":null,"deleted_by_id":null,"tenant_id":"00000000-0000-0000-0000-000000000000","profile_type":"personal","slug":"field-name-1","name":"Field name 1","tags":null,"options":[],"version":1,"type":"text","default":"","enabled":true,"editable":true,"required":true,"regex":null,"order":1,"storage_strategy":"plain","definition_id":"019558b4-2076-7dd1-9970-d7a1cf9e2df5"}]},{"id":"01955733-413c-7dd1-9966-07348826884d","meta":null,"created_on":"2025-03-02T14:12:11.708Z","created_by_id":"0193d109-a926-7446-abe5-7dafe8b742bd","modified_on":"2025-03-02T19:57:53.177Z","modified_by_id":"0193d109-a926-7446-abe5-7dafe8b742bd","deleted_on":null,"deleted_by_id":null,"tenant_id":"00000000-0000-0000-0000-000000000000","profile_type":"personal","slug":"tesr-form","name":"tesr form","description":"sume","version":1,"schemas":[{"id":"01955733-4141-7dd1-9966-17fd3b6d94bb","meta":null,"created_on":"2025-03-02T14:12:11.714Z","created_by_id":"0193d109-a926-7446-abe5-7dafe8b742bd","modified_on":"2025-03-02T21:11:59.874Z","modified_by_id":null,"deleted_on":null,"deleted_by_id":null,"tenant_id":"00000000-0000-0000-0000-000000000000","profile_type":"personal","slug":"last-name","name":"Last name","tags":null,"options":[],"version":1,"type":"text","default":"","enabled":true,"editable":true,"required":false,"regex":null,"order":1,"storage_strategy":"plain","definition_id":"01955733-413c-7dd1-9966-07348826884d"},{"id":"01955733-4141-7dd1-9966-2d05e491b09a","meta":null,"created_on":"2025-03-02T14:12:11.714Z","created_by_id":"0193d109-a926-7446-abe5-7dafe8b742bd","modified_on":"2025-03-02T21:11:59.874Z","modified_by_id":null,"deleted_on":null,"deleted_by_id":null,"tenant_id":"00000000-0000-0000-0000-000000000000","profile_type":"personal","slug":"do-you-want-to-be-immortal","name":"Do you want to be immortal","tags":null,"options":[{"name":"Yes","value":"yes"},{"name":"No","value":"no"},{"name":"Meybe","value":"maybe"}],"version":1,"type":"radio","default":"","enabled":true,"editable":true,"required":false,"regex":null,"order":4,"storage_strategy":"sha512","definition_id":"01955733-413c-7dd1-9966-07348826884d"},{"id":"01955733-4141-7dd1-9966-26d9e6e00fd7","meta":null,"created_on":"2025-03-02T14:12:11.714Z","created_by_id":"0193d109-a926-7446-abe5-7dafe8b742bd","modified_on":"2025-03-02T21:11:59.874Z","modified_by_id":null,"deleted_on":null,"deleted_by_id":null,"tenant_id":"00000000-0000-0000-0000-000000000000","profile_type":"personal","slug":"religion","name":"Religion","tags":null,"options":[{"name":"Christaion","value":"1"},{"name":"Pegan","value":"2"},{"name":"Muslim","value":"3"}],"version":1,"type":"radio","default":"","enabled":true,"editable":true,"required":false,"regex":null,"order":7,"storage_strategy":"plain","definition_id":"01955733-413c-7dd1-9966-07348826884d"},{"id":"01955733-4141-7dd1-9966-1e64fbe52913","meta":null,"created_on":"2025-03-02T14:12:11.714Z","created_by_id":"0193d109-a926-7446-abe5-7dafe8b742bd","modified_on":"2025-03-02T21:11:59.874Z","modified_by_id":null,"deleted_on":null,"deleted_by_id":null,"tenant_id":"00000000-0000-0000-0000-000000000000","profile_type":"personal","slug":"email","name":"Email","tags":null,"options":[],"version":1,"type":"email","default":"","enabled":true,"editable":true,"required":false,"regex":null,"order":3,"storage_strategy":"plain","definition_id":"01955733-413c-7dd1-9966-07348826884d"},{"id":"0195586f-be9d-7dd1-996c-706a81dcc0cf","meta":null,"created_on":"2025-03-02T19:57:53.183Z","created_by_id":"0193d109-a926-7446-abe5-7dafe8b742bd","modified_on":"2025-03-02T21:11:59.874Z","modified_by_id":null,"deleted_on":null,"deleted_by_id":null,"tenant_id":"00000000-0000-0000-0000-000000000000","profile_type":"personal","slug":"field-name-7","name":"Field name 7","tags":null,"options":[],"version":1,"type":"textarea","default":"","enabled":true,"editable":true,"required":false,"regex":null,"order":6,"storage_strategy":"plain","definition_id":"01955733-413c-7dd1-9966-07348826884d"},{"id":"01955733-4141-7dd1-9966-0edf50d9d734","meta":null,"created_on":"2025-03-02T14:12:11.714Z","created_by_id":"0193d109-a926-7446-abe5-7dafe8b742bd","modified_on":"2025-03-02T21:11:59.874Z","modified_by_id":null,"deleted_on":null,"deleted_by_id":null,"tenant_id":"00000000-0000-0000-0000-000000000000","profile_type":"personal","slug":"first-name","name":"first name","tags":null,"options":[],"version":1,"type":"password","default":"","enabled":true,"editable":true,"required":true,"regex":null,"order":2,"storage_strategy":"plain","definition_id":"01955733-413c-7dd1-9966-07348826884d"},{"id":"01955733-4141-7dd1-9966-36c9da34a90a","meta":null,"created_on":"2025-03-02T14:12:11.714Z","created_by_id":"0193d109-a926-7446-abe5-7dafe8b742bd","modified_on":"2025-03-02T21:11:59.874Z","modified_by_id":null,"deleted_on":null,"deleted_by_id":null,"tenant_id":"00000000-0000-0000-0000-000000000000","profile_type":"personal","slug":"field-name-6","name":"Field name 6","tags":null,"options":[{"name":"No","value":"no"}],"version":1,"type":"checkbox","default":"","enabled":true,"editable":true,"required":false,"regex":null,"order":5,"storage_strategy":"plain","definition_id":"01955733-413c-7dd1-9966-07348826884d"}]},{"id":"01953843-dcb4-7771-99b0-358bab54e521","meta":null,"created_on":"2025-02-24T14:02:06.388Z","created_by_id":"01927265-4ed2-79cc-a0e6-e11339a359f3","modified_on":"2025-02-24T14:02:06.388Z","modified_by_id":null,"deleted_on":null,"deleted_by_id":null,"tenant_id":"00000000-0000-0000-0000-000000000000","profile_type":null,"slug":"pep-relationship-status","name":"PEP Status","description":"Kindly confirm the statements below","version":1,"schemas":[{"id":"01953843-dcb9-7771-99b0-66676e0e1ca6","meta":null,"created_on":"2025-02-24T14:02:06.395Z","created_by_id":"01927265-4ed2-79cc-a0e6-e11339a359f3","modified_on":"2025-02-24T14:02:06.395Z","modified_by_id":null,"deleted_on":null,"deleted_by_id":null,"tenant_id":"00000000-0000-0000-0000-000000000000","profile_type":"business","slug":"designation-in-institution","name":"Designation in the institution","tags":null,"options":null,"version":1,"type":"text","default":null,"enabled":true,"editable":true,"required":false,"regex":null,"order":6,"storage_strategy":"plain","definition_id":"01953843-dcb4-7771-99b0-358bab54e521"},{"id":"01953843-dcb9-7771-99b0-42c03722a910","meta":null,"created_on":"2025-02-24T14:02:06.395Z","created_by_id":"01927265-4ed2-79cc-a0e6-e11339a359f3","modified_on":"2025-02-24T14:02:06.395Z","modified_by_id":null,"deleted_on":null,"deleted_by_id":null,"tenant_id":"00000000-0000-0000-0000-000000000000","profile_type":"business","slug":"if-yes","name":"If yes, kindly state your relationship with the person.","tags":null,"options":[{"name":"Myself","description":"","value":"myself"},{"name":"Other","description":"","value":"other"}],"version":1,"type":"radio","default":null,"enabled":true,"editable":true,"required":false,"regex":null,"order":2,"storage_strategy":"plain","definition_id":"01953843-dcb4-7771-99b0-358bab54e521"},{"id":"01953843-dcb9-7771-99b0-48e1d4c65e0c","meta":null,"created_on":"2025-02-24T14:02:06.395Z","created_by_id":"01927265-4ed2-79cc-a0e6-e11339a359f3","modified_on":"2025-02-24T14:02:06.395Z","modified_by_id":null,"deleted_on":null,"deleted_by_id":null,"tenant_id":"00000000-0000-0000-0000-000000000000","profile_type":"business","slug":"name-of-pep-relation","name":"Name of PEP relation","tags":null,"options":null,"version":1,"type":"text","default":null,"enabled":true,"editable":true,"required":false,"regex":null,"order":3,"storage_strategy":"plain","definition_id":"01953843-dcb4-7771-99b0-358bab54e521"},{"id":"01953843-dcb9-7771-99b0-5b923a66077c","meta":null,"created_on":"2025-02-24T14:02:06.395Z","created_by_id":"01927265-4ed2-79cc-a0e6-e11339a359f3","modified_on":"2025-02-24T14:02:06.395Z","modified_by_id":null,"deleted_on":null,"deleted_by_id":null,"tenant_id":"00000000-0000-0000-0000-000000000000","profile_type":"business","slug":"name-of-of-institution","name":"Name of Institution","tags":null,"options":null,"version":1,"type":"text","default":null,"enabled":true,"editable":true,"required":false,"regex":null,"order":5,"storage_strategy":"plain","definition_id":"01953843-dcb4-7771-99b0-358bab54e521"},{"id":"01953843-dcb9-7771-99b0-54f1c21e6c9b","meta":null,"created_on":"2025-02-24T14:02:06.395Z","created_by_id":"01927265-4ed2-79cc-a0e6-e11339a359f3","modified_on":"2025-02-24T14:02:06.395Z","modified_by_id":null,"deleted_on":null,"deleted_by_id":null,"tenant_id":"00000000-0000-0000-0000-000000000000","profile_type":"business","slug":"pep-relationship","name":"Relationship","tags":null,"options":[{"name":"Friend","description":"","value":"friend"},{"name":"Sister","description":"","value":"sister"},{"name":"Brother","description":"","value":"brother"},{"name":"Father","description":"","value":"father"},{"name":"Mother","description":"","value":"mother"}],"version":1,"type":"select","default":null,"enabled":true,"editable":true,"required":false,"regex":null,"order":4,"storage_strategy":"plain","definition_id":"01953843-dcb4-7771-99b0-358bab54e521"},{"id":"01953843-dcb9-7771-99b0-3a2ba69819f4","meta":null,"created_on":"2025-02-24T14:02:06.395Z","created_by_id":"01927265-4ed2-79cc-a0e6-e11339a359f3","modified_on":"2025-02-24T14:02:06.395Z","modified_by_id":null,"deleted_on":null,"deleted_by_id":null,"tenant_id":"00000000-0000-0000-0000-000000000000","profile_type":"business","slug":"pep-relation-status","name":"Are you or related to anyone that is a PEP or FEP? ","tags":null,"options":[{"name":"Yes, I am","description":"","value":"yes, I am"},{"name":"No, I am not","description":"","value":"no, I am not"}],"version":1,"type":"radio","default":null,"enabled":true,"editable":true,"required":true,"regex":null,"order":1,"storage_strategy":"plain","definition_id":"01953843-dcb4-7771-99b0-358bab54e521"}]},{"id":"019528d0-b981-7330-84a8-913c99e59599","meta":null,"created_on":"2025-02-21T14:02:02.497Z","created_by_id":"01927265-4ed2-79cc-a0e6-e11339a359f3","modified_on":"2025-03-05T04:59:08.738Z","modified_by_id":"01927265-4ed2-79cc-a0e6-e11339a359f3","deleted_on":null,"deleted_by_id":null,"tenant_id":"00000000-0000-0000-0000-000000000000","profile_type":"personal","slug":"security-questions","name":"Security Questions","description":"Security Questions","version":1,"schemas":[{"id":"019528d0-b986-7330-84a8-9d865d327b81","meta":null,"created_on":"2025-02-21T14:02:02.504Z","created_by_id":"01927265-4ed2-79cc-a0e6-e11339a359f3","modified_on":"2025-03-05T04:59:08.745Z","modified_by_id":null,"deleted_on":null,"deleted_by_id":null,"tenant_id":"00000000-0000-0000-0000-000000000000","profile_type":"personal","slug":"security-questions","name":"Security Questions","tags":null,"options":[{"name":"What was the name of your first bank?","value":"What was the name of your first bank?"},{"name":"What city were you in when you opened your first bank account?","value":"What city were you in when you opened your first bank account?"},{"name":"What is the nickname of your first car?","value":"What is the nickname of your first car?"},{"name":"What was the name of your childhood best friend?","value":"What was the name of your childhood best friend?"},{"name":"What is the name of your first pet?","value":"What is the name of your first pet?"},{"name":"What is the name of your first computer?","value":"What is the name of your first computer?"}],"version":1,"type":"select","default":"","enabled":true,"editable":true,"required":false,"regex":null,"order":1,"storage_strategy":"plain","definition_id":"019528d0-b981-7330-84a8-913c99e59599"}]},{"id":"0194b8d1-526e-7bb8-88ef-c83e8c21e149","meta":null,"created_on":"2025-01-30T20:05:13.455Z","created_by_id":"01927265-4ed2-79cc-a0e6-e11339a359f3","modified_on":"2025-01-30T20:05:13.455Z","modified_by_id":null,"deleted_on":null,"deleted_by_id":null,"tenant_id":"00000000-0000-0000-0000-000000000000","profile_type":"business","slug":"onboarding","name":"Onboarding","description":"Adding new user","version":1,"schemas":[]},{"id":"0194b8d0-975e-7bb8-88ef-baff769d8be5","meta":null,"created_on":"2025-01-30T20:04:25.567Z","created_by_id":"01927265-4ed2-79cc-a0e6-e11339a359f3","modified_on":"2025-01-30T20:04:25.567Z","modified_by_id":null,"deleted_on":null,"deleted_by_id":null,"tenant_id":"00000000-0000-0000-0000-000000000000","profile_type":"business","slug":"cashier","name":"Cashier","description":"test","version":1,"schemas":[{"id":"0194b8d0-9761-7bb8-88ef-c6038192fe47","meta":null,"created_on":"2025-01-30T20:04:25.572Z","created_by_id":"01927265-4ed2-79cc-a0e6-e11339a359f3","modified_on":"2025-01-30T20:04:25.572Z","modified_by_id":null,"deleted_on":null,"deleted_by_id":null,"tenant_id":"00000000-0000-0000-0000-000000000000","profile_type":"personal","slug":"test","name":"test","tags":null,"options":[],"version":1,"type":"text","default":"","enabled":true,"editable":true,"required":true,"regex":null,"order":1,"storage_strategy":"plain","definition_id":"0194b8d0-975e-7bb8-88ef-baff769d8be5"}]},{"id":"01948ca4-0621-7bb0-a716-583bce54dc93","meta":null,"created_on":"2025-01-22T06:12:27.296Z","created_by_id":"0192ee9f-7504-7bb3-919d-9fba49ba9e27","modified_on":"2025-01-23T13:02:25.473Z","modified_by_id":"0192ee9f-7504-7bb3-919d-9fba49ba9e27","deleted_on":null,"deleted_by_id":null,"tenant_id":"00000000-0000-0000-0000-000000000000","profile_type":"business","slug":"vat","name":"Test","description":"Form","version":1,"schemas":[{"id":"01949899-6a5b-7dd2-b9a3-19f6f17036e1","meta":null,"created_on":"2025-01-24T13:56:18.653Z","created_by_id":"0192ee9f-7504-7bb3-919d-9fba49ba9e27","modified_on":"2025-01-24T13:56:18.653Z","modified_by_id":"0192ee9f-7504-7bb3-919d-9fba49ba9e27","deleted_on":null,"deleted_by_id":null,"tenant_id":"00000000-0000-0000-0000-000000000000","profile_type":"personal","slug":"field-name-2","name":"Field name 2","tags":null,"options":[{"name":"New Role test","value":"New Role test"}],"version":1,"type":"select","default":"","enabled":true,"editable":true,"required":false,"regex":null,"order":2,"storage_strategy":"plain","definition_id":"01948ca4-0621-7bb0-a716-583bce54dc93"},{"id":"01948ca4-0627-7bb0-a716-65b754167dd1","meta":null,"created_on":"2025-01-22T06:12:27.304Z","created_by_id":"0192ee9f-7504-7bb3-919d-9fba49ba9e27","modified_on":"2025-01-24T13:56:18.653Z","modified_by_id":"0192ee9f-7504-7bb3-919d-9fba49ba9e27","deleted_on":null,"deleted_by_id":null,"tenant_id":"00000000-0000-0000-0000-000000000000","profile_type":"personal","slug":"field-name-1","name":"Field name 1","tags":null,"options":[],"version":1,"type":"text","default":"","enabled":true,"editable":true,"required":false,"regex":null,"order":1,"storage_strategy":"plain","definition_id":"01948ca4-0621-7bb0-a716-583bce54dc93"}]},{"id":"0193731a-59fe-788a-9877-8bef6d0c2cfc","meta":null,"created_on":"2024-11-28T14:08:47.102Z","created_by_id":null,"modified_on":"2025-01-21T12:44:54.987Z","modified_by_id":"0192ee9f-7504-7bb3-919d-9fba49ba9e27","deleted_on":null,"deleted_by_id":null,"tenant_id":"00000000-0000-0000-0000-000000000000","profile_type":"personal","slug":"personal-information","name":"Personal Information","description":"Provide other personal information (gender, country) and verify your phone number and email address.","version":1,"schemas":[{"id":"0193732d-3883-788a-9877-d43d4729dd26","meta":null,"created_on":"2024-11-28T14:29:23.717Z","created_by_id":null,"modified_on":"2025-01-21T12:46:55.613Z","modified_by_id":"0192ee9f-7504-7bb3-919d-9fba49ba9e27","deleted_on":null,"deleted_by_id":null,"tenant_id":"00000000-0000-0000-0000-000000000000","profile_type":"personal","slug":"phone","name":"Phone number","tags":null,"options":null,"version":1,"type":"tel","default":null,"enabled":true,"editable":true,"required":false,"regex":null,"order":4,"storage_strategy":"plain","definition_id":"0193731a-59fe-788a-9877-8bef6d0c2cfc"},{"id":"0193732d-3883-788a-9877-bbde92f013c9","meta":null,"created_on":"2024-11-28T14:29:23.717Z","created_by_id":null,"modified_on":"2025-01-21T12:46:55.613Z","modified_by_id":"0192ee9f-7504-7bb3-919d-9fba49ba9e27","deleted_on":null,"deleted_by_id":null,"tenant_id":"00000000-0000-0000-0000-000000000000","profile_type":"personal","slug":"first_name","name":"First name","tags":null,"options":null,"version":1,"type":"text","default":null,"enabled":true,"editable":true,"required":false,"regex":null,"order":1,"storage_strategy":"plain","definition_id":"0193731a-59fe-788a-9877-8bef6d0c2cfc"},{"id":"0193732d-3883-788a-9877-db7406ac23db","meta":null,"created_on":"2024-11-28T14:29:23.717Z","created_by_id":null,"modified_on":"2025-01-21T12:46:55.613Z","modified_by_id":"0192ee9f-7504-7bb3-919d-9fba49ba9e27","deleted_on":null,"deleted_by_id":null,"tenant_id":"00000000-0000-0000-0000-000000000000","profile_type":"personal","slug":"gender","name":"Gender","tags":null,"options":[{"name":"Male"},{"name":"Female"},{"name":"Prefer not to say"}],"version":1,"type":"select","default":null,"enabled":true,"editable":true,"required":false,"regex":null,"order":5,"storage_strategy":"plain","definition_id":"0193731a-59fe-788a-9877-8bef6d0c2cfc"},{"id":"0193732d-3883-788a-9877-ce3b193d31c7","meta":null,"created_on":"2024-11-28T14:29:23.717Z","created_by_id":null,"modified_on":"2025-01-21T12:46:55.613Z","modified_by_id":"0192ee9f-7504-7bb3-919d-9fba49ba9e27","deleted_on":null,"deleted_by_id":null,"tenant_id":"00000000-0000-0000-0000-000000000000","profile_type":"personal","slug":"email","name":"Email","tags":null,"options":null,"version":1,"type":"email","default":null,"enabled":true,"editable":true,"required":false,"regex":null,"order":3,"storage_strategy":"plain","definition_id":"0193731a-59fe-788a-9877-8bef6d0c2cfc"},{"id":"0193732d-3883-788a-9877-c2da86c3a245","meta":null,"created_on":"2024-11-28T14:29:23.717Z","created_by_id":null,"modified_on":"2025-01-21T12:46:55.613Z","modified_by_id":"0192ee9f-7504-7bb3-919d-9fba49ba9e27","deleted_on":null,"deleted_by_id":null,"tenant_id":"00000000-0000-0000-0000-000000000000","profile_type":"personal","slug":"last_name","name":"Last name","tags":null,"options":null,"version":1,"type":"text","default":null,"enabled":true,"editable":true,"required":false,"regex":null,"order":2,"storage_strategy":"plain","definition_id":"0193731a-59fe-788a-9877-8bef6d0c2cfc"}]}],"meta":{"page":1,"total_pages":2,"total_items":17}}