{"status":"success","data":[{"id":"019566df-963a-722f-a14a-fcded6624333","meta":null,"created_on":"2025-03-05T15:14:43.898Z","created_by_id":"019566df-7f82-722f-a14a-9eb1a59909b3","modified_on":"2025-03-05T15:16:01.883Z","modified_by_id":"019566df-7f82-722f-a14a-9eb1a59909b3","deleted_on":null,"deleted_by_id":null,"tenant_id":"00000000-0000-0000-0000-000000000000","name":"Oladimeji Oladimeji","type":"personal","status":"active","restricted":false,"review":null,"allowed_time_periods":null,"allowed_locations":null,"primary_user_id":"019566df-7f82-722f-a14a-9eb1a59909b3","tier_id":"01928f2d-6756-755b-8a9d-c8094db2af27","primary_user":{"id":"019566df-7f82-722f-a14a-9eb1a59909b3","meta":null,"created_on":"2025-03-05T15:14:38.011Z","created_by_id":null,"modified_on":"2025-03-05T18:19:42.981Z","modified_by_id":"019566df-7f82-722f-a14a-9eb1a59909b3","deleted_on":null,"deleted_by_id":null,"tenant_id":"00000000-0000-0000-0000-000000000000","email":"oladimeji@mailinator.com","status":"active","first_name":"Oladimeji","last_name":"Oladimeji","twofa_enabled":false,"last_active":"2025-03-05T18:19:42.980Z","last_ip":"172.71.178.169","allowed_ips":null,"last_timezone":"Europe/London","last_location":"London","phone":"+2348134044022","review":null,"gender":"female","date_of_birth":"1995-07-31","cba_id":"111","photo_id":null,"referral_code":"YYRN4A","referred_by":"019372de-17ef-7cc2-8fc0-43fe11ba042f"},"tier":{"id":"01928f2d-6756-755b-8a9d-c8094db2af27","meta":null,"created_on":"2024-10-15T07:56:10.789Z","created_by_id":null,"modified_on":"2025-01-23T15:14:24.513Z","modified_by_id":"01927265-4ed2-79cc-a0e6-e11339a359f3","deleted_on":null,"deleted_by_id":null,"tenant_id":"00000000-0000-0000-0000-000000000000","profile_type":"personal","name":"Tier 1","description":"Tier 1","level":1,"enabled":true,"balance_limit":2000000,"single_sending_limit":500000,"single_receiving_limit":500000,"period_sending_limit":500000,"period_sending_limit_time_unit":"day","period_receiving_limit":500000,"period_receiving_limit_time_unit":"day","requirements":[{"id":"01933d40-03e5-777c-a6e6-bf72eb1c8968","type_id":"01933d40-03e5-777c-a6e6-bf72eb1c8968","type":"verification","slug":"bvn","name":"BVN","description":"BVN"},{"id":"019318f9-c895-744d-8f65-4636cc26dd1c","type_id":"019318f9-c895-744d-8f65-4636cc26dd1c","type":"verification","slug":"phone","name":"Phone","description":"Verify yor number"},{"id":"019318f9-c895-744d-8f65-4636cc26dd1d","type_id":"019318f9-c895-744d-8f65-4636cc26dd1d","type":"verification","slug":"email","name":"Email","description":"Verify your email"},{"id":"019318f9-c895-744d-8f65-4636cc26dd1f","type_id":"019318f9-c895-744d-8f65-4636cc26dd1f","type":"verification","slug":"liveness","name":"Image liveness check","description":"This step helps us verify your identity by matching your image with the credentials you’ve provided."}]}},{"id":"01956699-972e-722f-a147-69e07a824f3e","meta":null,"created_on":"2025-03-05T13:58:16.621Z","created_by_id":"01956699-8660-722f-a147-563f08c28779","modified_on":"2025-03-05T14:02:56.815Z","modified_by_id":"01956699-8660-722f-a147-563f08c28779","deleted_on":null,"deleted_by_id":null,"tenant_id":"00000000-0000-0000-0000-000000000000","name":"Fred Teslim","type":"personal","status":"active","restricted":false,"review":null,"allowed_time_periods":null,"allowed_locations":null,"primary_user_id":"01956699-8660-722f-a147-563f08c28779","tier_id":"01928f2d-6756-755b-8a9d-c8094db2af27","primary_user":{"id":"01956699-8660-722f-a147-563f08c28779","meta":null,"created_on":"2025-03-05T13:58:12.319Z","created_by_id":null,"modified_on":"2025-03-05T14:11:36.696Z","modified_by_id":"01956699-8660-722f-a147-563f08c28779","deleted_on":null,"deleted_by_id":null,"tenant_id":"00000000-0000-0000-0000-000000000000","email":"braail@yopmail.com","status":"active","first_name":"Fred","last_name":"Teslim","twofa_enabled":false,"last_active":"2025-03-05T14:11:36.696Z","last_ip":"172.71.182.5","allowed_ips":null,"last_timezone":"Europe/Amsterdam","last_location":"Amsterdam","phone":"+2348138094111","review":null,"gender":"female","date_of_birth":"1994-06-20","cba_id":"110","photo_id":null,"referral_code":"MYJ0CQ","referred_by":null},"tier":{"id":"01928f2d-6756-755b-8a9d-c8094db2af27","meta":null,"created_on":"2024-10-15T07:56:10.789Z","created_by_id":null,"modified_on":"2025-01-23T15:14:24.513Z","modified_by_id":"01927265-4ed2-79cc-a0e6-e11339a359f3","deleted_on":null,"deleted_by_id":null,"tenant_id":"00000000-0000-0000-0000-000000000000","profile_type":"personal","name":"Tier 1","description":"Tier 1","level":1,"enabled":true,"balance_limit":2000000,"single_sending_limit":500000,"single_receiving_limit":500000,"period_sending_limit":500000,"period_sending_limit_time_unit":"day","period_receiving_limit":500000,"period_receiving_limit_time_unit":"day","requirements":[{"id":"019318f9-c895-744d-8f65-4636cc26dd1f","type_id":"019318f9-c895-744d-8f65-4636cc26dd1f","type":"verification","slug":"liveness","name":"Image liveness check","description":"This step helps us verify your identity by matching your image with the credentials you’ve provided."},{"id":"019318f9-c895-744d-8f65-4636cc26dd1c","type_id":"019318f9-c895-744d-8f65-4636cc26dd1c","type":"verification","slug":"phone","name":"Phone","description":"Verify yor number"},{"id":"019318f9-c895-744d-8f65-4636cc26dd1d","type_id":"019318f9-c895-744d-8f65-4636cc26dd1d","type":"verification","slug":"email","name":"Email","description":"Verify your email"},{"id":"01933d40-03e5-777c-a6e6-bf72eb1c8968","type_id":"01933d40-03e5-777c-a6e6-bf72eb1c8968","type":"verification","slug":"bvn","name":"BVN","description":"BVN"}]}},{"id":"01956693-65e6-722f-a146-b9a77734e1d4","meta":null,"created_on":"2025-03-05T13:51:30.790Z","created_by_id":"01956693-5196-722f-a146-a0ffabe29aca","modified_on":"2025-03-05T13:51:30.790Z","modified_by_id":null,"deleted_on":null,"deleted_by_id":null,"tenant_id":"00000000-0000-0000-0000-000000000000","name":"lighter Brown","type":"personal","status":"active","restricted":false,"review":null,"allowed_time_periods":null,"allowed_locations":null,"primary_user_id":"01956693-5196-722f-a146-a0ffabe29aca","tier_id":null,"primary_user":{"id":"01956693-5196-722f-a146-a0ffabe29aca","meta":null,"created_on":"2025-03-05T13:51:25.589Z","created_by_id":null,"modified_on":"2025-03-05T13:58:26.298Z","modified_by_id":"01956693-5196-722f-a146-a0ffabe29aca","deleted_on":null,"deleted_by_id":null,"tenant_id":"00000000-0000-0000-0000-000000000000","email":"lighter@yopmail.com","status":"active","first_name":"lighter","last_name":"Brown","twofa_enabled":false,"last_active":"2025-03-05T13:58:26.298Z","last_ip":"104.23.166.37","allowed_ips":null,"last_timezone":"","last_location":"","phone":"+2348138094321","review":null,"gender":"female","date_of_birth":"1994-06-20","cba_id":null,"photo_id":null,"referral_code":"UJRODI","referred_by":null},"tier":null},{"id":"0195668a-7684-722f-a145-87f1b92afa64","meta":null,"created_on":"2025-03-05T13:41:45.219Z","created_by_id":"0195668a-58b9-722f-a145-2f190129f41a","modified_on":"2025-03-05T13:41:45.219Z","modified_by_id":null,"deleted_on":null,"deleted_by_id":null,"tenant_id":"00000000-0000-0000-0000-000000000000","name":"light out","type":"personal","status":"active","restricted":false,"review":null,"allowed_time_periods":null,"allowed_locations":null,"primary_user_id":"0195668a-58b9-722f-a145-2f190129f41a","tier_id":null,"primary_user":{"id":"0195668a-58b9-722f-a145-2f190129f41a","meta":null,"created_on":"2025-03-05T13:41:37.592Z","created_by_id":null,"modified_on":"2025-03-05T16:43:50.563Z","modified_by_id":"0195668a-58b9-722f-a145-2f190129f41a","deleted_on":null,"deleted_by_id":null,"tenant_id":"00000000-0000-0000-0000-000000000000","email":"light@yopmail.com","status":"active","first_name":"light","last_name":"out","twofa_enabled":false,"last_active":"2025-03-05T16:43:50.560Z","last_ip":"172.71.178.15","allowed_ips":null,"last_timezone":"Europe/London","last_location":"London","phone":"+2348138090900","review":null,"gender":"female","date_of_birth":"1994-06-20","cba_id":null,"photo_id":null,"referral_code":"XWYMCX","referred_by":"019372de-17ef-7cc2-8fc0-43fe11ba042f"},"tier":null},{"id":"01956674-c880-722f-a144-1f7b127eb8c2","meta":null,"created_on":"2025-03-05T13:18:04.415Z","created_by_id":"01956674-8bd9-722f-a144-0548de3e37b6","modified_on":"2025-03-05T13:20:18.394Z","modified_by_id":"01956674-8bd9-722f-a144-0548de3e37b6","deleted_on":null,"deleted_by_id":null,"tenant_id":"00000000-0000-0000-0000-000000000000","name":"Tobi Loba","type":"personal","status":"active","restricted":false,"review":null,"allowed_time_periods":null,"allowed_locations":null,"primary_user_id":"01956674-8bd9-722f-a144-0548de3e37b6","tier_id":"01928f2d-6756-755b-8a9d-c8094db2af27","primary_user":{"id":"01956674-8bd9-722f-a144-0548de3e37b6","meta":null,"created_on":"2025-03-05T13:17:48.889Z","created_by_id":null,"modified_on":"2025-03-05T17:51:41.593Z","modified_by_id":"01956674-8bd9-722f-a144-0548de3e37b6","deleted_on":null,"deleted_by_id":null,"tenant_id":"00000000-0000-0000-0000-000000000000","email":"int@mailinator.com","status":"active","first_name":"Tobi","last_name":"Loba","twofa_enabled":false,"last_active":"2025-03-05T17:51:41.592Z","last_ip":"172.70.90.125","allowed_ips":null,"last_timezone":"Europe/London","last_location":"London","phone":"+2349055622364","review":null,"gender":"male","date_of_birth":"2001-06-16","cba_id":"109","photo_id":null,"referral_code":"45Q00I","referred_by":null},"tier":{"id":"01928f2d-6756-755b-8a9d-c8094db2af27","meta":null,"created_on":"2024-10-15T07:56:10.789Z","created_by_id":null,"modified_on":"2025-01-23T15:14:24.513Z","modified_by_id":"01927265-4ed2-79cc-a0e6-e11339a359f3","deleted_on":null,"deleted_by_id":null,"tenant_id":"00000000-0000-0000-0000-000000000000","profile_type":"personal","name":"Tier 1","description":"Tier 1","level":1,"enabled":true,"balance_limit":2000000,"single_sending_limit":500000,"single_receiving_limit":500000,"period_sending_limit":500000,"period_sending_limit_time_unit":"day","period_receiving_limit":500000,"period_receiving_limit_time_unit":"day","requirements":[{"id":"019318f9-c895-744d-8f65-4636cc26dd1f","type_id":"019318f9-c895-744d-8f65-4636cc26dd1f","type":"verification","slug":"liveness","name":"Image liveness check","description":"This step helps us verify your identity by matching your image with the credentials you’ve provided."},{"id":"01933d40-03e5-777c-a6e6-bf72eb1c8968","type_id":"01933d40-03e5-777c-a6e6-bf72eb1c8968","type":"verification","slug":"bvn","name":"BVN","description":"BVN"},{"id":"019318f9-c895-744d-8f65-4636cc26dd1d","type_id":"019318f9-c895-744d-8f65-4636cc26dd1d","type":"verification","slug":"email","name":"Email","description":"Verify your email"},{"id":"019318f9-c895-744d-8f65-4636cc26dd1c","type_id":"019318f9-c895-744d-8f65-4636cc26dd1c","type":"verification","slug":"phone","name":"Phone","description":"Verify yor number"}]}},{"id":"0195660d-712e-7002-8cd6-48bae2ce236a","meta":null,"created_on":"2025-03-05T11:25:11.854Z","created_by_id":"0195660d-5baf-7002-8cd5-e505c92560b8","modified_on":"2025-03-05T11:41:57.311Z","modified_by_id":"0195660d-5baf-7002-8cd5-e505c92560b8","deleted_on":null,"deleted_by_id":null,"tenant_id":"00000000-0000-0000-0000-000000000000","name":"Fred Teslim","type":"personal","status":"active","restricted":false,"review":null,"allowed_time_periods":null,"allowed_locations":null,"primary_user_id":"0195660d-5baf-7002-8cd5-e505c92560b8","tier_id":"01928f2d-6756-755b-8a9d-c8094db2af27","primary_user":{"id":"0195660d-5baf-7002-8cd5-e505c92560b8","meta":null,"created_on":"2025-03-05T11:25:06.351Z","created_by_id":null,"modified_on":"2025-03-05T13:26:58.106Z","modified_by_id":"0195660d-5baf-7002-8cd5-e505c92560b8","deleted_on":null,"deleted_by_id":null,"tenant_id":"00000000-0000-0000-0000-000000000000","email":"frann@yopmail.com","status":"active","first_name":"Fred","last_name":"Teslim","twofa_enabled":false,"last_active":"2025-03-05T13:26:58.105Z","last_ip":"172.70.46.161","allowed_ips":null,"last_timezone":"Europe/Amsterdam","last_location":"Amsterdam","phone":"+2348138096777","review":null,"gender":"female","date_of_birth":"1994-06-20","cba_id":"108","photo_id":null,"referral_code":"C05D0Q","referred_by":"019372de-17ef-7cc2-8fc0-43fe11ba042f"},"tier":{"id":"01928f2d-6756-755b-8a9d-c8094db2af27","meta":null,"created_on":"2024-10-15T07:56:10.789Z","created_by_id":null,"modified_on":"2025-01-23T15:14:24.513Z","modified_by_id":"01927265-4ed2-79cc-a0e6-e11339a359f3","deleted_on":null,"deleted_by_id":null,"tenant_id":"00000000-0000-0000-0000-000000000000","profile_type":"personal","name":"Tier 1","description":"Tier 1","level":1,"enabled":true,"balance_limit":2000000,"single_sending_limit":500000,"single_receiving_limit":500000,"period_sending_limit":500000,"period_sending_limit_time_unit":"day","period_receiving_limit":500000,"period_receiving_limit_time_unit":"day","requirements":[{"id":"019318f9-c895-744d-8f65-4636cc26dd1c","type_id":"019318f9-c895-744d-8f65-4636cc26dd1c","type":"verification","slug":"phone","name":"Phone","description":"Verify yor number"},{"id":"019318f9-c895-744d-8f65-4636cc26dd1d","type_id":"019318f9-c895-744d-8f65-4636cc26dd1d","type":"verification","slug":"email","name":"Email","description":"Verify your email"},{"id":"019318f9-c895-744d-8f65-4636cc26dd1f","type_id":"019318f9-c895-744d-8f65-4636cc26dd1f","type":"verification","slug":"liveness","name":"Image liveness check","description":"This step helps us verify your identity by matching your image with the credentials you’ve provided."},{"id":"01933d40-03e5-777c-a6e6-bf72eb1c8968","type_id":"01933d40-03e5-777c-a6e6-bf72eb1c8968","type":"verification","slug":"bvn","name":"BVN","description":"BVN"}]}},{"id":"01956495-4b93-7bb6-afe4-ee8c63c28395","meta":null,"created_on":"2025-03-05T04:34:20.691Z","created_by_id":"01956495-1356-7bb6-afe4-d72eadf70c4a","modified_on":"2025-03-05T04:34:20.691Z","modified_by_id":null,"deleted_on":null,"deleted_by_id":null,"tenant_id":"00000000-0000-0000-0000-000000000000","name":"Charlie Smoke","type":"personal","status":"active","restricted":false,"review":null,"allowed_time_periods":null,"allowed_locations":null,"primary_user_id":"01956495-1356-7bb6-afe4-d72eadf70c4a","tier_id":null,"primary_user":{"id":"01956495-1356-7bb6-afe4-d72eadf70c4a","meta":null,"created_on":"2025-03-05T04:34:06.294Z","created_by_id":null,"modified_on":"2025-03-05T04:39:58.317Z","modified_by_id":"01956495-1356-7bb6-afe4-d72eadf70c4a","deleted_on":null,"deleted_by_id":null,"tenant_id":"00000000-0000-0000-0000-000000000000","email":"el@mailinator.com","status":"active","first_name":"Charlie","last_name":"Smoke","twofa_enabled":false,"last_active":"2025-03-05T04:39:58.316Z","last_ip":"172.70.91.45","allowed_ips":null,"last_timezone":"Europe/London","last_location":"London","phone":"+2348022322648","review":null,"gender":"male","date_of_birth":"2001-06-16","cba_id":null,"photo_id":null,"referral_code":"P986ZG","referred_by":null},"tier":null},{"id":"0195576c-1e8e-7dd1-9969-b8ed5be53434","meta":null,"created_on":"2025-03-02T15:14:18.381Z","created_by_id":"0195576c-0e38-7dd1-9969-a3cba9d1fde2","modified_on":"2025-03-02T15:14:18.381Z","modified_by_id":null,"deleted_on":null,"deleted_by_id":null,"tenant_id":"00000000-0000-0000-0000-000000000000","name":"Azeez Ibrahim","type":"personal","status":"active","restricted":false,"review":null,"allowed_time_periods":null,"allowed_locations":null,"primary_user_id":"0195576c-0e38-7dd1-9969-a3cba9d1fde2","tier_id":null,"primary_user":{"id":"0195576c-0e38-7dd1-9969-a3cba9d1fde2","meta":null,"created_on":"2025-03-02T15:14:14.200Z","created_by_id":null,"modified_on":"2025-03-03T11:15:04.823Z","modified_by_id":"01927265-4ed2-79cc-a0e6-e11339a359f3","deleted_on":null,"deleted_by_id":null,"tenant_id":"00000000-0000-0000-0000-000000000000","email":"live@mailinator.com","status":"active","first_name":"Azeez","last_name":"Ibrahim","twofa_enabled":false,"last_active":"2025-03-02T15:23:35.395Z","last_ip":"104.23.172.58","allowed_ips":null,"last_timezone":"","last_location":"","phone":"+2349055322154","review":null,"gender":null,"date_of_birth":null,"cba_id":null,"photo_id":null,"referral_code":"5QM4LL","referred_by":null},"tier":null},{"id":"0195573e-45d5-7dd1-9966-97bcf562e390","meta":null,"created_on":"2025-03-02T14:24:13.780Z","created_by_id":"0195573e-3a19-7dd1-9966-7b756b042953","modified_on":"2025-03-02T15:03:15.288Z","modified_by_id":"01927265-4ed2-79cc-a0e6-e11339a359f3","deleted_on":null,"deleted_by_id":null,"tenant_id":"00000000-0000-0000-0000-000000000000","name":"Ibrahim Azeez","type":"personal","status":"active","restricted":false,"review":null,"allowed_time_periods":null,"allowed_locations":null,"primary_user_id":"0195573e-3a19-7dd1-9966-7b756b042953","tier_id":"01933d24-c3a9-7ddd-a344-96dfef942cbb","primary_user":{"id":"0195573e-3a19-7dd1-9966-7b756b042953","meta":null,"created_on":"2025-03-02T14:24:10.777Z","created_by_id":null,"modified_on":"2025-03-02T15:07:02.332Z","modified_by_id":"0195573e-3a19-7dd1-9966-7b756b042953","deleted_on":null,"deleted_by_id":null,"tenant_id":"00000000-0000-0000-0000-000000000000","email":"azeez+89@assurdly.com","status":"active","first_name":"Ibrahim","last_name":"Azeez","twofa_enabled":false,"last_active":"2025-03-02T15:07:02.330Z","last_ip":"172.71.182.237","allowed_ips":null,"last_timezone":"Europe/Amsterdam","last_location":"Amsterdam","phone":"+2349055755699","review":null,"gender":"male","date_of_birth":"2001-06-16","cba_id":"103","photo_id":null,"referral_code":"M6AL7D","referred_by":null},"tier":{"id":"01933d24-c3a9-7ddd-a344-96dfef942cbb","meta":null,"created_on":"2024-11-18T02:40:39.849Z","created_by_id":null,"modified_on":"2024-11-28T17:27:09.617Z","modified_by_id":null,"deleted_on":null,"deleted_by_id":null,"tenant_id":"00000000-0000-0000-0000-000000000000","profile_type":"personal","name":"Tier 2","description":"Tier 2","level":2,"enabled":true,"balance_limit":2000000,"single_sending_limit":500000,"single_receiving_limit":500000,"period_sending_limit":500000,"period_sending_limit_time_unit":"day","period_receiving_limit":500000,"period_receiving_limit_time_unit":"day","requirements":[{"id":"019367a8-5cbc-7115-b8f1-b95501201701","type_id":"019367a8-5cbc-7115-b8f1-b95501201701","type":"document","slug":"Identification Document","name":"Identification Document","description":"Identification Document."},{"id":"01933a66-8850-7335-a997-758238b72bd4","type_id":"01933a66-8850-7335-a997-758238b72bd4","type":"verification","slug":"nin","name":"NIN Verification","description":"In compliance with CBN regulations, we need to verify your NIN to identify you and prevent fraud."}]}},{"id":"01955725-3d3b-7dd1-9965-7109aeef8e80","meta":null,"created_on":"2025-03-02T13:56:53.178Z","created_by_id":"01955725-13d2-7dd1-9965-5a2150baa54a","modified_on":"2025-03-02T14:01:50.177Z","modified_by_id":"01955725-13d2-7dd1-9965-5a2150baa54a","deleted_on":null,"deleted_by_id":null,"tenant_id":"00000000-0000-0000-0000-000000000000","name":"Abdussamad Chineke","type":"personal","status":"active","restricted":false,"review":null,"allowed_time_periods":null,"allowed_locations":null,"primary_user_id":"01955725-13d2-7dd1-9965-5a2150baa54a","tier_id":"01928f2d-6756-755b-8a9d-c8094db2af27","primary_user":{"id":"01955725-13d2-7dd1-9965-5a2150baa54a","meta":null,"created_on":"2025-03-02T13:56:42.577Z","created_by_id":null,"modified_on":"2025-03-05T15:56:48.297Z","modified_by_id":"01955725-13d2-7dd1-9965-5a2150baa54a","deleted_on":null,"deleted_by_id":null,"tenant_id":"00000000-0000-0000-0000-000000000000","email":"chineke@gmail.com","status":"active","first_name":"Abdussamad","last_name":"Chineke","twofa_enabled":false,"last_active":"2025-03-05T15:56:48.296Z","last_ip":"172.70.163.150","allowed_ips":null,"last_timezone":"Europe/London","last_location":"London","phone":"+2348123884084","review":null,"gender":"male","date_of_birth":"1999-07-05","cba_id":"102","photo_id":null,"referral_code":"KZRI67","referred_by":null},"tier":{"id":"01928f2d-6756-755b-8a9d-c8094db2af27","meta":null,"created_on":"2024-10-15T07:56:10.789Z","created_by_id":null,"modified_on":"2025-01-23T15:14:24.513Z","modified_by_id":"01927265-4ed2-79cc-a0e6-e11339a359f3","deleted_on":null,"deleted_by_id":null,"tenant_id":"00000000-0000-0000-0000-000000000000","profile_type":"personal","name":"Tier 1","description":"Tier 1","level":1,"enabled":true,"balance_limit":2000000,"single_sending_limit":500000,"single_receiving_limit":500000,"period_sending_limit":500000,"period_sending_limit_time_unit":"day","period_receiving_limit":500000,"period_receiving_limit_time_unit":"day","requirements":[{"id":"019318f9-c895-744d-8f65-4636cc26dd1c","type_id":"019318f9-c895-744d-8f65-4636cc26dd1c","type":"verification","slug":"phone","name":"Phone","description":"Verify yor number"},{"id":"019318f9-c895-744d-8f65-4636cc26dd1f","type_id":"019318f9-c895-744d-8f65-4636cc26dd1f","type":"verification","slug":"liveness","name":"Image liveness check","description":"This step helps us verify your identity by matching your image with the credentials you’ve provided."},{"id":"019318f9-c895-744d-8f65-4636cc26dd1d","type_id":"019318f9-c895-744d-8f65-4636cc26dd1d","type":"verification","slug":"email","name":"Email","description":"Verify your email"},{"id":"01933d40-03e5-777c-a6e6-bf72eb1c8968","type_id":"01933d40-03e5-777c-a6e6-bf72eb1c8968","type":"verification","slug":"bvn","name":"BVN","description":"BVN"}]}}],"meta":{"page":1,"total_pages":22,"total_items":218}}