{"status":"success","data":[{"id":"0193ce0e-77cd-7ffd-83ea-48d04f5ad692","meta":null,"created_on":"2024-12-16T06:01:15.237Z","created_by":"019317a0-b7e5-7eeb-a7eb-bd18cf39a633","modified_on":"2024-12-16T06:01:20.967Z","modified_by":null,"deleted_on":null,"deleted_by":null,"tenant_id":"00000000-0000-0000-0000-000000000000","account_id":"0193912b-6f5e-7335-b5bc-3302dcc08103","profile_id":"01931947-9fea-744d-8f66-118c138292e3","cba_id":"903","currency":"NGN","amount":"20.00","reference":"Telzawqkyzx","processor_reference":null,"processor_status":null,"processor_message":"The Phone Number field is required.","status":"failed","entry_type":"debit","narration":"Bill payment to mtn for 07034953306","transaction_date":"2024-12-16T06:01:12.933Z","transaction_type":"fee","processor":"baxipay","reviewed_on":null,"reviewed_by":null,"batch_id":null,"schedule_id":null,"transfer":null,"transfer_beneficiary":null,"bill_payment_beneficiary":null,"disputes":[],"batch":null,"account":{"id":"0193912b-6f5e-7335-b5bc-3302dcc08103","meta":null,"created_on":"2024-12-04T10:16:03.166Z","created_by":null,"modified_on":"2024-12-16T07:47:21.364Z","modified_by":null,"deleted_on":null,"deleted_by":null,"tenant_id":"00000000-0000-0000-0000-000000000000","name":"Education","cba_id":"0000000041","profile_id":"01931947-9fea-744d-8f66-118c138292e3","account_number":"0000000041","ledger_balance":"277.84","hold_balance":"0.00","available_balance":"277.84","currency":"NGN","restricted":false}},{"id":"0193ce0e-6c11-7ffd-83ea-401a3955e6f7","meta":null,"created_on":"2024-12-16T06:01:12.232Z","created_by":"019317a0-b7e5-7eeb-a7eb-bd18cf39a633","modified_on":"2024-12-16T06:01:19.507Z","modified_by":null,"deleted_on":null,"deleted_by":null,"tenant_id":"00000000-0000-0000-0000-000000000000","account_id":"0193912b-6f5e-7335-b5bc-3302dcc08103","profile_id":"01931947-9fea-744d-8f66-118c138292e3","cba_id":"902","currency":"NGN","amount":"100.00","reference":"Telzawqkyzx","processor_reference":null,"processor_status":null,"processor_message":"The Phone Number field is required.","status":"failed","entry_type":"debit","narration":"Bill payment to mtn for 07034953306","transaction_date":"2024-12-16T06:01:11.740Z","transaction_type":"bill-payment","processor":"baxipay","reviewed_on":null,"reviewed_by":null,"batch_id":null,"schedule_id":null,"transfer":null,"transfer_beneficiary":null,"bill_payment_beneficiary":null,"disputes":[],"batch":null,"account":{"id":"0193912b-6f5e-7335-b5bc-3302dcc08103","meta":null,"created_on":"2024-12-04T10:16:03.166Z","created_by":null,"modified_on":"2024-12-16T07:47:21.364Z","modified_by":null,"deleted_on":null,"deleted_by":null,"tenant_id":"00000000-0000-0000-0000-000000000000","name":"Education","cba_id":"0000000041","profile_id":"01931947-9fea-744d-8f66-118c138292e3","account_number":"0000000041","ledger_balance":"277.84","hold_balance":"0.00","available_balance":"277.84","currency":"NGN","restricted":false}},{"id":"0193ce0d-cd13-799d-89dd-b559ae92310f","meta":null,"created_on":"2024-12-16T06:00:31.527Z","created_by":"019317a0-b7e5-7eeb-a7eb-bd18cf39a633","modified_on":"2024-12-16T06:00:36.737Z","modified_by":null,"deleted_on":null,"deleted_by":null,"tenant_id":"00000000-0000-0000-0000-000000000000","account_id":"0193912b-6f5e-7335-b5bc-3302dcc08103","profile_id":"01931947-9fea-744d-8f66-118c138292e3","cba_id":"901","currency":"NGN","amount":"20.00","reference":"Tlbzvniemic","processor_reference":null,"processor_status":null,"processor_message":"The Phone Number field is required.","status":"failed","entry_type":"debit","narration":"Bill payment to mtn for 07034953306","transaction_date":"2024-12-16T06:00:29.508Z","transaction_type":"fee","processor":"baxipay","reviewed_on":null,"reviewed_by":null,"batch_id":null,"schedule_id":null,"transfer":null,"transfer_beneficiary":null,"bill_payment_beneficiary":null,"disputes":[],"batch":null,"account":{"id":"0193912b-6f5e-7335-b5bc-3302dcc08103","meta":null,"created_on":"2024-12-04T10:16:03.166Z","created_by":null,"modified_on":"2024-12-16T07:47:21.364Z","modified_by":null,"deleted_on":null,"deleted_by":null,"tenant_id":"00000000-0000-0000-0000-000000000000","name":"Education","cba_id":"0000000041","profile_id":"01931947-9fea-744d-8f66-118c138292e3","account_number":"0000000041","ledger_balance":"277.84","hold_balance":"0.00","available_balance":"277.84","currency":"NGN","restricted":false}},{"id":"0193ce0d-c222-799d-89dd-adf32176b3af","meta":null,"created_on":"2024-12-16T06:00:28.730Z","created_by":"019317a0-b7e5-7eeb-a7eb-bd18cf39a633","modified_on":"2024-12-16T06:00:35.332Z","modified_by":null,"deleted_on":null,"deleted_by":null,"tenant_id":"00000000-0000-0000-0000-000000000000","account_id":"0193912b-6f5e-7335-b5bc-3302dcc08103","profile_id":"01931947-9fea-744d-8f66-118c138292e3","cba_id":"900","currency":"NGN","amount":"100.00","reference":"Tlbzvniemic","processor_reference":null,"processor_status":null,"processor_message":"The Phone Number field is required.","status":"failed","entry_type":"debit","narration":"Bill payment to mtn for 07034953306","transaction_date":"2024-12-16T06:00:28.239Z","transaction_type":"bill-payment","processor":"baxipay","reviewed_on":null,"reviewed_by":null,"batch_id":null,"schedule_id":null,"transfer":null,"transfer_beneficiary":null,"bill_payment_beneficiary":null,"disputes":[],"batch":null,"account":{"id":"0193912b-6f5e-7335-b5bc-3302dcc08103","meta":null,"created_on":"2024-12-04T10:16:03.166Z","created_by":null,"modified_on":"2024-12-16T07:47:21.364Z","modified_by":null,"deleted_on":null,"deleted_by":null,"tenant_id":"00000000-0000-0000-0000-000000000000","name":"Education","cba_id":"0000000041","profile_id":"01931947-9fea-744d-8f66-118c138292e3","account_number":"0000000041","ledger_balance":"277.84","hold_balance":"0.00","available_balance":"277.84","currency":"NGN","restricted":false}},{"id":"0193ce0c-cf16-799d-89dd-a72c6e3799bc","meta":null,"created_on":"2024-12-16T05:59:26.509Z","created_by":"019317a0-b7e5-7eeb-a7eb-bd18cf39a633","modified_on":"2024-12-16T05:59:32.098Z","modified_by":null,"deleted_on":null,"deleted_by":null,"tenant_id":"00000000-0000-0000-0000-000000000000","account_id":"0193912b-6f5e-7335-b5bc-3302dcc08103","profile_id":"01931947-9fea-744d-8f66-118c138292e3","cba_id":"899","currency":"NGN","amount":"20.00","reference":"Tgzvdmnldbc","processor_reference":null,"processor_status":null,"processor_message":"The Phone Number field is required.","status":"failed","entry_type":"debit","narration":"Bill payment to mtn for 07034953306","transaction_date":"2024-12-16T05:59:24.434Z","transaction_type":"fee","processor":"baxipay","reviewed_on":null,"reviewed_by":null,"batch_id":null,"schedule_id":null,"transfer":null,"transfer_beneficiary":null,"bill_payment_beneficiary":null,"disputes":[],"batch":null,"account":{"id":"0193912b-6f5e-7335-b5bc-3302dcc08103","meta":null,"created_on":"2024-12-04T10:16:03.166Z","created_by":null,"modified_on":"2024-12-16T07:47:21.364Z","modified_by":null,"deleted_on":null,"deleted_by":null,"tenant_id":"00000000-0000-0000-0000-000000000000","name":"Education","cba_id":"0000000041","profile_id":"01931947-9fea-744d-8f66-118c138292e3","account_number":"0000000041","ledger_balance":"277.84","hold_balance":"0.00","available_balance":"277.84","currency":"NGN","restricted":false}},{"id":"0193ce0c-c423-799d-89dd-9dc1db9f3c2c","meta":null,"created_on":"2024-12-16T05:59:23.703Z","created_by":"019317a0-b7e5-7eeb-a7eb-bd18cf39a633","modified_on":"2024-12-16T05:59:30.612Z","modified_by":null,"deleted_on":null,"deleted_by":null,"tenant_id":"00000000-0000-0000-0000-000000000000","account_id":"0193912b-6f5e-7335-b5bc-3302dcc08103","profile_id":"01931947-9fea-744d-8f66-118c138292e3","cba_id":"898","currency":"NGN","amount":"100.00","reference":"Tgzvdmnldbc","processor_reference":null,"processor_status":null,"processor_message":"The Phone Number field is required.","status":"failed","entry_type":"debit","narration":"Bill payment to mtn for 07034953306","transaction_date":"2024-12-16T05:59:23.212Z","transaction_type":"bill-payment","processor":"baxipay","reviewed_on":null,"reviewed_by":null,"batch_id":null,"schedule_id":null,"transfer":null,"transfer_beneficiary":null,"bill_payment_beneficiary":null,"disputes":[],"batch":null,"account":{"id":"0193912b-6f5e-7335-b5bc-3302dcc08103","meta":null,"created_on":"2024-12-04T10:16:03.166Z","created_by":null,"modified_on":"2024-12-16T07:47:21.364Z","modified_by":null,"deleted_on":null,"deleted_by":null,"tenant_id":"00000000-0000-0000-0000-000000000000","name":"Education","cba_id":"0000000041","profile_id":"01931947-9fea-744d-8f66-118c138292e3","account_number":"0000000041","ledger_balance":"277.84","hold_balance":"0.00","available_balance":"277.84","currency":"NGN","restricted":false}},{"id":"0193ce09-a2c2-7221-847e-6d84d912679d","meta":null,"created_on":"2024-12-16T05:55:58.550Z","created_by":"019317a0-b7e5-7eeb-a7eb-bd18cf39a633","modified_on":"2024-12-16T05:55:59.942Z","modified_by":null,"deleted_on":null,"deleted_by":null,"tenant_id":"00000000-0000-0000-0000-000000000000","account_id":"0193912b-6f5e-7335-b5bc-3302dcc08103","profile_id":"01931947-9fea-744d-8f66-118c138292e3","cba_id":"897","currency":"NGN","amount":"20.00","reference":"Txaxxshpgxv","processor_reference":null,"processor_status":null,"processor_message":null,"status":"processing","entry_type":"debit","narration":"Bill payment to mtn for 07034953306","transaction_date":"2024-12-16T05:55:56.186Z","transaction_type":"fee","processor":"baxipay","reviewed_on":null,"reviewed_by":null,"batch_id":null,"schedule_id":null,"transfer":null,"transfer_beneficiary":null,"bill_payment_beneficiary":null,"disputes":[],"batch":null,"account":{"id":"0193912b-6f5e-7335-b5bc-3302dcc08103","meta":null,"created_on":"2024-12-04T10:16:03.166Z","created_by":null,"modified_on":"2024-12-16T07:47:21.364Z","modified_by":null,"deleted_on":null,"deleted_by":null,"tenant_id":"00000000-0000-0000-0000-000000000000","name":"Education","cba_id":"0000000041","profile_id":"01931947-9fea-744d-8f66-118c138292e3","account_number":"0000000041","ledger_balance":"277.84","hold_balance":"0.00","available_balance":"277.84","currency":"NGN","restricted":false}},{"id":"0193ce09-95c8-7221-847e-608b62c183a9","meta":null,"created_on":"2024-12-16T05:55:55.227Z","created_by":"019317a0-b7e5-7eeb-a7eb-bd18cf39a633","modified_on":"2024-12-16T05:56:02.799Z","modified_by":null,"deleted_on":null,"deleted_by":null,"tenant_id":"00000000-0000-0000-0000-000000000000","account_id":"0193912b-6f5e-7335-b5bc-3302dcc08103","profile_id":"01931947-9fea-744d-8f66-118c138292e3","cba_id":"896","currency":"NGN","amount":"100.00","reference":"Txaxxshpgxv","processor_reference":null,"processor_status":null,"processor_message":"The Phone Number field is required.","status":"failed","entry_type":"debit","narration":"Bill payment to mtn for 07034953306","transaction_date":"2024-12-16T05:55:54.741Z","transaction_type":"bill-payment","processor":"baxipay","reviewed_on":null,"reviewed_by":null,"batch_id":null,"schedule_id":null,"transfer":null,"transfer_beneficiary":null,"bill_payment_beneficiary":null,"disputes":[],"batch":null,"account":{"id":"0193912b-6f5e-7335-b5bc-3302dcc08103","meta":null,"created_on":"2024-12-04T10:16:03.166Z","created_by":null,"modified_on":"2024-12-16T07:47:21.364Z","modified_by":null,"deleted_on":null,"deleted_by":null,"tenant_id":"00000000-0000-0000-0000-000000000000","name":"Education","cba_id":"0000000041","profile_id":"01931947-9fea-744d-8f66-118c138292e3","account_number":"0000000041","ledger_balance":"277.84","hold_balance":"0.00","available_balance":"277.84","currency":"NGN","restricted":false}},{"id":"0193ce06-f3f0-7884-984b-9e0f528dbc07","meta":null,"created_on":"2024-12-16T05:53:02.722Z","created_by":"019317a0-b7e5-7eeb-a7eb-bd18cf39a633","modified_on":"2024-12-16T05:53:04.162Z","modified_by":null,"deleted_on":null,"deleted_by":null,"tenant_id":"00000000-0000-0000-0000-000000000000","account_id":"0193912b-6f5e-7335-b5bc-3302dcc08103","profile_id":"01931947-9fea-744d-8f66-118c138292e3","cba_id":"895","currency":"NGN","amount":"20.00","reference":"Tbjjviqcdif","processor_reference":null,"processor_status":null,"processor_message":null,"status":"processing","entry_type":"debit","narration":"Bill payment to mtn for 07034953306","transaction_date":"2024-12-16T05:53:00.679Z","transaction_type":"fee","processor":"baxipay","reviewed_on":null,"reviewed_by":null,"batch_id":null,"schedule_id":null,"transfer":null,"transfer_beneficiary":null,"bill_payment_beneficiary":null,"disputes":[],"batch":null,"account":{"id":"0193912b-6f5e-7335-b5bc-3302dcc08103","meta":null,"created_on":"2024-12-04T10:16:03.166Z","created_by":null,"modified_on":"2024-12-16T07:47:21.364Z","modified_by":null,"deleted_on":null,"deleted_by":null,"tenant_id":"00000000-0000-0000-0000-000000000000","name":"Education","cba_id":"0000000041","profile_id":"01931947-9fea-744d-8f66-118c138292e3","account_number":"0000000041","ledger_balance":"277.84","hold_balance":"0.00","available_balance":"277.84","currency":"NGN","restricted":false}},{"id":"0193ce06-e72e-7884-984b-95d5ea6e7051","meta":null,"created_on":"2024-12-16T05:52:59.454Z","created_by":"019317a0-b7e5-7eeb-a7eb-bd18cf39a633","modified_on":"2024-12-16T05:53:06.857Z","modified_by":null,"deleted_on":null,"deleted_by":null,"tenant_id":"00000000-0000-0000-0000-000000000000","account_id":"0193912b-6f5e-7335-b5bc-3302dcc08103","profile_id":"01931947-9fea-744d-8f66-118c138292e3","cba_id":"894","currency":"NGN","amount":"100.00","reference":"Tbjjviqcdif","processor_reference":null,"processor_status":null,"processor_message":"The Phone Number field is required.","status":"failed","entry_type":"debit","narration":"Bill payment to mtn for 07034953306","transaction_date":"2024-12-16T05:52:58.971Z","transaction_type":"bill-payment","processor":"baxipay","reviewed_on":null,"reviewed_by":null,"batch_id":null,"schedule_id":null,"transfer":null,"transfer_beneficiary":null,"bill_payment_beneficiary":null,"disputes":[],"batch":null,"account":{"id":"0193912b-6f5e-7335-b5bc-3302dcc08103","meta":null,"created_on":"2024-12-04T10:16:03.166Z","created_by":null,"modified_on":"2024-12-16T07:47:21.364Z","modified_by":null,"deleted_on":null,"deleted_by":null,"tenant_id":"00000000-0000-0000-0000-000000000000","name":"Education","cba_id":"0000000041","profile_id":"01931947-9fea-744d-8f66-118c138292e3","account_number":"0000000041","ledger_balance":"277.84","hold_balance":"0.00","available_balance":"277.84","currency":"NGN","restricted":false}}],"meta":{"page":1,"total_pages":133,"total_items":1324}}