{"status":"success","data":[{"id":"0193cbea-89df-711b-b4b2-6da65bad0017","meta":null,"created_on":"2024-12-15T20:02:45.855Z","created_by":"019317a0-b7e5-7eeb-a7eb-bd18cf39a633","modified_on":"2024-12-15T20:02:46.775Z","modified_by":null,"deleted_on":null,"deleted_by":null,"tenant_id":"00000000-0000-0000-0000-000000000000","account_id":"019390f5-db96-7335-b5bb-74eac1376a9c","profile_id":"01931947-9fea-744d-8f66-118c138292e3","currency":"NGN","amount":"20.00","reference":"Twqgazvbkkm","processor_reference":null,"processor_status":null,"processor_message":null,"status":"success","entry_type":"debit","narration":"Bill payment to startimes for 1102003467","transaction_date":"2024-12-15T20:02:45.854Z","transaction_type":"fee","processor":"baxipay","reviewed_on":null,"reviewed_by":null,"batch_id":null,"schedule_id":null,"transfer":null,"transfer_beneficiary":null,"bill_payment_beneficiary":null,"disputes":[],"batch":null,"account":{"id":"019390f5-db96-7335-b5bb-74eac1376a9c","meta":null,"created_on":"2024-12-04T09:17:31.925Z","created_by":null,"modified_on":"2024-12-11T02:33:47.390Z","modified_by":null,"deleted_on":null,"deleted_by":null,"tenant_id":"00000000-0000-0000-0000-000000000000","name":"Travel","cba_id":"0000000040","profile_id":"01931947-9fea-744d-8f66-118c138292e3","account_number":"0000000040","ledger_balance":"984010.09","hold_balance":"0.00","available_balance":"984010.09","currency":"NGN","restricted":false}},{"id":"0193cbea-8801-711b-b4b2-62dd7c7d53f4","meta":null,"created_on":"2024-12-15T20:02:45.377Z","created_by":"019317a0-b7e5-7eeb-a7eb-bd18cf39a633","modified_on":"2024-12-15T20:02:46.769Z","modified_by":null,"deleted_on":null,"deleted_by":null,"tenant_id":"00000000-0000-0000-0000-000000000000","account_id":"019390f5-db96-7335-b5bb-74eac1376a9c","profile_id":"01931947-9fea-744d-8f66-118c138292e3","currency":"NGN","amount":"90.00","reference":"Twqgazvbkkm","processor_reference":null,"processor_status":null,"processor_message":null,"status":"success","entry_type":"debit","narration":"Bill payment to startimes for 1102003467","transaction_date":"2024-12-15T20:02:45.376Z","transaction_type":"bill-payment","processor":"baxipay","reviewed_on":null,"reviewed_by":null,"batch_id":null,"schedule_id":null,"transfer":null,"transfer_beneficiary":null,"bill_payment_beneficiary":null,"disputes":[],"batch":null,"account":{"id":"019390f5-db96-7335-b5bb-74eac1376a9c","meta":null,"created_on":"2024-12-04T09:17:31.925Z","created_by":null,"modified_on":"2024-12-11T02:33:47.390Z","modified_by":null,"deleted_on":null,"deleted_by":null,"tenant_id":"00000000-0000-0000-0000-000000000000","name":"Travel","cba_id":"0000000040","profile_id":"01931947-9fea-744d-8f66-118c138292e3","account_number":"0000000040","ledger_balance":"984010.09","hold_balance":"0.00","available_balance":"984010.09","currency":"NGN","restricted":false}},{"id":"0193cbea-3439-711b-b4b2-5a968515e538","meta":null,"created_on":"2024-12-15T20:02:23.929Z","created_by":"019317a0-b7e5-7eeb-a7eb-bd18cf39a633","modified_on":"2024-12-15T20:02:43.469Z","modified_by":null,"deleted_on":null,"deleted_by":null,"tenant_id":"00000000-0000-0000-0000-000000000000","account_id":"0193912b-6f5e-7335-b5bc-3302dcc08103","profile_id":"01931947-9fea-744d-8f66-118c138292e3","currency":"NGN","amount":"20.00","reference":"Tqcfkbfejdd","processor_reference":null,"processor_status":null,"processor_message":null,"status":"success","entry_type":"debit","narration":"Bill payment to gotv for 1102003467","transaction_date":"2024-12-15T20:02:23.928Z","transaction_type":"fee","processor":"baxipay","reviewed_on":null,"reviewed_by":null,"batch_id":null,"schedule_id":null,"transfer":null,"transfer_beneficiary":null,"bill_payment_beneficiary":null,"disputes":[],"batch":null,"account":{"id":"0193912b-6f5e-7335-b5bc-3302dcc08103","meta":null,"created_on":"2024-12-04T10:16:03.166Z","created_by":null,"modified_on":"2024-12-15T20:01:49.918Z","modified_by":null,"deleted_on":null,"deleted_by":null,"tenant_id":"00000000-0000-0000-0000-000000000000","name":"Education","cba_id":"0000000041","profile_id":"01931947-9fea-744d-8f66-118c138292e3","account_number":"0000000041","ledger_balance":"2812.84","hold_balance":"0.00","available_balance":"2812.84","currency":"NGN","restricted":false}},{"id":"0193cbea-3330-711b-b4b2-5089d7123211","meta":null,"created_on":"2024-12-15T20:02:23.665Z","created_by":"019317a0-b7e5-7eeb-a7eb-bd18cf39a633","modified_on":"2024-12-15T20:02:43.461Z","modified_by":null,"deleted_on":null,"deleted_by":null,"tenant_id":"00000000-0000-0000-0000-000000000000","account_id":"0193912b-6f5e-7335-b5bc-3302dcc08103","profile_id":"01931947-9fea-744d-8f66-118c138292e3","currency":"NGN","amount":"900.00","reference":"Tqcfkbfejdd","processor_reference":null,"processor_status":null,"processor_message":null,"status":"success","entry_type":"debit","narration":"Bill payment to gotv for 1102003467","transaction_date":"2024-12-15T20:02:23.664Z","transaction_type":"bill-payment","processor":"baxipay","reviewed_on":null,"reviewed_by":null,"batch_id":null,"schedule_id":null,"transfer":null,"transfer_beneficiary":null,"bill_payment_beneficiary":null,"disputes":[],"batch":null,"account":{"id":"0193912b-6f5e-7335-b5bc-3302dcc08103","meta":null,"created_on":"2024-12-04T10:16:03.166Z","created_by":null,"modified_on":"2024-12-15T20:01:49.918Z","modified_by":null,"deleted_on":null,"deleted_by":null,"tenant_id":"00000000-0000-0000-0000-000000000000","name":"Education","cba_id":"0000000041","profile_id":"01931947-9fea-744d-8f66-118c138292e3","account_number":"0000000041","ledger_balance":"2812.84","hold_balance":"0.00","available_balance":"2812.84","currency":"NGN","restricted":false}},{"id":"0193cbea-267f-711b-b4b2-4a48df18ff20","meta":null,"created_on":"2024-12-15T20:02:20.415Z","created_by":"019317a0-b7e5-7eeb-a7eb-bd18cf39a633","modified_on":"2024-12-15T20:02:21.101Z","modified_by":null,"deleted_on":null,"deleted_by":null,"tenant_id":"00000000-0000-0000-0000-000000000000","account_id":"0193912b-6f5e-7335-b5bc-3302dcc08103","profile_id":"01931947-9fea-744d-8f66-118c138292e3","currency":"NGN","amount":"20.00","reference":"Tbkpcyynsvr","processor_reference":null,"processor_status":null,"processor_message":null,"status":"success","entry_type":"debit","narration":"Bill payment to 9mobile for 11020034671","transaction_date":"2024-12-15T20:02:20.414Z","transaction_type":"fee","processor":"baxipay","reviewed_on":null,"reviewed_by":null,"batch_id":null,"schedule_id":null,"transfer":null,"transfer_beneficiary":null,"bill_payment_beneficiary":null,"disputes":[],"batch":null,"account":{"id":"0193912b-6f5e-7335-b5bc-3302dcc08103","meta":null,"created_on":"2024-12-04T10:16:03.166Z","created_by":null,"modified_on":"2024-12-15T20:01:49.918Z","modified_by":null,"deleted_on":null,"deleted_by":null,"tenant_id":"00000000-0000-0000-0000-000000000000","name":"Education","cba_id":"0000000041","profile_id":"01931947-9fea-744d-8f66-118c138292e3","account_number":"0000000041","ledger_balance":"2812.84","hold_balance":"0.00","available_balance":"2812.84","currency":"NGN","restricted":false}},{"id":"0193cbea-2589-711b-b4b2-40220cb3f47e","meta":null,"created_on":"2024-12-15T20:02:20.169Z","created_by":"019317a0-b7e5-7eeb-a7eb-bd18cf39a633","modified_on":"2024-12-15T20:02:21.087Z","modified_by":null,"deleted_on":null,"deleted_by":null,"tenant_id":"00000000-0000-0000-0000-000000000000","account_id":"0193912b-6f5e-7335-b5bc-3302dcc08103","profile_id":"01931947-9fea-744d-8f66-118c138292e3","currency":"NGN","amount":"200.00","reference":"Tbkpcyynsvr","processor_reference":null,"processor_status":null,"processor_message":null,"status":"success","entry_type":"debit","narration":"Bill payment to 9mobile for 11020034671","transaction_date":"2024-12-15T20:02:20.168Z","transaction_type":"bill-payment","processor":"baxipay","reviewed_on":null,"reviewed_by":null,"batch_id":null,"schedule_id":null,"transfer":null,"transfer_beneficiary":null,"bill_payment_beneficiary":null,"disputes":[],"batch":null,"account":{"id":"0193912b-6f5e-7335-b5bc-3302dcc08103","meta":null,"created_on":"2024-12-04T10:16:03.166Z","created_by":null,"modified_on":"2024-12-15T20:01:49.918Z","modified_by":null,"deleted_on":null,"deleted_by":null,"tenant_id":"00000000-0000-0000-0000-000000000000","name":"Education","cba_id":"0000000041","profile_id":"01931947-9fea-744d-8f66-118c138292e3","account_number":"0000000041","ledger_balance":"2812.84","hold_balance":"0.00","available_balance":"2812.84","currency":"NGN","restricted":false}},{"id":"0193cbea-20f2-711b-b4b2-3dbccc8b8d13","meta":null,"created_on":"2024-12-15T20:02:18.994Z","created_by":"019317a0-b7e5-7eeb-a7eb-bd18cf39a633","modified_on":"2024-12-15T20:02:19.720Z","modified_by":null,"deleted_on":null,"deleted_by":null,"tenant_id":"00000000-0000-0000-0000-000000000000","account_id":"0193912b-6f5e-7335-b5bc-3302dcc08103","profile_id":"01931947-9fea-744d-8f66-118c138292e3","currency":"NGN","amount":"20.00","reference":"Tuvksxpmupi","processor_reference":null,"processor_status":null,"processor_message":null,"status":"success","entry_type":"debit","narration":"Bill payment to airtel for 11020034671","transaction_date":"2024-12-15T20:02:18.993Z","transaction_type":"fee","processor":"baxipay","reviewed_on":null,"reviewed_by":null,"batch_id":null,"schedule_id":null,"transfer":null,"transfer_beneficiary":null,"bill_payment_beneficiary":null,"disputes":[],"batch":null,"account":{"id":"0193912b-6f5e-7335-b5bc-3302dcc08103","meta":null,"created_on":"2024-12-04T10:16:03.166Z","created_by":null,"modified_on":"2024-12-15T20:01:49.918Z","modified_by":null,"deleted_on":null,"deleted_by":null,"tenant_id":"00000000-0000-0000-0000-000000000000","name":"Education","cba_id":"0000000041","profile_id":"01931947-9fea-744d-8f66-118c138292e3","account_number":"0000000041","ledger_balance":"2812.84","hold_balance":"0.00","available_balance":"2812.84","currency":"NGN","restricted":false}},{"id":"0193cbea-1f88-711b-b4b2-35998caf36b5","meta":null,"created_on":"2024-12-15T20:02:18.632Z","created_by":"019317a0-b7e5-7eeb-a7eb-bd18cf39a633","modified_on":"2024-12-15T20:02:19.713Z","modified_by":null,"deleted_on":null,"deleted_by":null,"tenant_id":"00000000-0000-0000-0000-000000000000","account_id":"0193912b-6f5e-7335-b5bc-3302dcc08103","profile_id":"01931947-9fea-744d-8f66-118c138292e3","currency":"NGN","amount":"50.00","reference":"Tuvksxpmupi","processor_reference":null,"processor_status":null,"processor_message":null,"status":"success","entry_type":"debit","narration":"Bill payment to airtel for 11020034671","transaction_date":"2024-12-15T20:02:18.630Z","transaction_type":"bill-payment","processor":"baxipay","reviewed_on":null,"reviewed_by":null,"batch_id":null,"schedule_id":null,"transfer":null,"transfer_beneficiary":null,"bill_payment_beneficiary":null,"disputes":[],"batch":null,"account":{"id":"0193912b-6f5e-7335-b5bc-3302dcc08103","meta":null,"created_on":"2024-12-04T10:16:03.166Z","created_by":null,"modified_on":"2024-12-15T20:01:49.918Z","modified_by":null,"deleted_on":null,"deleted_by":null,"tenant_id":"00000000-0000-0000-0000-000000000000","name":"Education","cba_id":"0000000041","profile_id":"01931947-9fea-744d-8f66-118c138292e3","account_number":"0000000041","ledger_balance":"2812.84","hold_balance":"0.00","available_balance":"2812.84","currency":"NGN","restricted":false}},{"id":"0193cbea-125d-711b-b4b2-2e051b0ac01e","meta":null,"created_on":"2024-12-15T20:02:15.261Z","created_by":"019317a0-b7e5-7eeb-a7eb-bd18cf39a633","modified_on":"2024-12-15T20:02:18.059Z","modified_by":null,"deleted_on":null,"deleted_by":null,"tenant_id":"00000000-0000-0000-0000-000000000000","account_id":"0193912b-6f5e-7335-b5bc-3302dcc08103","profile_id":"01931947-9fea-744d-8f66-118c138292e3","currency":"NGN","amount":"20.00","reference":"Tpypwzpbzrw","processor_reference":null,"processor_status":null,"processor_message":null,"status":"success","entry_type":"debit","narration":"Bill payment to glo for 11020034671","transaction_date":"2024-12-15T20:02:15.259Z","transaction_type":"fee","processor":"baxipay","reviewed_on":null,"reviewed_by":null,"batch_id":null,"schedule_id":null,"transfer":null,"transfer_beneficiary":null,"bill_payment_beneficiary":null,"disputes":[],"batch":null,"account":{"id":"0193912b-6f5e-7335-b5bc-3302dcc08103","meta":null,"created_on":"2024-12-04T10:16:03.166Z","created_by":null,"modified_on":"2024-12-15T20:01:49.918Z","modified_by":null,"deleted_on":null,"deleted_by":null,"tenant_id":"00000000-0000-0000-0000-000000000000","name":"Education","cba_id":"0000000041","profile_id":"01931947-9fea-744d-8f66-118c138292e3","account_number":"0000000041","ledger_balance":"2812.84","hold_balance":"0.00","available_balance":"2812.84","currency":"NGN","restricted":false}},{"id":"0193cbea-1104-711b-b4b2-21ec56620f40","meta":null,"created_on":"2024-12-15T20:02:14.916Z","created_by":"019317a0-b7e5-7eeb-a7eb-bd18cf39a633","modified_on":"2024-12-15T20:02:18.052Z","modified_by":null,"deleted_on":null,"deleted_by":null,"tenant_id":"00000000-0000-0000-0000-000000000000","account_id":"0193912b-6f5e-7335-b5bc-3302dcc08103","profile_id":"01931947-9fea-744d-8f66-118c138292e3","currency":"NGN","amount":"25.00","reference":"Tpypwzpbzrw","processor_reference":null,"processor_status":null,"processor_message":null,"status":"success","entry_type":"debit","narration":"Bill payment to glo for 11020034671","transaction_date":"2024-12-15T20:02:14.915Z","transaction_type":"bill-payment","processor":"baxipay","reviewed_on":null,"reviewed_by":null,"batch_id":null,"schedule_id":null,"transfer":null,"transfer_beneficiary":null,"bill_payment_beneficiary":null,"disputes":[],"batch":null,"account":{"id":"0193912b-6f5e-7335-b5bc-3302dcc08103","meta":null,"created_on":"2024-12-04T10:16:03.166Z","created_by":null,"modified_on":"2024-12-15T20:01:49.918Z","modified_by":null,"deleted_on":null,"deleted_by":null,"tenant_id":"00000000-0000-0000-0000-000000000000","name":"Education","cba_id":"0000000041","profile_id":"01931947-9fea-744d-8f66-118c138292e3","account_number":"0000000041","ledger_balance":"2812.84","hold_balance":"0.00","available_balance":"2812.84","currency":"NGN","restricted":false}}],"meta":{"page":1,"total_pages":131,"total_items":1306}}