{"status":"success","data":[{"id":"01963feb-a4c3-7003-bb75-2531540722e6","meta":null,"created_on":"2025-04-16T18:45:29.923Z","created_by_id":"019372de-17ef-7cc2-8fc0-43fe11ba042f","modified_on":"2025-04-16T18:45:29.923Z","modified_by_id":null,"deleted_on":null,"deleted_by_id":null,"tenant_id":"00000000-0000-0000-0000-000000000000","name":"Connelly, Stracke and Collins Business","type":"business","status":"active","restricted":false,"review":null,"allowed_time_periods":null,"allowed_locations":null,"primary_user_id":"019372de-17ef-7cc2-8fc0-43fe11ba042f","tier_id":null,"primary_user":{"id":"019372de-17ef-7cc2-8fc0-43fe11ba042f","meta":{},"created_on":"2024-11-28T13:02:58.029Z","created_by_id":null,"modified_on":"2025-04-16T18:46:39.520Z","modified_by_id":"019372de-17ef-7cc2-8fc0-43fe11ba042f","deleted_on":null,"deleted_by_id":null,"tenant_id":"00000000-0000-0000-0000-000000000000","email":"ismael@mailinator.com","status":"active","first_name":"Sunday","last_name":"Testing","twofa_enabled":false,"last_active":"2025-04-16T18:46:30.489Z","last_ip":"52.234.38.122","allowed_ips":null,"last_timezone":"America/Los_Angeles","last_location":"San Jose","phone":"+2348089722636","review":null,"gender":"male","date_of_birth":null,"cba_id":"31","photo_id":null,"referral_code":"7LD1QN","referred_by":null,"has_pin":false,"has_password":false},"tier":null},{"id":"019631a8-4da4-7cce-84d6-00d4322c9dbb","meta":{"rc-number":"098789","business-name":"New Business","business-email":"new@business.com","business-phone":"+2349034345678","business-types":"Partnership","business-address":"Lagos"},"created_on":"2025-04-14T00:17:15.684Z","created_by_id":"01959045-934e-7ee0-bd7c-36131b927b13","modified_on":"2025-04-14T00:17:15.684Z","modified_by_id":null,"deleted_on":null,"deleted_by_id":null,"tenant_id":"00000000-0000-0000-0000-000000000000","name":"","type":"business","status":"active","restricted":false,"review":null,"allowed_time_periods":null,"allowed_locations":null,"primary_user_id":"01959045-934e-7ee0-bd7c-36131b927b13","tier_id":null,"primary_user":{"id":"01959045-934e-7ee0-bd7c-36131b927b13","meta":null,"created_on":"2025-03-13T16:10:33.676Z","created_by_id":null,"modified_on":"2025-04-14T00:17:15.676Z","modified_by_id":"01959045-934e-7ee0-bd7c-36131b927b13","deleted_on":null,"deleted_by_id":null,"tenant_id":"00000000-0000-0000-0000-000000000000","email":"ipo@mailinator.com","status":"active","first_name":"Ibrahim","last_name":"Azeez","twofa_enabled":false,"last_active":"2025-04-14T00:17:15.675Z","last_ip":"41.217.94.74","allowed_ips":null,"last_timezone":"Africa/Lagos","last_location":"Lagos","phone":"+2349055757758","review":null,"gender":"male","date_of_birth":"2001-06-16","cba_id":null,"photo_id":null,"referral_code":"IJTNFX","referred_by":null,"has_pin":false,"has_password":false},"tier":null},{"id":"019631a3-cb16-7cce-84d5-b0e307a7d0c8","meta":{"rc-number":"3456787654","business-name":"New account","business-email":"new@new.com","business-phone":"+2348032453789","business-types":"Limited Liability Partnership (LLP)","business-address":"Lagos"},"created_on":"2025-04-14T00:12:20.119Z","created_by_id":"01944a80-f3cb-7881-990d-98798437f1f3","modified_on":"2025-04-14T00:12:20.119Z","modified_by_id":null,"deleted_on":null,"deleted_by_id":null,"tenant_id":"00000000-0000-0000-0000-000000000000","name":"","type":"business","status":"active","restricted":false,"review":null,"allowed_time_periods":null,"allowed_locations":null,"primary_user_id":"01944a80-f3cb-7881-990d-98798437f1f3","tier_id":null,"primary_user":{"id":"01944a80-f3cb-7881-990d-98798437f1f3","meta":null,"created_on":"2025-01-09T09:59:12.588Z","created_by_id":null,"modified_on":"2025-04-14T13:45:52.772Z","modified_by_id":"01944a80-f3cb-7881-990d-98798437f1f3","deleted_on":null,"deleted_by_id":null,"tenant_id":"00000000-0000-0000-0000-000000000000","email":"calista@mailinator.com","status":"active","first_name":"Haven","last_name":"Mitchell","twofa_enabled":false,"last_active":"2025-04-14T13:45:52.772Z","last_ip":"102.89.33.72","allowed_ips":null,"last_timezone":"Africa/Lagos","last_location":"Lagos","phone":null,"review":null,"gender":null,"date_of_birth":null,"cba_id":null,"photo_id":null,"referral_code":"0YUT6L","referred_by":null,"has_pin":false,"has_password":false},"tier":null},{"id":"019631a1-c092-7cce-84d5-86af9a63b18a","meta":{"rc-number":"987656789","business-name":"Add account","business-email":"add@account.com","business-phone":"+2348134356478","business-types":"Corporation","business-address":"Lagos"},"created_on":"2025-04-14T00:10:06.354Z","created_by_id":"01944a80-f3cb-7881-990d-98798437f1f3","modified_on":"2025-04-14T00:10:06.354Z","modified_by_id":null,"deleted_on":null,"deleted_by_id":null,"tenant_id":"00000000-0000-0000-0000-000000000000","name":"","type":"business","status":"active","restricted":false,"review":null,"allowed_time_periods":null,"allowed_locations":null,"primary_user_id":"01944a80-f3cb-7881-990d-98798437f1f3","tier_id":null,"primary_user":{"id":"01944a80-f3cb-7881-990d-98798437f1f3","meta":null,"created_on":"2025-01-09T09:59:12.588Z","created_by_id":null,"modified_on":"2025-04-14T13:45:52.772Z","modified_by_id":"01944a80-f3cb-7881-990d-98798437f1f3","deleted_on":null,"deleted_by_id":null,"tenant_id":"00000000-0000-0000-0000-000000000000","email":"calista@mailinator.com","status":"active","first_name":"Haven","last_name":"Mitchell","twofa_enabled":false,"last_active":"2025-04-14T13:45:52.772Z","last_ip":"102.89.33.72","allowed_ips":null,"last_timezone":"Africa/Lagos","last_location":"Lagos","phone":null,"review":null,"gender":null,"date_of_birth":null,"cba_id":null,"photo_id":null,"referral_code":"0YUT6L","referred_by":null,"has_pin":false,"has_password":false},"tier":null},{"id":"019631a0-2a74-7cce-84d5-6e705611d433","meta":{"rc-number":"87654323456","business-name":"Business Test","business-email":"test@business.com","business-phone":"+2349145647838","business-types":"Partnership","business-address":"Lagos"},"created_on":"2025-04-14T00:08:22.388Z","created_by_id":"01944a80-f3cb-7881-990d-98798437f1f3","modified_on":"2025-04-14T00:08:22.388Z","modified_by_id":null,"deleted_on":null,"deleted_by_id":null,"tenant_id":"00000000-0000-0000-0000-000000000000","name":"","type":"business","status":"active","restricted":false,"review":null,"allowed_time_periods":null,"allowed_locations":null,"primary_user_id":"01944a80-f3cb-7881-990d-98798437f1f3","tier_id":null,"primary_user":{"id":"01944a80-f3cb-7881-990d-98798437f1f3","meta":null,"created_on":"2025-01-09T09:59:12.588Z","created_by_id":null,"modified_on":"2025-04-14T13:45:52.772Z","modified_by_id":"01944a80-f3cb-7881-990d-98798437f1f3","deleted_on":null,"deleted_by_id":null,"tenant_id":"00000000-0000-0000-0000-000000000000","email":"calista@mailinator.com","status":"active","first_name":"Haven","last_name":"Mitchell","twofa_enabled":false,"last_active":"2025-04-14T13:45:52.772Z","last_ip":"102.89.33.72","allowed_ips":null,"last_timezone":"Africa/Lagos","last_location":"Lagos","phone":null,"review":null,"gender":null,"date_of_birth":null,"cba_id":null,"photo_id":null,"referral_code":"0YUT6L","referred_by":null,"has_pin":false,"has_password":false},"tier":null},{"id":"0196319d-287b-7cce-84d4-dd5591e11b17","meta":{"rc-number":"087656789","business-name":"Add Test","business-email":"add@business.com","business-phone":"+2349123456789","business-types":"Limited Liability Partnership (LLP)","business-address":"Lagos"},"created_on":"2025-04-14T00:05:05.275Z","created_by_id":"0193cfd4-2de3-766c-bad1-9088f26479d9","modified_on":"2025-04-14T00:05:05.275Z","modified_by_id":null,"deleted_on":null,"deleted_by_id":null,"tenant_id":"00000000-0000-0000-0000-000000000000","name":"","type":"business","status":"active","restricted":false,"review":null,"allowed_time_periods":null,"allowed_locations":null,"primary_user_id":"0193cfd4-2de3-766c-bad1-9088f26479d9","tier_id":null,"primary_user":{"id":"0193cfd4-2de3-766c-bad1-9088f26479d9","meta":null,"created_on":"2024-12-16T14:16:49.379Z","created_by_id":null,"modified_on":"2025-04-14T00:24:03.864Z","modified_by_id":"0193cfd4-2de3-766c-bad1-9088f26479d9","deleted_on":null,"deleted_by_id":null,"tenant_id":"00000000-0000-0000-0000-000000000000","email":"amad@mailinator.com","status":"active","first_name":"Amad","last_name":"Testing","twofa_enabled":false,"last_active":"2025-04-14T00:24:03.862Z","last_ip":"41.217.94.74","allowed_ips":null,"last_timezone":"Africa/Lagos","last_location":"Lagos","phone":null,"review":null,"gender":null,"date_of_birth":null,"cba_id":null,"photo_id":null,"referral_code":"WF4C8G","referred_by":null,"has_pin":false,"has_password":false},"tier":null},{"id":"0196318c-1e53-7cce-84d4-7ce6ca5dfa7d","meta":{"rc-number":"0987654345678","business-name":"Business Test","business-email":"business@account.com","business-phone":"+2349123234567","business-types":"Joint Venture","business-address":"Business"},"created_on":"2025-04-13T23:46:28.523Z","created_by_id":"0193cfd4-2de3-766c-bad1-9088f26479d9","modified_on":"2025-04-13T23:46:28.523Z","modified_by_id":null,"deleted_on":null,"deleted_by_id":null,"tenant_id":"00000000-0000-0000-0000-000000000000","name":"","type":"business","status":"active","restricted":false,"review":null,"allowed_time_periods":null,"allowed_locations":null,"primary_user_id":"0193cfd4-2de3-766c-bad1-9088f26479d9","tier_id":null,"primary_user":{"id":"0193cfd4-2de3-766c-bad1-9088f26479d9","meta":null,"created_on":"2024-12-16T14:16:49.379Z","created_by_id":null,"modified_on":"2025-04-14T00:24:03.864Z","modified_by_id":"0193cfd4-2de3-766c-bad1-9088f26479d9","deleted_on":null,"deleted_by_id":null,"tenant_id":"00000000-0000-0000-0000-000000000000","email":"amad@mailinator.com","status":"active","first_name":"Amad","last_name":"Testing","twofa_enabled":false,"last_active":"2025-04-14T00:24:03.862Z","last_ip":"41.217.94.74","allowed_ips":null,"last_timezone":"Africa/Lagos","last_location":"Lagos","phone":null,"review":null,"gender":null,"date_of_birth":null,"cba_id":null,"photo_id":null,"referral_code":"WF4C8G","referred_by":null,"has_pin":false,"has_password":false},"tier":null},{"id":"01963187-f710-7cce-84d4-476bfa11f3d8","meta":{"rc-number":"1234567890","business-name":"Account Testing","business-email":"test@testing.com","business-phone":"+2349134456378","business-types":"Corporation","business-address":"Account, Lagos "},"created_on":"2025-04-13T23:41:56.368Z","created_by_id":"0193cfd4-2de3-766c-bad1-9088f26479d9","modified_on":"2025-04-13T23:41:56.368Z","modified_by_id":null,"deleted_on":null,"deleted_by_id":null,"tenant_id":"00000000-0000-0000-0000-000000000000","name":"","type":"business","status":"active","restricted":false,"review":null,"allowed_time_periods":null,"allowed_locations":null,"primary_user_id":"0193cfd4-2de3-766c-bad1-9088f26479d9","tier_id":null,"primary_user":{"id":"0193cfd4-2de3-766c-bad1-9088f26479d9","meta":null,"created_on":"2024-12-16T14:16:49.379Z","created_by_id":null,"modified_on":"2025-04-14T00:24:03.864Z","modified_by_id":"0193cfd4-2de3-766c-bad1-9088f26479d9","deleted_on":null,"deleted_by_id":null,"tenant_id":"00000000-0000-0000-0000-000000000000","email":"amad@mailinator.com","status":"active","first_name":"Amad","last_name":"Testing","twofa_enabled":false,"last_active":"2025-04-14T00:24:03.862Z","last_ip":"41.217.94.74","allowed_ips":null,"last_timezone":"Africa/Lagos","last_location":"Lagos","phone":null,"review":null,"gender":null,"date_of_birth":null,"cba_id":null,"photo_id":null,"referral_code":"WF4C8G","referred_by":null,"has_pin":false,"has_password":false},"tier":null},{"id":"01963184-50b7-7cce-84d4-244fce0d5aca","meta":{"rc-number":"0987654321","business-name":"Testing account","business-email":"account@test.com","business-phone":"+2348099856473","business-types":"Partnership","business-address":"Test, Lagos"},"created_on":"2025-04-13T23:37:57.175Z","created_by_id":"0193cfd4-2de3-766c-bad1-9088f26479d9","modified_on":"2025-04-13T23:37:57.175Z","modified_by_id":null,"deleted_on":null,"deleted_by_id":null,"tenant_id":"00000000-0000-0000-0000-000000000000","name":"","type":"business","status":"active","restricted":false,"review":null,"allowed_time_periods":null,"allowed_locations":null,"primary_user_id":"0193cfd4-2de3-766c-bad1-9088f26479d9","tier_id":null,"primary_user":{"id":"0193cfd4-2de3-766c-bad1-9088f26479d9","meta":null,"created_on":"2024-12-16T14:16:49.379Z","created_by_id":null,"modified_on":"2025-04-14T00:24:03.864Z","modified_by_id":"0193cfd4-2de3-766c-bad1-9088f26479d9","deleted_on":null,"deleted_by_id":null,"tenant_id":"00000000-0000-0000-0000-000000000000","email":"amad@mailinator.com","status":"active","first_name":"Amad","last_name":"Testing","twofa_enabled":false,"last_active":"2025-04-14T00:24:03.862Z","last_ip":"41.217.94.74","allowed_ips":null,"last_timezone":"Africa/Lagos","last_location":"Lagos","phone":null,"review":null,"gender":null,"date_of_birth":null,"cba_id":null,"photo_id":null,"referral_code":"WF4C8G","referred_by":null,"has_pin":false,"has_password":false},"tier":null},{"id":"0196317f-2fdd-7cce-84d3-c4fce736d675","meta":{"rc-number":"1234567890","business-name":"Test","business-email":"testing@gmail.com","business-phone":"+2348023456478","business-types":"Corporation","business-address":"Test, Lagos"},"created_on":"2025-04-13T23:32:21.085Z","created_by_id":"019317a0-b7e5-7eeb-a7eb-bd18cf39a633","modified_on":"2025-04-13T23:32:21.085Z","modified_by_id":null,"deleted_on":null,"deleted_by_id":null,"tenant_id":"00000000-0000-0000-0000-000000000000","name":"","type":"business","status":"active","restricted":false,"review":null,"allowed_time_periods":null,"allowed_locations":null,"primary_user_id":"019317a0-b7e5-7eeb-a7eb-bd18cf39a633","tier_id":null,"primary_user":{"id":"019317a0-b7e5-7eeb-a7eb-bd18cf39a633","meta":{},"created_on":"2024-11-10T19:50:29.093Z","created_by_id":null,"modified_on":"2025-04-15T18:05:51.046Z","modified_by_id":"019317a0-b7e5-7eeb-a7eb-bd18cf39a633","deleted_on":null,"deleted_by_id":null,"tenant_id":"00000000-0000-0000-0000-000000000000","email":"mikeangel@mailinator.com","status":"active","first_name":"Mike","last_name":"Angelo","twofa_enabled":false,"last_active":"2025-04-15T18:05:51.044Z","last_ip":"2a01:4b00:ad11:c700:65a0:5263:6c5f:b122","allowed_ips":null,"last_timezone":"Europe/London","last_location":"Tower Hamlets","phone":"+234(0)9055755671","review":null,"gender":"male","date_of_birth":"1990-01-01","cba_id":"19","photo_id":"0195afbb-ecca-788b-a91c-8a2ead0f8556","referral_code":"AZVBZI","referred_by":null,"has_pin":false,"has_password":false},"tier":null}],"meta":{"page":1,"total_pages":21,"total_items":208}}