{"status":"success","data":[{"id":"0195c4a0-626c-722a-8167-33178ca4c52c","meta":null,"created_on":"2025-03-23T20:10:00.171Z","created_by_id":"019317a0-b7e5-7eeb-a7eb-bd18cf39a633","modified_on":"2025-03-23T20:10:30.591Z","modified_by_id":"019317a0-b7e5-7eeb-a7eb-bd18cf39a633","deleted_on":null,"deleted_by_id":null,"tenant_id":"00000000-0000-0000-0000-000000000000","account_id":"0193912b-6f5e-7335-b5bc-3302dcc08103","profile_id":"01931947-9fea-744d-8f66-118c138292e3","cba_id":"3937","currency":"NGN","amount":"900.00","balance_after":null,"reference":"TP4Y3PW7EZRT","processor_reference":null,"processor_status":null,"processor_message":"Transaction not found","status":"failed","entry_type":"debit","narration":"Bill payment to gotv for 1102003467","transaction_date":"2025-03-23T20:10:00.171Z","transaction_type":"bill-payment","processor":"baxipay","reviewed_on":null,"reviewed_by":null,"batch_id":null,"schedule_id":null,"account":{"id":"0193912b-6f5e-7335-b5bc-3302dcc08103","meta":null,"created_on":"2024-12-04T10:16:03.166Z","created_by_id":null,"modified_on":"2025-03-23T20:10:34.356Z","modified_by_id":"019317a0-b7e5-7eeb-a7eb-bd18cf39a633","deleted_on":null,"deleted_by_id":null,"tenant_id":"00000000-0000-0000-0000-000000000000","name":"Education","type":"account","cba_id":"0000000041","status":"active","profile_id":"01931947-9fea-744d-8f66-118c138292e3","account_number":"0000000041","bank_id":"0193324f-cad0-7f86-923b-43fb21ac5b29","ledger_balance":"1771.15","hold_balance":"0.00","available_balance":"1771.15","currency":"NGN","restricted":false},"transfer":null,"disputes":[],"batch":null,"transfer_beneficiary":null,"bill_payment_beneficiary":null},{"id":"0195c4a0-5558-722a-8167-2f724c7773b4","meta":null,"created_on":"2025-03-23T20:09:56.758Z","created_by_id":"019317a0-b7e5-7eeb-a7eb-bd18cf39a633","modified_on":"2025-03-23T20:09:56.758Z","modified_by_id":null,"deleted_on":null,"deleted_by_id":null,"tenant_id":"00000000-0000-0000-0000-000000000000","account_id":"0193912b-6f5e-7335-b5bc-3302dcc08103","profile_id":"01931947-9fea-744d-8f66-118c138292e3","cba_id":null,"currency":"NGN","amount":"1800.00","balance_after":null,"reference":"TC8P1ZQ5RZMN","processor_reference":null,"processor_status":null,"processor_message":null,"status":"processing","entry_type":"debit","narration":"Bill payment to smile for 11020034671","transaction_date":"2025-03-23T20:09:56.758Z","transaction_type":"bill-payment","processor":"baxipay","reviewed_on":null,"reviewed_by":null,"batch_id":null,"schedule_id":null,"account":{"id":"0193912b-6f5e-7335-b5bc-3302dcc08103","meta":null,"created_on":"2024-12-04T10:16:03.166Z","created_by_id":null,"modified_on":"2025-03-23T20:10:34.356Z","modified_by_id":"019317a0-b7e5-7eeb-a7eb-bd18cf39a633","deleted_on":null,"deleted_by_id":null,"tenant_id":"00000000-0000-0000-0000-000000000000","name":"Education","type":"account","cba_id":"0000000041","status":"active","profile_id":"01931947-9fea-744d-8f66-118c138292e3","account_number":"0000000041","bank_id":"0193324f-cad0-7f86-923b-43fb21ac5b29","ledger_balance":"1771.15","hold_balance":"0.00","available_balance":"1771.15","currency":"NGN","restricted":false},"transfer":null,"disputes":[],"batch":null,"transfer_beneficiary":null,"bill_payment_beneficiary":null},{"id":"0195c4a0-50ac-722a-8167-2368a1856600","meta":null,"created_on":"2025-03-23T20:09:55.627Z","created_by_id":"019317a0-b7e5-7eeb-a7eb-bd18cf39a633","modified_on":"2025-03-23T20:09:56.057Z","modified_by_id":"019317a0-b7e5-7eeb-a7eb-bd18cf39a633","deleted_on":null,"deleted_by_id":null,"tenant_id":"00000000-0000-0000-0000-000000000000","account_id":"0193912b-6f5e-7335-b5bc-3302dcc08103","profile_id":"01931947-9fea-744d-8f66-118c138292e3","cba_id":"3936","currency":"NGN","amount":"200.00","balance_after":null,"reference":"T67T3SMCV7AK","processor_reference":null,"processor_status":null,"processor_message":"11020034671 is not a valid phone number","status":"failed","entry_type":"debit","narration":"Bill payment to 9mobile for 11020034671","transaction_date":"2025-03-23T20:09:55.627Z","transaction_type":"bill-payment","processor":"baxipay","reviewed_on":null,"reviewed_by":null,"batch_id":null,"schedule_id":null,"account":{"id":"0193912b-6f5e-7335-b5bc-3302dcc08103","meta":null,"created_on":"2024-12-04T10:16:03.166Z","created_by_id":null,"modified_on":"2025-03-23T20:10:34.356Z","modified_by_id":"019317a0-b7e5-7eeb-a7eb-bd18cf39a633","deleted_on":null,"deleted_by_id":null,"tenant_id":"00000000-0000-0000-0000-000000000000","name":"Education","type":"account","cba_id":"0000000041","status":"active","profile_id":"01931947-9fea-744d-8f66-118c138292e3","account_number":"0000000041","bank_id":"0193324f-cad0-7f86-923b-43fb21ac5b29","ledger_balance":"1771.15","hold_balance":"0.00","available_balance":"1771.15","currency":"NGN","restricted":false},"transfer":null,"disputes":[],"batch":null,"transfer_beneficiary":null,"bill_payment_beneficiary":null},{"id":"0195c4a0-4c77-722a-8167-1ec64fdd8996","meta":null,"created_on":"2025-03-23T20:09:54.550Z","created_by_id":"019317a0-b7e5-7eeb-a7eb-bd18cf39a633","modified_on":"2025-03-23T20:09:54.926Z","modified_by_id":"019317a0-b7e5-7eeb-a7eb-bd18cf39a633","deleted_on":null,"deleted_by_id":null,"tenant_id":"00000000-0000-0000-0000-000000000000","account_id":"0193912b-6f5e-7335-b5bc-3302dcc08103","profile_id":"01931947-9fea-744d-8f66-118c138292e3","cba_id":"3935","currency":"NGN","amount":"50.00","balance_after":null,"reference":"TJECOJZP0PAQ","processor_reference":null,"processor_status":null,"processor_message":"11020034671 is not a valid phone number","status":"failed","entry_type":"debit","narration":"Bill payment to airtel for 11020034671","transaction_date":"2025-03-23T20:09:54.550Z","transaction_type":"bill-payment","processor":"baxipay","reviewed_on":null,"reviewed_by":null,"batch_id":null,"schedule_id":null,"account":{"id":"0193912b-6f5e-7335-b5bc-3302dcc08103","meta":null,"created_on":"2024-12-04T10:16:03.166Z","created_by_id":null,"modified_on":"2025-03-23T20:10:34.356Z","modified_by_id":"019317a0-b7e5-7eeb-a7eb-bd18cf39a633","deleted_on":null,"deleted_by_id":null,"tenant_id":"00000000-0000-0000-0000-000000000000","name":"Education","type":"account","cba_id":"0000000041","status":"active","profile_id":"01931947-9fea-744d-8f66-118c138292e3","account_number":"0000000041","bank_id":"0193324f-cad0-7f86-923b-43fb21ac5b29","ledger_balance":"1771.15","hold_balance":"0.00","available_balance":"1771.15","currency":"NGN","restricted":false},"transfer":null,"disputes":[],"batch":null,"transfer_beneficiary":null,"bill_payment_beneficiary":null},{"id":"0195c4a0-45ca-722a-8167-15bd81ffcf28","meta":null,"created_on":"2025-03-23T20:09:52.836Z","created_by_id":"019317a0-b7e5-7eeb-a7eb-bd18cf39a633","modified_on":"2025-03-23T20:09:53.230Z","modified_by_id":"019317a0-b7e5-7eeb-a7eb-bd18cf39a633","deleted_on":null,"deleted_by_id":null,"tenant_id":"00000000-0000-0000-0000-000000000000","account_id":"0193912b-6f5e-7335-b5bc-3302dcc08103","profile_id":"01931947-9fea-744d-8f66-118c138292e3","cba_id":"3934","currency":"NGN","amount":"100.00","balance_after":null,"reference":"TP7QWVTUCVSP","processor_reference":null,"processor_status":null,"processor_message":"11020034671 is not a valid phone number","status":"failed","entry_type":"debit","narration":"Bill payment to mtn for 11020034671","transaction_date":"2025-03-23T20:09:52.835Z","transaction_type":"bill-payment","processor":"baxipay","reviewed_on":null,"reviewed_by":null,"batch_id":null,"schedule_id":null,"account":{"id":"0193912b-6f5e-7335-b5bc-3302dcc08103","meta":null,"created_on":"2024-12-04T10:16:03.166Z","created_by_id":null,"modified_on":"2025-03-23T20:10:34.356Z","modified_by_id":"019317a0-b7e5-7eeb-a7eb-bd18cf39a633","deleted_on":null,"deleted_by_id":null,"tenant_id":"00000000-0000-0000-0000-000000000000","name":"Education","type":"account","cba_id":"0000000041","status":"active","profile_id":"01931947-9fea-744d-8f66-118c138292e3","account_number":"0000000041","bank_id":"0193324f-cad0-7f86-923b-43fb21ac5b29","ledger_balance":"1771.15","hold_balance":"0.00","available_balance":"1771.15","currency":"NGN","restricted":false},"transfer":null,"disputes":[],"batch":null,"transfer_beneficiary":null,"bill_payment_beneficiary":null},{"id":"0195c4a0-417c-722a-8167-0d2e35d83153","meta":null,"created_on":"2025-03-23T20:09:51.737Z","created_by_id":"019317a0-b7e5-7eeb-a7eb-bd18cf39a633","modified_on":"2025-03-23T20:09:52.238Z","modified_by_id":"019317a0-b7e5-7eeb-a7eb-bd18cf39a633","deleted_on":null,"deleted_by_id":null,"tenant_id":"00000000-0000-0000-0000-000000000000","account_id":"0193912b-6f5e-7335-b5bc-3302dcc08103","profile_id":"01931947-9fea-744d-8f66-118c138292e3","cba_id":"3933","currency":"NGN","amount":"100.00","balance_after":null,"reference":"TSB3JEDUOGYE","processor_reference":null,"processor_status":null,"processor_message":"ensure you supply a valid accountId","status":"failed","entry_type":"debit","narration":"Bill payment to smile for 1102003467","transaction_date":"2025-03-23T20:09:51.734Z","transaction_type":"bill-payment","processor":"baxipay","reviewed_on":null,"reviewed_by":null,"batch_id":null,"schedule_id":null,"account":{"id":"0193912b-6f5e-7335-b5bc-3302dcc08103","meta":null,"created_on":"2024-12-04T10:16:03.166Z","created_by_id":null,"modified_on":"2025-03-23T20:10:34.356Z","modified_by_id":"019317a0-b7e5-7eeb-a7eb-bd18cf39a633","deleted_on":null,"deleted_by_id":null,"tenant_id":"00000000-0000-0000-0000-000000000000","name":"Education","type":"account","cba_id":"0000000041","status":"active","profile_id":"01931947-9fea-744d-8f66-118c138292e3","account_number":"0000000041","bank_id":"0193324f-cad0-7f86-923b-43fb21ac5b29","ledger_balance":"1771.15","hold_balance":"0.00","available_balance":"1771.15","currency":"NGN","restricted":false},"transfer":null,"disputes":[],"batch":null,"transfer_beneficiary":null,"bill_payment_beneficiary":null},{"id":"0195c4a0-3d8c-722a-8167-01440ce5a6a6","meta":null,"created_on":"2025-03-23T20:09:50.732Z","created_by_id":"019317a0-b7e5-7eeb-a7eb-bd18cf39a633","modified_on":"2025-03-23T20:09:51.125Z","modified_by_id":"019317a0-b7e5-7eeb-a7eb-bd18cf39a633","deleted_on":null,"deleted_by_id":null,"tenant_id":"00000000-0000-0000-0000-000000000000","account_id":"0193912b-6f5e-7335-b5bc-3302dcc08103","profile_id":"01931947-9fea-744d-8f66-118c138292e3","cba_id":"3932","currency":"NGN","amount":"100.00","balance_after":null,"reference":"TLBOOQDZ6KE7","processor_reference":null,"processor_status":null,"processor_message":"01102003467 is not a valid phone number","status":"failed","entry_type":"debit","narration":"Bill payment to 9mobile for 1102003467","transaction_date":"2025-03-23T20:09:50.731Z","transaction_type":"bill-payment","processor":"baxipay","reviewed_on":null,"reviewed_by":null,"batch_id":null,"schedule_id":null,"account":{"id":"0193912b-6f5e-7335-b5bc-3302dcc08103","meta":null,"created_on":"2024-12-04T10:16:03.166Z","created_by_id":null,"modified_on":"2025-03-23T20:10:34.356Z","modified_by_id":"019317a0-b7e5-7eeb-a7eb-bd18cf39a633","deleted_on":null,"deleted_by_id":null,"tenant_id":"00000000-0000-0000-0000-000000000000","name":"Education","type":"account","cba_id":"0000000041","status":"active","profile_id":"01931947-9fea-744d-8f66-118c138292e3","account_number":"0000000041","bank_id":"0193324f-cad0-7f86-923b-43fb21ac5b29","ledger_balance":"1771.15","hold_balance":"0.00","available_balance":"1771.15","currency":"NGN","restricted":false},"transfer":null,"disputes":[],"batch":null,"transfer_beneficiary":null,"bill_payment_beneficiary":null},{"id":"0195c4a0-3871-722a-8166-fac2954868f6","meta":null,"created_on":"2025-03-23T20:09:49.425Z","created_by_id":"019317a0-b7e5-7eeb-a7eb-bd18cf39a633","modified_on":"2025-03-23T20:09:49.909Z","modified_by_id":"019317a0-b7e5-7eeb-a7eb-bd18cf39a633","deleted_on":null,"deleted_by_id":null,"tenant_id":"00000000-0000-0000-0000-000000000000","account_id":"0193912b-6f5e-7335-b5bc-3302dcc08103","profile_id":"01931947-9fea-744d-8f66-118c138292e3","cba_id":"3931","currency":"NGN","amount":"100.00","balance_after":null,"reference":"TIGZNWYP3SD0","processor_reference":null,"processor_status":null,"processor_message":"01102003467 is not a valid phone number","status":"failed","entry_type":"debit","narration":"Bill payment to airtel for 1102003467","transaction_date":"2025-03-23T20:09:49.424Z","transaction_type":"bill-payment","processor":"baxipay","reviewed_on":null,"reviewed_by":null,"batch_id":null,"schedule_id":null,"account":{"id":"0193912b-6f5e-7335-b5bc-3302dcc08103","meta":null,"created_on":"2024-12-04T10:16:03.166Z","created_by_id":null,"modified_on":"2025-03-23T20:10:34.356Z","modified_by_id":"019317a0-b7e5-7eeb-a7eb-bd18cf39a633","deleted_on":null,"deleted_by_id":null,"tenant_id":"00000000-0000-0000-0000-000000000000","name":"Education","type":"account","cba_id":"0000000041","status":"active","profile_id":"01931947-9fea-744d-8f66-118c138292e3","account_number":"0000000041","bank_id":"0193324f-cad0-7f86-923b-43fb21ac5b29","ledger_balance":"1771.15","hold_balance":"0.00","available_balance":"1771.15","currency":"NGN","restricted":false},"transfer":null,"disputes":[],"batch":null,"transfer_beneficiary":null,"bill_payment_beneficiary":null},{"id":"0195c4a0-3300-722a-8166-f77417c8dffc","meta":null,"created_on":"2025-03-23T20:09:48.031Z","created_by_id":"019317a0-b7e5-7eeb-a7eb-bd18cf39a633","modified_on":"2025-03-23T20:09:48.720Z","modified_by_id":"019317a0-b7e5-7eeb-a7eb-bd18cf39a633","deleted_on":null,"deleted_by_id":null,"tenant_id":"00000000-0000-0000-0000-000000000000","account_id":"0193912b-6f5e-7335-b5bc-3302dcc08103","profile_id":"01931947-9fea-744d-8f66-118c138292e3","cba_id":"3930","currency":"NGN","amount":"100.00","balance_after":null,"reference":"T3RHPG78J6CX","processor_reference":null,"processor_status":null,"processor_message":"01102003467 is not a valid phone number","status":"failed","entry_type":"debit","narration":"Bill payment to glo for 1102003467","transaction_date":"2025-03-23T20:09:48.030Z","transaction_type":"bill-payment","processor":"baxipay","reviewed_on":null,"reviewed_by":null,"batch_id":null,"schedule_id":null,"account":{"id":"0193912b-6f5e-7335-b5bc-3302dcc08103","meta":null,"created_on":"2024-12-04T10:16:03.166Z","created_by_id":null,"modified_on":"2025-03-23T20:10:34.356Z","modified_by_id":"019317a0-b7e5-7eeb-a7eb-bd18cf39a633","deleted_on":null,"deleted_by_id":null,"tenant_id":"00000000-0000-0000-0000-000000000000","name":"Education","type":"account","cba_id":"0000000041","status":"active","profile_id":"01931947-9fea-744d-8f66-118c138292e3","account_number":"0000000041","bank_id":"0193324f-cad0-7f86-923b-43fb21ac5b29","ledger_balance":"1771.15","hold_balance":"0.00","available_balance":"1771.15","currency":"NGN","restricted":false},"transfer":null,"disputes":[],"batch":null,"transfer_beneficiary":null,"bill_payment_beneficiary":null},{"id":"0195c4a0-2d95-722a-8166-ea5a83c4d9b8","meta":null,"created_on":"2025-03-23T20:09:46.645Z","created_by_id":"019317a0-b7e5-7eeb-a7eb-bd18cf39a633","modified_on":"2025-03-23T20:09:47.330Z","modified_by_id":"019317a0-b7e5-7eeb-a7eb-bd18cf39a633","deleted_on":null,"deleted_by_id":null,"tenant_id":"00000000-0000-0000-0000-000000000000","account_id":"0193912b-6f5e-7335-b5bc-3302dcc08103","profile_id":"01931947-9fea-744d-8f66-118c138292e3","cba_id":"3929","currency":"NGN","amount":"100.00","balance_after":null,"reference":"T6G0UHL86CGL","processor_reference":null,"processor_status":null,"processor_message":"07918852161 is not a valid phone number","status":"failed","entry_type":"debit","narration":"Bill payment to mtn for 7918852161","transaction_date":"2025-03-23T20:09:46.645Z","transaction_type":"bill-payment","processor":"baxipay","reviewed_on":null,"reviewed_by":null,"batch_id":null,"schedule_id":null,"account":{"id":"0193912b-6f5e-7335-b5bc-3302dcc08103","meta":null,"created_on":"2024-12-04T10:16:03.166Z","created_by_id":null,"modified_on":"2025-03-23T20:10:34.356Z","modified_by_id":"019317a0-b7e5-7eeb-a7eb-bd18cf39a633","deleted_on":null,"deleted_by_id":null,"tenant_id":"00000000-0000-0000-0000-000000000000","name":"Education","type":"account","cba_id":"0000000041","status":"active","profile_id":"01931947-9fea-744d-8f66-118c138292e3","account_number":"0000000041","bank_id":"0193324f-cad0-7f86-923b-43fb21ac5b29","ledger_balance":"1771.15","hold_balance":"0.00","available_balance":"1771.15","currency":"NGN","restricted":false},"transfer":null,"disputes":[],"batch":null,"transfer_beneficiary":null,"bill_payment_beneficiary":null}],"meta":{"page":1,"total_pages":197,"total_items":1970}}