{"status":"success","data":[{"id":"01930650-201b-7331-97b6-3c0a140ef4a3","meta":{"nin":"","last_name":"","first_name":""},"created_on":"2024-11-07T11:08:54.593Z","created_by_id":null,"modified_on":"2025-01-01T23:21:49.895Z","modified_by_id":null,"deleted_on":null,"deleted_by_id":null,"tenant_id":"00000000-0000-0000-0000-000000000000","name":"wunmi","type":"business","status":"inactive","review":"","allowed_time_periods":null,"primary_user_id":"0192fd02-9a33-7118-a7b6-3f82bfcf3eb7","tier_id":"01928f2d-6756-755b-8a9d-c8094db2af27","primary_user":{"id":"0192fd02-9a33-7118-a7b6-3f82bfcf3eb7","meta":null,"created_on":"2024-11-05T15:47:39.186Z","created_by_id":null,"modified_on":"2024-12-22T22:13:30.921Z","modified_by_id":null,"deleted_on":null,"deleted_by_id":null,"tenant_id":"00000000-0000-0000-0000-000000000000","email":"Welch@mailinator.com","status":"active","first_name":"Sunday","last_name":"Testing","twofa_enabled":false,"last_active":"2024-12-22T22:13:30.912Z","last_ip":"::ffff:10.0.3.166","allowed_ips":null,"last_timezone":null,"last_location":null,"phone":null,"review":null,"gender":"male","date_of_birth":null,"cba_id":null,"photo_id":null,"referral_code":"","allowed_locations":null,"referred_by":null},"tier":{"id":"01928f2d-6756-755b-8a9d-c8094db2af27","meta":null,"created_on":"2024-10-15T07:56:10.789Z","created_by_id":null,"modified_on":"2024-12-18T15:35:22.050Z","modified_by_id":null,"deleted_on":null,"deleted_by_id":null,"tenant_id":"00000000-0000-0000-0000-000000000000","profile_type":"personal","name":"Tier 1","description":"Tier 1","level":1,"enabled":true,"balance_limit":2000000,"single_sending_limit":500000,"single_receiving_limit":500000,"period_sending_limit":500000,"period_sending_limit_time_unit":"day","period_receiving_limit":500000,"period_receiving_limit_time_unit":"day","requirements":[{"type":"kyc","type_id":"0193731a-59fe-788a-9877-8bef6d0c2cfc"},{"type":"verification","type_id":"01933d40-03e5-777c-a6e6-bf72eb1c8968"},{"type":"verification","type_id":"019318f9-c895-744d-8f65-4636cc26dd1f"}]}},{"id":"01925882-f353-7002-8052-04c8be2c03da","meta":{"nin":"1234567890","last_name":"Ibrahim","first_name":"Azeez"},"created_on":"2024-10-04T17:10:29.969Z","created_by_id":null,"modified_on":"2024-12-16T09:03:16.089Z","modified_by_id":null,"deleted_on":null,"deleted_by_id":null,"tenant_id":"00000000-0000-0000-0000-000000000000","name":"wunmi","type":"business","status":"active","review":"","allowed_time_periods":null,"primary_user_id":"019252dd-ecc7-7447-bcc2-ad23e54a6b90","tier_id":"01928f2d-6756-755b-8a9d-c8094db2af27","primary_user":{"id":"019252dd-ecc7-7447-bcc2-ad23e54a6b90","meta":null,"created_on":"2024-10-03T14:52:08.775Z","created_by_id":null,"modified_on":"2024-11-05T13:31:53.449Z","modified_by_id":null,"deleted_on":null,"deleted_by_id":null,"tenant_id":"00000000-0000-0000-0000-000000000000","email":"Rhett@mailinator.com","status":"active","first_name":"Wunmi","last_name":"Ade","twofa_enabled":false,"last_active":"2024-11-18T13:33:47.068Z","last_ip":null,"allowed_ips":null,"last_timezone":null,"last_location":null,"phone":null,"review":null,"gender":"male","date_of_birth":null,"cba_id":null,"photo_id":null,"referral_code":"","allowed_locations":null,"referred_by":null},"tier":{"id":"01928f2d-6756-755b-8a9d-c8094db2af27","meta":null,"created_on":"2024-10-15T07:56:10.789Z","created_by_id":null,"modified_on":"2024-12-18T15:35:22.050Z","modified_by_id":null,"deleted_on":null,"deleted_by_id":null,"tenant_id":"00000000-0000-0000-0000-000000000000","profile_type":"personal","name":"Tier 1","description":"Tier 1","level":1,"enabled":true,"balance_limit":2000000,"single_sending_limit":500000,"single_receiving_limit":500000,"period_sending_limit":500000,"period_sending_limit_time_unit":"day","period_receiving_limit":500000,"period_receiving_limit_time_unit":"day","requirements":[{"type":"kyc","type_id":"0193731a-59fe-788a-9877-8bef6d0c2cfc"},{"type":"verification","type_id":"01933d40-03e5-777c-a6e6-bf72eb1c8968"},{"type":"verification","type_id":"019318f9-c895-744d-8f65-4636cc26dd1f"}]}},{"id":"019233c5-f357-7ffa-922e-9ff5318f8678","meta":{"nin":"1234567890","last_name":"","first_name":""},"created_on":"2024-09-27T13:57:43.894Z","created_by_id":null,"modified_on":"2024-12-18T15:13:53.590Z","modified_by_id":null,"deleted_on":null,"deleted_by_id":null,"tenant_id":"00000000-0000-0000-0000-000000000000","name":"wunmi","type":"business","status":"active","review":"","allowed_time_periods":null,"primary_user_id":"019233c3-ec4c-7ffa-922e-94bfe8e3b407","tier_id":"01928f2d-6756-755b-8a9d-c8094db2af27","primary_user":{"id":"019233c3-ec4c-7ffa-922e-94bfe8e3b407","meta":null,"created_on":"2024-09-27T13:55:31.018Z","created_by_id":null,"modified_on":"2024-09-27T13:55:31.018Z","modified_by_id":null,"deleted_on":null,"deleted_by_id":null,"tenant_id":"00000000-0000-0000-0000-000000000000","email":"adewunmiakinsanya@gmail.com","status":"active","first_name":"Wunmi","last_name":"Ade","twofa_enabled":false,"last_active":"2024-11-18T13:33:47.068Z","last_ip":null,"allowed_ips":null,"last_timezone":null,"last_location":null,"phone":null,"review":null,"gender":"male","date_of_birth":null,"cba_id":null,"photo_id":null,"referral_code":"","allowed_locations":null,"referred_by":null},"tier":{"id":"01928f2d-6756-755b-8a9d-c8094db2af27","meta":null,"created_on":"2024-10-15T07:56:10.789Z","created_by_id":null,"modified_on":"2024-12-18T15:35:22.050Z","modified_by_id":null,"deleted_on":null,"deleted_by_id":null,"tenant_id":"00000000-0000-0000-0000-000000000000","profile_type":"personal","name":"Tier 1","description":"Tier 1","level":1,"enabled":true,"balance_limit":2000000,"single_sending_limit":500000,"single_receiving_limit":500000,"period_sending_limit":500000,"period_sending_limit_time_unit":"day","period_receiving_limit":500000,"period_receiving_limit_time_unit":"day","requirements":[{"type":"kyc","type_id":"0193731a-59fe-788a-9877-8bef6d0c2cfc"},{"type":"verification","type_id":"01933d40-03e5-777c-a6e6-bf72eb1c8968"},{"type":"verification","type_id":"019318f9-c895-744d-8f65-4636cc26dd1f"}]}},{"id":"01925345-cca2-7886-abfb-4f247ae2e9bb","meta":{"nin":"1234567890","last_name":"Dare","first_name":"Sodiq"},"created_on":"2024-10-03T16:45:36.196Z","created_by_id":null,"modified_on":"2024-12-18T15:14:03.651Z","modified_by_id":null,"deleted_on":null,"deleted_by_id":null,"tenant_id":"00000000-0000-0000-0000-000000000000","name":"Sodiq Inc","type":"business","status":"active","review":"","allowed_time_periods":null,"primary_user_id":"01925343-fbc8-7886-abfb-41c8746fc8ce","tier_id":"019367c6-a25c-7115-b8f2-962812454475","primary_user":{"id":"01925343-fbc8-7886-abfb-41c8746fc8ce","meta":null,"created_on":"2024-10-03T16:43:37.286Z","created_by_id":null,"modified_on":"2025-01-19T18:54:15.495Z","modified_by_id":"01925343-fbc8-7886-abfb-41c8746fc8ce","deleted_on":null,"deleted_by_id":null,"tenant_id":"00000000-0000-0000-0000-000000000000","email":"darehorla@gmail.com","status":"active","first_name":"Sodiq","last_name":"Dare","twofa_enabled":false,"last_active":"2025-01-18T20:32:44.905Z","last_ip":"172.69.43.237","allowed_ips":null,"last_timezone":"Europe/London","last_location":"London","phone":"+2348149583662","review":null,"gender":"male","date_of_birth":"2002-05-28","cba_id":null,"photo_id":null,"referral_code":"27HJX1","allowed_locations":null,"referred_by":null},"tier":{"id":"019367c6-a25c-7115-b8f2-962812454475","meta":null,"created_on":"2024-11-26T09:21:31.229Z","created_by_id":null,"modified_on":"2024-11-26T09:21:31.229Z","modified_by_id":null,"deleted_on":null,"deleted_by_id":null,"tenant_id":"00000000-0000-0000-0000-000000000000","profile_type":"business","name":"Tier 3","description":"Tier 3","level":3,"enabled":true,"balance_limit":20000,"single_sending_limit":20000,"single_receiving_limit":20000,"period_sending_limit":20000,"period_sending_limit_time_unit":"day","period_receiving_limit":20000,"period_receiving_limit_time_unit":"day","requirements":[{"type":"kyc","type_id":"019367c5-1c25-7115-b8f2-70b1fbd2115e"},{"type":"kyc","type_id":"019367b2-0af9-7115-b8f1-dc685d92e97f"},{"type":"kyc","type_id":"019367be-267f-7115-b8f2-5b09dbcebec1"}]}},{"id":"019261a8-d7a8-7880-ae6f-d0ffeec775a6","meta":{"nin":"1234567890","last_name":"Ibrahim","first_name":"Azeez"},"created_on":"2024-10-06T11:48:28.200Z","created_by_id":null,"modified_on":"2024-12-16T13:03:38.499Z","modified_by_id":null,"deleted_on":null,"deleted_by_id":null,"tenant_id":"00000000-0000-0000-0000-000000000000","name":"Azeez-Business","type":"business","status":"active","review":"","allowed_time_periods":null,"primary_user_id":"019252dd-ecc7-7447-bcc2-ad23e54a6b90","tier_id":"01928f2d-6756-755b-8a9d-c8094db2af27","primary_user":{"id":"019252dd-ecc7-7447-bcc2-ad23e54a6b90","meta":null,"created_on":"2024-10-03T14:52:08.775Z","created_by_id":null,"modified_on":"2024-11-05T13:31:53.449Z","modified_by_id":null,"deleted_on":null,"deleted_by_id":null,"tenant_id":"00000000-0000-0000-0000-000000000000","email":"Rhett@mailinator.com","status":"active","first_name":"Wunmi","last_name":"Ade","twofa_enabled":false,"last_active":"2024-11-18T13:33:47.068Z","last_ip":null,"allowed_ips":null,"last_timezone":null,"last_location":null,"phone":null,"review":null,"gender":"male","date_of_birth":null,"cba_id":null,"photo_id":null,"referral_code":"","allowed_locations":null,"referred_by":null},"tier":{"id":"01928f2d-6756-755b-8a9d-c8094db2af27","meta":null,"created_on":"2024-10-15T07:56:10.789Z","created_by_id":null,"modified_on":"2024-12-18T15:35:22.050Z","modified_by_id":null,"deleted_on":null,"deleted_by_id":null,"tenant_id":"00000000-0000-0000-0000-000000000000","profile_type":"personal","name":"Tier 1","description":"Tier 1","level":1,"enabled":true,"balance_limit":2000000,"single_sending_limit":500000,"single_receiving_limit":500000,"period_sending_limit":500000,"period_sending_limit_time_unit":"day","period_receiving_limit":500000,"period_receiving_limit_time_unit":"day","requirements":[{"type":"kyc","type_id":"0193731a-59fe-788a-9877-8bef6d0c2cfc"},{"type":"verification","type_id":"01933d40-03e5-777c-a6e6-bf72eb1c8968"},{"type":"verification","type_id":"019318f9-c895-744d-8f65-4636cc26dd1f"}]}},{"id":"0192fce4-cac8-766d-aca7-f29f24fdb4c2","meta":{"gender":"1234567890"},"created_on":"2024-11-05T15:15:05.543Z","created_by_id":null,"modified_on":"2025-01-01T23:21:42.774Z","modified_by_id":null,"deleted_on":null,"deleted_by_id":null,"tenant_id":"00000000-0000-0000-0000-000000000000","name":"wunmi","type":"business","status":"active","review":"","allowed_time_periods":null,"primary_user_id":"0192fce2-ff1a-766d-aca7-e9c3e2bfeb68","tier_id":"01928f2d-6756-755b-8a9d-c8094db2af27","primary_user":{"id":"0192fce2-ff1a-766d-aca7-e9c3e2bfeb68","meta":null,"created_on":"2024-11-05T15:13:07.864Z","created_by_id":null,"modified_on":"2024-11-05T15:13:08.248Z","modified_by_id":null,"deleted_on":null,"deleted_by_id":null,"tenant_id":"00000000-0000-0000-0000-000000000000","email":"Aufderhar@mailinator.com","status":"active","first_name":"Sunday","last_name":"Testing","twofa_enabled":false,"last_active":"2024-11-18T13:33:47.068Z","last_ip":null,"allowed_ips":null,"last_timezone":null,"last_location":null,"phone":null,"review":null,"gender":"male","date_of_birth":null,"cba_id":null,"photo_id":null,"referral_code":"","allowed_locations":null,"referred_by":null},"tier":{"id":"01928f2d-6756-755b-8a9d-c8094db2af27","meta":null,"created_on":"2024-10-15T07:56:10.789Z","created_by_id":null,"modified_on":"2024-12-18T15:35:22.050Z","modified_by_id":null,"deleted_on":null,"deleted_by_id":null,"tenant_id":"00000000-0000-0000-0000-000000000000","profile_type":"personal","name":"Tier 1","description":"Tier 1","level":1,"enabled":true,"balance_limit":2000000,"single_sending_limit":500000,"single_receiving_limit":500000,"period_sending_limit":500000,"period_sending_limit_time_unit":"day","period_receiving_limit":500000,"period_receiving_limit_time_unit":"day","requirements":[{"type":"kyc","type_id":"0193731a-59fe-788a-9877-8bef6d0c2cfc"},{"type":"verification","type_id":"01933d40-03e5-777c-a6e6-bf72eb1c8968"},{"type":"verification","type_id":"019318f9-c895-744d-8f65-4636cc26dd1f"}]}},{"id":"01930435-40a3-777b-a417-51e2b4610cbc","meta":{},"created_on":"2024-11-07T01:20:19.003Z","created_by_id":null,"modified_on":"2024-12-02T03:08:53.084Z","modified_by_id":null,"deleted_on":null,"deleted_by_id":null,"tenant_id":"00000000-0000-0000-0000-000000000000","name":"wunmi","type":"business","status":"active","review":"","allowed_time_periods":null,"primary_user_id":"01925343-fbc8-7886-abfb-41c8746fc8ce","tier_id":"01928f2d-6756-755b-8a9d-c8094db2af27","primary_user":{"id":"01925343-fbc8-7886-abfb-41c8746fc8ce","meta":null,"created_on":"2024-10-03T16:43:37.286Z","created_by_id":null,"modified_on":"2025-01-19T18:54:15.495Z","modified_by_id":"01925343-fbc8-7886-abfb-41c8746fc8ce","deleted_on":null,"deleted_by_id":null,"tenant_id":"00000000-0000-0000-0000-000000000000","email":"darehorla@gmail.com","status":"active","first_name":"Sodiq","last_name":"Dare","twofa_enabled":false,"last_active":"2025-01-18T20:32:44.905Z","last_ip":"172.69.43.237","allowed_ips":null,"last_timezone":"Europe/London","last_location":"London","phone":"+2348149583662","review":null,"gender":"male","date_of_birth":"2002-05-28","cba_id":null,"photo_id":null,"referral_code":"27HJX1","allowed_locations":null,"referred_by":null},"tier":{"id":"01928f2d-6756-755b-8a9d-c8094db2af27","meta":null,"created_on":"2024-10-15T07:56:10.789Z","created_by_id":null,"modified_on":"2024-12-18T15:35:22.050Z","modified_by_id":null,"deleted_on":null,"deleted_by_id":null,"tenant_id":"00000000-0000-0000-0000-000000000000","profile_type":"personal","name":"Tier 1","description":"Tier 1","level":1,"enabled":true,"balance_limit":2000000,"single_sending_limit":500000,"single_receiving_limit":500000,"period_sending_limit":500000,"period_sending_limit_time_unit":"day","period_receiving_limit":500000,"period_receiving_limit_time_unit":"day","requirements":[{"type":"kyc","type_id":"0193731a-59fe-788a-9877-8bef6d0c2cfc"},{"type":"verification","type_id":"01933d40-03e5-777c-a6e6-bf72eb1c8968"},{"type":"verification","type_id":"019318f9-c895-744d-8f65-4636cc26dd1f"}]}},{"id":"019252e1-1a4c-7447-bcc2-b2c6d18d6486","meta":{"nin":"1234567890","last_name":"Ibrahim","first_name":"Azeez"},"created_on":"2024-10-03T14:55:37.035Z","created_by_id":null,"modified_on":"2024-12-06T18:39:10.316Z","modified_by_id":null,"deleted_on":null,"deleted_by_id":null,"tenant_id":"00000000-0000-0000-0000-000000000000","name":"wunmi","type":"business","status":"active","review":"","allowed_time_periods":null,"primary_user_id":"019252dd-ecc7-7447-bcc2-ad23e54a6b90","tier_id":"01928f2d-6756-755b-8a9d-c8094db2af27","primary_user":{"id":"019252dd-ecc7-7447-bcc2-ad23e54a6b90","meta":null,"created_on":"2024-10-03T14:52:08.775Z","created_by_id":null,"modified_on":"2024-11-05T13:31:53.449Z","modified_by_id":null,"deleted_on":null,"deleted_by_id":null,"tenant_id":"00000000-0000-0000-0000-000000000000","email":"Rhett@mailinator.com","status":"active","first_name":"Wunmi","last_name":"Ade","twofa_enabled":false,"last_active":"2024-11-18T13:33:47.068Z","last_ip":null,"allowed_ips":null,"last_timezone":null,"last_location":null,"phone":null,"review":null,"gender":"male","date_of_birth":null,"cba_id":null,"photo_id":null,"referral_code":"","allowed_locations":null,"referred_by":null},"tier":{"id":"01928f2d-6756-755b-8a9d-c8094db2af27","meta":null,"created_on":"2024-10-15T07:56:10.789Z","created_by_id":null,"modified_on":"2024-12-18T15:35:22.050Z","modified_by_id":null,"deleted_on":null,"deleted_by_id":null,"tenant_id":"00000000-0000-0000-0000-000000000000","profile_type":"personal","name":"Tier 1","description":"Tier 1","level":1,"enabled":true,"balance_limit":2000000,"single_sending_limit":500000,"single_receiving_limit":500000,"period_sending_limit":500000,"period_sending_limit_time_unit":"day","period_receiving_limit":500000,"period_receiving_limit_time_unit":"day","requirements":[{"type":"kyc","type_id":"0193731a-59fe-788a-9877-8bef6d0c2cfc"},{"type":"verification","type_id":"01933d40-03e5-777c-a6e6-bf72eb1c8968"},{"type":"verification","type_id":"019318f9-c895-744d-8f65-4636cc26dd1f"}]}},{"id":"0192fd03-bfec-7118-a7b6-495a6ed20efc","meta":{},"created_on":"2024-11-05T15:48:54.379Z","created_by_id":null,"modified_on":"2024-12-16T14:48:38.281Z","modified_by_id":null,"deleted_on":null,"deleted_by_id":null,"tenant_id":"00000000-0000-0000-0000-000000000000","name":"wunmi","type":"business","status":"active","review":"","allowed_time_periods":null,"primary_user_id":"0192fd02-9a33-7118-a7b6-3f82bfcf3eb7","tier_id":"01928f2d-6756-755b-8a9d-c8094db2af27","primary_user":{"id":"0192fd02-9a33-7118-a7b6-3f82bfcf3eb7","meta":null,"created_on":"2024-11-05T15:47:39.186Z","created_by_id":null,"modified_on":"2024-12-22T22:13:30.921Z","modified_by_id":null,"deleted_on":null,"deleted_by_id":null,"tenant_id":"00000000-0000-0000-0000-000000000000","email":"Welch@mailinator.com","status":"active","first_name":"Sunday","last_name":"Testing","twofa_enabled":false,"last_active":"2024-12-22T22:13:30.912Z","last_ip":"::ffff:10.0.3.166","allowed_ips":null,"last_timezone":null,"last_location":null,"phone":null,"review":null,"gender":"male","date_of_birth":null,"cba_id":null,"photo_id":null,"referral_code":"","allowed_locations":null,"referred_by":null},"tier":{"id":"01928f2d-6756-755b-8a9d-c8094db2af27","meta":null,"created_on":"2024-10-15T07:56:10.789Z","created_by_id":null,"modified_on":"2024-12-18T15:35:22.050Z","modified_by_id":null,"deleted_on":null,"deleted_by_id":null,"tenant_id":"00000000-0000-0000-0000-000000000000","profile_type":"personal","name":"Tier 1","description":"Tier 1","level":1,"enabled":true,"balance_limit":2000000,"single_sending_limit":500000,"single_receiving_limit":500000,"period_sending_limit":500000,"period_sending_limit_time_unit":"day","period_receiving_limit":500000,"period_receiving_limit_time_unit":"day","requirements":[{"type":"kyc","type_id":"0193731a-59fe-788a-9877-8bef6d0c2cfc"},{"type":"verification","type_id":"01933d40-03e5-777c-a6e6-bf72eb1c8968"},{"type":"verification","type_id":"019318f9-c895-744d-8f65-4636cc26dd1f"}]}},{"id":"019252e2-13d1-7447-bcc2-b898b970353c","meta":{"nin":"1234567890","last_name":"Ibrahim","first_name":"Azeez"},"created_on":"2024-10-03T14:56:40.912Z","created_by_id":null,"modified_on":"2024-12-18T15:14:13.357Z","modified_by_id":null,"deleted_on":null,"deleted_by_id":null,"tenant_id":"00000000-0000-0000-0000-000000000000","name":"Azeez-Profile","type":"business","status":"active","review":"","allowed_time_periods":null,"primary_user_id":"019252dd-ecc7-7447-bcc2-ad23e54a6b90","tier_id":"01928f2d-6756-755b-8a9d-c8094db2af27","primary_user":{"id":"019252dd-ecc7-7447-bcc2-ad23e54a6b90","meta":null,"created_on":"2024-10-03T14:52:08.775Z","created_by_id":null,"modified_on":"2024-11-05T13:31:53.449Z","modified_by_id":null,"deleted_on":null,"deleted_by_id":null,"tenant_id":"00000000-0000-0000-0000-000000000000","email":"Rhett@mailinator.com","status":"active","first_name":"Wunmi","last_name":"Ade","twofa_enabled":false,"last_active":"2024-11-18T13:33:47.068Z","last_ip":null,"allowed_ips":null,"last_timezone":null,"last_location":null,"phone":null,"review":null,"gender":"male","date_of_birth":null,"cba_id":null,"photo_id":null,"referral_code":"","allowed_locations":null,"referred_by":null},"tier":{"id":"01928f2d-6756-755b-8a9d-c8094db2af27","meta":null,"created_on":"2024-10-15T07:56:10.789Z","created_by_id":null,"modified_on":"2024-12-18T15:35:22.050Z","modified_by_id":null,"deleted_on":null,"deleted_by_id":null,"tenant_id":"00000000-0000-0000-0000-000000000000","profile_type":"personal","name":"Tier 1","description":"Tier 1","level":1,"enabled":true,"balance_limit":2000000,"single_sending_limit":500000,"single_receiving_limit":500000,"period_sending_limit":500000,"period_sending_limit_time_unit":"day","period_receiving_limit":500000,"period_receiving_limit_time_unit":"day","requirements":[{"type":"kyc","type_id":"0193731a-59fe-788a-9877-8bef6d0c2cfc"},{"type":"verification","type_id":"01933d40-03e5-777c-a6e6-bf72eb1c8968"},{"type":"verification","type_id":"019318f9-c895-744d-8f65-4636cc26dd1f"}]}}],"meta":{"page":1,"total_pages":9,"total_items":86}}