{"status":"success","data":[{"id":"019595b1-90cb-733b-b4e8-c550f035e5e5","meta":null,"created_on":"2025-03-14T17:26:37.001Z","created_by_id":"019372de-17ef-7cc2-8fc0-43fe11ba042f","modified_on":"2025-03-14T17:26:40.642Z","modified_by_id":"019372de-17ef-7cc2-8fc0-43fe11ba042f","deleted_on":null,"deleted_by_id":null,"tenant_id":"00000000-0000-0000-0000-000000000000","account_id":"0193a699-2f15-7881-8b7f-ae50980bcfad","profile_id":"0193a649-e3d0-7881-8b7f-2ef1d89a9aff","cba_id":"3793","currency":"NGN","amount":"10.00","balance_after":null,"reference":"T1AOQRX2YY8U","processor_reference":null,"processor_status":null,"processor_message":null,"status":"success","entry_type":"debit","narration":"","transaction_date":"2025-03-14T17:26:37.002Z","transaction_type":"fee","processor":"cba","reviewed_on":null,"reviewed_by":null,"batch_id":null,"schedule_id":null,"account":{"id":"0193a699-2f15-7881-8b7f-ae50980bcfad","meta":null,"created_on":"2024-12-08T14:07:57.204Z","created_by_id":null,"modified_on":"2025-03-14T18:42:41.236Z","modified_by_id":"019372de-17ef-7cc2-8fc0-43fe11ba042f","deleted_on":null,"deleted_by_id":null,"tenant_id":"00000000-0000-0000-0000-000000000000","name":"expenses","type":"account","cba_id":"0000000074","status":"active","profile_id":"0193a649-e3d0-7881-8b7f-2ef1d89a9aff","account_number":"0000000074","bank_id":"0193324f-cad0-7f86-923b-43fb21ac5b29","ledger_balance":"709505911.20","hold_balance":"0.00","available_balance":"709505911.20","currency":"NGN","restricted":false},"transfer":null,"disputes":[],"batch":null,"transfer_beneficiary":null,"bill_payment_beneficiary":null},{"id":"019595b1-90a4-733b-b4e8-b2f3c720de15","meta":null,"created_on":"2025-03-14T17:26:36.961Z","created_by_id":"019372de-17ef-7cc2-8fc0-43fe11ba042f","modified_on":"2025-03-14T17:26:36.961Z","modified_by_id":"019372de-17ef-7cc2-8fc0-43fe11ba042f","deleted_on":null,"deleted_by_id":null,"tenant_id":"00000000-0000-0000-0000-000000000000","account_id":"0193a699-2f15-7881-8b7f-ae50980bcfad","profile_id":"0193a649-e3d0-7881-8b7f-2ef1d89a9aff","cba_id":"496","currency":"NGN","amount":"200000.00","balance_after":null,"reference":"T1AOQRX2YY8U","processor_reference":null,"processor_status":null,"processor_message":null,"status":"processing","entry_type":"debit","narration":"","transaction_date":"2025-03-14T17:26:36.847Z","transaction_type":"transfer","processor":"nip","reviewed_on":null,"reviewed_by":null,"batch_id":null,"schedule_id":null,"account":{"id":"0193a699-2f15-7881-8b7f-ae50980bcfad","meta":null,"created_on":"2024-12-08T14:07:57.204Z","created_by_id":null,"modified_on":"2025-03-14T18:42:41.236Z","modified_by_id":"019372de-17ef-7cc2-8fc0-43fe11ba042f","deleted_on":null,"deleted_by_id":null,"tenant_id":"00000000-0000-0000-0000-000000000000","name":"expenses","type":"account","cba_id":"0000000074","status":"active","profile_id":"0193a649-e3d0-7881-8b7f-2ef1d89a9aff","account_number":"0000000074","bank_id":"0193324f-cad0-7f86-923b-43fb21ac5b29","ledger_balance":"709505911.20","hold_balance":"0.00","available_balance":"709505911.20","currency":"NGN","restricted":false},"transfer":{"id":"019595b1-90a8-733b-b4e8-baa1e5972750","meta":null,"created_on":"2025-03-14T17:26:36.961Z","created_by_id":"019372de-17ef-7cc2-8fc0-43fe11ba042f","modified_on":"2025-03-14T17:26:36.961Z","modified_by_id":null,"deleted_on":null,"deleted_by_id":null,"tenant_id":"00000000-0000-0000-0000-000000000000","bank_code":"050030","bank_name":"NORTHQUEST FINANCE COMPANY LIMITED ","bank_logo":"https://cdn.prod.website-files.com/67342b6ac3243e10a48bee9d/673b02614b7fc0a77c0172b2_NorthQuest%20Finance%20%20Logo-p-500.png","account_name":"Profile","account_number":"0000000486","profile_id":"0193a649-e3d0-7881-8b7f-2ef1d89a9aff","transaction_id":"019595b1-90a4-733b-b4e8-b2f3c720de15","account_id":"0193a699-2f15-7881-8b7f-ae50980bcfad"},"disputes":[],"batch":null,"transfer_beneficiary":null,"bill_payment_beneficiary":null},{"id":"019595b0-07a8-733b-b4e8-8dfbd56b91e5","meta":null,"created_on":"2025-03-14T17:24:56.357Z","created_by_id":"019372de-17ef-7cc2-8fc0-43fe11ba042f","modified_on":"2025-03-14T17:25:01.420Z","modified_by_id":"019372de-17ef-7cc2-8fc0-43fe11ba042f","deleted_on":null,"deleted_by_id":null,"tenant_id":"00000000-0000-0000-0000-000000000000","account_id":"0193a699-2f15-7881-8b7f-ae50980bcfad","profile_id":"0193a649-e3d0-7881-8b7f-2ef1d89a9aff","cba_id":"3790","currency":"NGN","amount":"10.00","balance_after":null,"reference":"TV7PM6GOQ3I6","processor_reference":null,"processor_status":null,"processor_message":null,"status":"success","entry_type":"debit","narration":"","transaction_date":"2025-03-14T17:24:56.359Z","transaction_type":"fee","processor":"cba","reviewed_on":null,"reviewed_by":null,"batch_id":null,"schedule_id":null,"account":{"id":"0193a699-2f15-7881-8b7f-ae50980bcfad","meta":null,"created_on":"2024-12-08T14:07:57.204Z","created_by_id":null,"modified_on":"2025-03-14T18:42:41.236Z","modified_by_id":"019372de-17ef-7cc2-8fc0-43fe11ba042f","deleted_on":null,"deleted_by_id":null,"tenant_id":"00000000-0000-0000-0000-000000000000","name":"expenses","type":"account","cba_id":"0000000074","status":"active","profile_id":"0193a649-e3d0-7881-8b7f-2ef1d89a9aff","account_number":"0000000074","bank_id":"0193324f-cad0-7f86-923b-43fb21ac5b29","ledger_balance":"709505911.20","hold_balance":"0.00","available_balance":"709505911.20","currency":"NGN","restricted":false},"transfer":null,"disputes":[],"batch":null,"transfer_beneficiary":null,"bill_payment_beneficiary":null},{"id":"019595b0-0797-733b-b4e8-78a38b5c32d9","meta":null,"created_on":"2025-03-14T17:24:56.339Z","created_by_id":"019372de-17ef-7cc2-8fc0-43fe11ba042f","modified_on":"2025-03-14T17:24:56.339Z","modified_by_id":"019372de-17ef-7cc2-8fc0-43fe11ba042f","deleted_on":null,"deleted_by_id":null,"tenant_id":"00000000-0000-0000-0000-000000000000","account_id":"0193a699-2f15-7881-8b7f-ae50980bcfad","profile_id":"0193a649-e3d0-7881-8b7f-2ef1d89a9aff","cba_id":"495","currency":"NGN","amount":"100000.00","balance_after":null,"reference":"TV7PM6GOQ3I6","processor_reference":null,"processor_status":null,"processor_message":null,"status":"processing","entry_type":"debit","narration":"","transaction_date":"2025-03-14T17:24:56.198Z","transaction_type":"transfer","processor":"nip","reviewed_on":null,"reviewed_by":null,"batch_id":null,"schedule_id":null,"account":{"id":"0193a699-2f15-7881-8b7f-ae50980bcfad","meta":null,"created_on":"2024-12-08T14:07:57.204Z","created_by_id":null,"modified_on":"2025-03-14T18:42:41.236Z","modified_by_id":"019372de-17ef-7cc2-8fc0-43fe11ba042f","deleted_on":null,"deleted_by_id":null,"tenant_id":"00000000-0000-0000-0000-000000000000","name":"expenses","type":"account","cba_id":"0000000074","status":"active","profile_id":"0193a649-e3d0-7881-8b7f-2ef1d89a9aff","account_number":"0000000074","bank_id":"0193324f-cad0-7f86-923b-43fb21ac5b29","ledger_balance":"709505911.20","hold_balance":"0.00","available_balance":"709505911.20","currency":"NGN","restricted":false},"transfer":{"id":"019595b0-079e-733b-b4e8-85d4d8edfd53","meta":null,"created_on":"2025-03-14T17:24:56.339Z","created_by_id":"019372de-17ef-7cc2-8fc0-43fe11ba042f","modified_on":"2025-03-14T17:24:56.339Z","modified_by_id":null,"deleted_on":null,"deleted_by_id":null,"tenant_id":"00000000-0000-0000-0000-000000000000","bank_code":"050030","bank_name":"NORTHQUEST FINANCE COMPANY LIMITED ","bank_logo":"https://cdn.prod.website-files.com/67342b6ac3243e10a48bee9d/673b02614b7fc0a77c0172b2_NorthQuest%20Finance%20%20Logo-p-500.png","account_name":"Profile","account_number":"0000000485","profile_id":"0193a649-e3d0-7881-8b7f-2ef1d89a9aff","transaction_id":"019595b0-0797-733b-b4e8-78a38b5c32d9","account_id":"0193a699-2f15-7881-8b7f-ae50980bcfad"},"disputes":[],"batch":null,"transfer_beneficiary":null,"bill_payment_beneficiary":null},{"id":"019593e1-1302-7ee0-bd86-db7921816448","meta":null,"created_on":"2025-03-14T08:59:16.097Z","created_by_id":"019372de-17ef-7cc2-8fc0-43fe11ba042f","modified_on":"2025-03-14T08:59:19.831Z","modified_by_id":"019372de-17ef-7cc2-8fc0-43fe11ba042f","deleted_on":null,"deleted_by_id":null,"tenant_id":"00000000-0000-0000-0000-000000000000","account_id":"0193a699-2f15-7881-8b7f-ae50980bcfad","profile_id":"0193a649-e3d0-7881-8b7f-2ef1d89a9aff","cba_id":"3789","currency":"NGN","amount":"10.00","balance_after":null,"reference":"THHEJMQEDRNV","processor_reference":null,"processor_status":null,"processor_message":null,"status":"success","entry_type":"debit","narration":null,"transaction_date":"2025-03-14T08:59:16.097Z","transaction_type":"fee","processor":"cba","reviewed_on":null,"reviewed_by":null,"batch_id":null,"schedule_id":null,"account":{"id":"0193a699-2f15-7881-8b7f-ae50980bcfad","meta":null,"created_on":"2024-12-08T14:07:57.204Z","created_by_id":null,"modified_on":"2025-03-14T18:42:41.236Z","modified_by_id":"019372de-17ef-7cc2-8fc0-43fe11ba042f","deleted_on":null,"deleted_by_id":null,"tenant_id":"00000000-0000-0000-0000-000000000000","name":"expenses","type":"account","cba_id":"0000000074","status":"active","profile_id":"0193a649-e3d0-7881-8b7f-2ef1d89a9aff","account_number":"0000000074","bank_id":"0193324f-cad0-7f86-923b-43fb21ac5b29","ledger_balance":"709505911.20","hold_balance":"0.00","available_balance":"709505911.20","currency":"NGN","restricted":false},"transfer":null,"disputes":[],"batch":null,"transfer_beneficiary":null,"bill_payment_beneficiary":null},{"id":"019593e1-12ef-7ee0-bd86-cbb6876a023e","meta":null,"created_on":"2025-03-14T08:59:16.078Z","created_by_id":"019372de-17ef-7cc2-8fc0-43fe11ba042f","modified_on":"2025-03-14T08:59:19.827Z","modified_by_id":"019372de-17ef-7cc2-8fc0-43fe11ba042f","deleted_on":null,"deleted_by_id":null,"tenant_id":"00000000-0000-0000-0000-000000000000","account_id":"0193a699-2f15-7881-8b7f-ae50980bcfad","profile_id":"0193a649-e3d0-7881-8b7f-2ef1d89a9aff","cba_id":"3788","currency":"NGN","amount":"1000.00","balance_after":null,"reference":"THHEJMQEDRNV","processor_reference":"MOCK_SESSION_ID_67890","processor_status":"success","processor_message":"Transfer Successful","status":"success","entry_type":"debit","narration":null,"transaction_date":"2025-03-14T08:59:16.067Z","transaction_type":"transfer","processor":"nip","reviewed_on":null,"reviewed_by":null,"batch_id":null,"schedule_id":null,"account":{"id":"0193a699-2f15-7881-8b7f-ae50980bcfad","meta":null,"created_on":"2024-12-08T14:07:57.204Z","created_by_id":null,"modified_on":"2025-03-14T18:42:41.236Z","modified_by_id":"019372de-17ef-7cc2-8fc0-43fe11ba042f","deleted_on":null,"deleted_by_id":null,"tenant_id":"00000000-0000-0000-0000-000000000000","name":"expenses","type":"account","cba_id":"0000000074","status":"active","profile_id":"0193a649-e3d0-7881-8b7f-2ef1d89a9aff","account_number":"0000000074","bank_id":"0193324f-cad0-7f86-923b-43fb21ac5b29","ledger_balance":"709505911.20","hold_balance":"0.00","available_balance":"709505911.20","currency":"NGN","restricted":false},"transfer":{"id":"019593e1-12fa-7ee0-bd86-d79ef6d58e0d","meta":null,"created_on":"2025-03-14T08:59:16.078Z","created_by_id":"019372de-17ef-7cc2-8fc0-43fe11ba042f","modified_on":"2025-03-14T08:59:16.078Z","modified_by_id":null,"deleted_on":null,"deleted_by_id":null,"tenant_id":"00000000-0000-0000-0000-000000000000","bank_code":"000016","bank_name":"First Bank of Nigeria","bank_logo":"https://lendstack-s3.s3.us-east-2.amazonaws.com/bank_logos/011.png","account_name":"John Doe","account_number":"0112345678","profile_id":"0193a649-e3d0-7881-8b7f-2ef1d89a9aff","transaction_id":"019593e1-12ef-7ee0-bd86-cbb6876a023e","account_id":"0193a699-2f15-7881-8b7f-ae50980bcfad"},"disputes":[],"batch":null,"transfer_beneficiary":null,"bill_payment_beneficiary":null},{"id":"01958baf-3447-7992-b599-5935ffeefba8","meta":null,"created_on":"2025-03-12T18:47:50.085Z","created_by_id":"019372de-17ef-7cc2-8fc0-43fe11ba042f","modified_on":"2025-03-12T18:48:21.405Z","modified_by_id":"019372de-17ef-7cc2-8fc0-43fe11ba042f","deleted_on":null,"deleted_by_id":null,"tenant_id":"00000000-0000-0000-0000-000000000000","account_id":"0193a699-2f15-7881-8b7f-ae50980bcfad","profile_id":"0193a649-e3d0-7881-8b7f-2ef1d89a9aff","cba_id":"3768","currency":"NGN","amount":"29300.00","balance_after":null,"reference":"TWE99S2FOQSQ","processor_reference":null,"processor_status":null,"processor_message":"Transaction not found","status":"failed","entry_type":"debit","narration":"Bill payment to dstv for 1102003467","transaction_date":"2025-03-12T18:47:50.085Z","transaction_type":"bill-payment","processor":"baxipay","reviewed_on":null,"reviewed_by":null,"batch_id":null,"schedule_id":null,"account":{"id":"0193a699-2f15-7881-8b7f-ae50980bcfad","meta":null,"created_on":"2024-12-08T14:07:57.204Z","created_by_id":null,"modified_on":"2025-03-14T18:42:41.236Z","modified_by_id":"019372de-17ef-7cc2-8fc0-43fe11ba042f","deleted_on":null,"deleted_by_id":null,"tenant_id":"00000000-0000-0000-0000-000000000000","name":"expenses","type":"account","cba_id":"0000000074","status":"active","profile_id":"0193a649-e3d0-7881-8b7f-2ef1d89a9aff","account_number":"0000000074","bank_id":"0193324f-cad0-7f86-923b-43fb21ac5b29","ledger_balance":"709505911.20","hold_balance":"0.00","available_balance":"709505911.20","currency":"NGN","restricted":false},"transfer":null,"disputes":[],"batch":null,"transfer_beneficiary":null,"bill_payment_beneficiary":null},{"id":"019580d7-c4e9-7bb0-a406-0ee78ace3971","meta":null,"created_on":"2025-03-10T16:16:19.176Z","created_by_id":"019372de-17ef-7cc2-8fc0-43fe11ba042f","modified_on":"2025-03-10T16:16:23.955Z","modified_by_id":"019372de-17ef-7cc2-8fc0-43fe11ba042f","deleted_on":null,"deleted_by_id":null,"tenant_id":"00000000-0000-0000-0000-000000000000","account_id":"0193a699-2f15-7881-8b7f-ae50980bcfad","profile_id":"0193a649-e3d0-7881-8b7f-2ef1d89a9aff","cba_id":"3767","currency":"NGN","amount":"10.00","balance_after":null,"reference":"T08TULSY0RA8","processor_reference":null,"processor_status":null,"processor_message":null,"status":"success","entry_type":"debit","narration":"bulk transfer","transaction_date":"2025-03-10T16:16:19.176Z","transaction_type":"fee","processor":"cba","reviewed_on":null,"reviewed_by":null,"batch_id":null,"schedule_id":null,"account":{"id":"0193a699-2f15-7881-8b7f-ae50980bcfad","meta":null,"created_on":"2024-12-08T14:07:57.204Z","created_by_id":null,"modified_on":"2025-03-14T18:42:41.236Z","modified_by_id":"019372de-17ef-7cc2-8fc0-43fe11ba042f","deleted_on":null,"deleted_by_id":null,"tenant_id":"00000000-0000-0000-0000-000000000000","name":"expenses","type":"account","cba_id":"0000000074","status":"active","profile_id":"0193a649-e3d0-7881-8b7f-2ef1d89a9aff","account_number":"0000000074","bank_id":"0193324f-cad0-7f86-923b-43fb21ac5b29","ledger_balance":"709505911.20","hold_balance":"0.00","available_balance":"709505911.20","currency":"NGN","restricted":false},"transfer":null,"disputes":[],"batch":null,"transfer_beneficiary":null,"bill_payment_beneficiary":null},{"id":"019580d7-c47d-7bb0-a405-f23e840765ec","meta":null,"created_on":"2025-03-10T16:16:19.007Z","created_by_id":"019372de-17ef-7cc2-8fc0-43fe11ba042f","modified_on":"2025-03-10T16:16:23.784Z","modified_by_id":"019372de-17ef-7cc2-8fc0-43fe11ba042f","deleted_on":null,"deleted_by_id":null,"tenant_id":"00000000-0000-0000-0000-000000000000","account_id":"0193a699-2f15-7881-8b7f-ae50980bcfad","profile_id":"0193a649-e3d0-7881-8b7f-2ef1d89a9aff","cba_id":"3766","currency":"NGN","amount":"10000.00","balance_after":null,"reference":"T08TULSY0RA8","processor_reference":"MOCK_SESSION_ID_67890","processor_status":"success","processor_message":"Transfer Successful","status":"success","entry_type":"debit","narration":"bulk transfer","transaction_date":"2025-03-10T16:16:19.068Z","transaction_type":"transfer","processor":"nip","reviewed_on":null,"reviewed_by":null,"batch_id":"019580d7-c440-7bb0-a405-ea12b46c31fc","schedule_id":null,"account":{"id":"0193a699-2f15-7881-8b7f-ae50980bcfad","meta":null,"created_on":"2024-12-08T14:07:57.204Z","created_by_id":null,"modified_on":"2025-03-14T18:42:41.236Z","modified_by_id":"019372de-17ef-7cc2-8fc0-43fe11ba042f","deleted_on":null,"deleted_by_id":null,"tenant_id":"00000000-0000-0000-0000-000000000000","name":"expenses","type":"account","cba_id":"0000000074","status":"active","profile_id":"0193a649-e3d0-7881-8b7f-2ef1d89a9aff","account_number":"0000000074","bank_id":"0193324f-cad0-7f86-923b-43fb21ac5b29","ledger_balance":"709505911.20","hold_balance":"0.00","available_balance":"709505911.20","currency":"NGN","restricted":false},"transfer":{"id":"019580d7-c487-7bb0-a405-f8d170c1d77e","meta":null,"created_on":"2025-03-10T16:16:19.007Z","created_by_id":"019372de-17ef-7cc2-8fc0-43fe11ba042f","modified_on":"2025-03-10T16:16:19.007Z","modified_by_id":null,"deleted_on":null,"deleted_by_id":null,"tenant_id":"00000000-0000-0000-0000-000000000000","bank_code":"000007","bank_name":"Fidelity Bank","bank_logo":"https://lendstack-s3.s3.us-east-2.amazonaws.com/bank_logos/070.png","account_name":"John Doe","account_number":"1234567890","profile_id":"0193a649-e3d0-7881-8b7f-2ef1d89a9aff","transaction_id":"019580d7-c47d-7bb0-a405-f23e840765ec","account_id":"0193a699-2f15-7881-8b7f-ae50980bcfad"},"disputes":[],"batch":{"id":"019580d7-c440-7bb0-a405-ea12b46c31fc","meta":null,"created_on":"2025-03-10T16:16:19.007Z","created_by_id":"019372de-17ef-7cc2-8fc0-43fe11ba042f","modified_on":"2025-03-10T16:16:19.007Z","modified_by_id":null,"deleted_on":null,"deleted_by_id":null,"tenant_id":"00000000-0000-0000-0000-000000000000","status":"approved","name":null},"transfer_beneficiary":null,"bill_payment_beneficiary":null},{"id":"01957c8a-b5ff-7885-8ddf-337a71015b29","meta":null,"created_on":"2025-03-09T20:13:40.223Z","created_by_id":"019372de-17ef-7cc2-8fc0-43fe11ba042f","modified_on":"2025-03-09T20:13:43.753Z","modified_by_id":"019372de-17ef-7cc2-8fc0-43fe11ba042f","deleted_on":null,"deleted_by_id":null,"tenant_id":"00000000-0000-0000-0000-000000000000","account_id":"0193a699-2f15-7881-8b7f-ae50980bcfad","profile_id":"0193a649-e3d0-7881-8b7f-2ef1d89a9aff","cba_id":"3764","currency":"NGN","amount":"10.00","balance_after":null,"reference":"TALDMVVSD5L5","processor_reference":null,"processor_status":null,"processor_message":null,"status":"success","entry_type":"debit","narration":"Sodiq","transaction_date":"2025-03-09T20:13:40.222Z","transaction_type":"fee","processor":"cba","reviewed_on":null,"reviewed_by":null,"batch_id":null,"schedule_id":null,"account":{"id":"0193a699-2f15-7881-8b7f-ae50980bcfad","meta":null,"created_on":"2024-12-08T14:07:57.204Z","created_by_id":null,"modified_on":"2025-03-14T18:42:41.236Z","modified_by_id":"019372de-17ef-7cc2-8fc0-43fe11ba042f","deleted_on":null,"deleted_by_id":null,"tenant_id":"00000000-0000-0000-0000-000000000000","name":"expenses","type":"account","cba_id":"0000000074","status":"active","profile_id":"0193a649-e3d0-7881-8b7f-2ef1d89a9aff","account_number":"0000000074","bank_id":"0193324f-cad0-7f86-923b-43fb21ac5b29","ledger_balance":"709505911.20","hold_balance":"0.00","available_balance":"709505911.20","currency":"NGN","restricted":false},"transfer":null,"disputes":[],"batch":null,"transfer_beneficiary":null,"bill_payment_beneficiary":null}],"meta":{"page":1,"total_pages":99,"total_items":985}}