{"status":"success","data":[{"id":"019683e6-8790-7bba-b58c-2596358c640d","meta":null,"created_on":"2025-04-29T23:34:05.454Z","created_by_id":"019372de-17ef-7cc2-8fc0-43fe11ba042f","modified_on":"2025-04-29T23:34:05.759Z","modified_by_id":"019372de-17ef-7cc2-8fc0-43fe11ba042f","deleted_on":null,"deleted_by_id":null,"tenant_id":"00000000-0000-0000-0000-000000000000","profile_id":"0193a649-e3d0-7881-8b7f-2ef1d89a9aff","name":"Newtt","product_id":"01966c4f-e376-788e-9dd8-d53458c5b29e","account_id":"0193a699-2f15-7881-8b7f-ae50980bcfad","is_fixed":false,"allow_top_up":false,"cba_id":"564","deposit":"1000.00","interest_earned":"0.00","balance":"0.00","end_date":"2025-05-05T23:34:03.331Z","start_date":"2025-04-29T23:34:03.331Z","periodic_amount":1000,"interest_rate":"10.00","interest_period":"yearly","tenor_value":6,"tenor_period":"days","interest_compounding_period":"yearly","interest_posting_period":"yearly","status":"active","frequency":null,"card_id":null,"mandate_id":null,"auto_maturity_action":"withdraw"},{"id":"019683e0-a6e0-7bba-b58c-0c6844956626","meta":null,"created_on":"2025-04-29T23:27:40.255Z","created_by_id":"019372de-17ef-7cc2-8fc0-43fe11ba042f","modified_on":"2025-04-29T23:27:40.255Z","modified_by_id":null,"deleted_on":null,"deleted_by_id":null,"tenant_id":"00000000-0000-0000-0000-000000000000","profile_id":"0193a649-e3d0-7881-8b7f-2ef1d89a9aff","name":"Talent ","product_id":"01966c9a-042d-744c-a926-c6778c29f809","account_id":"01951f87-391a-7aa2-a9dd-7c543ab757a9","is_fixed":true,"allow_top_up":false,"cba_id":"563","deposit":"7.00","interest_earned":"0.00","balance":"0.00","end_date":"2025-05-09T23:27:39.614Z","start_date":"2025-04-29T23:27:39.614Z","periodic_amount":7,"interest_rate":"0.00","interest_period":"yearly","tenor_value":10,"tenor_period":"days","interest_compounding_period":"yearly","interest_posting_period":"yearly","status":"active","frequency":null,"card_id":null,"mandate_id":null,"auto_maturity_action":"withdraw"},{"id":"019663fa-489a-7eec-b096-af17e1938b92","meta":null,"created_on":"2025-04-23T18:47:49.145Z","created_by_id":"019372de-17ef-7cc2-8fc0-43fe11ba042f","modified_on":"2025-04-23T18:47:49.361Z","modified_by_id":"019372de-17ef-7cc2-8fc0-43fe11ba042f","deleted_on":null,"deleted_by_id":null,"tenant_id":"00000000-0000-0000-0000-000000000000","profile_id":"0193a649-e3d0-7881-8b7f-2ef1d89a9aff","name":"Vacation Funds","product_id":"01965e72-4115-7994-843f-938fca37317d","account_id":"0193a699-2f15-7881-8b7f-ae50980bcfad","is_fixed":false,"allow_top_up":false,"cba_id":"558","deposit":"500.00","interest_earned":"0.00","balance":"0.00","end_date":"2025-07-23T18:47:46.941Z","start_date":"2025-04-23T18:47:46.941Z","periodic_amount":500,"interest_rate":"23.00","interest_period":"yearly","tenor_value":3,"tenor_period":"months","interest_compounding_period":"yearly","interest_posting_period":"yearly","status":"closed","frequency":null,"card_id":null,"mandate_id":null,"auto_maturity_action":"withdraw"},{"id":"01965e44-ca78-7dd4-a9e4-9c45360c3057","meta":null,"created_on":"2025-04-22T16:11:28.760Z","created_by_id":"019372de-17ef-7cc2-8fc0-43fe11ba042f","modified_on":"2025-04-25T13:34:24.127Z","modified_by_id":"0193d109-a926-7446-abe5-7dafe8b742bd","deleted_on":null,"deleted_by_id":null,"tenant_id":"00000000-0000-0000-0000-000000000000","profile_id":"0193a649-e3d0-7881-8b7f-2ef1d89a9aff","name":"Omo 2","product_id":"01965e2e-2f53-799a-8088-c76b03974553","account_id":"0193a699-2f15-7881-8b7f-ae50980bcfad","is_fixed":true,"allow_top_up":false,"cba_id":"556","deposit":"5000.00","interest_earned":"0.00","balance":"0.00","end_date":"2025-09-22T16:11:24.749Z","start_date":"2025-04-22T16:11:24.749Z","periodic_amount":5000,"interest_rate":"10.00","interest_period":"yearly","tenor_value":5,"tenor_period":"months","interest_compounding_period":"yearly","interest_posting_period":"yearly","status":"closed","frequency":null,"card_id":null,"mandate_id":null,"auto_maturity_action":"withdraw"},{"id":"01965e42-1077-7dd4-a9e4-74a681376b3a","meta":null,"created_on":"2025-04-22T16:08:30.070Z","created_by_id":"019372de-17ef-7cc2-8fc0-43fe11ba042f","modified_on":"2025-04-25T15:40:26.956Z","modified_by_id":"01927265-4ed2-79cc-a0e6-e11339a359f3","deleted_on":null,"deleted_by_id":null,"tenant_id":"00000000-0000-0000-0000-000000000000","profile_id":"0193a649-e3d0-7881-8b7f-2ef1d89a9aff","name":"Omo","product_id":"01965e2e-2f53-799a-8088-c76b03974553","account_id":"0193a699-2f15-7881-8b7f-ae50980bcfad","is_fixed":true,"allow_top_up":false,"cba_id":"555","deposit":"5000.00","interest_earned":"0.00","balance":"0.00","end_date":"2025-09-22T16:08:26.304Z","start_date":"2025-04-22T16:08:26.304Z","periodic_amount":5000,"interest_rate":"10.00","interest_period":"yearly","tenor_value":5,"tenor_period":"months","interest_compounding_period":"yearly","interest_posting_period":"yearly","status":"closed","frequency":null,"card_id":null,"mandate_id":null,"auto_maturity_action":"withdraw"},{"id":"01965e41-1675-7dd4-a9e4-556ba768cef2","meta":null,"created_on":"2025-04-22T16:07:26.070Z","created_by_id":"019372de-17ef-7cc2-8fc0-43fe11ba042f","modified_on":"2025-04-28T11:12:03.979Z","modified_by_id":"01927265-4ed2-79cc-a0e6-e11339a359f3","deleted_on":null,"deleted_by_id":null,"tenant_id":"00000000-0000-0000-0000-000000000000","profile_id":"0193a649-e3d0-7881-8b7f-2ef1d89a9aff","name":"Stuff","product_id":"01965e2e-2f53-799a-8088-c76b03974553","account_id":"0193a699-2f15-7881-8b7f-ae50980bcfad","is_fixed":true,"allow_top_up":false,"cba_id":"554","deposit":"9000.00","interest_earned":"0.00","balance":"0.00","end_date":"2025-09-22T16:07:22.059Z","start_date":"2025-04-22T16:07:22.059Z","periodic_amount":9000,"interest_rate":"10.00","interest_period":"yearly","tenor_value":5,"tenor_period":"months","interest_compounding_period":"yearly","interest_posting_period":"yearly","status":"closed","frequency":null,"card_id":null,"mandate_id":null,"auto_maturity_action":"withdraw"},{"id":"01965d23-7e1b-7887-afb2-6841b3e6959c","meta":null,"created_on":"2025-04-22T10:55:29.261Z","created_by_id":"01925343-fbc8-7886-abfb-41c8746fc8ce","modified_on":"2025-04-29T21:16:10.254Z","modified_by_id":"019372de-17ef-7cc2-8fc0-43fe11ba042f","deleted_on":null,"deleted_by_id":null,"tenant_id":"00000000-0000-0000-0000-000000000000","profile_id":"0193a649-e3d0-7881-8b7f-2ef1d89a9aff","name":"Vacation Funds again","product_id":"019610a0-d9e7-777e-bc8a-4a1a3765d930","account_id":"0193a699-2f15-7881-8b7f-ae50980bcfad","is_fixed":false,"allow_top_up":true,"cba_id":"550","deposit":"123.00","interest_earned":"0.00","balance":"0.00","end_date":"2026-04-22T10:55:26.088Z","start_date":"2025-04-22T10:55:26.088Z","periodic_amount":123,"interest_rate":"10.00","interest_period":"yearly","tenor_value":1,"tenor_period":"years","interest_compounding_period":"yearly","interest_posting_period":"yearly","status":"active","frequency":"weekly","card_id":null,"mandate_id":null,"auto_maturity_action":"withdraw"},{"id":"01965cc7-9020-7334-b81a-38f4d4161fa2","meta":null,"created_on":"2025-04-22T09:15:04.602Z","created_by_id":"01925343-fbc8-7886-abfb-41c8746fc8ce","modified_on":"2025-04-22T09:15:06.049Z","modified_by_id":"01925343-fbc8-7886-abfb-41c8746fc8ce","deleted_on":null,"deleted_by_id":null,"tenant_id":"00000000-0000-0000-0000-000000000000","profile_id":"0193a649-e3d0-7881-8b7f-2ef1d89a9aff","name":"Sodiq Funds","product_id":"019610a0-d9e7-777e-bc8a-4a1a3765d930","account_id":"0193a699-2f15-7881-8b7f-ae50980bcfad","is_fixed":false,"allow_top_up":true,"cba_id":"549","deposit":"123.00","interest_earned":"0.00","balance":"0.00","end_date":"2026-04-22T09:14:59.875Z","start_date":"2025-04-22T09:14:59.875Z","periodic_amount":123,"interest_rate":"10.00","interest_period":"yearly","tenor_value":1,"tenor_period":"years","interest_compounding_period":"yearly","interest_posting_period":"yearly","status":"active","frequency":null,"card_id":null,"mandate_id":null,"auto_maturity_action":"withdraw"},{"id":"01965cc2-55b6-7cc5-88f7-4b019b6cb2dc","meta":null,"created_on":"2025-04-22T09:09:21.960Z","created_by_id":"01925343-fbc8-7886-abfb-41c8746fc8ce","modified_on":"2025-04-22T09:09:24.207Z","modified_by_id":"01925343-fbc8-7886-abfb-41c8746fc8ce","deleted_on":null,"deleted_by_id":null,"tenant_id":"00000000-0000-0000-0000-000000000000","profile_id":"0193a649-e3d0-7881-8b7f-2ef1d89a9aff","name":"Sodiq Funds","product_id":"019610a0-d9e7-777e-bc8a-4a1a3765d930","account_id":"0193a699-2f15-7881-8b7f-ae50980bcfad","is_fixed":false,"allow_top_up":true,"cba_id":"548","deposit":"123.00","interest_earned":"0.00","balance":"0.00","end_date":"2026-04-22T09:09:18.718Z","start_date":"2025-04-22T09:09:18.718Z","periodic_amount":123,"interest_rate":"10.00","interest_period":"yearly","tenor_value":1,"tenor_period":"years","interest_compounding_period":"yearly","interest_posting_period":"yearly","status":"active","frequency":null,"card_id":null,"mandate_id":null,"auto_maturity_action":"withdraw"},{"id":"01965cc0-6beb-733d-b5a4-f729fcdab92f","meta":null,"created_on":"2025-04-22T09:07:16.580Z","created_by_id":"01925343-fbc8-7886-abfb-41c8746fc8ce","modified_on":"2025-04-22T09:07:18.076Z","modified_by_id":"01925343-fbc8-7886-abfb-41c8746fc8ce","deleted_on":null,"deleted_by_id":null,"tenant_id":"00000000-0000-0000-0000-000000000000","profile_id":"0193a649-e3d0-7881-8b7f-2ef1d89a9aff","name":"Sodiq Funds","product_id":"019610a0-d9e7-777e-bc8a-4a1a3765d930","account_id":"0193a699-2f15-7881-8b7f-ae50980bcfad","is_fixed":false,"allow_top_up":true,"cba_id":"547","deposit":"123.00","interest_earned":"0.00","balance":"0.00","end_date":"2026-04-22T09:07:13.148Z","start_date":"2025-04-22T09:07:13.148Z","periodic_amount":123,"interest_rate":"10.00","interest_period":"yearly","tenor_value":1,"tenor_period":"years","interest_compounding_period":"yearly","interest_posting_period":"yearly","status":"active","frequency":null,"card_id":null,"mandate_id":null,"auto_maturity_action":"withdraw"}],"meta":{"page":1,"total_pages":3,"total_items":26}}