{"status":"success","data":[{"id":"01966e46-be98-7664-b413-2939f233121d","meta":null,"created_on":"2025-04-25T18:47:32.271Z","created_by_id":null,"modified_on":"2025-04-25T18:47:32.271Z","modified_by_id":null,"deleted_on":null,"deleted_by_id":null,"tenant_id":"00000000-0000-0000-0000-000000000000","user_id":"019372de-17ef-7cc2-8fc0-43fe11ba042f","status":"pending","referree_id":"01966e46-be91-7664-b413-22dc39a9241e","referree_earning":"233.33","referrer_earning":"100.32","user":{"id":"019372de-17ef-7cc2-8fc0-43fe11ba042f","meta":{},"created_on":"2024-11-28T13:02:58.029Z","created_by_id":null,"modified_on":"2025-04-25T18:48:10.206Z","modified_by_id":"019372de-17ef-7cc2-8fc0-43fe11ba042f","deleted_on":null,"deleted_by_id":null,"tenant_id":"00000000-0000-0000-0000-000000000000","email":"ismael@mailinator.com","status":"active","first_name":"Sunday","last_name":"Testing","twofa_enabled":false,"last_active":"2025-04-25T18:48:10.182Z","last_login":null,"last_ip":"20.102.199.89","allowed_ips":null,"last_timezone":"America/Chicago","last_location":"Chicago","phone":"+2348089722636","review":null,"gender":"male","date_of_birth":null,"cba_id":"31","photo_id":null,"referral_code":"7LD1QN","referred_by":null},"referree":{"id":"01966e46-be91-7664-b413-22dc39a9241e","meta":null,"created_on":"2025-04-25T18:47:32.264Z","created_by_id":null,"modified_on":"2025-04-25T18:47:32.283Z","modified_by_id":null,"deleted_on":null,"deleted_by_id":null,"tenant_id":"00000000-0000-0000-0000-000000000000","email":"TessNienowShirt@mailinator.com","status":"active","first_name":"Green","last_name":"Kelsi","twofa_enabled":false,"last_active":"2025-04-25T18:47:32.264Z","last_login":null,"last_ip":"52.234.38.165","allowed_ips":null,"last_timezone":"America/Los_Angeles","last_location":"San Jose","phone":null,"review":null,"gender":null,"date_of_birth":null,"cba_id":null,"photo_id":null,"referral_code":"FMRK6F","referred_by":"019372de-17ef-7cc2-8fc0-43fe11ba042f"},"events":[]},{"id":"01966e46-571a-7664-b411-f6128f02dd0f","meta":null,"created_on":"2025-04-25T18:47:05.777Z","created_by_id":null,"modified_on":"2025-04-25T18:47:05.777Z","modified_by_id":null,"deleted_on":null,"deleted_by_id":null,"tenant_id":"00000000-0000-0000-0000-000000000000","user_id":"019372de-17ef-7cc2-8fc0-43fe11ba042f","status":"pending","referree_id":"01966e46-5712-7664-b411-ed860b0c7ed9","referree_earning":"233.33","referrer_earning":"100.32","user":{"id":"019372de-17ef-7cc2-8fc0-43fe11ba042f","meta":{},"created_on":"2024-11-28T13:02:58.029Z","created_by_id":null,"modified_on":"2025-04-25T18:48:10.206Z","modified_by_id":"019372de-17ef-7cc2-8fc0-43fe11ba042f","deleted_on":null,"deleted_by_id":null,"tenant_id":"00000000-0000-0000-0000-000000000000","email":"ismael@mailinator.com","status":"active","first_name":"Sunday","last_name":"Testing","twofa_enabled":false,"last_active":"2025-04-25T18:48:10.182Z","last_login":null,"last_ip":"20.102.199.89","allowed_ips":null,"last_timezone":"America/Chicago","last_location":"Chicago","phone":"+2348089722636","review":null,"gender":"male","date_of_birth":null,"cba_id":"31","photo_id":null,"referral_code":"7LD1QN","referred_by":null},"referree":{"id":"01966e46-5712-7664-b411-ed860b0c7ed9","meta":null,"created_on":"2025-04-25T18:47:05.769Z","created_by_id":null,"modified_on":"2025-04-25T18:47:05.863Z","modified_by_id":null,"deleted_on":null,"deleted_by_id":null,"tenant_id":"00000000-0000-0000-0000-000000000000","email":"MartinaSchadencircuit6@mailinator.com","status":"active","first_name":"Champlin","last_name":"Reginald","twofa_enabled":false,"last_active":"2025-04-25T18:47:05.769Z","last_login":null,"last_ip":"20.102.199.89","allowed_ips":null,"last_timezone":"America/Chicago","last_location":"Chicago","phone":null,"review":null,"gender":null,"date_of_birth":null,"cba_id":null,"photo_id":null,"referral_code":"VIHJ8W","referred_by":"019372de-17ef-7cc2-8fc0-43fe11ba042f"},"events":[]},{"id":"01966a8f-cac5-7bbb-ab9e-24516a124941","meta":null,"created_on":"2025-04-25T01:28:50.632Z","created_by_id":null,"modified_on":"2025-04-25T01:28:50.632Z","modified_by_id":null,"deleted_on":null,"deleted_by_id":null,"tenant_id":"00000000-0000-0000-0000-000000000000","user_id":"019372de-17ef-7cc2-8fc0-43fe11ba042f","status":"pending","referree_id":"01966a8f-cabe-7bbb-ab9e-1d2901d5a687","referree_earning":"233.33","referrer_earning":"100.32","user":{"id":"019372de-17ef-7cc2-8fc0-43fe11ba042f","meta":{},"created_on":"2024-11-28T13:02:58.029Z","created_by_id":null,"modified_on":"2025-04-25T18:48:10.206Z","modified_by_id":"019372de-17ef-7cc2-8fc0-43fe11ba042f","deleted_on":null,"deleted_by_id":null,"tenant_id":"00000000-0000-0000-0000-000000000000","email":"ismael@mailinator.com","status":"active","first_name":"Sunday","last_name":"Testing","twofa_enabled":false,"last_active":"2025-04-25T18:48:10.182Z","last_login":null,"last_ip":"20.102.199.89","allowed_ips":null,"last_timezone":"America/Chicago","last_location":"Chicago","phone":"+2348089722636","review":null,"gender":"male","date_of_birth":null,"cba_id":"31","photo_id":null,"referral_code":"7LD1QN","referred_by":null},"referree":{"id":"01966a8f-cabe-7bbb-ab9e-1d2901d5a687","meta":null,"created_on":"2025-04-25T01:28:50.625Z","created_by_id":null,"modified_on":"2025-04-25T01:28:50.718Z","modified_by_id":null,"deleted_on":null,"deleted_by_id":null,"tenant_id":"00000000-0000-0000-0000-000000000000","email":"GlennieHerzogAssistantd@mailinator.com","status":"active","first_name":"Jerde","last_name":"Matteo","twofa_enabled":false,"last_active":"2025-04-25T01:28:50.625Z","last_login":null,"last_ip":"52.137.190.97","allowed_ips":null,"last_timezone":"America/Los_Angeles","last_location":"San Jose","phone":null,"review":null,"gender":null,"date_of_birth":null,"cba_id":null,"photo_id":null,"referral_code":"57E9XS","referred_by":"019372de-17ef-7cc2-8fc0-43fe11ba042f"},"events":[]},{"id":"01966a87-97e6-7bbb-ab9b-5b66eb3a74b6","meta":null,"created_on":"2025-04-25T01:19:53.320Z","created_by_id":null,"modified_on":"2025-04-25T01:19:53.320Z","modified_by_id":null,"deleted_on":null,"deleted_by_id":null,"tenant_id":"00000000-0000-0000-0000-000000000000","user_id":"019372de-17ef-7cc2-8fc0-43fe11ba042f","status":"pending","referree_id":"01966a87-9793-7bbb-ab9b-550e6d19f5cb","referree_earning":"233.33","referrer_earning":"100.32","user":{"id":"019372de-17ef-7cc2-8fc0-43fe11ba042f","meta":{},"created_on":"2024-11-28T13:02:58.029Z","created_by_id":null,"modified_on":"2025-04-25T18:48:10.206Z","modified_by_id":"019372de-17ef-7cc2-8fc0-43fe11ba042f","deleted_on":null,"deleted_by_id":null,"tenant_id":"00000000-0000-0000-0000-000000000000","email":"ismael@mailinator.com","status":"active","first_name":"Sunday","last_name":"Testing","twofa_enabled":false,"last_active":"2025-04-25T18:48:10.182Z","last_login":null,"last_ip":"20.102.199.89","allowed_ips":null,"last_timezone":"America/Chicago","last_location":"Chicago","phone":"+2348089722636","review":null,"gender":"male","date_of_birth":null,"cba_id":"31","photo_id":null,"referral_code":"7LD1QN","referred_by":null},"referree":{"id":"01966a87-9793-7bbb-ab9b-550e6d19f5cb","meta":null,"created_on":"2025-04-25T01:19:53.238Z","created_by_id":null,"modified_on":"2025-04-25T01:19:53.337Z","modified_by_id":null,"deleted_on":null,"deleted_by_id":null,"tenant_id":"00000000-0000-0000-0000-000000000000","email":"SavannahDickinsonHandmadel@mailinator.com","status":"active","first_name":"Koepp","last_name":"Peyton","twofa_enabled":false,"last_active":"2025-04-25T01:19:53.238Z","last_login":null,"last_ip":"20.102.199.208","allowed_ips":null,"last_timezone":"America/Chicago","last_location":"Chicago","phone":null,"review":null,"gender":null,"date_of_birth":null,"cba_id":null,"photo_id":null,"referral_code":"PGI8OT","referred_by":"019372de-17ef-7cc2-8fc0-43fe11ba042f"},"events":[]},{"id":"019663fc-4ea2-7eec-b097-64e480fdbe19","meta":null,"created_on":"2025-04-23T18:50:01.755Z","created_by_id":null,"modified_on":"2025-04-23T18:50:01.755Z","modified_by_id":null,"deleted_on":null,"deleted_by_id":null,"tenant_id":"00000000-0000-0000-0000-000000000000","user_id":"019372de-17ef-7cc2-8fc0-43fe11ba042f","status":"pending","referree_id":"019663fc-4e2f-7eec-b097-5bc86265ab18","referree_earning":"233.33","referrer_earning":"100.32","user":{"id":"019372de-17ef-7cc2-8fc0-43fe11ba042f","meta":{},"created_on":"2024-11-28T13:02:58.029Z","created_by_id":null,"modified_on":"2025-04-25T18:48:10.206Z","modified_by_id":"019372de-17ef-7cc2-8fc0-43fe11ba042f","deleted_on":null,"deleted_by_id":null,"tenant_id":"00000000-0000-0000-0000-000000000000","email":"ismael@mailinator.com","status":"active","first_name":"Sunday","last_name":"Testing","twofa_enabled":false,"last_active":"2025-04-25T18:48:10.182Z","last_login":null,"last_ip":"20.102.199.89","allowed_ips":null,"last_timezone":"America/Chicago","last_location":"Chicago","phone":"+2348089722636","review":null,"gender":"male","date_of_birth":null,"cba_id":"31","photo_id":null,"referral_code":"7LD1QN","referred_by":null},"referree":{"id":"019663fc-4e2f-7eec-b097-5bc86265ab18","meta":null,"created_on":"2025-04-23T18:50:01.644Z","created_by_id":null,"modified_on":"2025-04-23T18:50:01.947Z","modified_by_id":null,"deleted_on":null,"deleted_by_id":null,"tenant_id":"00000000-0000-0000-0000-000000000000","email":"JaniceTorpInteractions@mailinator.com","status":"active","first_name":"Rosenbaum","last_name":"Cristopher","twofa_enabled":false,"last_active":"2025-04-23T18:50:01.644Z","last_login":null,"last_ip":"20.169.14.25","allowed_ips":null,"last_timezone":"America/Phoenix","last_location":"Phoenix","phone":null,"review":null,"gender":null,"date_of_birth":null,"cba_id":null,"photo_id":null,"referral_code":"CZRCTJ","referred_by":"019372de-17ef-7cc2-8fc0-43fe11ba042f"},"events":[]},{"id":"019663f9-45fe-7eec-b093-c262b39f2fc3","meta":null,"created_on":"2025-04-23T18:46:42.941Z","created_by_id":null,"modified_on":"2025-04-23T18:46:42.941Z","modified_by_id":null,"deleted_on":null,"deleted_by_id":null,"tenant_id":"00000000-0000-0000-0000-000000000000","user_id":"019372de-17ef-7cc2-8fc0-43fe11ba042f","status":"pending","referree_id":"019663f9-459f-7eec-b093-bd76c520f15a","referree_earning":"233.33","referrer_earning":"100.32","user":{"id":"019372de-17ef-7cc2-8fc0-43fe11ba042f","meta":{},"created_on":"2024-11-28T13:02:58.029Z","created_by_id":null,"modified_on":"2025-04-25T18:48:10.206Z","modified_by_id":"019372de-17ef-7cc2-8fc0-43fe11ba042f","deleted_on":null,"deleted_by_id":null,"tenant_id":"00000000-0000-0000-0000-000000000000","email":"ismael@mailinator.com","status":"active","first_name":"Sunday","last_name":"Testing","twofa_enabled":false,"last_active":"2025-04-25T18:48:10.182Z","last_login":null,"last_ip":"20.102.199.89","allowed_ips":null,"last_timezone":"America/Chicago","last_location":"Chicago","phone":"+2348089722636","review":null,"gender":"male","date_of_birth":null,"cba_id":"31","photo_id":null,"referral_code":"7LD1QN","referred_by":null},"referree":{"id":"019663f9-459f-7eec-b093-bd76c520f15a","meta":null,"created_on":"2025-04-23T18:46:42.845Z","created_by_id":null,"modified_on":"2025-04-23T18:46:42.957Z","modified_by_id":null,"deleted_on":null,"deleted_by_id":null,"tenant_id":"00000000-0000-0000-0000-000000000000","email":"HoytYundtMarylandb@mailinator.com","status":"active","first_name":"Huel","last_name":"Burdette","twofa_enabled":false,"last_active":"2025-04-23T18:46:42.845Z","last_login":null,"last_ip":"20.42.51.82","allowed_ips":null,"last_timezone":"America/New_York","last_location":"Tappahannock","phone":null,"review":null,"gender":null,"date_of_birth":null,"cba_id":null,"photo_id":null,"referral_code":"8EAQJH","referred_by":"019372de-17ef-7cc2-8fc0-43fe11ba042f"},"events":[]},{"id":"019654de-e841-722d-adf2-6c5c058185e1","meta":null,"created_on":"2025-04-20T20:23:36.768Z","created_by_id":null,"modified_on":"2025-04-20T20:23:36.768Z","modified_by_id":null,"deleted_on":null,"deleted_by_id":null,"tenant_id":"00000000-0000-0000-0000-000000000000","user_id":"019372de-17ef-7cc2-8fc0-43fe11ba042f","status":"pending","referree_id":"019654de-e83b-722d-adf2-60c469821666","referree_earning":"233.33","referrer_earning":"100.32","user":{"id":"019372de-17ef-7cc2-8fc0-43fe11ba042f","meta":{},"created_on":"2024-11-28T13:02:58.029Z","created_by_id":null,"modified_on":"2025-04-25T18:48:10.206Z","modified_by_id":"019372de-17ef-7cc2-8fc0-43fe11ba042f","deleted_on":null,"deleted_by_id":null,"tenant_id":"00000000-0000-0000-0000-000000000000","email":"ismael@mailinator.com","status":"active","first_name":"Sunday","last_name":"Testing","twofa_enabled":false,"last_active":"2025-04-25T18:48:10.182Z","last_login":null,"last_ip":"20.102.199.89","allowed_ips":null,"last_timezone":"America/Chicago","last_location":"Chicago","phone":"+2348089722636","review":null,"gender":"male","date_of_birth":null,"cba_id":"31","photo_id":null,"referral_code":"7LD1QN","referred_by":null},"referree":{"id":"019654de-e83b-722d-adf2-60c469821666","meta":null,"created_on":"2025-04-20T20:23:36.762Z","created_by_id":null,"modified_on":"2025-04-20T20:23:36.852Z","modified_by_id":null,"deleted_on":null,"deleted_by_id":null,"tenant_id":"00000000-0000-0000-0000-000000000000","email":"JesusKlingTastyx@mailinator.com","status":"active","first_name":"Goldner","last_name":"Hector","twofa_enabled":false,"last_active":"2025-04-20T20:23:36.762Z","last_login":null,"last_ip":"20.161.78.144","allowed_ips":null,"last_timezone":"America/New_York","last_location":"Boydton","phone":null,"review":null,"gender":null,"date_of_birth":null,"cba_id":null,"photo_id":null,"referral_code":"5BVV4G","referred_by":"019372de-17ef-7cc2-8fc0-43fe11ba042f"},"events":[]},{"id":"019654d1-cb9d-722d-adf2-36ba06036ece","meta":null,"created_on":"2025-04-20T20:09:17.469Z","created_by_id":null,"modified_on":"2025-04-20T20:09:17.469Z","modified_by_id":null,"deleted_on":null,"deleted_by_id":null,"tenant_id":"00000000-0000-0000-0000-000000000000","user_id":"019372de-17ef-7cc2-8fc0-43fe11ba042f","status":"pending","referree_id":"019654d1-cb97-722d-adf2-2cb17fc30f7c","referree_earning":"233.33","referrer_earning":"100.32","user":{"id":"019372de-17ef-7cc2-8fc0-43fe11ba042f","meta":{},"created_on":"2024-11-28T13:02:58.029Z","created_by_id":null,"modified_on":"2025-04-25T18:48:10.206Z","modified_by_id":"019372de-17ef-7cc2-8fc0-43fe11ba042f","deleted_on":null,"deleted_by_id":null,"tenant_id":"00000000-0000-0000-0000-000000000000","email":"ismael@mailinator.com","status":"active","first_name":"Sunday","last_name":"Testing","twofa_enabled":false,"last_active":"2025-04-25T18:48:10.182Z","last_login":null,"last_ip":"20.102.199.89","allowed_ips":null,"last_timezone":"America/Chicago","last_location":"Chicago","phone":"+2348089722636","review":null,"gender":"male","date_of_birth":null,"cba_id":"31","photo_id":null,"referral_code":"7LD1QN","referred_by":null},"referree":{"id":"019654d1-cb97-722d-adf2-2cb17fc30f7c","meta":null,"created_on":"2025-04-20T20:09:17.463Z","created_by_id":null,"modified_on":"2025-04-20T20:09:17.549Z","modified_by_id":null,"deleted_on":null,"deleted_by_id":null,"tenant_id":"00000000-0000-0000-0000-000000000000","email":"SvenLynchLiberia@mailinator.com","status":"active","first_name":"Lockman","last_name":"Gennaro","twofa_enabled":false,"last_active":"2025-04-20T20:09:17.463Z","last_login":null,"last_ip":"20.57.47.243","allowed_ips":null,"last_timezone":"America/New_York","last_location":"Boydton","phone":null,"review":null,"gender":null,"date_of_birth":null,"cba_id":null,"photo_id":null,"referral_code":"QUM6RG","referred_by":"019372de-17ef-7cc2-8fc0-43fe11ba042f"},"events":[]},{"id":"01964a39-53ce-722d-ade0-8ccb0cb90086","meta":null,"created_on":"2025-04-18T18:46:33.165Z","created_by_id":null,"modified_on":"2025-04-18T18:46:33.165Z","modified_by_id":null,"deleted_on":null,"deleted_by_id":null,"tenant_id":"00000000-0000-0000-0000-000000000000","user_id":"019372de-17ef-7cc2-8fc0-43fe11ba042f","status":"pending","referree_id":"01964a39-53c8-722d-ade0-8789c1a56126","referree_earning":"233.33","referrer_earning":"100.32","user":{"id":"019372de-17ef-7cc2-8fc0-43fe11ba042f","meta":{},"created_on":"2024-11-28T13:02:58.029Z","created_by_id":null,"modified_on":"2025-04-25T18:48:10.206Z","modified_by_id":"019372de-17ef-7cc2-8fc0-43fe11ba042f","deleted_on":null,"deleted_by_id":null,"tenant_id":"00000000-0000-0000-0000-000000000000","email":"ismael@mailinator.com","status":"active","first_name":"Sunday","last_name":"Testing","twofa_enabled":false,"last_active":"2025-04-25T18:48:10.182Z","last_login":null,"last_ip":"20.102.199.89","allowed_ips":null,"last_timezone":"America/Chicago","last_location":"Chicago","phone":"+2348089722636","review":null,"gender":"male","date_of_birth":null,"cba_id":"31","photo_id":null,"referral_code":"7LD1QN","referred_by":null},"referree":{"id":"01964a39-53c8-722d-ade0-8789c1a56126","meta":null,"created_on":"2025-04-18T18:46:33.157Z","created_by_id":null,"modified_on":"2025-04-18T18:46:33.255Z","modified_by_id":null,"deleted_on":null,"deleted_by_id":null,"tenant_id":"00000000-0000-0000-0000-000000000000","email":"EmeraldHodkiewiczElectronics@mailinator.com","status":"active","first_name":"Roob","last_name":"Shirley","twofa_enabled":false,"last_active":"2025-04-18T18:46:33.157Z","last_login":null,"last_ip":"172.200.183.146","allowed_ips":null,"last_timezone":"America/New_York","last_location":"Boydton","phone":null,"review":null,"gender":null,"date_of_birth":null,"cba_id":null,"photo_id":null,"referral_code":"NTIVO4","referred_by":"019372de-17ef-7cc2-8fc0-43fe11ba042f"},"events":[]},{"id":"01964a38-e279-722d-addf-65f00a0e19af","meta":null,"created_on":"2025-04-18T18:46:04.151Z","created_by_id":null,"modified_on":"2025-04-18T18:46:04.151Z","modified_by_id":null,"deleted_on":null,"deleted_by_id":null,"tenant_id":"00000000-0000-0000-0000-000000000000","user_id":"019372de-17ef-7cc2-8fc0-43fe11ba042f","status":"pending","referree_id":"01964a38-e226-722d-addf-5de16e62e79f","referree_earning":"233.33","referrer_earning":"100.32","user":{"id":"019372de-17ef-7cc2-8fc0-43fe11ba042f","meta":{},"created_on":"2024-11-28T13:02:58.029Z","created_by_id":null,"modified_on":"2025-04-25T18:48:10.206Z","modified_by_id":"019372de-17ef-7cc2-8fc0-43fe11ba042f","deleted_on":null,"deleted_by_id":null,"tenant_id":"00000000-0000-0000-0000-000000000000","email":"ismael@mailinator.com","status":"active","first_name":"Sunday","last_name":"Testing","twofa_enabled":false,"last_active":"2025-04-25T18:48:10.182Z","last_login":null,"last_ip":"20.102.199.89","allowed_ips":null,"last_timezone":"America/Chicago","last_location":"Chicago","phone":"+2348089722636","review":null,"gender":"male","date_of_birth":null,"cba_id":"31","photo_id":null,"referral_code":"7LD1QN","referred_by":null},"referree":{"id":"01964a38-e226-722d-addf-5de16e62e79f","meta":null,"created_on":"2025-04-18T18:46:04.069Z","created_by_id":null,"modified_on":"2025-04-18T18:46:04.170Z","modified_by_id":null,"deleted_on":null,"deleted_by_id":null,"tenant_id":"00000000-0000-0000-0000-000000000000","email":"QuentinGusikowskitransmit8@mailinator.com","status":"active","first_name":"Marquardt","last_name":"Harry","twofa_enabled":false,"last_active":"2025-04-18T18:46:04.069Z","last_login":null,"last_ip":"172.183.54.79","allowed_ips":null,"last_timezone":"America/Chicago","last_location":"Chicago","phone":null,"review":null,"gender":null,"date_of_birth":null,"cba_id":null,"photo_id":null,"referral_code":"1SN44M","referred_by":"019372de-17ef-7cc2-8fc0-43fe11ba042f"},"events":[]}],"meta":{"page":1,"total_pages":9,"total_items":84}}