{"status":"success","data":[{"id":"01966e46-e540-7664-b413-b8b60382e176","meta":null,"created_on":"2025-04-25T18:47:42.165Z","created_by_id":"019372de-17ef-7cc2-8fc0-43fe11ba042f","modified_on":"2025-04-25T18:47:42.165Z","modified_by_id":null,"deleted_on":null,"deleted_by_id":null,"tenant_id":"00000000-0000-0000-0000-000000000000","user_id":"019372de-17ef-7cc2-8fc0-43fe11ba042f","body":"Your beneficiary John Doe has been successfully added to your account.","title":"Beneficiary Added Successfully","type":"push","status":"sent"},{"id":"01966e46-acf8-7664-b412-eeb1e45e698b","meta":null,"created_on":"2025-04-25T18:47:27.759Z","created_by_id":"019372de-17ef-7cc2-8fc0-43fe11ba042f","modified_on":"2025-04-25T18:47:27.759Z","modified_by_id":null,"deleted_on":null,"deleted_by_id":null,"tenant_id":"00000000-0000-0000-0000-000000000000","user_id":"019372de-17ef-7cc2-8fc0-43fe11ba042f","body":"The Maker-Checker feature has been enabled. Actions created by one user will require approval by a different user to be processed","title":"Maker-checker Enabled","type":"push","status":"sent"},{"id":"01966ca5-fbeb-7999-9228-c8f424124557","meta":null,"created_on":"2025-04-25T11:12:19.394Z","created_by_id":"019372de-17ef-7cc2-8fc0-43fe11ba042f","modified_on":"2025-04-25T11:12:19.394Z","modified_by_id":null,"deleted_on":null,"deleted_by_id":null,"tenant_id":"00000000-0000-0000-0000-000000000000","user_id":"019372de-17ef-7cc2-8fc0-43fe11ba042f","body":"The Maker-Checker feature has been disabled. Users can now approve their own actions.","title":"Maker-checker Disabled","type":"push","status":"sent"},{"id":"01966a90-65d0-7bbb-ab9f-b25e4f3f5b09","meta":null,"created_on":"2025-04-25T01:29:30.323Z","created_by_id":"019372de-17ef-7cc2-8fc0-43fe11ba042f","modified_on":"2025-04-25T01:29:30.323Z","modified_by_id":null,"deleted_on":null,"deleted_by_id":null,"tenant_id":"00000000-0000-0000-0000-000000000000","user_id":"019372de-17ef-7cc2-8fc0-43fe11ba042f","body":"Your beneficiary John Doe has been successfully added to your account.","title":"Beneficiary Added Successfully","type":"push","status":"sent"},{"id":"01966a90-30ed-7bbb-ab9f-1d9be4236fe0","meta":null,"created_on":"2025-04-25T01:29:16.783Z","created_by_id":"019372de-17ef-7cc2-8fc0-43fe11ba042f","modified_on":"2025-04-25T01:29:16.783Z","modified_by_id":null,"deleted_on":null,"deleted_by_id":null,"tenant_id":"00000000-0000-0000-0000-000000000000","user_id":"019372de-17ef-7cc2-8fc0-43fe11ba042f","body":"The Maker-Checker feature has been enabled. Actions created by one user will require approval by a different user to be processed","title":"Maker-checker Enabled","type":"push","status":"sent"},{"id":"01966a88-2612-7bbb-ab9c-e96763e5ef65","meta":null,"created_on":"2025-04-25T01:20:29.717Z","created_by_id":"019372de-17ef-7cc2-8fc0-43fe11ba042f","modified_on":"2025-04-25T01:20:29.717Z","modified_by_id":null,"deleted_on":null,"deleted_by_id":null,"tenant_id":"00000000-0000-0000-0000-000000000000","user_id":"019372de-17ef-7cc2-8fc0-43fe11ba042f","body":"Your beneficiary John Doe has been successfully added to your account.","title":"Beneficiary Added Successfully","type":"push","status":"sent"},{"id":"01966a87-f73a-7bbb-ab9c-5272a96aab63","meta":null,"created_on":"2025-04-25T01:20:17.719Z","created_by_id":"019372de-17ef-7cc2-8fc0-43fe11ba042f","modified_on":"2025-04-25T01:20:17.719Z","modified_by_id":null,"deleted_on":null,"deleted_by_id":null,"tenant_id":"00000000-0000-0000-0000-000000000000","user_id":"019372de-17ef-7cc2-8fc0-43fe11ba042f","body":"The Maker-Checker feature has been enabled. Actions created by one user will require approval by a different user to be processed","title":"Maker-checker Enabled","type":"push","status":"sent"},{"id":"0196686c-5216-7eec-b09d-0eff04d85fcd","meta":null,"created_on":"2025-04-24T15:30:51.540Z","created_by_id":"019372de-17ef-7cc2-8fc0-43fe11ba042f","modified_on":"2025-04-24T15:30:51.540Z","modified_by_id":null,"deleted_on":null,"deleted_by_id":null,"tenant_id":"00000000-0000-0000-0000-000000000000","user_id":"019372de-17ef-7cc2-8fc0-43fe11ba042f","body":"The Maker-Checker feature has been disabled. Users can now approve their own actions.","title":"Maker-checker Disabled","type":"push","status":"sent"},{"id":"019663f9-cf49-7eec-b095-56b03fc9bc06","meta":null,"created_on":"2025-04-23T18:47:18.087Z","created_by_id":"019372de-17ef-7cc2-8fc0-43fe11ba042f","modified_on":"2025-04-23T18:47:18.087Z","modified_by_id":null,"deleted_on":null,"deleted_by_id":null,"tenant_id":"00000000-0000-0000-0000-000000000000","user_id":"019372de-17ef-7cc2-8fc0-43fe11ba042f","body":"Your beneficiary John Doe has been successfully added to your account.","title":"Beneficiary Added Successfully","type":"push","status":"sent"},{"id":"019663f9-99fe-7eec-b094-bfdd8e222dbc","meta":null,"created_on":"2025-04-23T18:47:04.440Z","created_by_id":"019372de-17ef-7cc2-8fc0-43fe11ba042f","modified_on":"2025-04-23T18:47:04.440Z","modified_by_id":null,"deleted_on":null,"deleted_by_id":null,"tenant_id":"00000000-0000-0000-0000-000000000000","user_id":"019372de-17ef-7cc2-8fc0-43fe11ba042f","body":"The Maker-Checker feature has been enabled. Actions created by one user will require approval by a different user to be processed","title":"Maker-checker Enabled","type":"push","status":"sent"}],"meta":{"page":1,"total_pages":17,"total_items":161}}