{"status":"success","data":[{"id":"0195576c-1e8e-7dd1-9969-b8ed5be53434","meta":null,"created_on":"2025-03-02T15:14:18.381Z","created_by_id":"0195576c-0e38-7dd1-9969-a3cba9d1fde2","modified_on":"2025-03-02T15:14:18.381Z","modified_by_id":null,"deleted_on":null,"deleted_by_id":null,"tenant_id":"00000000-0000-0000-0000-000000000000","name":"Azeez Ibrahim","type":"personal","status":"active","restricted":false,"review":null,"allowed_time_periods":null,"allowed_locations":null,"primary_user_id":"0195576c-0e38-7dd1-9969-a3cba9d1fde2","tier_id":null,"primary_user":{"id":"0195576c-0e38-7dd1-9969-a3cba9d1fde2","meta":null,"created_on":"2025-03-02T15:14:14.200Z","created_by_id":null,"modified_on":"2025-03-02T15:23:35.395Z","modified_by_id":"0195576c-0e38-7dd1-9969-a3cba9d1fde2","deleted_on":null,"deleted_by_id":null,"tenant_id":"00000000-0000-0000-0000-000000000000","email":"live@mailinator.com","status":"active","first_name":"Azeez","last_name":"Ibrahim","twofa_enabled":false,"last_active":"2025-03-02T15:23:35.395Z","last_ip":"104.23.172.58","allowed_ips":null,"last_timezone":"","last_location":"","phone":"+2349055322154","review":null,"gender":null,"date_of_birth":null,"cba_id":null,"photo_id":null,"referral_code":"5QM4LL","referred_by":null},"tier":null},{"id":"0195573e-45d5-7dd1-9966-97bcf562e390","meta":null,"created_on":"2025-03-02T14:24:13.780Z","created_by_id":"0195573e-3a19-7dd1-9966-7b756b042953","modified_on":"2025-03-02T15:03:15.288Z","modified_by_id":"01927265-4ed2-79cc-a0e6-e11339a359f3","deleted_on":null,"deleted_by_id":null,"tenant_id":"00000000-0000-0000-0000-000000000000","name":"Ibrahim Azeez","type":"personal","status":"active","restricted":false,"review":null,"allowed_time_periods":null,"allowed_locations":null,"primary_user_id":"0195573e-3a19-7dd1-9966-7b756b042953","tier_id":"01933d24-c3a9-7ddd-a344-96dfef942cbb","primary_user":{"id":"0195573e-3a19-7dd1-9966-7b756b042953","meta":null,"created_on":"2025-03-02T14:24:10.777Z","created_by_id":null,"modified_on":"2025-03-02T15:07:02.332Z","modified_by_id":"0195573e-3a19-7dd1-9966-7b756b042953","deleted_on":null,"deleted_by_id":null,"tenant_id":"00000000-0000-0000-0000-000000000000","email":"azeez+89@assurdly.com","status":"active","first_name":"Ibrahim","last_name":"Azeez","twofa_enabled":false,"last_active":"2025-03-02T15:07:02.330Z","last_ip":"172.71.182.237","allowed_ips":null,"last_timezone":"Europe/Amsterdam","last_location":"Amsterdam","phone":"+2349055755699","review":null,"gender":"male","date_of_birth":"2001-06-16","cba_id":"103","photo_id":null,"referral_code":"M6AL7D","referred_by":null},"tier":{"id":"01933d24-c3a9-7ddd-a344-96dfef942cbb","meta":null,"created_on":"2024-11-18T02:40:39.849Z","created_by_id":null,"modified_on":"2024-11-28T17:27:09.617Z","modified_by_id":null,"deleted_on":null,"deleted_by_id":null,"tenant_id":"00000000-0000-0000-0000-000000000000","profile_type":"personal","name":"Tier 2","description":"Tier 2","level":2,"enabled":true,"balance_limit":2000000,"single_sending_limit":500000,"single_receiving_limit":500000,"period_sending_limit":500000,"period_sending_limit_time_unit":"day","period_receiving_limit":500000,"period_receiving_limit_time_unit":"day","requirements":[{"id":"019367a8-5cbc-7115-b8f1-b95501201701","type_id":"019367a8-5cbc-7115-b8f1-b95501201701","type":"document","slug":"Identification Document","name":"Identification Document","description":"Identification Document."},{"id":"01933a66-8850-7335-a997-758238b72bd4","type_id":"01933a66-8850-7335-a997-758238b72bd4","type":"verification","slug":"nin","name":"Verify NIN","description":"In compliance with CBN regulations, we need to verify your NIN to identify you and prevent fraud."}]}},{"id":"01955725-3d3b-7dd1-9965-7109aeef8e80","meta":null,"created_on":"2025-03-02T13:56:53.178Z","created_by_id":"01955725-13d2-7dd1-9965-5a2150baa54a","modified_on":"2025-03-02T14:01:50.177Z","modified_by_id":"01955725-13d2-7dd1-9965-5a2150baa54a","deleted_on":null,"deleted_by_id":null,"tenant_id":"00000000-0000-0000-0000-000000000000","name":"Abdussamad Chineke","type":"personal","status":"active","restricted":false,"review":null,"allowed_time_periods":null,"allowed_locations":null,"primary_user_id":"01955725-13d2-7dd1-9965-5a2150baa54a","tier_id":"01928f2d-6756-755b-8a9d-c8094db2af27","primary_user":{"id":"01955725-13d2-7dd1-9965-5a2150baa54a","meta":null,"created_on":"2025-03-02T13:56:42.577Z","created_by_id":null,"modified_on":"2025-03-02T14:02:14.797Z","modified_by_id":"01955725-13d2-7dd1-9965-5a2150baa54a","deleted_on":null,"deleted_by_id":null,"tenant_id":"00000000-0000-0000-0000-000000000000","email":"chineke@gmail.com","status":"active","first_name":"Abdussamad","last_name":"Chineke","twofa_enabled":false,"last_active":"2025-03-02T14:02:14.796Z","last_ip":"172.71.178.160","allowed_ips":null,"last_timezone":"Europe/London","last_location":"London","phone":"+2348123884084","review":null,"gender":"male","date_of_birth":"1999-07-05","cba_id":"102","photo_id":null,"referral_code":"KZRI67","referred_by":null},"tier":{"id":"01928f2d-6756-755b-8a9d-c8094db2af27","meta":null,"created_on":"2024-10-15T07:56:10.789Z","created_by_id":null,"modified_on":"2025-01-23T15:14:24.513Z","modified_by_id":"01927265-4ed2-79cc-a0e6-e11339a359f3","deleted_on":null,"deleted_by_id":null,"tenant_id":"00000000-0000-0000-0000-000000000000","profile_type":"personal","name":"Tier 1","description":"Tier 1","level":1,"enabled":true,"balance_limit":2000000,"single_sending_limit":500000,"single_receiving_limit":500000,"period_sending_limit":500000,"period_sending_limit_time_unit":"day","period_receiving_limit":500000,"period_receiving_limit_time_unit":"day","requirements":[{"id":"019318f9-c895-744d-8f65-4636cc26dd1c","type_id":"019318f9-c895-744d-8f65-4636cc26dd1c","type":"verification","slug":"phone","name":"Phone","description":"Verify yor number"},{"id":"019318f9-c895-744d-8f65-4636cc26dd1d","type_id":"019318f9-c895-744d-8f65-4636cc26dd1d","type":"verification","slug":"email","name":"Email","description":"Verify your email"},{"id":"019318f9-c895-744d-8f65-4636cc26dd1f","type_id":"019318f9-c895-744d-8f65-4636cc26dd1f","type":"verification","slug":"liveness","name":"Image liveness check","description":"This step helps us verify your identity by matching your image with the credentials you’ve provided."},{"id":"01933d40-03e5-777c-a6e6-bf72eb1c8968","type_id":"01933d40-03e5-777c-a6e6-bf72eb1c8968","type":"verification","slug":"bvn","name":"BVN","description":"BVN"}]}},{"id":"01955278-795f-7dd1-9962-94412bd0be15","meta":null,"created_on":"2025-03-01T16:09:41.984Z","created_by_id":"01955278-52c8-7dd1-9962-7955c8903da5","modified_on":"2025-03-01T16:09:41.984Z","modified_by_id":null,"deleted_on":null,"deleted_by_id":null,"tenant_id":"00000000-0000-0000-0000-000000000000","name":"Ibrahim Azeez","type":"personal","status":"active","restricted":false,"review":null,"allowed_time_periods":null,"allowed_locations":null,"primary_user_id":"01955278-52c8-7dd1-9962-7955c8903da5","tier_id":null,"primary_user":{"id":"01955278-52c8-7dd1-9962-7955c8903da5","meta":null,"created_on":"2025-03-01T16:09:32.103Z","created_by_id":null,"modified_on":"2025-03-02T13:52:10.774Z","modified_by_id":"01955278-52c8-7dd1-9962-7955c8903da5","deleted_on":null,"deleted_by_id":null,"tenant_id":"00000000-0000-0000-0000-000000000000","email":"bole@mailinator.com","status":"active","first_name":"Ibrahim","last_name":"Azeez","twofa_enabled":false,"last_active":"2025-03-02T13:52:10.774Z","last_ip":"141.101.99.23","allowed_ips":null,"last_timezone":"Europe/London","last_location":"London","phone":"+2349055755578","review":null,"gender":"male","date_of_birth":"2001-06-16","cba_id":null,"photo_id":null,"referral_code":"TO8T65","referred_by":null},"tier":null},{"id":"01955207-67ad-7dd1-9961-74c20b90cd94","meta":null,"created_on":"2025-03-01T14:06:11.885Z","created_by_id":"01955207-185a-7dd1-9961-5a141a7d31d0","modified_on":"2025-03-01T14:06:11.885Z","modified_by_id":null,"deleted_on":null,"deleted_by_id":null,"tenant_id":"00000000-0000-0000-0000-000000000000","name":"Koshi Danu","type":"personal","status":"active","restricted":false,"review":null,"allowed_time_periods":null,"allowed_locations":null,"primary_user_id":"01955207-185a-7dd1-9961-5a141a7d31d0","tier_id":null,"primary_user":{"id":"01955207-185a-7dd1-9961-5a141a7d31d0","meta":null,"created_on":"2025-03-01T14:05:51.578Z","created_by_id":null,"modified_on":"2025-03-01T23:36:47.492Z","modified_by_id":"0193d109-a926-7446-abe5-7dafe8b742bd","deleted_on":null,"deleted_by_id":null,"tenant_id":"00000000-0000-0000-0000-000000000000","email":"koshi@mailinator.com","status":"active","first_name":"Koshi","last_name":"Danu","twofa_enabled":false,"last_active":"2025-03-01T16:22:34.326Z","last_ip":"172.69.194.182","allowed_ips":null,"last_timezone":"Europe/London","last_location":"London","phone":"+2349055633125","review":null,"gender":null,"date_of_birth":null,"cba_id":null,"photo_id":null,"referral_code":"AV16V0","referred_by":null},"tier":null},{"id":"01954cd1-f3d3-7338-a2ce-b220bfa4a996","meta":null,"created_on":"2025-02-28T13:49:42.739Z","created_by_id":"01954cd1-e976-7338-a2ce-9b152cc5c58c","modified_on":"2025-02-28T13:49:42.739Z","modified_by_id":null,"deleted_on":null,"deleted_by_id":null,"tenant_id":"00000000-0000-0000-0000-000000000000","name":"Azeez Ibrahim","type":"personal","status":"active","restricted":false,"review":null,"allowed_time_periods":null,"allowed_locations":null,"primary_user_id":"01954cd1-e976-7338-a2ce-9b152cc5c58c","tier_id":null,"primary_user":{"id":"01954cd1-e976-7338-a2ce-9b152cc5c58c","meta":null,"created_on":"2025-02-28T13:49:40.086Z","created_by_id":null,"modified_on":"2025-02-28T14:37:22.779Z","modified_by_id":"01954cd1-e976-7338-a2ce-9b152cc5c58c","deleted_on":null,"deleted_by_id":null,"tenant_id":"00000000-0000-0000-0000-000000000000","email":"kuro@mailinator.com","status":"active","first_name":"Azeez","last_name":"Ibrahim","twofa_enabled":false,"last_active":"2025-02-28T14:37:22.778Z","last_ip":"172.71.122.168","allowed_ips":null,"last_timezone":"Europe/Paris","last_location":"Paris","phone":"+2349050566671","review":null,"gender":"male","date_of_birth":"2001-06-16","cba_id":null,"photo_id":null,"referral_code":"MHHZJ6","referred_by":null},"tier":null},{"id":"01954c86-7268-7338-a2cd-83a2dd8760db","meta":null,"created_on":"2025-02-28T12:27:14.409Z","created_by_id":"01954c86-5c79-7338-a2cd-6a25bd64c55b","modified_on":"2025-02-28T12:30:45.233Z","modified_by_id":"01954c86-5c79-7338-a2cd-6a25bd64c55b","deleted_on":null,"deleted_by_id":null,"tenant_id":"00000000-0000-0000-0000-000000000000","name":"Abdussamad Yisau","type":"personal","status":"active","restricted":false,"review":null,"allowed_time_periods":null,"allowed_locations":null,"primary_user_id":"01954c86-5c79-7338-a2cd-6a25bd64c55b","tier_id":"01928f2d-6756-755b-8a9d-c8094db2af27","primary_user":{"id":"01954c86-5c79-7338-a2cd-6a25bd64c55b","meta":null,"created_on":"2025-02-28T12:27:08.793Z","created_by_id":null,"modified_on":"2025-03-01T22:48:52.636Z","modified_by_id":"01954c86-5c79-7338-a2cd-6a25bd64c55b","deleted_on":null,"deleted_by_id":null,"tenant_id":"00000000-0000-0000-0000-000000000000","email":"testcoo@gmail.com","status":"active","first_name":"Abdussamad","last_name":"Yisau","twofa_enabled":false,"last_active":"2025-03-01T22:48:52.636Z","last_ip":"141.101.98.28","allowed_ips":null,"last_timezone":"Europe/London","last_location":"London","phone":"+2349133779812","review":null,"gender":"male","date_of_birth":"1999-07-05","cba_id":"101","photo_id":null,"referral_code":"Z4LLI3","referred_by":null},"tier":{"id":"01928f2d-6756-755b-8a9d-c8094db2af27","meta":null,"created_on":"2024-10-15T07:56:10.789Z","created_by_id":null,"modified_on":"2025-01-23T15:14:24.513Z","modified_by_id":"01927265-4ed2-79cc-a0e6-e11339a359f3","deleted_on":null,"deleted_by_id":null,"tenant_id":"00000000-0000-0000-0000-000000000000","profile_type":"personal","name":"Tier 1","description":"Tier 1","level":1,"enabled":true,"balance_limit":2000000,"single_sending_limit":500000,"single_receiving_limit":500000,"period_sending_limit":500000,"period_sending_limit_time_unit":"day","period_receiving_limit":500000,"period_receiving_limit_time_unit":"day","requirements":[{"id":"019318f9-c895-744d-8f65-4636cc26dd1c","type_id":"019318f9-c895-744d-8f65-4636cc26dd1c","type":"verification","slug":"phone","name":"Phone","description":"Verify yor number"},{"id":"019318f9-c895-744d-8f65-4636cc26dd1d","type_id":"019318f9-c895-744d-8f65-4636cc26dd1d","type":"verification","slug":"email","name":"Email","description":"Verify your email"},{"id":"019318f9-c895-744d-8f65-4636cc26dd1f","type_id":"019318f9-c895-744d-8f65-4636cc26dd1f","type":"verification","slug":"liveness","name":"Image liveness check","description":"This step helps us verify your identity by matching your image with the credentials you’ve provided."},{"id":"01933d40-03e5-777c-a6e6-bf72eb1c8968","type_id":"01933d40-03e5-777c-a6e6-bf72eb1c8968","type":"verification","slug":"bvn","name":"BVN","description":"BVN"}]}},{"id":"0195491c-b1c5-7ccd-8f7a-fac08026fac9","meta":null,"created_on":"2025-02-27T20:32:52.165Z","created_by_id":"0195491c-6669-7ccd-8f7a-a31a1eb32cb5","modified_on":"2025-03-02T17:01:42.286Z","modified_by_id":"0195491c-6669-7ccd-8f7a-a31a1eb32cb5","deleted_on":null,"deleted_by_id":null,"tenant_id":"00000000-0000-0000-0000-000000000000","name":"Hammes Deon","type":"personal","status":"active","restricted":false,"review":null,"allowed_time_periods":null,"allowed_locations":null,"primary_user_id":"0195491c-6669-7ccd-8f7a-a31a1eb32cb5","tier_id":"01928f2d-6756-755b-8a9d-c8094db2af27","primary_user":{"id":"0195491c-6669-7ccd-8f7a-a31a1eb32cb5","meta":null,"created_on":"2025-02-27T20:32:32.873Z","created_by_id":null,"modified_on":"2025-03-02T17:54:39.998Z","modified_by_id":"0195491c-6669-7ccd-8f7a-a31a1eb32cb5","deleted_on":null,"deleted_by_id":null,"tenant_id":"00000000-0000-0000-0000-000000000000","email":"Josianne@mailinator.com","status":"active","first_name":"Hammes","last_name":"Deon","twofa_enabled":false,"last_active":"2025-03-02T17:54:39.996Z","last_ip":"141.101.98.239","allowed_ips":null,"last_timezone":"Europe/London","last_location":"London","phone":null,"review":null,"gender":"male","date_of_birth":"1999-10-31","cba_id":null,"photo_id":null,"referral_code":"0BXC1P","referred_by":"019372de-17ef-7cc2-8fc0-43fe11ba042f"},"tier":{"id":"01928f2d-6756-755b-8a9d-c8094db2af27","meta":null,"created_on":"2024-10-15T07:56:10.789Z","created_by_id":null,"modified_on":"2025-01-23T15:14:24.513Z","modified_by_id":"01927265-4ed2-79cc-a0e6-e11339a359f3","deleted_on":null,"deleted_by_id":null,"tenant_id":"00000000-0000-0000-0000-000000000000","profile_type":"personal","name":"Tier 1","description":"Tier 1","level":1,"enabled":true,"balance_limit":2000000,"single_sending_limit":500000,"single_receiving_limit":500000,"period_sending_limit":500000,"period_sending_limit_time_unit":"day","period_receiving_limit":500000,"period_receiving_limit_time_unit":"day","requirements":[{"id":"019318f9-c895-744d-8f65-4636cc26dd1c","type_id":"019318f9-c895-744d-8f65-4636cc26dd1c","type":"verification","slug":"phone","name":"Phone","description":"Verify yor number"},{"id":"01933d40-03e5-777c-a6e6-bf72eb1c8968","type_id":"01933d40-03e5-777c-a6e6-bf72eb1c8968","type":"verification","slug":"bvn","name":"BVN","description":"BVN"},{"id":"019318f9-c895-744d-8f65-4636cc26dd1f","type_id":"019318f9-c895-744d-8f65-4636cc26dd1f","type":"verification","slug":"liveness","name":"Image liveness check","description":"This step helps us verify your identity by matching your image with the credentials you’ve provided."},{"id":"019318f9-c895-744d-8f65-4636cc26dd1d","type_id":"019318f9-c895-744d-8f65-4636cc26dd1d","type":"verification","slug":"email","name":"Email","description":"Verify your email"}]}},{"id":"01954849-115e-7cce-b25a-dbbc67358eab","meta":null,"created_on":"2025-02-27T16:41:43.006Z","created_by_id":"01954848-ebc5-7cce-b25a-c2b0ac020086","modified_on":"2025-02-27T16:43:22.612Z","modified_by_id":"01954848-ebc5-7cce-b25a-c2b0ac020086","deleted_on":null,"deleted_by_id":null,"tenant_id":"00000000-0000-0000-0000-000000000000","name":"Ibrahim Azeez","type":"personal","status":"active","restricted":false,"review":null,"allowed_time_periods":null,"allowed_locations":null,"primary_user_id":"01954848-ebc5-7cce-b25a-c2b0ac020086","tier_id":"01928f2d-6756-755b-8a9d-c8094db2af27","primary_user":{"id":"01954848-ebc5-7cce-b25a-c2b0ac020086","meta":null,"created_on":"2025-02-27T16:41:33.381Z","created_by_id":null,"modified_on":"2025-02-27T21:08:39.295Z","modified_by_id":"01954848-ebc5-7cce-b25a-c2b0ac020086","deleted_on":null,"deleted_by_id":null,"tenant_id":"00000000-0000-0000-0000-000000000000","email":"tiertest@mailinator.com","status":"active","first_name":"Ibrahim","last_name":"Azeez","twofa_enabled":false,"last_active":"2025-02-27T21:08:39.295Z","last_ip":"172.70.90.126","allowed_ips":null,"last_timezone":"Europe/London","last_location":"London","phone":"+2347055799671","review":null,"gender":"male","date_of_birth":"2001-06-16","cba_id":"100","photo_id":null,"referral_code":"M4P8EW","referred_by":null},"tier":{"id":"01928f2d-6756-755b-8a9d-c8094db2af27","meta":null,"created_on":"2024-10-15T07:56:10.789Z","created_by_id":null,"modified_on":"2025-01-23T15:14:24.513Z","modified_by_id":"01927265-4ed2-79cc-a0e6-e11339a359f3","deleted_on":null,"deleted_by_id":null,"tenant_id":"00000000-0000-0000-0000-000000000000","profile_type":"personal","name":"Tier 1","description":"Tier 1","level":1,"enabled":true,"balance_limit":2000000,"single_sending_limit":500000,"single_receiving_limit":500000,"period_sending_limit":500000,"period_sending_limit_time_unit":"day","period_receiving_limit":500000,"period_receiving_limit_time_unit":"day","requirements":[{"id":"019318f9-c895-744d-8f65-4636cc26dd1c","type_id":"019318f9-c895-744d-8f65-4636cc26dd1c","type":"verification","slug":"phone","name":"Phone","description":"Verify yor number"},{"id":"019318f9-c895-744d-8f65-4636cc26dd1d","type_id":"019318f9-c895-744d-8f65-4636cc26dd1d","type":"verification","slug":"email","name":"Email","description":"Verify your email"},{"id":"019318f9-c895-744d-8f65-4636cc26dd1f","type_id":"019318f9-c895-744d-8f65-4636cc26dd1f","type":"verification","slug":"liveness","name":"Image liveness check","description":"This step helps us verify your identity by matching your image with the credentials you’ve provided."},{"id":"01933d40-03e5-777c-a6e6-bf72eb1c8968","type_id":"01933d40-03e5-777c-a6e6-bf72eb1c8968","type":"verification","slug":"bvn","name":"BVN","description":"BVN"}]}},{"id":"0195480e-de28-7cce-b256-40ba1398812c","meta":{},"created_on":"2025-02-27T15:38:08.808Z","created_by_id":"0195480e-cc79-7cce-b255-e861245d59a1","modified_on":"2025-02-27T16:02:50.893Z","modified_by_id":"0195480e-cc79-7cce-b255-e861245d59a1","deleted_on":null,"deleted_by_id":null,"tenant_id":"00000000-0000-0000-0000-000000000000","name":"Adex Frett","type":"personal","status":"active","restricted":false,"review":null,"allowed_time_periods":null,"allowed_locations":null,"primary_user_id":"0195480e-cc79-7cce-b255-e861245d59a1","tier_id":null,"primary_user":{"id":"0195480e-cc79-7cce-b255-e861245d59a1","meta":null,"created_on":"2025-02-27T15:38:04.282Z","created_by_id":null,"modified_on":"2025-02-27T16:07:16.893Z","modified_by_id":"0195480e-cc79-7cce-b255-e861245d59a1","deleted_on":null,"deleted_by_id":null,"tenant_id":"00000000-0000-0000-0000-000000000000","email":"frun@yopmail.com","status":"active","first_name":"Adex","last_name":"Frett","twofa_enabled":false,"last_active":"2025-02-27T16:07:16.892Z","last_ip":"172.70.47.149","allowed_ips":null,"last_timezone":"Europe/Amsterdam","last_location":"Amsterdam","phone":"+2348138092134","review":null,"gender":null,"date_of_birth":null,"cba_id":null,"photo_id":null,"referral_code":"ZRTV69","referred_by":"019372de-17ef-7cc2-8fc0-43fe11ba042f"},"tier":null}],"meta":{"page":1,"total_pages":22,"total_items":211}}