{"status":"success","data":[{"id":"0196f2ec-6d49-7661-b54e-64ffc7457230","meta":null,"created_on":"2025-05-21T12:58:22.915Z","created_by_id":"019372de-17ef-7cc2-8fc0-43fe11ba042f","modified_on":"2025-05-21T12:58:22.915Z","modified_by_id":null,"deleted_on":null,"deleted_by_id":null,"tenant_id":"00000000-0000-0000-0000-000000000000","user_id":"019372de-17ef-7cc2-8fc0-43fe11ba042f","body":"The Maker-Checker feature has been disabled. Users can now approve their own actions.","title":"Maker-checker Disabled","type":"push","status":"sent"},{"id":"0196da6d-4ad5-7448-8494-f2cea131b25e","meta":null,"created_on":"2025-05-16T18:48:37.845Z","created_by_id":"019372de-17ef-7cc2-8fc0-43fe11ba042f","modified_on":"2025-05-16T18:48:37.845Z","modified_by_id":null,"deleted_on":null,"deleted_by_id":null,"tenant_id":"00000000-0000-0000-0000-000000000000","user_id":"019372de-17ef-7cc2-8fc0-43fe11ba042f","body":"Your beneficiary John Doe has been successfully added to your account.","title":"Beneficiary Added Successfully","type":"push","status":"sent"},{"id":"0196da6d-2706-7448-8494-8bb1fed64e16","meta":null,"created_on":"2025-05-16T18:48:28.676Z","created_by_id":"019372de-17ef-7cc2-8fc0-43fe11ba042f","modified_on":"2025-05-16T18:48:28.676Z","modified_by_id":null,"deleted_on":null,"deleted_by_id":null,"tenant_id":"00000000-0000-0000-0000-000000000000","user_id":"019372de-17ef-7cc2-8fc0-43fe11ba042f","body":"The Maker-Checker feature has been enabled. Actions created by one user will require approval by a different user to be processed","title":"Maker-checker Enabled","type":"push","status":"sent"},{"id":"0196d01d-a676-7aa1-a929-445eee7876b8","meta":null,"created_on":"2025-05-14T18:45:26.262Z","created_by_id":"019372de-17ef-7cc2-8fc0-43fe11ba042f","modified_on":"2025-05-14T18:45:26.262Z","modified_by_id":null,"deleted_on":null,"deleted_by_id":null,"tenant_id":"00000000-0000-0000-0000-000000000000","user_id":"019372de-17ef-7cc2-8fc0-43fe11ba042f","body":"Your beneficiary John Doe has been successfully added to your account.","title":"Beneficiary Added Successfully","type":"push","status":"sent"},{"id":"0196d01d-878f-7aa1-a928-da53e1cdbbce","meta":null,"created_on":"2025-05-14T18:45:18.351Z","created_by_id":"019372de-17ef-7cc2-8fc0-43fe11ba042f","modified_on":"2025-05-14T18:45:18.351Z","modified_by_id":null,"deleted_on":null,"deleted_by_id":null,"tenant_id":"00000000-0000-0000-0000-000000000000","user_id":"019372de-17ef-7cc2-8fc0-43fe11ba042f","body":"The Maker-Checker feature has been enabled. Actions created by one user will require approval by a different user to be processed","title":"Maker-checker Enabled","type":"push","status":"sent"},{"id":"0196c105-51c1-7000-bf0c-caba9552cbc4","meta":null,"created_on":"2025-05-11T20:24:33.406Z","created_by_id":"019372de-17ef-7cc2-8fc0-43fe11ba042f","modified_on":"2025-05-11T20:24:33.406Z","modified_by_id":null,"deleted_on":null,"deleted_by_id":null,"tenant_id":"00000000-0000-0000-0000-000000000000","user_id":"019372de-17ef-7cc2-8fc0-43fe11ba042f","body":"Your beneficiary John Doe has been successfully added to your account.","title":"Beneficiary Added Successfully","type":"push","status":"sent"},{"id":"0196c105-31bd-7000-bf0c-8af4e3d68f42","meta":null,"created_on":"2025-05-11T20:24:25.275Z","created_by_id":"019372de-17ef-7cc2-8fc0-43fe11ba042f","modified_on":"2025-05-11T20:24:25.275Z","modified_by_id":null,"deleted_on":null,"deleted_by_id":null,"tenant_id":"00000000-0000-0000-0000-000000000000","user_id":"019372de-17ef-7cc2-8fc0-43fe11ba042f","body":"The Maker-Checker feature has been enabled. Actions created by one user will require approval by a different user to be processed","title":"Maker-checker Enabled","type":"push","status":"sent"},{"id":"0196b660-635b-7bba-bcbb-6f82f3e8c282","meta":null,"created_on":"2025-05-09T18:48:12.379Z","created_by_id":"019372de-17ef-7cc2-8fc0-43fe11ba042f","modified_on":"2025-05-09T18:48:12.379Z","modified_by_id":null,"deleted_on":null,"deleted_by_id":null,"tenant_id":"00000000-0000-0000-0000-000000000000","user_id":"019372de-17ef-7cc2-8fc0-43fe11ba042f","body":"Your beneficiary John Doe has been successfully added to your account.","title":"Beneficiary Added Successfully","type":"push","status":"sent"},{"id":"0196b660-48d5-7bba-bcba-e38d1a5a225d","meta":null,"created_on":"2025-05-09T18:48:05.587Z","created_by_id":"019372de-17ef-7cc2-8fc0-43fe11ba042f","modified_on":"2025-05-09T18:48:05.587Z","modified_by_id":null,"deleted_on":null,"deleted_by_id":null,"tenant_id":"00000000-0000-0000-0000-000000000000","user_id":"019372de-17ef-7cc2-8fc0-43fe11ba042f","body":"The Maker-Checker feature has been enabled. Actions created by one user will require approval by a different user to be processed","title":"Maker-checker Enabled","type":"push","status":"sent"},{"id":"0196ac11-6e7c-7cca-bb5c-5c72fce3e594","meta":null,"created_on":"2025-05-07T18:45:45.722Z","created_by_id":"019372de-17ef-7cc2-8fc0-43fe11ba042f","modified_on":"2025-05-07T18:45:45.722Z","modified_by_id":null,"deleted_on":null,"deleted_by_id":null,"tenant_id":"00000000-0000-0000-0000-000000000000","user_id":"019372de-17ef-7cc2-8fc0-43fe11ba042f","body":"Your beneficiary John Doe has been successfully added to your account.","title":"Beneficiary Added Successfully","type":"push","status":"sent"}],"meta":{"page":1,"total_pages":19,"total_items":182}}