{"status":"success","data":[{"id":"0195d55b-023f-766d-825f-0693d9054e4f","meta":null,"created_on":"2025-03-27T02:07:46.239Z","created_by_id":"0192cc0f-bd83-700c-a5b9-691965d489a3","modified_on":"2025-03-27T02:07:46.239Z","modified_by_id":null,"deleted_on":null,"deleted_by_id":null,"tenant_id":"00000000-0000-0000-0000-000000000000","profile_type":"personal","slug":"test","name":"test","description":"test","version":1},{"id":"0195d240-1b0d-7aa8-afb5-2390989aafe5","meta":null,"created_on":"2025-03-26T11:39:31.682Z","created_by_id":"01927265-4ed2-79cc-a0e6-e11339a359f3","modified_on":"2025-03-26T11:39:31.682Z","modified_by_id":null,"deleted_on":null,"deleted_by_id":null,"tenant_id":"00000000-0000-0000-0000-000000000000","profile_type":null,"slug":"vehicle-details","name":"Vehcile Details","description":"Please provide your vehicle information","version":1},{"id":"0195a8ce-a361-733b-b4fa-7a858c648503","meta":null,"created_on":"2025-03-18T10:31:09.408Z","created_by_id":"0192cc0f-bd83-700c-a5b9-691965d489a3","modified_on":"2025-03-18T10:31:09.408Z","modified_by_id":null,"deleted_on":null,"deleted_by_id":null,"tenant_id":"00000000-0000-0000-0000-000000000000","profile_type":"personal","slug":"loans","name":"loans","description":"Additional information for loan requirements","version":1},{"id":"0195a860-bf58-733b-b4f9-61d487d286b2","meta":null,"created_on":"2025-03-18T08:31:07.608Z","created_by_id":"0192cc0f-bd83-700c-a5b9-691965d489a3","modified_on":"2025-03-18T08:31:07.608Z","modified_by_id":null,"deleted_on":null,"deleted_by_id":null,"tenant_id":"00000000-0000-0000-0000-000000000000","profile_type":"personal","slug":"address-verification","name":"Address Verification","description":"Your personal information will always be kept safe and private","version":1},{"id":"01953843-dcb4-7771-99b0-358bab54e521","meta":null,"created_on":"2025-02-24T14:02:06.388Z","created_by_id":"01927265-4ed2-79cc-a0e6-e11339a359f3","modified_on":"2025-02-24T14:02:06.388Z","modified_by_id":null,"deleted_on":null,"deleted_by_id":null,"tenant_id":"00000000-0000-0000-0000-000000000000","profile_type":null,"slug":"pep-relationship-status","name":"PEP Status","description":"Kindly confirm the statements below","version":1},{"id":"019528d0-b981-7330-84a8-913c99e59599","meta":null,"created_on":"2025-02-21T14:02:02.497Z","created_by_id":"01927265-4ed2-79cc-a0e6-e11339a359f3","modified_on":"2025-03-05T04:59:08.738Z","modified_by_id":"01927265-4ed2-79cc-a0e6-e11339a359f3","deleted_on":null,"deleted_by_id":null,"tenant_id":"00000000-0000-0000-0000-000000000000","profile_type":"personal","slug":"security-questions","name":"Security Questions","description":"Security Questions","version":1},{"id":"0194b8d1-526e-7bb8-88ef-c83e8c21e149","meta":null,"created_on":"2025-01-30T20:05:13.455Z","created_by_id":"01927265-4ed2-79cc-a0e6-e11339a359f3","modified_on":"2025-01-30T20:05:13.455Z","modified_by_id":null,"deleted_on":null,"deleted_by_id":null,"tenant_id":"00000000-0000-0000-0000-000000000000","profile_type":"business","slug":"onboarding","name":"Onboarding","description":"Adding new user","version":1},{"id":"0193731a-59fe-788a-9877-8bef6d0c2cfc","meta":null,"created_on":"2024-11-28T14:08:47.102Z","created_by_id":null,"modified_on":"2025-01-21T12:44:54.987Z","modified_by_id":"0192ee9f-7504-7bb3-919d-9fba49ba9e27","deleted_on":null,"deleted_by_id":null,"tenant_id":"00000000-0000-0000-0000-000000000000","profile_type":"personal","slug":"personal-information","name":"Personal Information","description":"Provide other personal information (gender, country) and verify your phone number and email address.","version":1},{"id":"019368b2-54d3-7dd8-85d8-1e8eeb915459","meta":null,"created_on":"2024-11-26T13:38:57.875Z","created_by_id":null,"modified_on":"2024-11-26T13:38:57.875Z","modified_by_id":null,"deleted_on":null,"deleted_by_id":null,"tenant_id":"00000000-0000-0000-0000-000000000000","profile_type":"business","slug":"add-directors","name":"Add directors","description":"Update the information of the directors of your business.","version":1},{"id":"019367c5-1c25-7115-b8f2-70b1fbd2115e","meta":null,"created_on":"2024-11-26T09:19:51.334Z","created_by_id":null,"modified_on":"2024-11-26T09:19:51.334Z","modified_by_id":null,"deleted_on":null,"deleted_by_id":null,"tenant_id":"00000000-0000-0000-0000-000000000000","profile_type":"business","slug":"scuml-certificate","name":"SCUML Certificate","description":"SCUML Certificate","version":1}],"meta":{"page":1,"total_pages":2,"total_items":15}}