{"status":"success","data":[{"id":"0195cf8d-72ea-7bb0-a50e-4aef0668a5ca","meta":{"rc-number":"123456789","business-name":"Test","business-email":"test@gmail.com","business-phone":"+2348123234345","business-types":"Sole Proprietorship","business-address":"Lagos"},"created_on":"2025-03-25T23:05:08.584Z","created_by_id":"019317a0-b7e5-7eeb-a7eb-bd18cf39a633","modified_on":"2025-03-25T23:05:08.584Z","modified_by_id":null,"deleted_on":null,"deleted_by_id":null,"tenant_id":"00000000-0000-0000-0000-000000000000","name":"","type":"business","status":"active","restricted":false,"review":null,"allowed_time_periods":null,"allowed_locations":null,"primary_user_id":"019317a0-b7e5-7eeb-a7eb-bd18cf39a633","tier_id":null,"primary_user":{"id":"019317a0-b7e5-7eeb-a7eb-bd18cf39a633","meta":{},"created_on":"2024-11-10T19:50:29.093Z","created_by_id":null,"modified_on":"2025-03-28T14:59:58.538Z","modified_by_id":"019317a0-b7e5-7eeb-a7eb-bd18cf39a633","deleted_on":null,"deleted_by_id":null,"tenant_id":"00000000-0000-0000-0000-000000000000","email":"mikeangel@mailinator.com","status":"active","first_name":"Mike","last_name":"Angelo","twofa_enabled":false,"last_active":"2025-03-28T14:59:58.537Z","last_ip":"141.101.96.9","allowed_ips":null,"last_timezone":"Europe/Prague","last_location":"Prague","phone":"+234(0)9055755671","review":null,"gender":"male","date_of_birth":"1990-01-01","cba_id":"19","photo_id":"0195afbb-ecca-788b-a91c-8a2ead0f8556","referral_code":"AZVBZI","referred_by":null,"has_pin":false,"has_password":false},"tier":null},{"id":"0195c362-4f51-7ff4-896e-959ff7ccd9e1","meta":{"rc-number":"0000000","business-name":"Faill","business-email":"dreaa@yopmail.com","business-phone":"+23438090909","business-types":"Sole Proprietorship","business-address":"2 kene street"},"created_on":"2025-03-23T14:22:34.831Z","created_by_id":"0195c361-76ee-7ff4-896e-788c43e0fa1d","modified_on":"2025-03-25T13:18:58.337Z","modified_by_id":"0193d109-a926-7446-abe5-7dafe8b742bd","deleted_on":null,"deleted_by_id":null,"tenant_id":"00000000-0000-0000-0000-000000000000","name":"","type":"business","status":"active","restricted":false,"review":null,"allowed_time_periods":null,"allowed_locations":null,"primary_user_id":"0195c361-76ee-7ff4-896e-788c43e0fa1d","tier_id":"01948d63-7196-7227-973e-3d2e8302d503","primary_user":{"id":"0195c361-76ee-7ff4-896e-788c43e0fa1d","meta":null,"created_on":"2025-03-23T14:21:39.437Z","created_by_id":null,"modified_on":"2025-03-25T13:19:02.427Z","modified_by_id":"0193d109-a926-7446-abe5-7dafe8b742bd","deleted_on":null,"deleted_by_id":null,"tenant_id":"00000000-0000-0000-0000-000000000000","email":"grain@yopmail.com","status":"active","first_name":"Fred","last_name":"Teslim","twofa_enabled":false,"last_active":"2025-03-23T14:44:34.504Z","last_ip":"162.158.216.160","allowed_ips":null,"last_timezone":"Asia/Ho_Chi_Minh","last_location":"Ho Chi Minh City","phone":"+2348138095433","review":null,"gender":null,"date_of_birth":null,"cba_id":"139","photo_id":null,"referral_code":"CAPYD3","referred_by":null,"has_pin":false,"has_password":false},"tier":{"id":"01948d63-7196-7227-973e-3d2e8302d503","meta":null,"created_on":"2025-01-22T09:41:32.182Z","created_by_id":"01927265-4ed2-79cc-a0e6-e11339a359f3","modified_on":"2025-02-07T11:01:48.510Z","modified_by_id":"01927265-4ed2-79cc-a0e6-e11339a359f3","deleted_on":null,"deleted_by_id":null,"tenant_id":"00000000-0000-0000-0000-000000000000","profile_type":"business","name":"Tier 1","description":"Tier 1","level":1,"enabled":true,"balance_limit":2000000,"single_sending_limit":500000,"single_receiving_limit":500000,"period_sending_limit":500000,"period_sending_limit_time_unit":"day","period_receiving_limit":500000,"period_receiving_limit_time_unit":"day","requirements":[{"id":"01923359-cd8b-755b-862f-22b00cdce2e8","type_id":"01923359-cd8b-755b-862f-22b00cdce2e8","type":"kyc","slug":"profiles","name":"Business Information","description":"Verify your business phone number and email address."}]}},{"id":"0195b9df-b3d2-7447-8ef6-8a70b1fabfca","meta":{"rc-number":"0000000","business-name":"Neem","business-email":"hi@neem.co","business-phone":"+2348000000003","business-types":"Corporation","business-address":"LAGOS, NIGERIA, LAGOS, Ibeju-Lekki, LAGOS"},"created_on":"2025-03-21T18:03:20.400Z","created_by_id":"0195b9dd-d430-7447-8ef6-7008a4022429","modified_on":"2025-03-21T18:03:20.400Z","modified_by_id":null,"deleted_on":null,"deleted_by_id":null,"tenant_id":"00000000-0000-0000-0000-000000000000","name":"","type":"business","status":"active","restricted":false,"review":null,"allowed_time_periods":null,"allowed_locations":null,"primary_user_id":"0195b9dd-d430-7447-8ef6-7008a4022429","tier_id":null,"primary_user":{"id":"0195b9dd-d430-7447-8ef6-7008a4022429","meta":null,"created_on":"2025-03-21T18:01:17.616Z","created_by_id":null,"modified_on":"2025-03-26T12:15:23.974Z","modified_by_id":"0195b9dd-d430-7447-8ef6-7008a4022429","deleted_on":null,"deleted_by_id":null,"tenant_id":"00000000-0000-0000-0000-000000000000","email":"john@mailinator.com","status":"active","first_name":"John","last_name":"Doe","twofa_enabled":false,"last_active":"2025-03-26T12:15:19.337Z","last_ip":"197.234.242.44","allowed_ips":null,"last_timezone":"Africa/Johannesburg","last_location":"Johannesburg","phone":"+2348000000010","review":null,"gender":null,"date_of_birth":null,"cba_id":null,"photo_id":null,"referral_code":"4LRQJ8","referred_by":null,"has_pin":false,"has_password":false},"tier":null},{"id":"0195b321-e704-788b-a926-f5bb86688dcf","meta":null,"created_on":"2025-03-20T10:38:18.372Z","created_by_id":"0195af64-878f-7336-9015-c0ad842de096","modified_on":"2025-03-20T10:38:18.372Z","modified_by_id":null,"deleted_on":null,"deleted_by_id":null,"tenant_id":"00000000-0000-0000-0000-000000000000","name":"","type":"business","status":"active","restricted":false,"review":null,"allowed_time_periods":null,"allowed_locations":null,"primary_user_id":"0195af64-878f-7336-9015-c0ad842de096","tier_id":null,"primary_user":{"id":"0195af64-878f-7336-9015-c0ad842de096","meta":null,"created_on":"2025-03-19T17:12:35.981Z","created_by_id":null,"modified_on":"2025-03-28T09:47:02.959Z","modified_by_id":"0195af64-878f-7336-9015-c0ad842de096","deleted_on":null,"deleted_by_id":null,"tenant_id":"00000000-0000-0000-0000-000000000000","email":"adekunle@mailinator.com","status":"active","first_name":"Adekunle","last_name":"Gold","twofa_enabled":false,"last_active":"2025-03-28T09:47:02.958Z","last_ip":"172.71.130.198","allowed_ips":null,"last_timezone":"Europe/Paris","last_location":"Paris","phone":"+2347000000001","review":null,"gender":null,"date_of_birth":null,"cba_id":null,"photo_id":null,"referral_code":"K9VZM7","referred_by":null,"has_pin":false,"has_password":false},"tier":null},{"id":"0195b2fc-42a4-788b-a924-f5a14e76eaeb","meta":null,"created_on":"2025-03-20T09:57:11.460Z","created_by_id":"01951931-1bf9-788d-b552-ca948d61c53e","modified_on":"2025-03-20T09:57:11.460Z","modified_by_id":null,"deleted_on":null,"deleted_by_id":null,"tenant_id":"00000000-0000-0000-0000-000000000000","name":"","type":"business","status":"active","restricted":false,"review":null,"allowed_time_periods":null,"allowed_locations":null,"primary_user_id":"01951931-1bf9-788d-b552-ca948d61c53e","tier_id":null,"primary_user":{"id":"01951931-1bf9-788d-b552-ca948d61c53e","meta":null,"created_on":"2025-02-18T13:13:23.704Z","created_by_id":null,"modified_on":"2025-03-28T09:39:50.376Z","modified_by_id":"01951931-1bf9-788d-b552-ca948d61c53e","deleted_on":null,"deleted_by_id":null,"tenant_id":"00000000-0000-0000-0000-000000000000","email":"abisola@assurdly.com","status":"active","first_name":"Oyedotun","last_name":"Abisola","twofa_enabled":false,"last_active":"2025-03-28T09:39:50.376Z","last_ip":"172.69.222.32","allowed_ips":null,"last_timezone":"Europe/Paris","last_location":"Paris","phone":"+2349043973003","review":null,"gender":null,"date_of_birth":null,"cba_id":"68","photo_id":null,"referral_code":"B6WEV6","referred_by":"019353e7-40aa-7117-98b0-c1a15fba11db","has_pin":false,"has_password":false},"tier":null},{"id":"0195b2fb-ad50-788b-a924-d98a974487c1","meta":null,"created_on":"2025-03-20T09:56:33.232Z","created_by_id":"01951931-1bf9-788d-b552-ca948d61c53e","modified_on":"2025-03-20T09:56:33.232Z","modified_by_id":null,"deleted_on":null,"deleted_by_id":null,"tenant_id":"00000000-0000-0000-0000-000000000000","name":"","type":"business","status":"active","restricted":false,"review":null,"allowed_time_periods":null,"allowed_locations":null,"primary_user_id":"01951931-1bf9-788d-b552-ca948d61c53e","tier_id":null,"primary_user":{"id":"01951931-1bf9-788d-b552-ca948d61c53e","meta":null,"created_on":"2025-02-18T13:13:23.704Z","created_by_id":null,"modified_on":"2025-03-28T09:39:50.376Z","modified_by_id":"01951931-1bf9-788d-b552-ca948d61c53e","deleted_on":null,"deleted_by_id":null,"tenant_id":"00000000-0000-0000-0000-000000000000","email":"abisola@assurdly.com","status":"active","first_name":"Oyedotun","last_name":"Abisola","twofa_enabled":false,"last_active":"2025-03-28T09:39:50.376Z","last_ip":"172.69.222.32","allowed_ips":null,"last_timezone":"Europe/Paris","last_location":"Paris","phone":"+2349043973003","review":null,"gender":null,"date_of_birth":null,"cba_id":"68","photo_id":null,"referral_code":"B6WEV6","referred_by":"019353e7-40aa-7117-98b0-c1a15fba11db","has_pin":false,"has_password":false},"tier":null},{"id":"0195b2fa-c1e0-788b-a924-c5d1f8921c9c","meta":null,"created_on":"2025-03-20T09:55:32.960Z","created_by_id":"01951931-1bf9-788d-b552-ca948d61c53e","modified_on":"2025-03-20T09:55:32.960Z","modified_by_id":null,"deleted_on":null,"deleted_by_id":null,"tenant_id":"00000000-0000-0000-0000-000000000000","name":"","type":"business","status":"active","restricted":false,"review":null,"allowed_time_periods":null,"allowed_locations":null,"primary_user_id":"01951931-1bf9-788d-b552-ca948d61c53e","tier_id":null,"primary_user":{"id":"01951931-1bf9-788d-b552-ca948d61c53e","meta":null,"created_on":"2025-02-18T13:13:23.704Z","created_by_id":null,"modified_on":"2025-03-28T09:39:50.376Z","modified_by_id":"01951931-1bf9-788d-b552-ca948d61c53e","deleted_on":null,"deleted_by_id":null,"tenant_id":"00000000-0000-0000-0000-000000000000","email":"abisola@assurdly.com","status":"active","first_name":"Oyedotun","last_name":"Abisola","twofa_enabled":false,"last_active":"2025-03-28T09:39:50.376Z","last_ip":"172.69.222.32","allowed_ips":null,"last_timezone":"Europe/Paris","last_location":"Paris","phone":"+2349043973003","review":null,"gender":null,"date_of_birth":null,"cba_id":"68","photo_id":null,"referral_code":"B6WEV6","referred_by":"019353e7-40aa-7117-98b0-c1a15fba11db","has_pin":false,"has_password":false},"tier":null},{"id":"0195b2fa-978f-788b-a924-a9a4ad085a7e","meta":null,"created_on":"2025-03-20T09:55:22.127Z","created_by_id":"01951931-1bf9-788d-b552-ca948d61c53e","modified_on":"2025-03-20T09:55:22.127Z","modified_by_id":null,"deleted_on":null,"deleted_by_id":null,"tenant_id":"00000000-0000-0000-0000-000000000000","name":"","type":"business","status":"active","restricted":false,"review":null,"allowed_time_periods":null,"allowed_locations":null,"primary_user_id":"01951931-1bf9-788d-b552-ca948d61c53e","tier_id":null,"primary_user":{"id":"01951931-1bf9-788d-b552-ca948d61c53e","meta":null,"created_on":"2025-02-18T13:13:23.704Z","created_by_id":null,"modified_on":"2025-03-28T09:39:50.376Z","modified_by_id":"01951931-1bf9-788d-b552-ca948d61c53e","deleted_on":null,"deleted_by_id":null,"tenant_id":"00000000-0000-0000-0000-000000000000","email":"abisola@assurdly.com","status":"active","first_name":"Oyedotun","last_name":"Abisola","twofa_enabled":false,"last_active":"2025-03-28T09:39:50.376Z","last_ip":"172.69.222.32","allowed_ips":null,"last_timezone":"Europe/Paris","last_location":"Paris","phone":"+2349043973003","review":null,"gender":null,"date_of_birth":null,"cba_id":"68","photo_id":null,"referral_code":"B6WEV6","referred_by":"019353e7-40aa-7117-98b0-c1a15fba11db","has_pin":false,"has_password":false},"tier":null},{"id":"0195aee1-470d-7553-abf3-636bec96acd7","meta":{"rc-number":"0000000","business-name":"Faill","business-email":"frrl@yopmail.com","business-phone":"+23438096589","business-types":"Sole Proprietorship","business-address":"2 kene street"},"created_on":"2025-03-19T14:49:14.252Z","created_by_id":"0195a8da-ddea-733b-b4fa-a787be652e4f","modified_on":"2025-03-20T12:27:51.829Z","modified_by_id":"01927265-4ed2-79cc-a0e6-e11339a359f3","deleted_on":null,"deleted_by_id":null,"tenant_id":"00000000-0000-0000-0000-000000000000","name":"","type":"business","status":"active","restricted":false,"review":null,"allowed_time_periods":null,"allowed_locations":null,"primary_user_id":"0195a8da-ddea-733b-b4fa-a787be652e4f","tier_id":"01948d63-7196-7227-973e-3d2e8302d503","primary_user":{"id":"0195a8da-ddea-733b-b4fa-a787be652e4f","meta":null,"created_on":"2025-03-18T10:44:30.821Z","created_by_id":null,"modified_on":"2025-03-28T10:05:39.531Z","modified_by_id":"0195a8da-ddea-733b-b4fa-a787be652e4f","deleted_on":null,"deleted_by_id":null,"tenant_id":"00000000-0000-0000-0000-000000000000","email":"Slayyer@yopmail.com","status":"active","first_name":"Brian","last_name":"Sanda","twofa_enabled":false,"last_active":"2025-03-28T10:05:39.529Z","last_ip":"104.23.172.70","allowed_ips":null,"last_timezone":"","last_location":"","phone":"+2348123470000","review":null,"gender":"female","date_of_birth":"1994-06-20","cba_id":"137","photo_id":"0195ae88-98d2-7ccb-ba8e-f7c4dd8b87c0","referral_code":"E59SHR","referred_by":null,"has_pin":false,"has_password":false},"tier":{"id":"01948d63-7196-7227-973e-3d2e8302d503","meta":null,"created_on":"2025-01-22T09:41:32.182Z","created_by_id":"01927265-4ed2-79cc-a0e6-e11339a359f3","modified_on":"2025-02-07T11:01:48.510Z","modified_by_id":"01927265-4ed2-79cc-a0e6-e11339a359f3","deleted_on":null,"deleted_by_id":null,"tenant_id":"00000000-0000-0000-0000-000000000000","profile_type":"business","name":"Tier 1","description":"Tier 1","level":1,"enabled":true,"balance_limit":2000000,"single_sending_limit":500000,"single_receiving_limit":500000,"period_sending_limit":500000,"period_sending_limit_time_unit":"day","period_receiving_limit":500000,"period_receiving_limit_time_unit":"day","requirements":[{"id":"01923359-cd8b-755b-862f-22b00cdce2e8","type_id":"01923359-cd8b-755b-862f-22b00cdce2e8","type":"kyc","slug":"profiles","name":"Business Information","description":"Verify your business phone number and email address."}]}},{"id":"019591d1-1c46-7ee0-bd82-8fcd12817bdd","meta":{"rc-number":"76867","business-name":"last","business-email":"examplelast@gmail.com","business-phone":"+23408101259872","business-types":"Franchise","business-address":"Joseph Ogunyemi Street"},"created_on":"2025-03-13T23:22:35.419Z","created_by_id":"019582d8-9dec-7bb0-a40c-c658c9c92e37","modified_on":"2025-03-13T23:22:35.419Z","modified_by_id":null,"deleted_on":null,"deleted_by_id":null,"tenant_id":"00000000-0000-0000-0000-000000000000","name":"","type":"business","status":"active","restricted":false,"review":null,"allowed_time_periods":null,"allowed_locations":null,"primary_user_id":"019582d8-9dec-7bb0-a40c-c658c9c92e37","tier_id":null,"primary_user":{"id":"019582d8-9dec-7bb0-a40c-c658c9c92e37","meta":null,"created_on":"2025-03-11T01:36:29.164Z","created_by_id":null,"modified_on":"2025-03-13T23:39:55.991Z","modified_by_id":"019582d8-9dec-7bb0-a40c-c658c9c92e37","deleted_on":null,"deleted_by_id":null,"tenant_id":"00000000-0000-0000-0000-000000000000","email":"christopher@mailinator.com","status":"active","first_name":"chris","last_name":"Name","twofa_enabled":false,"last_active":"2025-03-13T23:39:55.991Z","last_ip":"172.71.182.157","allowed_ips":null,"last_timezone":"Europe/Amsterdam","last_location":"Amsterdam","phone":"+2348101259872","review":null,"gender":null,"date_of_birth":null,"cba_id":null,"photo_id":null,"referral_code":"UV6XXQ","referred_by":null,"has_pin":false,"has_password":false},"tier":null}],"meta":{"page":1,"total_pages":19,"total_items":190}}