{"status":"success","data":[{"id":"0196f42a-f113-7661-b550-e1c7729b15fd","meta":null,"created_on":"2025-05-21T18:46:17.109Z","created_by_id":null,"modified_on":"2025-05-21T18:46:17.109Z","modified_by_id":null,"deleted_on":null,"deleted_by_id":null,"tenant_id":"00000000-0000-0000-0000-000000000000","user_id":"019372de-17ef-7cc2-8fc0-43fe11ba042f","status":"pending","referree_id":"0196f42a-f10b-7661-b550-de5c42aa902c","referree_earning":"233.33","referrer_earning":"100.32","user":{"id":"019372de-17ef-7cc2-8fc0-43fe11ba042f","meta":{},"created_on":"2024-11-28T13:02:58.029Z","created_by_id":null,"modified_on":"2025-05-21T18:47:25.694Z","modified_by_id":"019372de-17ef-7cc2-8fc0-43fe11ba042f","deleted_on":null,"deleted_by_id":null,"tenant_id":"00000000-0000-0000-0000-000000000000","email":"ismael@mailinator.com","status":"active","first_name":"Sunday","last_name":"Testing","twofa_enabled":false,"last_active":"2025-05-21T18:47:24.111Z","last_login":"2025-05-21T18:46:17.907Z","last_ip":"20.161.63.242","allowed_ips":null,"last_timezone":"America/New_York","last_location":"Boydton","phone":"+2348089722636","review":null,"gender":"male","date_of_birth":null,"cba_id":"31","photo_id":null,"referral_code":"7LD1QN","referred_by":null},"referree":{"id":"0196f42a-f10b-7661-b550-de5c42aa902c","meta":null,"created_on":"2025-05-21T18:46:17.101Z","created_by_id":null,"modified_on":"2025-05-21T18:46:17.201Z","modified_by_id":null,"deleted_on":null,"deleted_by_id":null,"tenant_id":"00000000-0000-0000-0000-000000000000","email":"KittyHermistonmulti-bytej@mailinator.com","status":"active","first_name":"Oberbrunner","last_name":"Jannie","twofa_enabled":false,"last_active":"2025-05-21T18:46:17.101Z","last_login":"2025-05-21T18:46:17.201Z","last_ip":"20.161.63.242","allowed_ips":null,"last_timezone":"America/New_York","last_location":"Boydton","phone":null,"review":null,"gender":null,"date_of_birth":null,"cba_id":null,"photo_id":null,"referral_code":"C3JPPD","referred_by":"019372de-17ef-7cc2-8fc0-43fe11ba042f"},"events":[]},{"id":"0196edc8-8dd7-7337-aa0f-343bfbd20353","meta":null,"created_on":"2025-05-20T13:01:05.880Z","created_by_id":null,"modified_on":"2025-05-20T13:01:05.880Z","modified_by_id":null,"deleted_on":null,"deleted_by_id":null,"tenant_id":"00000000-0000-0000-0000-000000000000","user_id":"019372de-17ef-7cc2-8fc0-43fe11ba042f","status":"pending","referree_id":"0196edc8-8dce-7337-aa0f-2ed012bdd046","referree_earning":"233.33","referrer_earning":"100.32","user":{"id":"019372de-17ef-7cc2-8fc0-43fe11ba042f","meta":{},"created_on":"2024-11-28T13:02:58.029Z","created_by_id":null,"modified_on":"2025-05-21T18:47:25.694Z","modified_by_id":"019372de-17ef-7cc2-8fc0-43fe11ba042f","deleted_on":null,"deleted_by_id":null,"tenant_id":"00000000-0000-0000-0000-000000000000","email":"ismael@mailinator.com","status":"active","first_name":"Sunday","last_name":"Testing","twofa_enabled":false,"last_active":"2025-05-21T18:47:24.111Z","last_login":"2025-05-21T18:46:17.907Z","last_ip":"20.161.63.242","allowed_ips":null,"last_timezone":"America/New_York","last_location":"Boydton","phone":"+2348089722636","review":null,"gender":"male","date_of_birth":null,"cba_id":"31","photo_id":null,"referral_code":"7LD1QN","referred_by":null},"referree":{"id":"0196edc8-8dce-7337-aa0f-2ed012bdd046","meta":null,"created_on":"2025-05-20T13:01:05.870Z","created_by_id":null,"modified_on":"2025-05-20T13:18:50.778Z","modified_by_id":"0196edc8-8dce-7337-aa0f-2ed012bdd046","deleted_on":null,"deleted_by_id":null,"tenant_id":"00000000-0000-0000-0000-000000000000","email":"day@yopmail.com","status":"active","first_name":"Day","last_name":"First","twofa_enabled":false,"last_active":"2025-05-20T13:18:38.873Z","last_login":"2025-05-20T13:01:17.083Z","last_ip":"197.211.59.68","allowed_ips":null,"last_timezone":"Africa/Lagos","last_location":"Lagos","phone":"+2348123478111","review":null,"gender":null,"date_of_birth":null,"cba_id":null,"photo_id":null,"referral_code":"4ZRWNE","referred_by":"019372de-17ef-7cc2-8fc0-43fe11ba042f"},"events":[]},{"id":"0196e512-0a1b-7227-b992-bfae8873805f","meta":null,"created_on":"2025-05-18T20:24:46.875Z","created_by_id":null,"modified_on":"2025-05-18T20:24:46.875Z","modified_by_id":null,"deleted_on":null,"deleted_by_id":null,"tenant_id":"00000000-0000-0000-0000-000000000000","user_id":"019372de-17ef-7cc2-8fc0-43fe11ba042f","status":"pending","referree_id":"0196e512-0a15-7227-b992-b3e2af9128b4","referree_earning":"233.33","referrer_earning":"100.32","user":{"id":"019372de-17ef-7cc2-8fc0-43fe11ba042f","meta":{},"created_on":"2024-11-28T13:02:58.029Z","created_by_id":null,"modified_on":"2025-05-21T18:47:25.694Z","modified_by_id":"019372de-17ef-7cc2-8fc0-43fe11ba042f","deleted_on":null,"deleted_by_id":null,"tenant_id":"00000000-0000-0000-0000-000000000000","email":"ismael@mailinator.com","status":"active","first_name":"Sunday","last_name":"Testing","twofa_enabled":false,"last_active":"2025-05-21T18:47:24.111Z","last_login":"2025-05-21T18:46:17.907Z","last_ip":"20.161.63.242","allowed_ips":null,"last_timezone":"America/New_York","last_location":"Boydton","phone":"+2348089722636","review":null,"gender":"male","date_of_birth":null,"cba_id":"31","photo_id":null,"referral_code":"7LD1QN","referred_by":null},"referree":{"id":"0196e512-0a15-7227-b992-b3e2af9128b4","meta":null,"created_on":"2025-05-18T20:24:46.869Z","created_by_id":null,"modified_on":"2025-05-18T20:24:46.891Z","modified_by_id":null,"deleted_on":null,"deleted_by_id":null,"tenant_id":"00000000-0000-0000-0000-000000000000","email":"BurdetteKleinLoaf0@mailinator.com","status":"active","first_name":"Casper","last_name":"Mae","twofa_enabled":false,"last_active":"2025-05-18T20:24:46.869Z","last_login":"2025-05-18T20:24:46.891Z","last_ip":"20.25.193.1","allowed_ips":null,"last_timezone":"America/Chicago","last_location":"Chicago","phone":null,"review":null,"gender":null,"date_of_birth":null,"cba_id":null,"photo_id":null,"referral_code":"XT5ZWL","referred_by":"019372de-17ef-7cc2-8fc0-43fe11ba042f"},"events":[]},{"id":"0196e504-a595-7227-b992-80f86d161b26","meta":null,"created_on":"2025-05-18T20:10:09.172Z","created_by_id":null,"modified_on":"2025-05-18T20:10:09.172Z","modified_by_id":null,"deleted_on":null,"deleted_by_id":null,"tenant_id":"00000000-0000-0000-0000-000000000000","user_id":"019372de-17ef-7cc2-8fc0-43fe11ba042f","status":"pending","referree_id":"0196e504-a58b-7227-b992-7c81aed11657","referree_earning":"233.33","referrer_earning":"100.32","user":{"id":"019372de-17ef-7cc2-8fc0-43fe11ba042f","meta":{},"created_on":"2024-11-28T13:02:58.029Z","created_by_id":null,"modified_on":"2025-05-21T18:47:25.694Z","modified_by_id":"019372de-17ef-7cc2-8fc0-43fe11ba042f","deleted_on":null,"deleted_by_id":null,"tenant_id":"00000000-0000-0000-0000-000000000000","email":"ismael@mailinator.com","status":"active","first_name":"Sunday","last_name":"Testing","twofa_enabled":false,"last_active":"2025-05-21T18:47:24.111Z","last_login":"2025-05-21T18:46:17.907Z","last_ip":"20.161.63.242","allowed_ips":null,"last_timezone":"America/New_York","last_location":"Boydton","phone":"+2348089722636","review":null,"gender":"male","date_of_birth":null,"cba_id":"31","photo_id":null,"referral_code":"7LD1QN","referred_by":null},"referree":{"id":"0196e504-a58b-7227-b992-7c81aed11657","meta":null,"created_on":"2025-05-18T20:10:09.162Z","created_by_id":null,"modified_on":"2025-05-18T20:10:09.189Z","modified_by_id":null,"deleted_on":null,"deleted_by_id":null,"tenant_id":"00000000-0000-0000-0000-000000000000","email":"EddBodeIncredible@mailinator.com","status":"active","first_name":"Gerhold","last_name":"Zachery","twofa_enabled":false,"last_active":"2025-05-18T20:10:09.162Z","last_login":"2025-05-18T20:10:09.189Z","last_ip":"172.214.175.255","allowed_ips":null,"last_timezone":"Europe/London","last_location":"","phone":null,"review":null,"gender":null,"date_of_birth":null,"cba_id":null,"photo_id":null,"referral_code":"8PLLW9","referred_by":"019372de-17ef-7cc2-8fc0-43fe11ba042f"},"events":[]},{"id":"0196da6d-7cdc-7448-8495-9718285d3d59","meta":null,"created_on":"2025-05-16T18:48:50.647Z","created_by_id":null,"modified_on":"2025-05-16T18:48:50.647Z","modified_by_id":null,"deleted_on":null,"deleted_by_id":null,"tenant_id":"00000000-0000-0000-0000-000000000000","user_id":"019372de-17ef-7cc2-8fc0-43fe11ba042f","status":"pending","referree_id":"0196da6d-7c77-7448-8495-8f5be8ba3522","referree_earning":"233.33","referrer_earning":"100.32","user":{"id":"019372de-17ef-7cc2-8fc0-43fe11ba042f","meta":{},"created_on":"2024-11-28T13:02:58.029Z","created_by_id":null,"modified_on":"2025-05-21T18:47:25.694Z","modified_by_id":"019372de-17ef-7cc2-8fc0-43fe11ba042f","deleted_on":null,"deleted_by_id":null,"tenant_id":"00000000-0000-0000-0000-000000000000","email":"ismael@mailinator.com","status":"active","first_name":"Sunday","last_name":"Testing","twofa_enabled":false,"last_active":"2025-05-21T18:47:24.111Z","last_login":"2025-05-21T18:46:17.907Z","last_ip":"20.161.63.242","allowed_ips":null,"last_timezone":"America/New_York","last_location":"Boydton","phone":"+2348089722636","review":null,"gender":"male","date_of_birth":null,"cba_id":"31","photo_id":null,"referral_code":"7LD1QN","referred_by":null},"referree":{"id":"0196da6d-7c77-7448-8495-8f5be8ba3522","meta":null,"created_on":"2025-05-16T18:48:50.550Z","created_by_id":null,"modified_on":"2025-05-16T18:48:50.748Z","modified_by_id":null,"deleted_on":null,"deleted_by_id":null,"tenant_id":"00000000-0000-0000-0000-000000000000","email":"GeorgetteLarsonDirect@mailinator.com","status":"active","first_name":"Baumbach","last_name":"Annetta","twofa_enabled":false,"last_active":"2025-05-16T18:48:50.550Z","last_login":"2025-05-16T18:48:50.748Z","last_ip":"52.234.46.156","allowed_ips":null,"last_timezone":"America/Los_Angeles","last_location":"San Jose","phone":null,"review":null,"gender":null,"date_of_birth":null,"cba_id":null,"photo_id":null,"referral_code":"XVCAJU","referred_by":"019372de-17ef-7cc2-8fc0-43fe11ba042f"},"events":[]},{"id":"0196da6c-d545-7448-8493-b3718820179e","meta":null,"created_on":"2025-05-16T18:48:07.750Z","created_by_id":null,"modified_on":"2025-05-16T18:48:07.750Z","modified_by_id":null,"deleted_on":null,"deleted_by_id":null,"tenant_id":"00000000-0000-0000-0000-000000000000","user_id":"019372de-17ef-7cc2-8fc0-43fe11ba042f","status":"pending","referree_id":"0196da6c-d53e-7448-8493-af844d5ecaff","referree_earning":"233.33","referrer_earning":"100.32","user":{"id":"019372de-17ef-7cc2-8fc0-43fe11ba042f","meta":{},"created_on":"2024-11-28T13:02:58.029Z","created_by_id":null,"modified_on":"2025-05-21T18:47:25.694Z","modified_by_id":"019372de-17ef-7cc2-8fc0-43fe11ba042f","deleted_on":null,"deleted_by_id":null,"tenant_id":"00000000-0000-0000-0000-000000000000","email":"ismael@mailinator.com","status":"active","first_name":"Sunday","last_name":"Testing","twofa_enabled":false,"last_active":"2025-05-21T18:47:24.111Z","last_login":"2025-05-21T18:46:17.907Z","last_ip":"20.161.63.242","allowed_ips":null,"last_timezone":"America/New_York","last_location":"Boydton","phone":"+2348089722636","review":null,"gender":"male","date_of_birth":null,"cba_id":"31","photo_id":null,"referral_code":"7LD1QN","referred_by":null},"referree":{"id":"0196da6c-d53e-7448-8493-af844d5ecaff","meta":null,"created_on":"2025-05-16T18:48:07.742Z","created_by_id":null,"modified_on":"2025-05-16T18:48:07.765Z","modified_by_id":null,"deleted_on":null,"deleted_by_id":null,"tenant_id":"00000000-0000-0000-0000-000000000000","email":"GracieUllrichplatformsa@mailinator.com","status":"active","first_name":"Thompson","last_name":"Adrien","twofa_enabled":false,"last_active":"2025-05-16T18:48:07.742Z","last_login":"2025-05-16T18:48:07.765Z","last_ip":"23.98.189.83","allowed_ips":null,"last_timezone":"America/Chicago","last_location":"San Antonio","phone":null,"review":null,"gender":null,"date_of_birth":null,"cba_id":null,"photo_id":null,"referral_code":"CGZKMR","referred_by":"019372de-17ef-7cc2-8fc0-43fe11ba042f"},"events":[]},{"id":"0196d020-713e-7aa1-a92b-3cde11c7c9cc","meta":null,"created_on":"2025-05-14T18:48:29.247Z","created_by_id":null,"modified_on":"2025-05-14T18:48:29.247Z","modified_by_id":null,"deleted_on":null,"deleted_by_id":null,"tenant_id":"00000000-0000-0000-0000-000000000000","user_id":"019372de-17ef-7cc2-8fc0-43fe11ba042f","status":"pending","referree_id":"0196d020-7137-7aa1-a92b-345a21b886a9","referree_earning":"233.33","referrer_earning":"100.32","user":{"id":"019372de-17ef-7cc2-8fc0-43fe11ba042f","meta":{},"created_on":"2024-11-28T13:02:58.029Z","created_by_id":null,"modified_on":"2025-05-21T18:47:25.694Z","modified_by_id":"019372de-17ef-7cc2-8fc0-43fe11ba042f","deleted_on":null,"deleted_by_id":null,"tenant_id":"00000000-0000-0000-0000-000000000000","email":"ismael@mailinator.com","status":"active","first_name":"Sunday","last_name":"Testing","twofa_enabled":false,"last_active":"2025-05-21T18:47:24.111Z","last_login":"2025-05-21T18:46:17.907Z","last_ip":"20.161.63.242","allowed_ips":null,"last_timezone":"America/New_York","last_location":"Boydton","phone":"+2348089722636","review":null,"gender":"male","date_of_birth":null,"cba_id":"31","photo_id":null,"referral_code":"7LD1QN","referred_by":null},"referree":{"id":"0196d020-7137-7aa1-a92b-345a21b886a9","meta":null,"created_on":"2025-05-14T18:48:29.165Z","created_by_id":null,"modified_on":"2025-05-14T18:48:29.258Z","modified_by_id":null,"deleted_on":null,"deleted_by_id":null,"tenant_id":"00000000-0000-0000-0000-000000000000","email":"CedrickBeckerIndiana@mailinator.com","status":"active","first_name":"Reilly","last_name":"Aileen","twofa_enabled":false,"last_active":"2025-05-14T18:48:29.165Z","last_login":"2025-05-14T18:48:29.258Z","last_ip":"52.155.62.0","allowed_ips":null,"last_timezone":"America/Los_Angeles","last_location":"San Jose","phone":null,"review":null,"gender":null,"date_of_birth":null,"cba_id":null,"photo_id":null,"referral_code":"0LVKFD","referred_by":"019372de-17ef-7cc2-8fc0-43fe11ba042f"},"events":[]},{"id":"0196d01d-30d2-7aa1-a927-e4f2e278504d","meta":null,"created_on":"2025-05-14T18:44:56.147Z","created_by_id":null,"modified_on":"2025-05-14T18:44:56.147Z","modified_by_id":null,"deleted_on":null,"deleted_by_id":null,"tenant_id":"00000000-0000-0000-0000-000000000000","user_id":"019372de-17ef-7cc2-8fc0-43fe11ba042f","status":"pending","referree_id":"0196d01d-30cb-7aa1-a927-da5741cdee43","referree_earning":"233.33","referrer_earning":"100.32","user":{"id":"019372de-17ef-7cc2-8fc0-43fe11ba042f","meta":{},"created_on":"2024-11-28T13:02:58.029Z","created_by_id":null,"modified_on":"2025-05-21T18:47:25.694Z","modified_by_id":"019372de-17ef-7cc2-8fc0-43fe11ba042f","deleted_on":null,"deleted_by_id":null,"tenant_id":"00000000-0000-0000-0000-000000000000","email":"ismael@mailinator.com","status":"active","first_name":"Sunday","last_name":"Testing","twofa_enabled":false,"last_active":"2025-05-21T18:47:24.111Z","last_login":"2025-05-21T18:46:17.907Z","last_ip":"20.161.63.242","allowed_ips":null,"last_timezone":"America/New_York","last_location":"Boydton","phone":"+2348089722636","review":null,"gender":"male","date_of_birth":null,"cba_id":"31","photo_id":null,"referral_code":"7LD1QN","referred_by":null},"referree":{"id":"0196d01d-30cb-7aa1-a927-da5741cdee43","meta":null,"created_on":"2025-05-14T18:44:56.065Z","created_by_id":null,"modified_on":"2025-05-14T18:44:56.157Z","modified_by_id":null,"deleted_on":null,"deleted_by_id":null,"tenant_id":"00000000-0000-0000-0000-000000000000","email":"ChristopherMitchellprogramw@mailinator.com","status":"active","first_name":"Reichel","last_name":"Eleanore","twofa_enabled":false,"last_active":"2025-05-14T18:44:56.065Z","last_login":"2025-05-14T18:44:56.157Z","last_ip":"20.169.14.23","allowed_ips":null,"last_timezone":"America/Phoenix","last_location":"Phoenix","phone":null,"review":null,"gender":null,"date_of_birth":null,"cba_id":null,"photo_id":null,"referral_code":"YZMIM0","referred_by":"019372de-17ef-7cc2-8fc0-43fe11ba042f"},"events":[]},{"id":"0196c104-dc33-7000-bf0b-9237b6d3da37","meta":null,"created_on":"2025-05-11T20:24:03.379Z","created_by_id":null,"modified_on":"2025-05-11T20:24:03.379Z","modified_by_id":null,"deleted_on":null,"deleted_by_id":null,"tenant_id":"00000000-0000-0000-0000-000000000000","user_id":"019372de-17ef-7cc2-8fc0-43fe11ba042f","status":"pending","referree_id":"0196c104-dbe4-7000-bf0b-8f350df71b81","referree_earning":"233.33","referrer_earning":"100.32","user":{"id":"019372de-17ef-7cc2-8fc0-43fe11ba042f","meta":{},"created_on":"2024-11-28T13:02:58.029Z","created_by_id":null,"modified_on":"2025-05-21T18:47:25.694Z","modified_by_id":"019372de-17ef-7cc2-8fc0-43fe11ba042f","deleted_on":null,"deleted_by_id":null,"tenant_id":"00000000-0000-0000-0000-000000000000","email":"ismael@mailinator.com","status":"active","first_name":"Sunday","last_name":"Testing","twofa_enabled":false,"last_active":"2025-05-21T18:47:24.111Z","last_login":"2025-05-21T18:46:17.907Z","last_ip":"20.161.63.242","allowed_ips":null,"last_timezone":"America/New_York","last_location":"Boydton","phone":"+2348089722636","review":null,"gender":"male","date_of_birth":null,"cba_id":"31","photo_id":null,"referral_code":"7LD1QN","referred_by":null},"referree":{"id":"0196c104-dbe4-7000-bf0b-8f350df71b81","meta":null,"created_on":"2025-05-11T20:24:03.300Z","created_by_id":null,"modified_on":"2025-05-11T20:24:03.393Z","modified_by_id":null,"deleted_on":null,"deleted_by_id":null,"tenant_id":"00000000-0000-0000-0000-000000000000","email":"LoyalWeimannBerkshire3@mailinator.com","status":"active","first_name":"Cummerata","last_name":"Adrien","twofa_enabled":false,"last_active":"2025-05-11T20:24:03.300Z","last_login":"2025-05-11T20:24:03.393Z","last_ip":"52.160.161.178","allowed_ips":null,"last_timezone":"America/Los_Angeles","last_location":"San Jose","phone":null,"review":null,"gender":null,"date_of_birth":null,"cba_id":null,"photo_id":null,"referral_code":"61UM0X","referred_by":"019372de-17ef-7cc2-8fc0-43fe11ba042f"},"events":[]},{"id":"0196c0f7-855d-7000-bf0b-59fd73b63039","meta":null,"created_on":"2025-05-11T20:09:29.180Z","created_by_id":null,"modified_on":"2025-05-11T20:09:29.180Z","modified_by_id":null,"deleted_on":null,"deleted_by_id":null,"tenant_id":"00000000-0000-0000-0000-000000000000","user_id":"019372de-17ef-7cc2-8fc0-43fe11ba042f","status":"pending","referree_id":"0196c0f7-8510-7000-bf0b-55182cf20637","referree_earning":"233.33","referrer_earning":"100.32","user":{"id":"019372de-17ef-7cc2-8fc0-43fe11ba042f","meta":{},"created_on":"2024-11-28T13:02:58.029Z","created_by_id":null,"modified_on":"2025-05-21T18:47:25.694Z","modified_by_id":"019372de-17ef-7cc2-8fc0-43fe11ba042f","deleted_on":null,"deleted_by_id":null,"tenant_id":"00000000-0000-0000-0000-000000000000","email":"ismael@mailinator.com","status":"active","first_name":"Sunday","last_name":"Testing","twofa_enabled":false,"last_active":"2025-05-21T18:47:24.111Z","last_login":"2025-05-21T18:46:17.907Z","last_ip":"20.161.63.242","allowed_ips":null,"last_timezone":"America/New_York","last_location":"Boydton","phone":"+2348089722636","review":null,"gender":"male","date_of_birth":null,"cba_id":"31","photo_id":null,"referral_code":"7LD1QN","referred_by":null},"referree":{"id":"0196c0f7-8510-7000-bf0b-55182cf20637","meta":null,"created_on":"2025-05-11T20:09:29.103Z","created_by_id":null,"modified_on":"2025-05-11T20:09:29.196Z","modified_by_id":null,"deleted_on":null,"deleted_by_id":null,"tenant_id":"00000000-0000-0000-0000-000000000000","email":"MeganeWeimannsensor@mailinator.com","status":"active","first_name":"Miller","last_name":"Telly","twofa_enabled":false,"last_active":"2025-05-11T20:09:29.103Z","last_login":"2025-05-11T20:09:29.196Z","last_ip":"20.172.29.204","allowed_ips":null,"last_timezone":"America/Phoenix","last_location":"Phoenix","phone":null,"review":null,"gender":null,"date_of_birth":null,"cba_id":null,"photo_id":null,"referral_code":"THDHBA","referred_by":"019372de-17ef-7cc2-8fc0-43fe11ba042f"},"events":[]}],"meta":{"page":1,"total_pages":11,"total_items":105}}