{"status":"success","data":[{"id":"0196f2ed-127f-7661-b54e-78ad98517a05","meta":null,"created_on":"2025-05-21T12:59:05.213Z","created_by_id":"019372de-17ef-7cc2-8fc0-43fe11ba042f","modified_on":"2025-05-21T12:59:11.138Z","modified_by_id":"019372de-17ef-7cc2-8fc0-43fe11ba042f","deleted_on":null,"deleted_by_id":null,"tenant_id":"00000000-0000-0000-0000-000000000000","account_id":"0193a699-2f15-7881-8b7f-ae50980bcfad","profile_id":"0193a649-e3d0-7881-8b7f-2ef1d89a9aff","cba_id":"5955","currency":"NGN","amount":"10.00","balance_after":null,"reference":"TN5OMGS8JLO9","processor_reference":null,"processor_status":null,"processor_message":null,"status":"success","entry_type":"debit","narration":"t","transaction_date":"2025-05-21T12:59:05.212Z","transaction_type":"fee","processor":"cba","reviewed_on":null,"reviewed_by":null,"batch_id":null,"schedule_id":null,"account":{"id":"0193a699-2f15-7881-8b7f-ae50980bcfad","meta":null,"created_on":"2024-12-08T14:07:57.204Z","created_by_id":null,"modified_on":"2025-05-21T18:46:28.973Z","modified_by_id":"019372de-17ef-7cc2-8fc0-43fe11ba042f","deleted_on":null,"deleted_by_id":null,"tenant_id":"00000000-0000-0000-0000-000000000000","name":"expenses","type":"account","cba_id":"0000000074","status":"active","profile_id":"0193a649-e3d0-7881-8b7f-2ef1d89a9aff","account_number":"0000000074","bank_id":"0193324f-cad0-7f86-923b-43fb21ac5b29","ledger_balance":"701926284.00","hold_balance":"10001000.00","available_balance":"691925284.00","currency":"NGN","restricted":false},"transfer":null,"disputes":[],"batch":null,"transfer_beneficiary":null,"bill_payment_beneficiary":null},{"id":"0196f2ed-126c-7661-b54e-6f91a21a3a8a","meta":null,"created_on":"2025-05-21T12:59:05.196Z","created_by_id":"019372de-17ef-7cc2-8fc0-43fe11ba042f","modified_on":"2025-05-21T12:59:11.138Z","modified_by_id":"019372de-17ef-7cc2-8fc0-43fe11ba042f","deleted_on":null,"deleted_by_id":null,"tenant_id":"00000000-0000-0000-0000-000000000000","account_id":"0193a699-2f15-7881-8b7f-ae50980bcfad","profile_id":"0193a649-e3d0-7881-8b7f-2ef1d89a9aff","cba_id":null,"currency":"NGN","amount":"10000.00","balance_after":null,"reference":"TN5OMGS8JLO9","processor_reference":null,"processor_status":null,"processor_message":null,"status":"success","entry_type":"debit","narration":"t","transaction_date":"2025-05-21T12:59:05.195Z","transaction_type":"transfer","processor":"cba","reviewed_on":null,"reviewed_by":null,"batch_id":null,"schedule_id":null,"account":{"id":"0193a699-2f15-7881-8b7f-ae50980bcfad","meta":null,"created_on":"2024-12-08T14:07:57.204Z","created_by_id":null,"modified_on":"2025-05-21T18:46:28.973Z","modified_by_id":"019372de-17ef-7cc2-8fc0-43fe11ba042f","deleted_on":null,"deleted_by_id":null,"tenant_id":"00000000-0000-0000-0000-000000000000","name":"expenses","type":"account","cba_id":"0000000074","status":"active","profile_id":"0193a649-e3d0-7881-8b7f-2ef1d89a9aff","account_number":"0000000074","bank_id":"0193324f-cad0-7f86-923b-43fb21ac5b29","ledger_balance":"701926284.00","hold_balance":"10001000.00","available_balance":"691925284.00","currency":"NGN","restricted":false},"transfer":{"id":"0196f2ed-1273-7661-b54e-71069b9d141a","meta":null,"created_on":"2025-05-21T12:59:05.196Z","created_by_id":"019372de-17ef-7cc2-8fc0-43fe11ba042f","modified_on":"2025-05-21T12:59:11.138Z","modified_by_id":"019372de-17ef-7cc2-8fc0-43fe11ba042f","deleted_on":null,"deleted_by_id":null,"tenant_id":"00000000-0000-0000-0000-000000000000","bank_code":"050030","bank_name":"NORTHQUEST FINANCE COMPANY LIMITED ","bank_logo":"https://cdn.prod.website-files.com/67342b6ac3243e10a48bee9d/673b02614b7fc0a77c0172b2_NorthQuest%20Finance%20%20Logo-p-500.png","account_name":"Profile","account_number":"0000000463","profile_id":"0193a649-e3d0-7881-8b7f-2ef1d89a9aff","transaction_id":"0196f2ed-126c-7661-b54e-6f91a21a3a8a","account_id":"019566e3-fa1b-722f-a14c-651fbd6bb5f6","cba_id":"890"},"disputes":[],"batch":null,"transfer_beneficiary":null,"bill_payment_beneficiary":null},{"id":"0196f2eb-4d1e-7661-b54d-dd593bdd719a","meta":null,"created_on":"2025-05-21T12:57:09.150Z","created_by_id":"019372de-17ef-7cc2-8fc0-43fe11ba042f","modified_on":"2025-05-21T12:57:14.234Z","modified_by_id":"019372de-17ef-7cc2-8fc0-43fe11ba042f","deleted_on":null,"deleted_by_id":null,"tenant_id":"00000000-0000-0000-0000-000000000000","account_id":"0193a699-2f15-7881-8b7f-ae50980bcfad","profile_id":"0193a649-e3d0-7881-8b7f-2ef1d89a9aff","cba_id":"5951","currency":"NGN","amount":"10.00","balance_after":null,"reference":"T8XENYQMC4YM","processor_reference":null,"processor_status":null,"processor_message":null,"status":"success","entry_type":"debit","narration":"t","transaction_date":"2025-05-21T12:57:09.149Z","transaction_type":"fee","processor":"cba","reviewed_on":null,"reviewed_by":null,"batch_id":null,"schedule_id":null,"account":{"id":"0193a699-2f15-7881-8b7f-ae50980bcfad","meta":null,"created_on":"2024-12-08T14:07:57.204Z","created_by_id":null,"modified_on":"2025-05-21T18:46:28.973Z","modified_by_id":"019372de-17ef-7cc2-8fc0-43fe11ba042f","deleted_on":null,"deleted_by_id":null,"tenant_id":"00000000-0000-0000-0000-000000000000","name":"expenses","type":"account","cba_id":"0000000074","status":"active","profile_id":"0193a649-e3d0-7881-8b7f-2ef1d89a9aff","account_number":"0000000074","bank_id":"0193324f-cad0-7f86-923b-43fb21ac5b29","ledger_balance":"701926284.00","hold_balance":"10001000.00","available_balance":"691925284.00","currency":"NGN","restricted":false},"transfer":null,"disputes":[],"batch":null,"transfer_beneficiary":null,"bill_payment_beneficiary":null},{"id":"0196f2eb-4d09-7661-b54d-c9edeb009158","meta":null,"created_on":"2025-05-21T12:57:09.129Z","created_by_id":"019372de-17ef-7cc2-8fc0-43fe11ba042f","modified_on":"2025-05-21T12:57:14.234Z","modified_by_id":"019372de-17ef-7cc2-8fc0-43fe11ba042f","deleted_on":null,"deleted_by_id":null,"tenant_id":"00000000-0000-0000-0000-000000000000","account_id":"0193a699-2f15-7881-8b7f-ae50980bcfad","profile_id":"0193a649-e3d0-7881-8b7f-2ef1d89a9aff","cba_id":null,"currency":"NGN","amount":"50000.00","balance_after":null,"reference":"T8XENYQMC4YM","processor_reference":null,"processor_status":null,"processor_message":null,"status":"success","entry_type":"debit","narration":"t","transaction_date":"2025-05-21T12:57:09.127Z","transaction_type":"transfer","processor":"cba","reviewed_on":null,"reviewed_by":null,"batch_id":null,"schedule_id":null,"account":{"id":"0193a699-2f15-7881-8b7f-ae50980bcfad","meta":null,"created_on":"2024-12-08T14:07:57.204Z","created_by_id":null,"modified_on":"2025-05-21T18:46:28.973Z","modified_by_id":"019372de-17ef-7cc2-8fc0-43fe11ba042f","deleted_on":null,"deleted_by_id":null,"tenant_id":"00000000-0000-0000-0000-000000000000","name":"expenses","type":"account","cba_id":"0000000074","status":"active","profile_id":"0193a649-e3d0-7881-8b7f-2ef1d89a9aff","account_number":"0000000074","bank_id":"0193324f-cad0-7f86-923b-43fb21ac5b29","ledger_balance":"701926284.00","hold_balance":"10001000.00","available_balance":"691925284.00","currency":"NGN","restricted":false},"transfer":{"id":"0196f2eb-4d14-7661-b54d-d18bbdf5f2c6","meta":null,"created_on":"2025-05-21T12:57:09.129Z","created_by_id":"019372de-17ef-7cc2-8fc0-43fe11ba042f","modified_on":"2025-05-21T12:57:14.234Z","modified_by_id":"019372de-17ef-7cc2-8fc0-43fe11ba042f","deleted_on":null,"deleted_by_id":null,"tenant_id":"00000000-0000-0000-0000-000000000000","bank_code":"050030","bank_name":"NORTHQUEST FINANCE COMPANY LIMITED ","bank_logo":"https://cdn.prod.website-files.com/67342b6ac3243e10a48bee9d/673b02614b7fc0a77c0172b2_NorthQuest%20Finance%20%20Logo-p-500.png","account_name":"Profile","account_number":"0000000463","profile_id":"0193a649-e3d0-7881-8b7f-2ef1d89a9aff","transaction_id":"0196f2eb-4d09-7661-b54d-c9edeb009158","account_id":"019566e3-fa1b-722f-a14c-651fbd6bb5f6","cba_id":"889"},"disputes":[],"batch":null,"transfer_beneficiary":null,"bill_payment_beneficiary":null},{"id":"0196ee8c-eb4e-7337-aa11-92f03a74ac90","meta":null,"created_on":"2025-05-20T16:35:34.861Z","created_by_id":"019372de-17ef-7cc2-8fc0-43fe11ba042f","modified_on":"2025-05-20T16:35:35.200Z","modified_by_id":"019372de-17ef-7cc2-8fc0-43fe11ba042f","deleted_on":null,"deleted_by_id":null,"tenant_id":"00000000-0000-0000-0000-000000000000","account_id":"01961b11-9614-7aa9-8b8b-f6e198a8058f","profile_id":"0193a649-e3d0-7881-8b7f-2ef1d89a9aff","cba_id":null,"currency":"NGN","amount":"273.00","balance_after":null,"reference":"T2DSIP81ZGYM","processor_reference":null,"processor_status":null,"processor_message":null,"status":"success","entry_type":"credit","narration":null,"transaction_date":"2025-05-20T16:35:34.862Z","transaction_type":"saving-withdrawal","processor":"cba","reviewed_on":null,"reviewed_by":null,"batch_id":null,"schedule_id":null,"account":{"id":"01961b11-9614-7aa9-8b8b-f6e198a8058f","meta":null,"created_on":"2025-04-09T15:00:59.542Z","created_by_id":"019372de-17ef-7cc2-8fc0-43fe11ba042f","modified_on":"2025-05-21T18:46:29.094Z","modified_by_id":"019372de-17ef-7cc2-8fc0-43fe11ba042f","deleted_on":null,"deleted_by_id":null,"tenant_id":"00000000-0000-0000-0000-000000000000","name":"Auto Loan Account","type":"wallet","cba_id":"0000000527","status":"active","profile_id":"0193a649-e3d0-7881-8b7f-2ef1d89a9aff","account_number":"0000000527","bank_id":"0193324f-cad0-7f86-923b-43fb21ac5b29","ledger_balance":"273.11","hold_balance":"0.00","available_balance":"273.11","currency":"NGN","restricted":false},"transfer":null,"disputes":[],"batch":null,"transfer_beneficiary":null,"bill_payment_beneficiary":null},{"id":"0196ee6e-c28d-7337-aa11-4615ee211fbc","meta":null,"created_on":"2025-05-20T16:02:38.349Z","created_by_id":"0193d109-a926-7446-abe5-7dafe8b742bd","modified_on":"2025-05-20T16:02:38.349Z","modified_by_id":null,"deleted_on":null,"deleted_by_id":null,"tenant_id":"00000000-0000-0000-0000-000000000000","account_id":"0193a699-2f15-7881-8b7f-ae50980bcfad","profile_id":"0193a649-e3d0-7881-8b7f-2ef1d89a9aff","cba_id":null,"currency":"NGN","amount":"100.00","balance_after":null,"reference":"TKHJCI1T6X18","processor_reference":null,"processor_status":null,"processor_message":null,"status":"success","entry_type":"debit","narration":"paid","transaction_date":"2025-05-20T16:02:38.348Z","transaction_type":"loan-repayment","processor":"CBA","reviewed_on":null,"reviewed_by":null,"batch_id":null,"schedule_id":null,"account":{"id":"0193a699-2f15-7881-8b7f-ae50980bcfad","meta":null,"created_on":"2024-12-08T14:07:57.204Z","created_by_id":null,"modified_on":"2025-05-21T18:46:28.973Z","modified_by_id":"019372de-17ef-7cc2-8fc0-43fe11ba042f","deleted_on":null,"deleted_by_id":null,"tenant_id":"00000000-0000-0000-0000-000000000000","name":"expenses","type":"account","cba_id":"0000000074","status":"active","profile_id":"0193a649-e3d0-7881-8b7f-2ef1d89a9aff","account_number":"0000000074","bank_id":"0193324f-cad0-7f86-923b-43fb21ac5b29","ledger_balance":"701926284.00","hold_balance":"10001000.00","available_balance":"691925284.00","currency":"NGN","restricted":false},"transfer":null,"disputes":[],"batch":null,"transfer_beneficiary":null,"bill_payment_beneficiary":null},{"id":"0196edbb-074c-7337-aa0e-ec198ffc3c5a","meta":null,"created_on":"2025-05-20T12:46:19.468Z","created_by_id":"0193d109-a926-7446-abe5-7dafe8b742bd","modified_on":"2025-05-20T12:46:19.477Z","modified_by_id":"0193d109-a926-7446-abe5-7dafe8b742bd","deleted_on":null,"deleted_by_id":null,"tenant_id":"00000000-0000-0000-0000-000000000000","account_id":"0193a699-2f15-7881-8b7f-ae50980bcfad","profile_id":"0193a649-e3d0-7881-8b7f-2ef1d89a9aff","cba_id":null,"currency":"NGN","amount":"10000.00","balance_after":null,"reference":"T52FT049580O","processor_reference":null,"processor_status":null,"processor_message":null,"status":"failed","entry_type":"credit","narration":null,"transaction_date":"2025-05-20T12:46:19.468Z","transaction_type":"saving-withdrawal","processor":"cba","reviewed_on":null,"reviewed_by":null,"batch_id":null,"schedule_id":null,"account":{"id":"0193a699-2f15-7881-8b7f-ae50980bcfad","meta":null,"created_on":"2024-12-08T14:07:57.204Z","created_by_id":null,"modified_on":"2025-05-21T18:46:28.973Z","modified_by_id":"019372de-17ef-7cc2-8fc0-43fe11ba042f","deleted_on":null,"deleted_by_id":null,"tenant_id":"00000000-0000-0000-0000-000000000000","name":"expenses","type":"account","cba_id":"0000000074","status":"active","profile_id":"0193a649-e3d0-7881-8b7f-2ef1d89a9aff","account_number":"0000000074","bank_id":"0193324f-cad0-7f86-923b-43fb21ac5b29","ledger_balance":"701926284.00","hold_balance":"10001000.00","available_balance":"691925284.00","currency":"NGN","restricted":false},"transfer":null,"disputes":[],"batch":null,"transfer_beneficiary":null,"bill_payment_beneficiary":null},{"id":"0196ed2b-0580-7337-aa0e-46567c9ff3d8","meta":null,"created_on":"2025-05-20T10:09:01.823Z","created_by_id":"0193d109-a926-7446-abe5-7dafe8b742bd","modified_on":"2025-05-20T10:09:02.120Z","modified_by_id":"0193d109-a926-7446-abe5-7dafe8b742bd","deleted_on":null,"deleted_by_id":null,"tenant_id":"00000000-0000-0000-0000-000000000000","account_id":"0193a699-2f15-7881-8b7f-ae50980bcfad","profile_id":"0193a649-e3d0-7881-8b7f-2ef1d89a9aff","cba_id":null,"currency":"NGN","amount":"10.00","balance_after":null,"reference":"TTJYE0882QEE","processor_reference":null,"processor_status":null,"processor_message":null,"status":"failed","entry_type":"credit","narration":null,"transaction_date":"2025-05-20T10:09:01.823Z","transaction_type":"saving-withdrawal","processor":"cba","reviewed_on":null,"reviewed_by":null,"batch_id":null,"schedule_id":null,"account":{"id":"0193a699-2f15-7881-8b7f-ae50980bcfad","meta":null,"created_on":"2024-12-08T14:07:57.204Z","created_by_id":null,"modified_on":"2025-05-21T18:46:28.973Z","modified_by_id":"019372de-17ef-7cc2-8fc0-43fe11ba042f","deleted_on":null,"deleted_by_id":null,"tenant_id":"00000000-0000-0000-0000-000000000000","name":"expenses","type":"account","cba_id":"0000000074","status":"active","profile_id":"0193a649-e3d0-7881-8b7f-2ef1d89a9aff","account_number":"0000000074","bank_id":"0193324f-cad0-7f86-923b-43fb21ac5b29","ledger_balance":"701926284.00","hold_balance":"10001000.00","available_balance":"691925284.00","currency":"NGN","restricted":false},"transfer":null,"disputes":[],"batch":null,"transfer_beneficiary":null,"bill_payment_beneficiary":null},{"id":"0196ea5b-8e36-7cc7-ac70-b096e108dca1","meta":null,"created_on":"2025-05-19T21:03:10.913Z","created_by_id":"01925343-fbc8-7886-abfb-41c8746fc8ce","modified_on":"2025-05-19T21:03:13.638Z","modified_by_id":"01925343-fbc8-7886-abfb-41c8746fc8ce","deleted_on":null,"deleted_by_id":null,"tenant_id":"00000000-0000-0000-0000-000000000000","account_id":"0193a699-2f15-7881-8b7f-ae50980bcfad","profile_id":"0193a649-e3d0-7881-8b7f-2ef1d89a9aff","cba_id":null,"currency":"NGN","amount":"324.00","balance_after":null,"reference":"TBX7JW0JK9VD","processor_reference":null,"processor_status":null,"processor_message":null,"status":"success","entry_type":"debit","narration":null,"transaction_date":"2025-05-19T21:03:10.901Z","transaction_type":"saving-withdrawal","processor":"cba","reviewed_on":null,"reviewed_by":null,"batch_id":null,"schedule_id":null,"account":{"id":"0193a699-2f15-7881-8b7f-ae50980bcfad","meta":null,"created_on":"2024-12-08T14:07:57.204Z","created_by_id":null,"modified_on":"2025-05-21T18:46:28.973Z","modified_by_id":"019372de-17ef-7cc2-8fc0-43fe11ba042f","deleted_on":null,"deleted_by_id":null,"tenant_id":"00000000-0000-0000-0000-000000000000","name":"expenses","type":"account","cba_id":"0000000074","status":"active","profile_id":"0193a649-e3d0-7881-8b7f-2ef1d89a9aff","account_number":"0000000074","bank_id":"0193324f-cad0-7f86-923b-43fb21ac5b29","ledger_balance":"701926284.00","hold_balance":"10001000.00","available_balance":"691925284.00","currency":"NGN","restricted":false},"transfer":null,"disputes":[],"batch":null,"transfer_beneficiary":null,"bill_payment_beneficiary":null},{"id":"0196ea5a-f951-7cc7-ac70-8a46e7910e1d","meta":null,"created_on":"2025-05-19T21:02:32.795Z","created_by_id":"01925343-fbc8-7886-abfb-41c8746fc8ce","modified_on":"2025-05-19T21:02:35.485Z","modified_by_id":"01925343-fbc8-7886-abfb-41c8746fc8ce","deleted_on":null,"deleted_by_id":null,"tenant_id":"00000000-0000-0000-0000-000000000000","account_id":"0193a699-2f15-7881-8b7f-ae50980bcfad","profile_id":"0193a649-e3d0-7881-8b7f-2ef1d89a9aff","cba_id":null,"currency":"NGN","amount":"426.00","balance_after":null,"reference":"TQK72PH3OV0J","processor_reference":null,"processor_status":null,"processor_message":null,"status":"success","entry_type":"debit","narration":null,"transaction_date":"2025-05-19T21:02:32.784Z","transaction_type":"saving-withdrawal","processor":"cba","reviewed_on":null,"reviewed_by":null,"batch_id":null,"schedule_id":null,"account":{"id":"0193a699-2f15-7881-8b7f-ae50980bcfad","meta":null,"created_on":"2024-12-08T14:07:57.204Z","created_by_id":null,"modified_on":"2025-05-21T18:46:28.973Z","modified_by_id":"019372de-17ef-7cc2-8fc0-43fe11ba042f","deleted_on":null,"deleted_by_id":null,"tenant_id":"00000000-0000-0000-0000-000000000000","name":"expenses","type":"account","cba_id":"0000000074","status":"active","profile_id":"0193a649-e3d0-7881-8b7f-2ef1d89a9aff","account_number":"0000000074","bank_id":"0193324f-cad0-7f86-923b-43fb21ac5b29","ledger_balance":"701926284.00","hold_balance":"10001000.00","available_balance":"691925284.00","currency":"NGN","restricted":false},"transfer":null,"disputes":[],"batch":null,"transfer_beneficiary":null,"bill_payment_beneficiary":null}],"meta":{"page":1,"total_pages":144,"total_items":1439}}