{"status":"success","data":[{"id":"01947594-12c2-7779-9304-bc432c287a93","meta":null,"created_on":"2025-01-17T18:43:45.985Z","created_by_id":"019317a0-b7e5-7eeb-a7eb-bd18cf39a633","modified_on":"2025-01-17T18:43:46.678Z","modified_by_id":"019317a0-b7e5-7eeb-a7eb-bd18cf39a633","deleted_on":null,"deleted_by_id":null,"tenant_id":"00000000-0000-0000-0000-000000000000","account_id":"0193f0e2-ab16-799a-85ae-fa4fbe2990a7","profile_id":"01931947-9fea-744d-8f66-118c138292e3","cba_id":"1945","currency":"NGN","amount":"1800.00","balance_after":null,"reference":"Thrsizeebbv","processor_reference":null,"processor_status":null,"processor_message":null,"status":"success","entry_type":"debit","narration":"Bill payment to waec for 1102003467","transaction_date":"2025-01-17T18:43:45.985Z","transaction_type":"bill-payment","processor":"baxipay","reviewed_on":null,"reviewed_by":null,"batch_id":null,"schedule_id":null,"account":{"id":"0193f0e2-ab16-799a-85ae-fa4fbe2990a7","meta":null,"created_on":"2024-12-23T00:20:07.063Z","created_by_id":null,"modified_on":"2025-01-17T18:42:56.529Z","modified_by_id":"019317a0-b7e5-7eeb-a7eb-bd18cf39a633","deleted_on":null,"deleted_by_id":null,"tenant_id":"00000000-0000-0000-0000-000000000000","name":"Eno","cba_id":"0000000115","status":"active","profile_id":"01931947-9fea-744d-8f66-118c138292e3","account_number":"0000000115","bank_id":"0193324f-cad0-7f86-923b-43fb21ac5b29","ledger_balance":"30280.00","hold_balance":"0.00","available_balance":"30280.00","currency":"NGN","restricted":false},"transfer":null,"disputes":[],"batch":null,"transfer_beneficiary":null,"bill_payment_beneficiary":null},{"id":"01947594-0db4-7779-9304-b7a03b5197b1","meta":null,"created_on":"2025-01-17T18:43:44.691Z","created_by_id":"019317a0-b7e5-7eeb-a7eb-bd18cf39a633","modified_on":"2025-01-17T18:43:45.335Z","modified_by_id":"019317a0-b7e5-7eeb-a7eb-bd18cf39a633","deleted_on":null,"deleted_by_id":null,"tenant_id":"00000000-0000-0000-0000-000000000000","account_id":"0193f0e2-ab16-799a-85ae-fa4fbe2990a7","profile_id":"01931947-9fea-744d-8f66-118c138292e3","cba_id":"1944","currency":"NGN","amount":"2300.00","balance_after":null,"reference":"Tckxrxfglzx","processor_reference":null,"processor_status":null,"processor_message":"","status":"failed","entry_type":"debit","narration":"Bill payment to abuja_electric_postpaid for 07034953306","transaction_date":"2025-01-17T18:43:44.690Z","transaction_type":"bill-payment","processor":"baxipay","reviewed_on":null,"reviewed_by":null,"batch_id":null,"schedule_id":null,"account":{"id":"0193f0e2-ab16-799a-85ae-fa4fbe2990a7","meta":null,"created_on":"2024-12-23T00:20:07.063Z","created_by_id":null,"modified_on":"2025-01-17T18:42:56.529Z","modified_by_id":"019317a0-b7e5-7eeb-a7eb-bd18cf39a633","deleted_on":null,"deleted_by_id":null,"tenant_id":"00000000-0000-0000-0000-000000000000","name":"Eno","cba_id":"0000000115","status":"active","profile_id":"01931947-9fea-744d-8f66-118c138292e3","account_number":"0000000115","bank_id":"0193324f-cad0-7f86-923b-43fb21ac5b29","ledger_balance":"30280.00","hold_balance":"0.00","available_balance":"30280.00","currency":"NGN","restricted":false},"transfer":null,"disputes":[],"batch":null,"transfer_beneficiary":null,"bill_payment_beneficiary":null},{"id":"01947593-f527-7779-9304-aedafd162332","meta":null,"created_on":"2025-01-17T18:43:38.407Z","created_by_id":"019317a0-b7e5-7eeb-a7eb-bd18cf39a633","modified_on":"2025-01-17T18:43:40.465Z","modified_by_id":"019317a0-b7e5-7eeb-a7eb-bd18cf39a633","deleted_on":null,"deleted_by_id":null,"tenant_id":"00000000-0000-0000-0000-000000000000","account_id":"0193f0e2-ab16-799a-85ae-fa4fbe2990a7","profile_id":"01931947-9fea-744d-8f66-118c138292e3","cba_id":"1943","currency":"NGN","amount":"900.00","balance_after":null,"reference":"Twhpwfbrvig","processor_reference":null,"processor_status":null,"processor_message":null,"status":"success","entry_type":"debit","narration":"Bill payment to gotv for 1102003467","transaction_date":"2025-01-17T18:43:38.407Z","transaction_type":"bill-payment","processor":"baxipay","reviewed_on":null,"reviewed_by":null,"batch_id":null,"schedule_id":null,"account":{"id":"0193f0e2-ab16-799a-85ae-fa4fbe2990a7","meta":null,"created_on":"2024-12-23T00:20:07.063Z","created_by_id":null,"modified_on":"2025-01-17T18:42:56.529Z","modified_by_id":"019317a0-b7e5-7eeb-a7eb-bd18cf39a633","deleted_on":null,"deleted_by_id":null,"tenant_id":"00000000-0000-0000-0000-000000000000","name":"Eno","cba_id":"0000000115","status":"active","profile_id":"01931947-9fea-744d-8f66-118c138292e3","account_number":"0000000115","bank_id":"0193324f-cad0-7f86-923b-43fb21ac5b29","ledger_balance":"30280.00","hold_balance":"0.00","available_balance":"30280.00","currency":"NGN","restricted":false},"transfer":null,"disputes":[],"batch":null,"transfer_beneficiary":null,"bill_payment_beneficiary":null},{"id":"01947593-c6a8-7779-9304-a0ab538257f2","meta":null,"created_on":"2025-01-17T18:43:26.503Z","created_by_id":"019317a0-b7e5-7eeb-a7eb-bd18cf39a633","modified_on":"2025-01-17T18:43:36.673Z","modified_by_id":"019317a0-b7e5-7eeb-a7eb-bd18cf39a633","deleted_on":null,"deleted_by_id":null,"tenant_id":"00000000-0000-0000-0000-000000000000","account_id":"0193f0e2-ab16-799a-85ae-fa4fbe2990a7","profile_id":"01931947-9fea-744d-8f66-118c138292e3","cba_id":"1942","currency":"NGN","amount":"5300.00","balance_after":null,"reference":"Tawfmwubaea","processor_reference":null,"processor_status":null,"processor_message":null,"status":"success","entry_type":"debit","narration":"Bill payment to dstv for 1102003467","transaction_date":"2025-01-17T18:43:26.502Z","transaction_type":"bill-payment","processor":"baxipay","reviewed_on":null,"reviewed_by":null,"batch_id":null,"schedule_id":null,"account":{"id":"0193f0e2-ab16-799a-85ae-fa4fbe2990a7","meta":null,"created_on":"2024-12-23T00:20:07.063Z","created_by_id":null,"modified_on":"2025-01-17T18:42:56.529Z","modified_by_id":"019317a0-b7e5-7eeb-a7eb-bd18cf39a633","deleted_on":null,"deleted_by_id":null,"tenant_id":"00000000-0000-0000-0000-000000000000","name":"Eno","cba_id":"0000000115","status":"active","profile_id":"01931947-9fea-744d-8f66-118c138292e3","account_number":"0000000115","bank_id":"0193324f-cad0-7f86-923b-43fb21ac5b29","ledger_balance":"30280.00","hold_balance":"0.00","available_balance":"30280.00","currency":"NGN","restricted":false},"transfer":null,"disputes":[],"batch":null,"transfer_beneficiary":null,"bill_payment_beneficiary":null},{"id":"01947593-c243-7779-9304-98bb67120e18","meta":null,"created_on":"2025-01-17T18:43:25.379Z","created_by_id":"019317a0-b7e5-7eeb-a7eb-bd18cf39a633","modified_on":"2025-01-17T18:43:25.725Z","modified_by_id":"019317a0-b7e5-7eeb-a7eb-bd18cf39a633","deleted_on":null,"deleted_by_id":null,"tenant_id":"00000000-0000-0000-0000-000000000000","account_id":"0193f0e2-ab16-799a-85ae-fa4fbe2990a7","profile_id":"01931947-9fea-744d-8f66-118c138292e3","cba_id":"1941","currency":"NGN","amount":"1800.00","balance_after":null,"reference":"Tntbwhjshgk","processor_reference":null,"processor_status":null,"processor_message":null,"status":"success","entry_type":"debit","narration":"Bill payment to smile for 11020034671","transaction_date":"2025-01-17T18:43:25.379Z","transaction_type":"bill-payment","processor":"baxipay","reviewed_on":null,"reviewed_by":null,"batch_id":null,"schedule_id":null,"account":{"id":"0193f0e2-ab16-799a-85ae-fa4fbe2990a7","meta":null,"created_on":"2024-12-23T00:20:07.063Z","created_by_id":null,"modified_on":"2025-01-17T18:42:56.529Z","modified_by_id":"019317a0-b7e5-7eeb-a7eb-bd18cf39a633","deleted_on":null,"deleted_by_id":null,"tenant_id":"00000000-0000-0000-0000-000000000000","name":"Eno","cba_id":"0000000115","status":"active","profile_id":"01931947-9fea-744d-8f66-118c138292e3","account_number":"0000000115","bank_id":"0193324f-cad0-7f86-923b-43fb21ac5b29","ledger_balance":"30280.00","hold_balance":"0.00","available_balance":"30280.00","currency":"NGN","restricted":false},"transfer":null,"disputes":[],"batch":null,"transfer_beneficiary":null,"bill_payment_beneficiary":null},{"id":"01947593-bd31-7779-9304-90b082ed5787","meta":null,"created_on":"2025-01-17T18:43:24.081Z","created_by_id":"019317a0-b7e5-7eeb-a7eb-bd18cf39a633","modified_on":"2025-01-17T18:43:24.611Z","modified_by_id":"019317a0-b7e5-7eeb-a7eb-bd18cf39a633","deleted_on":null,"deleted_by_id":null,"tenant_id":"00000000-0000-0000-0000-000000000000","account_id":"0193f0e2-ab16-799a-85ae-fa4fbe2990a7","profile_id":"01931947-9fea-744d-8f66-118c138292e3","cba_id":"1940","currency":"NGN","amount":"200.00","balance_after":null,"reference":"Tgypfpekiod","processor_reference":null,"processor_status":null,"processor_message":null,"status":"success","entry_type":"debit","narration":"Bill payment to 9mobile for 11020034671","transaction_date":"2025-01-17T18:43:24.081Z","transaction_type":"bill-payment","processor":"baxipay","reviewed_on":null,"reviewed_by":null,"batch_id":null,"schedule_id":null,"account":{"id":"0193f0e2-ab16-799a-85ae-fa4fbe2990a7","meta":null,"created_on":"2024-12-23T00:20:07.063Z","created_by_id":null,"modified_on":"2025-01-17T18:42:56.529Z","modified_by_id":"019317a0-b7e5-7eeb-a7eb-bd18cf39a633","deleted_on":null,"deleted_by_id":null,"tenant_id":"00000000-0000-0000-0000-000000000000","name":"Eno","cba_id":"0000000115","status":"active","profile_id":"01931947-9fea-744d-8f66-118c138292e3","account_number":"0000000115","bank_id":"0193324f-cad0-7f86-923b-43fb21ac5b29","ledger_balance":"30280.00","hold_balance":"0.00","available_balance":"30280.00","currency":"NGN","restricted":false},"transfer":null,"disputes":[],"batch":null,"transfer_beneficiary":null,"bill_payment_beneficiary":null},{"id":"01947593-b896-7779-9304-8ebd6a117487","meta":null,"created_on":"2025-01-17T18:43:22.901Z","created_by_id":"019317a0-b7e5-7eeb-a7eb-bd18cf39a633","modified_on":"2025-01-17T18:43:23.500Z","modified_by_id":"019317a0-b7e5-7eeb-a7eb-bd18cf39a633","deleted_on":null,"deleted_by_id":null,"tenant_id":"00000000-0000-0000-0000-000000000000","account_id":"0193f0e2-ab16-799a-85ae-fa4fbe2990a7","profile_id":"01931947-9fea-744d-8f66-118c138292e3","cba_id":"1939","currency":"NGN","amount":"50.00","balance_after":null,"reference":"Tbgwbyyiudo","processor_reference":null,"processor_status":null,"processor_message":null,"status":"success","entry_type":"debit","narration":"Bill payment to airtel for 11020034671","transaction_date":"2025-01-17T18:43:22.901Z","transaction_type":"bill-payment","processor":"baxipay","reviewed_on":null,"reviewed_by":null,"batch_id":null,"schedule_id":null,"account":{"id":"0193f0e2-ab16-799a-85ae-fa4fbe2990a7","meta":null,"created_on":"2024-12-23T00:20:07.063Z","created_by_id":null,"modified_on":"2025-01-17T18:42:56.529Z","modified_by_id":"019317a0-b7e5-7eeb-a7eb-bd18cf39a633","deleted_on":null,"deleted_by_id":null,"tenant_id":"00000000-0000-0000-0000-000000000000","name":"Eno","cba_id":"0000000115","status":"active","profile_id":"01931947-9fea-744d-8f66-118c138292e3","account_number":"0000000115","bank_id":"0193324f-cad0-7f86-923b-43fb21ac5b29","ledger_balance":"30280.00","hold_balance":"0.00","available_balance":"30280.00","currency":"NGN","restricted":false},"transfer":null,"disputes":[],"batch":null,"transfer_beneficiary":null,"bill_payment_beneficiary":null},{"id":"01947593-b04e-7779-9304-7b6a9b39d4eb","meta":null,"created_on":"2025-01-17T18:43:20.782Z","created_by_id":"019317a0-b7e5-7eeb-a7eb-bd18cf39a633","modified_on":"2025-01-17T18:43:21.282Z","modified_by_id":"019317a0-b7e5-7eeb-a7eb-bd18cf39a633","deleted_on":null,"deleted_by_id":null,"tenant_id":"00000000-0000-0000-0000-000000000000","account_id":"0193f0e2-ab16-799a-85ae-fa4fbe2990a7","profile_id":"01931947-9fea-744d-8f66-118c138292e3","cba_id":"1938","currency":"NGN","amount":"100.00","balance_after":null,"reference":"Twblkdoclfs","processor_reference":null,"processor_status":null,"processor_message":null,"status":"success","entry_type":"debit","narration":"Bill payment to mtn for 11020034671","transaction_date":"2025-01-17T18:43:20.781Z","transaction_type":"bill-payment","processor":"baxipay","reviewed_on":null,"reviewed_by":null,"batch_id":null,"schedule_id":null,"account":{"id":"0193f0e2-ab16-799a-85ae-fa4fbe2990a7","meta":null,"created_on":"2024-12-23T00:20:07.063Z","created_by_id":null,"modified_on":"2025-01-17T18:42:56.529Z","modified_by_id":"019317a0-b7e5-7eeb-a7eb-bd18cf39a633","deleted_on":null,"deleted_by_id":null,"tenant_id":"00000000-0000-0000-0000-000000000000","name":"Eno","cba_id":"0000000115","status":"active","profile_id":"01931947-9fea-744d-8f66-118c138292e3","account_number":"0000000115","bank_id":"0193324f-cad0-7f86-923b-43fb21ac5b29","ledger_balance":"30280.00","hold_balance":"0.00","available_balance":"30280.00","currency":"NGN","restricted":false},"transfer":null,"disputes":[],"batch":null,"transfer_beneficiary":null,"bill_payment_beneficiary":null},{"id":"01947593-ac57-7779-9304-764055d9fff9","meta":null,"created_on":"2025-01-17T18:43:19.766Z","created_by_id":"019317a0-b7e5-7eeb-a7eb-bd18cf39a633","modified_on":"2025-01-17T18:43:20.187Z","modified_by_id":"019317a0-b7e5-7eeb-a7eb-bd18cf39a633","deleted_on":null,"deleted_by_id":null,"tenant_id":"00000000-0000-0000-0000-000000000000","account_id":"0193f0e2-ab16-799a-85ae-fa4fbe2990a7","profile_id":"01931947-9fea-744d-8f66-118c138292e3","cba_id":"1937","currency":"NGN","amount":"100.00","balance_after":null,"reference":"Tdzhnlgfxfb","processor_reference":null,"processor_status":null,"processor_message":null,"status":"success","entry_type":"debit","narration":"Bill payment to smile for 1102003467","transaction_date":"2025-01-17T18:43:19.766Z","transaction_type":"bill-payment","processor":"baxipay","reviewed_on":null,"reviewed_by":null,"batch_id":null,"schedule_id":null,"account":{"id":"0193f0e2-ab16-799a-85ae-fa4fbe2990a7","meta":null,"created_on":"2024-12-23T00:20:07.063Z","created_by_id":null,"modified_on":"2025-01-17T18:42:56.529Z","modified_by_id":"019317a0-b7e5-7eeb-a7eb-bd18cf39a633","deleted_on":null,"deleted_by_id":null,"tenant_id":"00000000-0000-0000-0000-000000000000","name":"Eno","cba_id":"0000000115","status":"active","profile_id":"01931947-9fea-744d-8f66-118c138292e3","account_number":"0000000115","bank_id":"0193324f-cad0-7f86-923b-43fb21ac5b29","ledger_balance":"30280.00","hold_balance":"0.00","available_balance":"30280.00","currency":"NGN","restricted":false},"transfer":null,"disputes":[],"batch":null,"transfer_beneficiary":null,"bill_payment_beneficiary":null},{"id":"01947593-a877-7779-9304-6bc6fe9224ab","meta":null,"created_on":"2025-01-17T18:43:18.774Z","created_by_id":"019317a0-b7e5-7eeb-a7eb-bd18cf39a633","modified_on":"2025-01-17T18:43:19.216Z","modified_by_id":"019317a0-b7e5-7eeb-a7eb-bd18cf39a633","deleted_on":null,"deleted_by_id":null,"tenant_id":"00000000-0000-0000-0000-000000000000","account_id":"0193f0e2-ab16-799a-85ae-fa4fbe2990a7","profile_id":"01931947-9fea-744d-8f66-118c138292e3","cba_id":"1936","currency":"NGN","amount":"100.00","balance_after":null,"reference":"Tjrjyhlqhwo","processor_reference":null,"processor_status":null,"processor_message":null,"status":"success","entry_type":"debit","narration":"Bill payment to 9mobile for 1102003467","transaction_date":"2025-01-17T18:43:18.774Z","transaction_type":"bill-payment","processor":"baxipay","reviewed_on":null,"reviewed_by":null,"batch_id":null,"schedule_id":null,"account":{"id":"0193f0e2-ab16-799a-85ae-fa4fbe2990a7","meta":null,"created_on":"2024-12-23T00:20:07.063Z","created_by_id":null,"modified_on":"2025-01-17T18:42:56.529Z","modified_by_id":"019317a0-b7e5-7eeb-a7eb-bd18cf39a633","deleted_on":null,"deleted_by_id":null,"tenant_id":"00000000-0000-0000-0000-000000000000","name":"Eno","cba_id":"0000000115","status":"active","profile_id":"01931947-9fea-744d-8f66-118c138292e3","account_number":"0000000115","bank_id":"0193324f-cad0-7f86-923b-43fb21ac5b29","ledger_balance":"30280.00","hold_balance":"0.00","available_balance":"30280.00","currency":"NGN","restricted":false},"transfer":null,"disputes":[],"batch":null,"transfer_beneficiary":null,"bill_payment_beneficiary":null}],"meta":{"page":1,"total_pages":149,"total_items":1483}}