{"status":"success","data":[{"id":"01944737-8839-755d-84ce-c2d85d8d03ac","meta":null,"created_on":"2025-01-08T18:40:09.273Z","created_by":"019372de-17ef-7cc2-8fc0-43fe11ba042f","modified_on":"2025-01-08T18:40:09.273Z","modified_by":null,"deleted_on":null,"deleted_by":null,"tenant_id":"00000000-0000-0000-0000-000000000000","account_id":"0193e462-3285-7ff7-a93e-42b71063a119","profile_id":"0193a649-e3d0-7881-8b7f-2ef1d89a9aff","cba_id":null,"currency":"NGN","amount":"1800.00","reference":"Tztekpsznvp","processor_reference":null,"processor_status":null,"processor_message":null,"status":"processing","entry_type":"debit","narration":"Bill payment to waec for 1102003467","transaction_date":"2025-01-08T18:40:09.272Z","transaction_type":"bill-payment","processor":"baxipay","reviewed_on":null,"reviewed_by":null,"batch_id":null,"schedule_id":null,"account":{"id":"0193e462-3285-7ff7-a93e-42b71063a119","meta":null,"created_on":"2024-12-20T14:04:20.997Z","created_by":null,"modified_on":"2025-01-08T18:39:18.672Z","modified_by":null,"deleted_on":null,"deleted_by":null,"tenant_id":"00000000-0000-0000-0000-000000000000","name":"emergency","cba_id":"0000000106","status":"active","profile_id":"0193a649-e3d0-7881-8b7f-2ef1d89a9aff","account_number":"0000000106","bank_id":"0193324f-cad0-7f86-923b-43fb21ac5b29","ledger_balance":"2000.00","hold_balance":"0.00","available_balance":"2000.00","currency":"NGN","restricted":false},"transfer":null,"disputes":[],"batch":null,"transfer_beneficiary":null,"bill_payment_beneficiary":null},{"id":"01944737-6b0f-755d-84ce-b6332dd2b86c","meta":null,"created_on":"2025-01-08T18:40:01.807Z","created_by":"019372de-17ef-7cc2-8fc0-43fe11ba042f","modified_on":"2025-01-08T18:40:01.807Z","modified_by":null,"deleted_on":null,"deleted_by":null,"tenant_id":"00000000-0000-0000-0000-000000000000","account_id":"0193e462-3285-7ff7-a93e-42b71063a119","profile_id":"0193a649-e3d0-7881-8b7f-2ef1d89a9aff","cba_id":null,"currency":"NGN","amount":"900.00","reference":"Tymrqhziijj","processor_reference":null,"processor_status":null,"processor_message":null,"status":"processing","entry_type":"debit","narration":"Bill payment to gotv for 1102003467","transaction_date":"2025-01-08T18:40:01.798Z","transaction_type":"bill-payment","processor":"baxipay","reviewed_on":null,"reviewed_by":null,"batch_id":null,"schedule_id":null,"account":{"id":"0193e462-3285-7ff7-a93e-42b71063a119","meta":null,"created_on":"2024-12-20T14:04:20.997Z","created_by":null,"modified_on":"2025-01-08T18:39:18.672Z","modified_by":null,"deleted_on":null,"deleted_by":null,"tenant_id":"00000000-0000-0000-0000-000000000000","name":"emergency","cba_id":"0000000106","status":"active","profile_id":"0193a649-e3d0-7881-8b7f-2ef1d89a9aff","account_number":"0000000106","bank_id":"0193324f-cad0-7f86-923b-43fb21ac5b29","ledger_balance":"2000.00","hold_balance":"0.00","available_balance":"2000.00","currency":"NGN","restricted":false},"transfer":null,"disputes":[],"batch":null,"transfer_beneficiary":null,"bill_payment_beneficiary":null},{"id":"01944737-5829-755d-84ce-ae3e94971395","meta":null,"created_on":"2025-01-08T18:39:56.969Z","created_by":"019372de-17ef-7cc2-8fc0-43fe11ba042f","modified_on":"2025-01-08T18:39:56.969Z","modified_by":null,"deleted_on":null,"deleted_by":null,"tenant_id":"00000000-0000-0000-0000-000000000000","account_id":"0193e462-3285-7ff7-a93e-42b71063a119","profile_id":"0193a649-e3d0-7881-8b7f-2ef1d89a9aff","cba_id":null,"currency":"NGN","amount":"1800.00","reference":"Txlsodchmrb","processor_reference":null,"processor_status":null,"processor_message":null,"status":"processing","entry_type":"debit","narration":"Bill payment to smile for 11020034671","transaction_date":"2025-01-08T18:39:56.968Z","transaction_type":"bill-payment","processor":"baxipay","reviewed_on":null,"reviewed_by":null,"batch_id":null,"schedule_id":null,"account":{"id":"0193e462-3285-7ff7-a93e-42b71063a119","meta":null,"created_on":"2024-12-20T14:04:20.997Z","created_by":null,"modified_on":"2025-01-08T18:39:18.672Z","modified_by":null,"deleted_on":null,"deleted_by":null,"tenant_id":"00000000-0000-0000-0000-000000000000","name":"emergency","cba_id":"0000000106","status":"active","profile_id":"0193a649-e3d0-7881-8b7f-2ef1d89a9aff","account_number":"0000000106","bank_id":"0193324f-cad0-7f86-923b-43fb21ac5b29","ledger_balance":"2000.00","hold_balance":"0.00","available_balance":"2000.00","currency":"NGN","restricted":false},"transfer":null,"disputes":[],"batch":null,"transfer_beneficiary":null,"bill_payment_beneficiary":null},{"id":"01944737-5456-755d-84ce-a7ef3eacd2d7","meta":null,"created_on":"2025-01-08T18:39:55.987Z","created_by":"019372de-17ef-7cc2-8fc0-43fe11ba042f","modified_on":"2025-01-08T18:39:55.987Z","modified_by":null,"deleted_on":null,"deleted_by":null,"tenant_id":"00000000-0000-0000-0000-000000000000","account_id":"0193e462-3285-7ff7-a93e-42b71063a119","profile_id":"0193a649-e3d0-7881-8b7f-2ef1d89a9aff","cba_id":null,"currency":"NGN","amount":"200.00","reference":"Tzjojygykiw","processor_reference":null,"processor_status":null,"processor_message":null,"status":"processing","entry_type":"debit","narration":"Bill payment to 9mobile for 11020034671","transaction_date":"2025-01-08T18:39:55.986Z","transaction_type":"bill-payment","processor":"baxipay","reviewed_on":null,"reviewed_by":null,"batch_id":null,"schedule_id":null,"account":{"id":"0193e462-3285-7ff7-a93e-42b71063a119","meta":null,"created_on":"2024-12-20T14:04:20.997Z","created_by":null,"modified_on":"2025-01-08T18:39:18.672Z","modified_by":null,"deleted_on":null,"deleted_by":null,"tenant_id":"00000000-0000-0000-0000-000000000000","name":"emergency","cba_id":"0000000106","status":"active","profile_id":"0193a649-e3d0-7881-8b7f-2ef1d89a9aff","account_number":"0000000106","bank_id":"0193324f-cad0-7f86-923b-43fb21ac5b29","ledger_balance":"2000.00","hold_balance":"0.00","available_balance":"2000.00","currency":"NGN","restricted":false},"transfer":null,"disputes":[],"batch":null,"transfer_beneficiary":null,"bill_payment_beneficiary":null},{"id":"01944737-4c0b-755d-84ce-98397a0acbd8","meta":null,"created_on":"2025-01-08T18:39:53.866Z","created_by":"019372de-17ef-7cc2-8fc0-43fe11ba042f","modified_on":"2025-01-08T18:39:53.866Z","modified_by":null,"deleted_on":null,"deleted_by":null,"tenant_id":"00000000-0000-0000-0000-000000000000","account_id":"0193e462-3285-7ff7-a93e-42b71063a119","profile_id":"0193a649-e3d0-7881-8b7f-2ef1d89a9aff","cba_id":null,"currency":"NGN","amount":"50.00","reference":"Toqojeyrfrp","processor_reference":null,"processor_status":null,"processor_message":null,"status":"processing","entry_type":"debit","narration":"Bill payment to airtel for 11020034671","transaction_date":"2025-01-08T18:39:53.774Z","transaction_type":"bill-payment","processor":"baxipay","reviewed_on":null,"reviewed_by":null,"batch_id":null,"schedule_id":null,"account":{"id":"0193e462-3285-7ff7-a93e-42b71063a119","meta":null,"created_on":"2024-12-20T14:04:20.997Z","created_by":null,"modified_on":"2025-01-08T18:39:18.672Z","modified_by":null,"deleted_on":null,"deleted_by":null,"tenant_id":"00000000-0000-0000-0000-000000000000","name":"emergency","cba_id":"0000000106","status":"active","profile_id":"0193a649-e3d0-7881-8b7f-2ef1d89a9aff","account_number":"0000000106","bank_id":"0193324f-cad0-7f86-923b-43fb21ac5b29","ledger_balance":"2000.00","hold_balance":"0.00","available_balance":"2000.00","currency":"NGN","restricted":false},"transfer":null,"disputes":[],"batch":null,"transfer_beneficiary":null,"bill_payment_beneficiary":null},{"id":"01944737-41e5-755d-84ce-9275c901b2f1","meta":null,"created_on":"2025-01-08T18:39:51.269Z","created_by":"019372de-17ef-7cc2-8fc0-43fe11ba042f","modified_on":"2025-01-08T18:39:51.269Z","modified_by":null,"deleted_on":null,"deleted_by":null,"tenant_id":"00000000-0000-0000-0000-000000000000","account_id":"0193e462-3285-7ff7-a93e-42b71063a119","profile_id":"0193a649-e3d0-7881-8b7f-2ef1d89a9aff","cba_id":null,"currency":"NGN","amount":"100.00","reference":"Ttqeovaneae","processor_reference":null,"processor_status":null,"processor_message":null,"status":"processing","entry_type":"debit","narration":"Bill payment to mtn for 11020034671","transaction_date":"2025-01-08T18:39:51.268Z","transaction_type":"bill-payment","processor":"baxipay","reviewed_on":null,"reviewed_by":null,"batch_id":null,"schedule_id":null,"account":{"id":"0193e462-3285-7ff7-a93e-42b71063a119","meta":null,"created_on":"2024-12-20T14:04:20.997Z","created_by":null,"modified_on":"2025-01-08T18:39:18.672Z","modified_by":null,"deleted_on":null,"deleted_by":null,"tenant_id":"00000000-0000-0000-0000-000000000000","name":"emergency","cba_id":"0000000106","status":"active","profile_id":"0193a649-e3d0-7881-8b7f-2ef1d89a9aff","account_number":"0000000106","bank_id":"0193324f-cad0-7f86-923b-43fb21ac5b29","ledger_balance":"2000.00","hold_balance":"0.00","available_balance":"2000.00","currency":"NGN","restricted":false},"transfer":null,"disputes":[],"batch":null,"transfer_beneficiary":null,"bill_payment_beneficiary":null},{"id":"01944737-3ec7-755d-84ce-8d9b2218f7f6","meta":null,"created_on":"2025-01-08T18:39:50.472Z","created_by":"019372de-17ef-7cc2-8fc0-43fe11ba042f","modified_on":"2025-01-08T18:39:50.472Z","modified_by":null,"deleted_on":null,"deleted_by":null,"tenant_id":"00000000-0000-0000-0000-000000000000","account_id":"0193e462-3285-7ff7-a93e-42b71063a119","profile_id":"0193a649-e3d0-7881-8b7f-2ef1d89a9aff","cba_id":null,"currency":"NGN","amount":"100.00","reference":"Tvsouzgrhkr","processor_reference":null,"processor_status":null,"processor_message":null,"status":"processing","entry_type":"debit","narration":"Bill payment to smile for 1102003467","transaction_date":"2025-01-08T18:39:50.470Z","transaction_type":"bill-payment","processor":"baxipay","reviewed_on":null,"reviewed_by":null,"batch_id":null,"schedule_id":null,"account":{"id":"0193e462-3285-7ff7-a93e-42b71063a119","meta":null,"created_on":"2024-12-20T14:04:20.997Z","created_by":null,"modified_on":"2025-01-08T18:39:18.672Z","modified_by":null,"deleted_on":null,"deleted_by":null,"tenant_id":"00000000-0000-0000-0000-000000000000","name":"emergency","cba_id":"0000000106","status":"active","profile_id":"0193a649-e3d0-7881-8b7f-2ef1d89a9aff","account_number":"0000000106","bank_id":"0193324f-cad0-7f86-923b-43fb21ac5b29","ledger_balance":"2000.00","hold_balance":"0.00","available_balance":"2000.00","currency":"NGN","restricted":false},"transfer":null,"disputes":[],"batch":null,"transfer_beneficiary":null,"bill_payment_beneficiary":null},{"id":"01944737-3ba6-755d-84ce-84cbef97d900","meta":null,"created_on":"2025-01-08T18:39:49.670Z","created_by":"019372de-17ef-7cc2-8fc0-43fe11ba042f","modified_on":"2025-01-08T18:39:49.670Z","modified_by":null,"deleted_on":null,"deleted_by":null,"tenant_id":"00000000-0000-0000-0000-000000000000","account_id":"0193e462-3285-7ff7-a93e-42b71063a119","profile_id":"0193a649-e3d0-7881-8b7f-2ef1d89a9aff","cba_id":null,"currency":"NGN","amount":"100.00","reference":"Ticghdmrles","processor_reference":null,"processor_status":null,"processor_message":null,"status":"processing","entry_type":"debit","narration":"Bill payment to 9mobile for 1102003467","transaction_date":"2025-01-08T18:39:49.669Z","transaction_type":"bill-payment","processor":"baxipay","reviewed_on":null,"reviewed_by":null,"batch_id":null,"schedule_id":null,"account":{"id":"0193e462-3285-7ff7-a93e-42b71063a119","meta":null,"created_on":"2024-12-20T14:04:20.997Z","created_by":null,"modified_on":"2025-01-08T18:39:18.672Z","modified_by":null,"deleted_on":null,"deleted_by":null,"tenant_id":"00000000-0000-0000-0000-000000000000","name":"emergency","cba_id":"0000000106","status":"active","profile_id":"0193a649-e3d0-7881-8b7f-2ef1d89a9aff","account_number":"0000000106","bank_id":"0193324f-cad0-7f86-923b-43fb21ac5b29","ledger_balance":"2000.00","hold_balance":"0.00","available_balance":"2000.00","currency":"NGN","restricted":false},"transfer":null,"disputes":[],"batch":null,"transfer_beneficiary":null,"bill_payment_beneficiary":null},{"id":"01944737-3890-755d-84ce-7a23e8710d85","meta":null,"created_on":"2025-01-08T18:39:48.879Z","created_by":"019372de-17ef-7cc2-8fc0-43fe11ba042f","modified_on":"2025-01-08T18:39:48.879Z","modified_by":null,"deleted_on":null,"deleted_by":null,"tenant_id":"00000000-0000-0000-0000-000000000000","account_id":"0193e462-3285-7ff7-a93e-42b71063a119","profile_id":"0193a649-e3d0-7881-8b7f-2ef1d89a9aff","cba_id":null,"currency":"NGN","amount":"100.00","reference":"Ttwgyywocgu","processor_reference":null,"processor_status":null,"processor_message":null,"status":"processing","entry_type":"debit","narration":"Bill payment to airtel for 1102003467","transaction_date":"2025-01-08T18:39:48.878Z","transaction_type":"bill-payment","processor":"baxipay","reviewed_on":null,"reviewed_by":null,"batch_id":null,"schedule_id":null,"account":{"id":"0193e462-3285-7ff7-a93e-42b71063a119","meta":null,"created_on":"2024-12-20T14:04:20.997Z","created_by":null,"modified_on":"2025-01-08T18:39:18.672Z","modified_by":null,"deleted_on":null,"deleted_by":null,"tenant_id":"00000000-0000-0000-0000-000000000000","name":"emergency","cba_id":"0000000106","status":"active","profile_id":"0193a649-e3d0-7881-8b7f-2ef1d89a9aff","account_number":"0000000106","bank_id":"0193324f-cad0-7f86-923b-43fb21ac5b29","ledger_balance":"2000.00","hold_balance":"0.00","available_balance":"2000.00","currency":"NGN","restricted":false},"transfer":null,"disputes":[],"batch":null,"transfer_beneficiary":null,"bill_payment_beneficiary":null},{"id":"01944737-35c9-755d-84ce-6b096525189b","meta":null,"created_on":"2025-01-08T18:39:48.169Z","created_by":"019372de-17ef-7cc2-8fc0-43fe11ba042f","modified_on":"2025-01-08T18:39:48.169Z","modified_by":null,"deleted_on":null,"deleted_by":null,"tenant_id":"00000000-0000-0000-0000-000000000000","account_id":"0193e462-3285-7ff7-a93e-42b71063a119","profile_id":"0193a649-e3d0-7881-8b7f-2ef1d89a9aff","cba_id":null,"currency":"NGN","amount":"100.00","reference":"Tyroqwikdoe","processor_reference":null,"processor_status":null,"processor_message":null,"status":"processing","entry_type":"debit","narration":"Bill payment to glo for 1102003467","transaction_date":"2025-01-08T18:39:48.168Z","transaction_type":"bill-payment","processor":"baxipay","reviewed_on":null,"reviewed_by":null,"batch_id":null,"schedule_id":null,"account":{"id":"0193e462-3285-7ff7-a93e-42b71063a119","meta":null,"created_on":"2024-12-20T14:04:20.997Z","created_by":null,"modified_on":"2025-01-08T18:39:18.672Z","modified_by":null,"deleted_on":null,"deleted_by":null,"tenant_id":"00000000-0000-0000-0000-000000000000","name":"emergency","cba_id":"0000000106","status":"active","profile_id":"0193a649-e3d0-7881-8b7f-2ef1d89a9aff","account_number":"0000000106","bank_id":"0193324f-cad0-7f86-923b-43fb21ac5b29","ledger_balance":"2000.00","hold_balance":"0.00","available_balance":"2000.00","currency":"NGN","restricted":false},"transfer":null,"disputes":[],"batch":null,"transfer_beneficiary":null,"bill_payment_beneficiary":null}],"meta":{"page":1,"total_pages":44,"total_items":431}}