{"status":"success","data":[{"id":"0194ffb9-d6b8-7221-b996-4aec9347babf","meta":null,"created_on":"2025-02-13T14:32:36.793Z","created_by_id":"019317a0-b7e5-7eeb-a7eb-bd18cf39a633","modified_on":"2025-02-13T14:32:37.650Z","modified_by_id":"019317a0-b7e5-7eeb-a7eb-bd18cf39a633","deleted_on":null,"deleted_by_id":null,"tenant_id":"00000000-0000-0000-0000-000000000000","account_id":"0193912b-6f5e-7335-b5bc-3302dcc08103","profile_id":"01931947-9fea-744d-8f66-118c138292e3","cba_id":"2517","currency":"NGN","amount":"10.00","balance_after":null,"reference":"Tcqsyfzxahc","processor_reference":null,"processor_status":null,"processor_message":null,"status":"success","entry_type":"debit","narration":"ola","transaction_date":"2025-02-13T14:32:36.791Z","transaction_type":"fee","processor":"cba","reviewed_on":null,"reviewed_by":null,"batch_id":null,"schedule_id":null,"account":{"id":"0193912b-6f5e-7335-b5bc-3302dcc08103","meta":null,"created_on":"2024-12-04T10:16:03.166Z","created_by_id":null,"modified_on":"2025-02-16T20:09:03.292Z","modified_by_id":"019317a0-b7e5-7eeb-a7eb-bd18cf39a633","deleted_on":null,"deleted_by_id":null,"tenant_id":"00000000-0000-0000-0000-000000000000","name":"Education","cba_id":"0000000041","status":"active","profile_id":"01931947-9fea-744d-8f66-118c138292e3","account_number":"0000000041","bank_id":"0193324f-cad0-7f86-923b-43fb21ac5b29","ledger_balance":"2031.38","hold_balance":"0.00","available_balance":"2031.38","currency":"NGN","restricted":false},"transfer":null,"disputes":[],"batch":null,"transfer_beneficiary":null,"bill_payment_beneficiary":null},{"id":"0194ffb9-d6af-7221-b996-382d5467fc69","meta":null,"created_on":"2025-02-13T14:32:36.784Z","created_by_id":"019317a0-b7e5-7eeb-a7eb-bd18cf39a633","modified_on":"2025-02-13T14:32:36.784Z","modified_by_id":"019317a0-b7e5-7eeb-a7eb-bd18cf39a633","deleted_on":null,"deleted_by_id":null,"tenant_id":"00000000-0000-0000-0000-000000000000","account_id":"0193912b-6f5e-7335-b5bc-3302dcc08103","profile_id":"01931947-9fea-744d-8f66-118c138292e3","cba_id":"428","currency":"NGN","amount":"3000.00","balance_after":null,"reference":"Tcqsyfzxahc","processor_reference":null,"processor_status":null,"processor_message":null,"status":"processing","entry_type":"debit","narration":"ola","transaction_date":"2025-02-13T14:32:36.710Z","transaction_type":"transfer","processor":"nip","reviewed_on":null,"reviewed_by":null,"batch_id":null,"schedule_id":null,"account":{"id":"0193912b-6f5e-7335-b5bc-3302dcc08103","meta":null,"created_on":"2024-12-04T10:16:03.166Z","created_by_id":null,"modified_on":"2025-02-16T20:09:03.292Z","modified_by_id":"019317a0-b7e5-7eeb-a7eb-bd18cf39a633","deleted_on":null,"deleted_by_id":null,"tenant_id":"00000000-0000-0000-0000-000000000000","name":"Education","cba_id":"0000000041","status":"active","profile_id":"01931947-9fea-744d-8f66-118c138292e3","account_number":"0000000041","bank_id":"0193324f-cad0-7f86-923b-43fb21ac5b29","ledger_balance":"2031.38","hold_balance":"0.00","available_balance":"2031.38","currency":"NGN","restricted":false},"transfer":{"id":"0194ffb9-d6b2-7221-b996-42e471d5e94c","meta":null,"created_on":"2025-02-13T14:32:36.784Z","created_by_id":"019317a0-b7e5-7eeb-a7eb-bd18cf39a633","modified_on":"2025-02-13T14:32:36.784Z","modified_by_id":null,"deleted_on":null,"deleted_by_id":null,"tenant_id":"00000000-0000-0000-0000-000000000000","bank_code":"050030","bank_name":"NORTHQUEST FINANCE COMPANY LIMITED ","bank_logo":"https://cdn.prod.website-files.com/67342b6ac3243e10a48bee9d/673b02614b7fc0a77c0172b2_NorthQuest%20Finance%20%20Logo-p-500.png","account_name":"Ibrahim Azeez","account_number":"0000000375","profile_id":"01931947-9fea-744d-8f66-118c138292e3","transaction_id":"0194ffb9-d6af-7221-b996-382d5467fc69","account_id":"0193912b-6f5e-7335-b5bc-3302dcc08103"},"disputes":[],"batch":null,"transfer_beneficiary":null,"bill_payment_beneficiary":null},{"id":"0194ffb9-267a-7221-b996-227fbf86731f","meta":null,"created_on":"2025-02-13T14:31:51.675Z","created_by_id":"019317a0-b7e5-7eeb-a7eb-bd18cf39a633","modified_on":"2025-02-13T14:31:52.116Z","modified_by_id":"019317a0-b7e5-7eeb-a7eb-bd18cf39a633","deleted_on":null,"deleted_by_id":null,"tenant_id":"00000000-0000-0000-0000-000000000000","account_id":"0193912b-6f5e-7335-b5bc-3302dcc08103","profile_id":"01931947-9fea-744d-8f66-118c138292e3","cba_id":"2516","currency":"NGN","amount":"10.00","balance_after":null,"reference":"Tnjsvndflye","processor_reference":null,"processor_status":null,"processor_message":null,"status":"processing","entry_type":"debit","narration":"","transaction_date":"2025-02-13T14:31:51.674Z","transaction_type":"fee","processor":"cba","reviewed_on":null,"reviewed_by":null,"batch_id":null,"schedule_id":null,"account":{"id":"0193912b-6f5e-7335-b5bc-3302dcc08103","meta":null,"created_on":"2024-12-04T10:16:03.166Z","created_by_id":null,"modified_on":"2025-02-16T20:09:03.292Z","modified_by_id":"019317a0-b7e5-7eeb-a7eb-bd18cf39a633","deleted_on":null,"deleted_by_id":null,"tenant_id":"00000000-0000-0000-0000-000000000000","name":"Education","cba_id":"0000000041","status":"active","profile_id":"01931947-9fea-744d-8f66-118c138292e3","account_number":"0000000041","bank_id":"0193324f-cad0-7f86-923b-43fb21ac5b29","ledger_balance":"2031.38","hold_balance":"0.00","available_balance":"2031.38","currency":"NGN","restricted":false},"transfer":null,"disputes":[],"batch":null,"transfer_beneficiary":null,"bill_payment_beneficiary":null},{"id":"0194ffb9-2636-7221-b996-172bdf1bb332","meta":null,"created_on":"2025-02-13T14:31:51.602Z","created_by_id":"019317a0-b7e5-7eeb-a7eb-bd18cf39a633","modified_on":"2025-02-13T14:31:51.602Z","modified_by_id":null,"deleted_on":null,"deleted_by_id":null,"tenant_id":"00000000-0000-0000-0000-000000000000","account_id":"0193912b-6f5e-7335-b5bc-3302dcc08103","profile_id":"01931947-9fea-744d-8f66-118c138292e3","cba_id":null,"currency":"NGN","amount":"3000.00","balance_after":null,"reference":"Tnjsvndflye","processor_reference":null,"processor_status":null,"processor_message":null,"status":"processing","entry_type":"debit","narration":"","transaction_date":"2025-02-13T14:31:51.563Z","transaction_type":"transfer","processor":"nip","reviewed_on":null,"reviewed_by":null,"batch_id":null,"schedule_id":null,"account":{"id":"0193912b-6f5e-7335-b5bc-3302dcc08103","meta":null,"created_on":"2024-12-04T10:16:03.166Z","created_by_id":null,"modified_on":"2025-02-16T20:09:03.292Z","modified_by_id":"019317a0-b7e5-7eeb-a7eb-bd18cf39a633","deleted_on":null,"deleted_by_id":null,"tenant_id":"00000000-0000-0000-0000-000000000000","name":"Education","cba_id":"0000000041","status":"active","profile_id":"01931947-9fea-744d-8f66-118c138292e3","account_number":"0000000041","bank_id":"0193324f-cad0-7f86-923b-43fb21ac5b29","ledger_balance":"2031.38","hold_balance":"0.00","available_balance":"2031.38","currency":"NGN","restricted":false},"transfer":{"id":"0194ffb9-263c-7221-b996-18dcdd393380","meta":null,"created_on":"2025-02-13T14:31:51.602Z","created_by_id":"019317a0-b7e5-7eeb-a7eb-bd18cf39a633","modified_on":"2025-02-13T14:31:51.602Z","modified_by_id":null,"deleted_on":null,"deleted_by_id":null,"tenant_id":"00000000-0000-0000-0000-000000000000","bank_code":"050030","bank_name":"NORTHQUEST FINANCE COMPANY LIMITED ","bank_logo":"https://cdn.prod.website-files.com/67342b6ac3243e10a48bee9d/673b02614b7fc0a77c0172b2_NorthQuest%20Finance%20%20Logo-p-500.png","account_name":"Ibrahim Azeez","account_number":"0000000375","profile_id":"01931947-9fea-744d-8f66-118c138292e3","transaction_id":"0194ffb9-2636-7221-b996-172bdf1bb332","account_id":"0193912b-6f5e-7335-b5bc-3302dcc08103"},"disputes":[],"batch":null,"transfer_beneficiary":null,"bill_payment_beneficiary":null},{"id":"0194ffb3-a71e-7221-b995-82533a8f7eb1","meta":null,"created_on":"2025-02-13T14:25:51.391Z","created_by_id":"019317a0-b7e5-7eeb-a7eb-bd18cf39a633","modified_on":"2025-02-13T14:25:51.974Z","modified_by_id":"019317a0-b7e5-7eeb-a7eb-bd18cf39a633","deleted_on":null,"deleted_by_id":null,"tenant_id":"00000000-0000-0000-0000-000000000000","account_id":"0193912b-6f5e-7335-b5bc-3302dcc08103","profile_id":"01931947-9fea-744d-8f66-118c138292e3","cba_id":"2515","currency":"NGN","amount":"10.00","balance_after":null,"reference":"Tvpmqyjnpjz","processor_reference":null,"processor_status":null,"processor_message":null,"status":"processing","entry_type":"debit","narration":"","transaction_date":"2025-02-13T14:25:51.389Z","transaction_type":"fee","processor":"cba","reviewed_on":null,"reviewed_by":null,"batch_id":null,"schedule_id":null,"account":{"id":"0193912b-6f5e-7335-b5bc-3302dcc08103","meta":null,"created_on":"2024-12-04T10:16:03.166Z","created_by_id":null,"modified_on":"2025-02-16T20:09:03.292Z","modified_by_id":"019317a0-b7e5-7eeb-a7eb-bd18cf39a633","deleted_on":null,"deleted_by_id":null,"tenant_id":"00000000-0000-0000-0000-000000000000","name":"Education","cba_id":"0000000041","status":"active","profile_id":"01931947-9fea-744d-8f66-118c138292e3","account_number":"0000000041","bank_id":"0193324f-cad0-7f86-923b-43fb21ac5b29","ledger_balance":"2031.38","hold_balance":"0.00","available_balance":"2031.38","currency":"NGN","restricted":false},"transfer":null,"disputes":[],"batch":null,"transfer_beneficiary":null,"bill_payment_beneficiary":null},{"id":"0194ffb3-a70d-7221-b995-71162ca06d83","meta":null,"created_on":"2025-02-13T14:25:51.373Z","created_by_id":"019317a0-b7e5-7eeb-a7eb-bd18cf39a633","modified_on":"2025-02-13T14:25:51.373Z","modified_by_id":null,"deleted_on":null,"deleted_by_id":null,"tenant_id":"00000000-0000-0000-0000-000000000000","account_id":"0193912b-6f5e-7335-b5bc-3302dcc08103","profile_id":"01931947-9fea-744d-8f66-118c138292e3","cba_id":null,"currency":"NGN","amount":"3000.00","balance_after":null,"reference":"Tvpmqyjnpjz","processor_reference":null,"processor_status":null,"processor_message":null,"status":"processing","entry_type":"debit","narration":"","transaction_date":"2025-02-13T14:25:51.301Z","transaction_type":"transfer","processor":"nip","reviewed_on":null,"reviewed_by":null,"batch_id":null,"schedule_id":null,"account":{"id":"0193912b-6f5e-7335-b5bc-3302dcc08103","meta":null,"created_on":"2024-12-04T10:16:03.166Z","created_by_id":null,"modified_on":"2025-02-16T20:09:03.292Z","modified_by_id":"019317a0-b7e5-7eeb-a7eb-bd18cf39a633","deleted_on":null,"deleted_by_id":null,"tenant_id":"00000000-0000-0000-0000-000000000000","name":"Education","cba_id":"0000000041","status":"active","profile_id":"01931947-9fea-744d-8f66-118c138292e3","account_number":"0000000041","bank_id":"0193324f-cad0-7f86-923b-43fb21ac5b29","ledger_balance":"2031.38","hold_balance":"0.00","available_balance":"2031.38","currency":"NGN","restricted":false},"transfer":{"id":"0194ffb3-a713-7221-b995-78b5a41696a6","meta":null,"created_on":"2025-02-13T14:25:51.373Z","created_by_id":"019317a0-b7e5-7eeb-a7eb-bd18cf39a633","modified_on":"2025-02-13T14:25:51.373Z","modified_by_id":null,"deleted_on":null,"deleted_by_id":null,"tenant_id":"00000000-0000-0000-0000-000000000000","bank_code":"050030","bank_name":"NORTHQUEST FINANCE COMPANY LIMITED ","bank_logo":"https://cdn.prod.website-files.com/67342b6ac3243e10a48bee9d/673b02614b7fc0a77c0172b2_NorthQuest%20Finance%20%20Logo-p-500.png","account_name":"Ibrahim Azeez","account_number":"0000000375","profile_id":"01931947-9fea-744d-8f66-118c138292e3","transaction_id":"0194ffb3-a70d-7221-b995-71162ca06d83","account_id":"0193912b-6f5e-7335-b5bc-3302dcc08103"},"disputes":[],"batch":null,"transfer_beneficiary":null,"bill_payment_beneficiary":null},{"id":"0194ff6f-91e5-7aaa-ace6-5652e643db5a","meta":null,"created_on":"2025-02-13T13:11:29.509Z","created_by_id":"019317a0-b7e5-7eeb-a7eb-bd18cf39a633","modified_on":"2025-02-13T13:11:30.263Z","modified_by_id":"019317a0-b7e5-7eeb-a7eb-bd18cf39a633","deleted_on":null,"deleted_by_id":null,"tenant_id":"00000000-0000-0000-0000-000000000000","account_id":"0193f0e2-ab16-799a-85ae-fa4fbe2990a7","profile_id":"01931947-9fea-744d-8f66-118c138292e3","cba_id":"2514","currency":"NGN","amount":"10.00","balance_after":null,"reference":"Tpkoowhmbdk","processor_reference":null,"processor_status":null,"processor_message":null,"status":"success","entry_type":"debit","narration":"Someone is testing","transaction_date":"2025-02-13T13:11:29.508Z","transaction_type":"fee","processor":"cba","reviewed_on":null,"reviewed_by":null,"batch_id":null,"schedule_id":null,"account":{"id":"0193f0e2-ab16-799a-85ae-fa4fbe2990a7","meta":null,"created_on":"2024-12-23T00:20:07.063Z","created_by_id":null,"modified_on":"2025-02-16T20:09:03.199Z","modified_by_id":"019317a0-b7e5-7eeb-a7eb-bd18cf39a633","deleted_on":null,"deleted_by_id":null,"tenant_id":"00000000-0000-0000-0000-000000000000","name":"Eno","cba_id":"0000000115","status":"active","profile_id":"01931947-9fea-744d-8f66-118c138292e3","account_number":"0000000115","bank_id":"0193324f-cad0-7f86-923b-43fb21ac5b29","ledger_balance":"64579.39","hold_balance":"0.00","available_balance":"64579.39","currency":"NGN","restricted":false},"transfer":null,"disputes":[],"batch":null,"transfer_beneficiary":null,"bill_payment_beneficiary":null},{"id":"0194ff6f-91d5-7aaa-ace6-3f71977e48c1","meta":null,"created_on":"2025-02-13T13:11:29.493Z","created_by_id":"019317a0-b7e5-7eeb-a7eb-bd18cf39a633","modified_on":"2025-02-13T13:11:30.254Z","modified_by_id":"019317a0-b7e5-7eeb-a7eb-bd18cf39a633","deleted_on":null,"deleted_by_id":null,"tenant_id":"00000000-0000-0000-0000-000000000000","account_id":"0193f0e2-ab16-799a-85ae-fa4fbe2990a7","profile_id":"01931947-9fea-744d-8f66-118c138292e3","cba_id":"2513","currency":"NGN","amount":"123.00","balance_after":null,"reference":"Tpkoowhmbdk","processor_reference":null,"processor_status":null,"processor_message":null,"status":"success","entry_type":"debit","narration":"Someone is testing","transaction_date":"2025-02-13T13:11:29.475Z","transaction_type":"transfer","processor":"nip","reviewed_on":null,"reviewed_by":null,"batch_id":null,"schedule_id":null,"account":{"id":"0193f0e2-ab16-799a-85ae-fa4fbe2990a7","meta":null,"created_on":"2024-12-23T00:20:07.063Z","created_by_id":null,"modified_on":"2025-02-16T20:09:03.199Z","modified_by_id":"019317a0-b7e5-7eeb-a7eb-bd18cf39a633","deleted_on":null,"deleted_by_id":null,"tenant_id":"00000000-0000-0000-0000-000000000000","name":"Eno","cba_id":"0000000115","status":"active","profile_id":"01931947-9fea-744d-8f66-118c138292e3","account_number":"0000000115","bank_id":"0193324f-cad0-7f86-923b-43fb21ac5b29","ledger_balance":"64579.39","hold_balance":"0.00","available_balance":"64579.39","currency":"NGN","restricted":false},"transfer":{"id":"0194ff6f-91da-7aaa-ace6-449807f0e8f9","meta":null,"created_on":"2025-02-13T13:11:29.493Z","created_by_id":"019317a0-b7e5-7eeb-a7eb-bd18cf39a633","modified_on":"2025-02-13T13:11:29.493Z","modified_by_id":null,"deleted_on":null,"deleted_by_id":null,"tenant_id":"00000000-0000-0000-0000-000000000000","bank_code":"000007","bank_name":"Fidelity Bank","bank_logo":"https://lendstack-s3.s3.us-east-2.amazonaws.com/bank_logos/070.png","account_name":"John Doe","account_number":"5556235892","profile_id":"01931947-9fea-744d-8f66-118c138292e3","transaction_id":"0194ff6f-91d5-7aaa-ace6-3f71977e48c1","account_id":"0193f0e2-ab16-799a-85ae-fa4fbe2990a7"},"disputes":[],"batch":null,"transfer_beneficiary":{"id":"0194ff6f-91dd-7aaa-ace6-4ff97d58ec38","meta":null,"created_on":"2025-02-13T13:11:29.493Z","created_by_id":"019317a0-b7e5-7eeb-a7eb-bd18cf39a633","modified_on":"2025-02-13T13:11:29.493Z","modified_by_id":null,"deleted_on":null,"deleted_by_id":null,"tenant_id":"00000000-0000-0000-0000-000000000000","transaction_id":"0194ff6f-91d5-7aaa-ace6-3f71977e48c1","beneficiary_id":"0194d985-0abb-7443-8814-bb038191bd7d","beneficiary":{"id":"0194d985-0abb-7443-8814-bb038191bd7d","meta":null,"created_on":"2025-02-06T04:29:22.492Z","created_by_id":"019317a0-b7e5-7eeb-a7eb-bd18cf39a633","modified_on":"2025-02-06T04:29:22.492Z","modified_by_id":null,"deleted_on":null,"deleted_by_id":null,"tenant_id":"00000000-0000-0000-0000-000000000000","bank_code":"000007","bank_name":"Fidelity Bank","account_number":"5556235892","account_name":"John Doe","profile_id":"01931947-9fea-744d-8f66-118c138292e3"}},"bill_payment_beneficiary":null},{"id":"0194fb7e-c6a6-7449-9053-c6cb2934b683","meta":null,"created_on":"2025-02-12T18:49:37.190Z","created_by_id":"019317a0-b7e5-7eeb-a7eb-bd18cf39a633","modified_on":"2025-02-12T18:49:37.803Z","modified_by_id":"019317a0-b7e5-7eeb-a7eb-bd18cf39a633","deleted_on":null,"deleted_by_id":null,"tenant_id":"00000000-0000-0000-0000-000000000000","account_id":"0193f0e2-ab16-799a-85ae-fa4fbe2990a7","profile_id":"01931947-9fea-744d-8f66-118c138292e3","cba_id":"2512","currency":"NGN","amount":"1800.00","balance_after":null,"reference":"Thqsllruvsm","processor_reference":null,"processor_status":null,"processor_message":null,"status":"success","entry_type":"debit","narration":"Bill payment to waec for 1102003467","transaction_date":"2025-02-12T18:49:37.182Z","transaction_type":"bill-payment","processor":"baxipay","reviewed_on":null,"reviewed_by":null,"batch_id":null,"schedule_id":null,"account":{"id":"0193f0e2-ab16-799a-85ae-fa4fbe2990a7","meta":null,"created_on":"2024-12-23T00:20:07.063Z","created_by_id":null,"modified_on":"2025-02-16T20:09:03.199Z","modified_by_id":"019317a0-b7e5-7eeb-a7eb-bd18cf39a633","deleted_on":null,"deleted_by_id":null,"tenant_id":"00000000-0000-0000-0000-000000000000","name":"Eno","cba_id":"0000000115","status":"active","profile_id":"01931947-9fea-744d-8f66-118c138292e3","account_number":"0000000115","bank_id":"0193324f-cad0-7f86-923b-43fb21ac5b29","ledger_balance":"64579.39","hold_balance":"0.00","available_balance":"64579.39","currency":"NGN","restricted":false},"transfer":null,"disputes":[],"batch":null,"transfer_beneficiary":null,"bill_payment_beneficiary":null},{"id":"0194fb7e-c03b-7449-9053-bed491b7fb69","meta":null,"created_on":"2025-02-12T18:49:35.546Z","created_by_id":"019317a0-b7e5-7eeb-a7eb-bd18cf39a633","modified_on":"2025-02-12T18:49:36.047Z","modified_by_id":"019317a0-b7e5-7eeb-a7eb-bd18cf39a633","deleted_on":null,"deleted_by_id":null,"tenant_id":"00000000-0000-0000-0000-000000000000","account_id":"0193f0e2-ab16-799a-85ae-fa4fbe2990a7","profile_id":"01931947-9fea-744d-8f66-118c138292e3","cba_id":"2511","currency":"NGN","amount":"2300.00","balance_after":null,"reference":"Tqcovfeycrp","processor_reference":null,"processor_status":null,"processor_message":"0(0)9055755671 is not a valid phone number","status":"failed","entry_type":"debit","narration":"Bill payment to abuja_electric_postpaid for 07034953306","transaction_date":"2025-02-12T18:49:35.539Z","transaction_type":"bill-payment","processor":"baxipay","reviewed_on":null,"reviewed_by":null,"batch_id":null,"schedule_id":null,"account":{"id":"0193f0e2-ab16-799a-85ae-fa4fbe2990a7","meta":null,"created_on":"2024-12-23T00:20:07.063Z","created_by_id":null,"modified_on":"2025-02-16T20:09:03.199Z","modified_by_id":"019317a0-b7e5-7eeb-a7eb-bd18cf39a633","deleted_on":null,"deleted_by_id":null,"tenant_id":"00000000-0000-0000-0000-000000000000","name":"Eno","cba_id":"0000000115","status":"active","profile_id":"01931947-9fea-744d-8f66-118c138292e3","account_number":"0000000115","bank_id":"0193324f-cad0-7f86-923b-43fb21ac5b29","ledger_balance":"64579.39","hold_balance":"0.00","available_balance":"64579.39","currency":"NGN","restricted":false},"transfer":null,"disputes":[],"batch":null,"transfer_beneficiary":null,"bill_payment_beneficiary":null}],"meta":{"page":1,"total_pages":170,"total_items":1695}}