{"status":"success","data":[{"id":"0195666a-5434-722f-a143-76eedaaf9f72","meta":null,"created_on":"2025-03-05T13:06:39.284Z","created_by_id":"01927265-4ed2-79cc-a0e6-e11339a359f4","modified_on":"2025-03-05T13:06:39.284Z","modified_by_id":null,"deleted_on":null,"deleted_by_id":null,"tenant_id":"00000000-0000-0000-0000-000000000001","profile_type":"business","slug":"pep-relationship-status","name":"PEP Relationship Status","description":"Kindly confirm the statements below","version":1,"schemas":[{"id":"0195666a-5438-722f-a143-787f9603c8b4","meta":null,"created_on":"2025-03-05T13:06:39.289Z","created_by_id":"01927265-4ed2-79cc-a0e6-e11339a359f4","modified_on":"2025-03-05T13:06:39.289Z","modified_by_id":null,"deleted_on":null,"deleted_by_id":null,"tenant_id":"00000000-0000-0000-0000-000000000001","profile_type":"business","slug":"are-you-or-related-to-anyone-that-is-a-pep-or-fep?-","name":"Are you or related to anyone that is a PEP or FEP? ","tags":null,"options":[{"name":"Yes, I am","value":"yes, i am"},{"name":"No, I am not","value":"no, i am not"}],"version":1,"type":"radio","default":"","enabled":true,"editable":true,"required":true,"regex":null,"order":1,"storage_strategy":"plain","definition_id":"0195666a-5434-722f-a143-76eedaaf9f72"},{"id":"0195666a-5438-722f-a143-845f61e0fd3a","meta":null,"created_on":"2025-03-05T13:06:39.289Z","created_by_id":"01927265-4ed2-79cc-a0e6-e11339a359f4","modified_on":"2025-03-05T13:06:39.289Z","modified_by_id":null,"deleted_on":null,"deleted_by_id":null,"tenant_id":"00000000-0000-0000-0000-000000000001","profile_type":"business","slug":"if-yes,-kindly-state-your-relationship-with-the-person.","name":"If yes, kindly state your relationship with the person.","tags":null,"options":[{"name":"Myself","value":"myself"},{"name":"Other","value":"other"}],"version":1,"type":"radio","default":"","enabled":true,"editable":true,"required":false,"regex":null,"order":2,"storage_strategy":"plain","definition_id":"0195666a-5434-722f-a143-76eedaaf9f72"},{"id":"0195666a-5438-722f-a143-8868dabc7895","meta":null,"created_on":"2025-03-05T13:06:39.289Z","created_by_id":"01927265-4ed2-79cc-a0e6-e11339a359f4","modified_on":"2025-03-05T13:06:39.289Z","modified_by_id":null,"deleted_on":null,"deleted_by_id":null,"tenant_id":"00000000-0000-0000-0000-000000000001","profile_type":"business","slug":"name-of-pep-relation","name":"Name of PEP relation","tags":null,"options":[],"version":1,"type":"text","default":"","enabled":true,"editable":true,"required":false,"regex":null,"order":3,"storage_strategy":"plain","definition_id":"0195666a-5434-722f-a143-76eedaaf9f72"},{"id":"0195666a-5438-722f-a143-970f5794d467","meta":null,"created_on":"2025-03-05T13:06:39.289Z","created_by_id":"01927265-4ed2-79cc-a0e6-e11339a359f4","modified_on":"2025-03-05T13:06:39.289Z","modified_by_id":null,"deleted_on":null,"deleted_by_id":null,"tenant_id":"00000000-0000-0000-0000-000000000001","profile_type":"business","slug":"relationship","name":"Relationship","tags":null,"options":[{"name":"Friend","value":"friend"},{"name":"Sister","value":"sister"},{"name":"Brother","value":"brother"},{"name":"Father","value":"father"},{"name":"Mother","value":"mother"}],"version":1,"type":"select","default":"","enabled":true,"editable":true,"required":false,"regex":null,"order":4,"storage_strategy":"plain","definition_id":"0195666a-5434-722f-a143-76eedaaf9f72"},{"id":"0195666a-5438-722f-a143-9bbd1d07327f","meta":null,"created_on":"2025-03-05T13:06:39.289Z","created_by_id":"01927265-4ed2-79cc-a0e6-e11339a359f4","modified_on":"2025-03-05T13:06:39.289Z","modified_by_id":null,"deleted_on":null,"deleted_by_id":null,"tenant_id":"00000000-0000-0000-0000-000000000001","profile_type":"business","slug":"name-of-institution","name":"Name of Institution","tags":null,"options":[],"version":1,"type":"text","default":"","enabled":true,"editable":true,"required":false,"regex":null,"order":5,"storage_strategy":"plain","definition_id":"0195666a-5434-722f-a143-76eedaaf9f72"},{"id":"0195666a-5438-722f-a143-a790ab705d28","meta":null,"created_on":"2025-03-05T13:06:39.289Z","created_by_id":"01927265-4ed2-79cc-a0e6-e11339a359f4","modified_on":"2025-03-05T13:06:39.289Z","modified_by_id":null,"deleted_on":null,"deleted_by_id":null,"tenant_id":"00000000-0000-0000-0000-000000000001","profile_type":"business","slug":"designation-in-the-institution","name":"Designation in the institution","tags":null,"options":[],"version":1,"type":"text","default":"","enabled":true,"editable":true,"required":false,"regex":null,"order":6,"storage_strategy":"plain","definition_id":"0195666a-5434-722f-a143-76eedaaf9f72"}]},{"id":"0195662c-6fbc-722f-a140-9505d04d6a06","meta":null,"created_on":"2025-03-05T11:59:03.099Z","created_by_id":"01927265-4ed2-79cc-a0e6-e11339a359f4","modified_on":"2025-03-05T11:59:03.099Z","modified_by_id":null,"deleted_on":null,"deleted_by_id":null,"tenant_id":"00000000-0000-0000-0000-000000000001","profile_type":"personal","slug":"business-information","name":"Business Information","description":"Complete your business information ","version":1,"schemas":[{"id":"01956630-8885-722f-a140-f03cd2843aaf","meta":null,"created_on":"2025-03-05T12:03:31.590Z","created_by_id":"01927265-4ed2-79cc-a0e6-e11339a359f4","modified_on":"2025-03-05T12:03:43.492Z","modified_by_id":null,"deleted_on":null,"deleted_by_id":null,"tenant_id":"00000000-0000-0000-0000-000000000001","profile_type":"business","slug":"business-address","name":"Business Address","tags":null,"options":[],"version":1,"type":"text","default":"","enabled":true,"editable":true,"required":false,"regex":null,"order":6,"storage_strategy":"plain","definition_id":"0195662c-6fbc-722f-a140-9505d04d6a06"},{"id":"0195662c-7018-722f-a140-996aa234b956","meta":null,"created_on":"2025-03-05T11:59:03.193Z","created_by_id":"01927265-4ed2-79cc-a0e6-e11339a359f4","modified_on":"2025-03-05T12:03:43.492Z","modified_by_id":null,"deleted_on":null,"deleted_by_id":null,"tenant_id":"00000000-0000-0000-0000-000000000001","profile_type":"personal","slug":"business-type","name":"Business Type","tags":null,"options":[],"version":1,"type":"text","default":"","enabled":true,"editable":true,"required":false,"regex":null,"order":1,"storage_strategy":"plain","definition_id":"0195662c-6fbc-722f-a140-9505d04d6a06"},{"id":"01956630-8885-722f-a140-d58f56bc2fc6","meta":null,"created_on":"2025-03-05T12:03:31.590Z","created_by_id":"01927265-4ed2-79cc-a0e6-e11339a359f4","modified_on":"2025-03-05T12:03:43.492Z","modified_by_id":null,"deleted_on":null,"deleted_by_id":null,"tenant_id":"00000000-0000-0000-0000-000000000001","profile_type":"business","slug":"rc/bn-number","name":"RC/BN Number","tags":null,"options":[],"version":1,"type":"text","default":"","enabled":true,"editable":true,"required":false,"regex":null,"order":2,"storage_strategy":"plain","definition_id":"0195662c-6fbc-722f-a140-9505d04d6a06"},{"id":"01956630-8885-722f-a140-dcf9cc646d96","meta":null,"created_on":"2025-03-05T12:03:31.590Z","created_by_id":"01927265-4ed2-79cc-a0e6-e11339a359f4","modified_on":"2025-03-05T12:03:43.492Z","modified_by_id":null,"deleted_on":null,"deleted_by_id":null,"tenant_id":"00000000-0000-0000-0000-000000000001","profile_type":"business","slug":"business-name","name":"Business Name","tags":null,"options":[],"version":1,"type":"text","default":"","enabled":true,"editable":true,"required":false,"regex":null,"order":3,"storage_strategy":"plain","definition_id":"0195662c-6fbc-722f-a140-9505d04d6a06"},{"id":"01956630-8885-722f-a140-e0d81deb39ab","meta":null,"created_on":"2025-03-05T12:03:31.590Z","created_by_id":"01927265-4ed2-79cc-a0e6-e11339a359f4","modified_on":"2025-03-05T12:03:43.492Z","modified_by_id":null,"deleted_on":null,"deleted_by_id":null,"tenant_id":"00000000-0000-0000-0000-000000000001","profile_type":"business","slug":"business-email","name":"Business Email","tags":null,"options":[],"version":1,"type":"email","default":"","enabled":true,"editable":true,"required":false,"regex":null,"order":4,"storage_strategy":"plain","definition_id":"0195662c-6fbc-722f-a140-9505d04d6a06"},{"id":"01956630-8885-722f-a140-e85cc577c5bf","meta":null,"created_on":"2025-03-05T12:03:31.590Z","created_by_id":"01927265-4ed2-79cc-a0e6-e11339a359f4","modified_on":"2025-03-05T12:03:43.492Z","modified_by_id":null,"deleted_on":null,"deleted_by_id":null,"tenant_id":"00000000-0000-0000-0000-000000000001","profile_type":"business","slug":"business-phone-number","name":"Business Phone Number","tags":null,"options":[],"version":1,"type":"tel","default":"","enabled":true,"editable":true,"required":false,"regex":null,"order":5,"storage_strategy":"plain","definition_id":"0195662c-6fbc-722f-a140-9505d04d6a06"}]},{"id":"01938c83-714e-7778-8dbc-928c196486b6","meta":null,"created_on":"2024-12-03T12:34:04.750Z","created_by_id":null,"modified_on":"2024-12-03T12:34:04.750Z","modified_by_id":null,"deleted_on":null,"deleted_by_id":null,"tenant_id":"00000000-0000-0000-0000-000000000001","profile_type":"personal","slug":"personal-information","name":"Personal Information","description":"Provide other personal information (gender, country) and verify your phone number and email address.","version":1,"schemas":[{"id":"0193c09e-bfc8-7bb1-80f9-943085cecc8a","meta":null,"created_on":"2024-12-13T15:24:09.546Z","created_by_id":null,"modified_on":"2024-12-13T15:24:09.546Z","modified_by_id":null,"deleted_on":null,"deleted_by_id":null,"tenant_id":"00000000-0000-0000-0000-000000000001","profile_type":"personal","slug":"first_name","name":"First name","tags":null,"options":null,"version":1,"type":"text","default":null,"enabled":true,"editable":true,"required":false,"regex":null,"order":1,"storage_strategy":"plain","definition_id":"01938c83-714e-7778-8dbc-928c196486b6"},{"id":"0193c09e-bfc8-7bb1-80f9-9874da078fa1","meta":null,"created_on":"2024-12-13T15:24:09.546Z","created_by_id":null,"modified_on":"2024-12-13T15:24:09.546Z","modified_by_id":null,"deleted_on":null,"deleted_by_id":null,"tenant_id":"00000000-0000-0000-0000-000000000001","profile_type":"personal","slug":"last_name","name":"Last name","tags":null,"options":null,"version":1,"type":"text","default":null,"enabled":true,"editable":true,"required":false,"regex":null,"order":2,"storage_strategy":"plain","definition_id":"01938c83-714e-7778-8dbc-928c196486b6"},{"id":"0193c09e-bfc8-7bb1-80f9-a53eeaaa5449","meta":null,"created_on":"2024-12-13T15:24:09.546Z","created_by_id":null,"modified_on":"2024-12-13T15:24:09.546Z","modified_by_id":null,"deleted_on":null,"deleted_by_id":null,"tenant_id":"00000000-0000-0000-0000-000000000001","profile_type":"personal","slug":"email","name":"Email","tags":null,"options":null,"version":1,"type":"email","default":null,"enabled":true,"editable":true,"required":false,"regex":null,"order":3,"storage_strategy":"plain","definition_id":"01938c83-714e-7778-8dbc-928c196486b6"},{"id":"0193c09e-bfc8-7bb1-80f9-a9f89b452784","meta":null,"created_on":"2024-12-13T15:24:09.546Z","created_by_id":null,"modified_on":"2024-12-13T15:24:09.546Z","modified_by_id":null,"deleted_on":null,"deleted_by_id":null,"tenant_id":"00000000-0000-0000-0000-000000000001","profile_type":"personal","slug":"phone","name":"Phone number","tags":null,"options":null,"version":1,"type":"number","default":null,"enabled":true,"editable":true,"required":false,"regex":null,"order":4,"storage_strategy":"plain","definition_id":"01938c83-714e-7778-8dbc-928c196486b6"},{"id":"0193c09e-bfc8-7bb1-80f9-b60d2a6df3ba","meta":null,"created_on":"2024-12-13T15:24:09.546Z","created_by_id":null,"modified_on":"2024-12-13T15:24:09.546Z","modified_by_id":null,"deleted_on":null,"deleted_by_id":null,"tenant_id":"00000000-0000-0000-0000-000000000001","profile_type":"personal","slug":"gender","name":"Gender","tags":null,"options":[{"name":"Male"},{"name":"Female"},{"name":"Prefer not to say"}],"version":1,"type":"select","default":null,"enabled":true,"editable":true,"required":false,"regex":null,"order":5,"storage_strategy":"plain","definition_id":"01938c83-714e-7778-8dbc-928c196486b6"}]},{"id":"01938c7e-6954-7778-8dbc-7c525a5cf0f7","meta":null,"created_on":"2024-12-03T12:28:35.028Z","created_by_id":null,"modified_on":"2024-12-03T12:28:35.028Z","modified_by_id":null,"deleted_on":null,"deleted_by_id":null,"tenant_id":"00000000-0000-0000-0000-000000000001","profile_type":"business","slug":"add-directors","name":"Add directors","description":"Update the information of the directors of your business.","version":1,"schemas":[]},{"id":"01938c7d-8a5f-7778-8dbc-702960d78c44","meta":null,"created_on":"2024-12-03T12:27:37.952Z","created_by_id":null,"modified_on":"2024-12-03T12:27:37.952Z","modified_by_id":null,"deleted_on":null,"deleted_by_id":null,"tenant_id":"00000000-0000-0000-0000-000000000001","profile_type":"business","slug":"profiles","name":"profiles","description":"Profile Definitions","version":1,"schemas":[]},{"id":"01938c7c-7a0f-7778-8dbc-4bc04f59a7f2","meta":null,"created_on":"2024-12-03T12:26:28.239Z","created_by_id":null,"modified_on":"2024-12-03T12:26:28.239Z","modified_by_id":null,"deleted_on":null,"deleted_by_id":null,"tenant_id":"00000000-0000-0000-0000-000000000001","profile_type":"business","slug":"scuml-certificate","name":"SCUML Certificate","description":"SCUML Certificate","version":1,"schemas":[]},{"id":"01938c7b-17cc-7778-8dbc-45b46b03da2a","meta":null,"created_on":"2024-12-03T12:24:57.548Z","created_by_id":null,"modified_on":"2024-12-03T12:24:57.548Z","modified_by_id":null,"deleted_on":null,"deleted_by_id":null,"tenant_id":"00000000-0000-0000-0000-000000000001","profile_type":"personal","slug":"address-verification","name":"Address Verification","description":"Address Verification","version":1,"schemas":[]},{"id":"01938c7a-25a3-7778-8dbc-3d5e87f8a47c","meta":null,"created_on":"2024-12-03T12:23:55.555Z","created_by_id":null,"modified_on":"2024-12-03T12:23:55.555Z","modified_by_id":null,"deleted_on":null,"deleted_by_id":null,"tenant_id":"00000000-0000-0000-0000-000000000001","profile_type":"personal","slug":"other-pep-relationship","name":"Other PEP Relationship","description":"Other PEP Relationship","version":1,"schemas":[]},{"id":"01938c79-3753-7778-8dbc-36cd708eae6e","meta":null,"created_on":"2024-12-03T12:22:54.548Z","created_by_id":null,"modified_on":"2024-12-03T12:22:54.548Z","modified_by_id":null,"deleted_on":null,"deleted_by_id":null,"tenant_id":"00000000-0000-0000-0000-000000000001","profile_type":"personal","slug":"enhanced-due-diligence","name":"Enhanced Due Diligence","description":"Enhanced Due Diligence","version":1,"schemas":[]},{"id":"01938c77-253f-7778-8dbb-f9c26123ef0e","meta":null,"created_on":"2024-12-03T12:20:38.848Z","created_by_id":null,"modified_on":"2024-12-03T12:20:38.848Z","modified_by_id":null,"deleted_on":null,"deleted_by_id":null,"tenant_id":"00000000-0000-0000-0000-000000000001","profile_type":"personal","slug":"employment-information","name":"Employment information","description":"Provide your employment information as part of requirements to ensure your account accuracy.","version":1,"schemas":[]}],"meta":{"page":1,"total_pages":2,"total_items":12}}