{"status":"success","data":[{"id":"01957be8-8038-7885-8ddb-aeece37fa5a1","meta":null,"created_on":"2025-03-09T17:16:29.623Z","created_by_id":"01957be8-12db-7885-8ddb-9223eb6ceafe","modified_on":"2025-03-09T17:22:25.831Z","modified_by_id":"01957be8-12db-7885-8ddb-9223eb6ceafe","deleted_on":null,"deleted_by_id":null,"tenant_id":"00000000-0000-0000-0000-000000000000","name":"Yui Tyu","type":"personal","status":"active","restricted":false,"review":null,"allowed_time_periods":null,"allowed_locations":null,"primary_user_id":"01957be8-12db-7885-8ddb-9223eb6ceafe","tier_id":"01928f2d-6756-755b-8a9d-c8094db2af27","primary_user":{"id":"01957be8-12db-7885-8ddb-9223eb6ceafe","meta":null,"created_on":"2025-03-09T17:16:01.620Z","created_by_id":null,"modified_on":"2025-03-09T17:28:37.512Z","modified_by_id":"01957be8-12db-7885-8ddb-9223eb6ceafe","deleted_on":null,"deleted_by_id":null,"tenant_id":"00000000-0000-0000-0000-000000000000","email":"kilo@mailinator.com","status":"active","first_name":"Yui","last_name":"Tyu","twofa_enabled":false,"last_active":"2025-03-09T17:28:37.512Z","last_ip":"104.23.172.36","allowed_ips":null,"last_timezone":"","last_location":"","phone":"+2349066533254","review":null,"gender":null,"date_of_birth":null,"cba_id":"121","photo_id":null,"referral_code":"8ZLSW0","referred_by":null},"tier":{"id":"01928f2d-6756-755b-8a9d-c8094db2af27","meta":null,"created_on":"2024-10-15T07:56:10.789Z","created_by_id":null,"modified_on":"2025-01-23T15:14:24.513Z","modified_by_id":"01927265-4ed2-79cc-a0e6-e11339a359f3","deleted_on":null,"deleted_by_id":null,"tenant_id":"00000000-0000-0000-0000-000000000000","profile_type":"personal","name":"Tier 1","description":"Tier 1","level":1,"enabled":true,"balance_limit":2000000,"single_sending_limit":500000,"single_receiving_limit":500000,"period_sending_limit":500000,"period_sending_limit_time_unit":"day","period_receiving_limit":500000,"period_receiving_limit_time_unit":"day","requirements":[{"id":"019318f9-c895-744d-8f65-4636cc26dd1f","type_id":"019318f9-c895-744d-8f65-4636cc26dd1f","type":"verification","slug":"liveness","name":"Image liveness check","description":"This step helps us verify your identity by matching your image with the credentials you’ve provided."},{"id":"01933d40-03e5-777c-a6e6-bf72eb1c8968","type_id":"01933d40-03e5-777c-a6e6-bf72eb1c8968","type":"verification","slug":"bvn","name":"BVN","description":"BVN"},{"id":"019318f9-c895-744d-8f65-4636cc26dd1c","type_id":"019318f9-c895-744d-8f65-4636cc26dd1c","type":"verification","slug":"phone","name":"Phone","description":"Verify yor number"},{"id":"019318f9-c895-744d-8f65-4636cc26dd1d","type_id":"019318f9-c895-744d-8f65-4636cc26dd1d","type":"verification","slug":"email","name":"Email","description":"Verify your email"}]}},{"id":"01957b71-85bc-7885-8dd8-419719f1af82","meta":null,"created_on":"2025-03-09T15:06:32.251Z","created_by_id":"01957b71-5f64-7885-8dd8-2ba2633ce276","modified_on":"2025-03-09T15:06:32.251Z","modified_by_id":null,"deleted_on":null,"deleted_by_id":null,"tenant_id":"00000000-0000-0000-0000-000000000000","name":"Abdussamad Yisau","type":"personal","status":"active","restricted":false,"review":null,"allowed_time_periods":null,"allowed_locations":null,"primary_user_id":"01957b71-5f64-7885-8dd8-2ba2633ce276","tier_id":null,"primary_user":{"id":"01957b71-5f64-7885-8dd8-2ba2633ce276","meta":null,"created_on":"2025-03-09T15:06:22.435Z","created_by_id":null,"modified_on":"2025-03-09T15:09:07.744Z","modified_by_id":"01957b71-5f64-7885-8dd8-2ba2633ce276","deleted_on":null,"deleted_by_id":null,"tenant_id":"00000000-0000-0000-0000-000000000000","email":"sammiet@gmail.com","status":"active","first_name":"Abdussamad","last_name":"Yisau","twofa_enabled":false,"last_active":"2025-03-09T15:09:07.744Z","last_ip":"172.70.162.76","allowed_ips":null,"last_timezone":"Europe/London","last_location":"London","phone":"+2349133779423","review":null,"gender":null,"date_of_birth":null,"cba_id":null,"photo_id":null,"referral_code":"HT52G9","referred_by":null},"tier":null},{"id":"01957b4f-1132-7885-8dd6-f8d06a536b40","meta":null,"created_on":"2025-03-09T14:28:54.194Z","created_by_id":"01957b4e-d4cb-7885-8dd6-e4f4f062e5e7","modified_on":"2025-03-09T15:38:56.282Z","modified_by_id":"01957b4e-d4cb-7885-8dd6-e4f4f062e5e7","deleted_on":null,"deleted_by_id":null,"tenant_id":"00000000-0000-0000-0000-000000000000","name":"Ibrahim Azeez","type":"personal","status":"active","restricted":false,"review":null,"allowed_time_periods":null,"allowed_locations":null,"primary_user_id":"01957b4e-d4cb-7885-8dd6-e4f4f062e5e7","tier_id":"01928f2d-6756-755b-8a9d-c8094db2af27","primary_user":{"id":"01957b4e-d4cb-7885-8dd6-e4f4f062e5e7","meta":null,"created_on":"2025-03-09T14:28:38.731Z","created_by_id":null,"modified_on":"2025-03-09T17:01:00.629Z","modified_by_id":"01957b4e-d4cb-7885-8dd6-e4f4f062e5e7","deleted_on":null,"deleted_by_id":null,"tenant_id":"00000000-0000-0000-0000-000000000000","email":"olati@mailinator.com","status":"active","first_name":"Ibrahim","last_name":"Azeez","twofa_enabled":false,"last_active":"2025-03-09T17:01:00.626Z","last_ip":"172.71.222.224","allowed_ips":null,"last_timezone":"America/Chicago","last_location":"","phone":"+2349055855983","review":null,"gender":null,"date_of_birth":null,"cba_id":"120","photo_id":null,"referral_code":"0VCCUN","referred_by":null},"tier":{"id":"01928f2d-6756-755b-8a9d-c8094db2af27","meta":null,"created_on":"2024-10-15T07:56:10.789Z","created_by_id":null,"modified_on":"2025-01-23T15:14:24.513Z","modified_by_id":"01927265-4ed2-79cc-a0e6-e11339a359f3","deleted_on":null,"deleted_by_id":null,"tenant_id":"00000000-0000-0000-0000-000000000000","profile_type":"personal","name":"Tier 1","description":"Tier 1","level":1,"enabled":true,"balance_limit":2000000,"single_sending_limit":500000,"single_receiving_limit":500000,"period_sending_limit":500000,"period_sending_limit_time_unit":"day","period_receiving_limit":500000,"period_receiving_limit_time_unit":"day","requirements":[{"id":"019318f9-c895-744d-8f65-4636cc26dd1c","type_id":"019318f9-c895-744d-8f65-4636cc26dd1c","type":"verification","slug":"phone","name":"Phone","description":"Verify yor number"},{"id":"019318f9-c895-744d-8f65-4636cc26dd1d","type_id":"019318f9-c895-744d-8f65-4636cc26dd1d","type":"verification","slug":"email","name":"Email","description":"Verify your email"},{"id":"01933d40-03e5-777c-a6e6-bf72eb1c8968","type_id":"01933d40-03e5-777c-a6e6-bf72eb1c8968","type":"verification","slug":"bvn","name":"BVN","description":"BVN"},{"id":"019318f9-c895-744d-8f65-4636cc26dd1f","type_id":"019318f9-c895-744d-8f65-4636cc26dd1f","type":"verification","slug":"liveness","name":"Image liveness check","description":"This step helps us verify your identity by matching your image with the credentials you’ve provided."}]}},{"id":"01957510-6976-7885-8dd2-fa0e78746754","meta":null,"created_on":"2025-03-08T09:22:44.727Z","created_by_id":"01957510-3776-7885-8dd2-e05b10545a0c","modified_on":"2025-03-08T09:26:11.744Z","modified_by_id":"01957510-3776-7885-8dd2-e05b10545a0c","deleted_on":null,"deleted_by_id":null,"tenant_id":"00000000-0000-0000-0000-000000000000","name":"Azeez Ibrahim","type":"personal","status":"active","restricted":false,"review":null,"allowed_time_periods":null,"allowed_locations":null,"primary_user_id":"01957510-3776-7885-8dd2-e05b10545a0c","tier_id":"01928f2d-6756-755b-8a9d-c8094db2af27","primary_user":{"id":"01957510-3776-7885-8dd2-e05b10545a0c","meta":null,"created_on":"2025-03-08T09:22:31.926Z","created_by_id":null,"modified_on":"2025-03-08T13:23:01.226Z","modified_by_id":"01957510-3776-7885-8dd2-e05b10545a0c","deleted_on":null,"deleted_by_id":null,"tenant_id":"00000000-0000-0000-0000-000000000000","email":"ho@mailinator.com","status":"active","first_name":"Azeez","last_name":"Ibrahim","twofa_enabled":false,"last_active":"2025-03-08T13:23:01.225Z","last_ip":"197.234.242.160","allowed_ips":null,"last_timezone":"Africa/Johannesburg","last_location":"Johannesburg","phone":"+2348055644321","review":null,"gender":null,"date_of_birth":null,"cba_id":"119","photo_id":null,"referral_code":"NOVHU4","referred_by":null},"tier":{"id":"01928f2d-6756-755b-8a9d-c8094db2af27","meta":null,"created_on":"2024-10-15T07:56:10.789Z","created_by_id":null,"modified_on":"2025-01-23T15:14:24.513Z","modified_by_id":"01927265-4ed2-79cc-a0e6-e11339a359f3","deleted_on":null,"deleted_by_id":null,"tenant_id":"00000000-0000-0000-0000-000000000000","profile_type":"personal","name":"Tier 1","description":"Tier 1","level":1,"enabled":true,"balance_limit":2000000,"single_sending_limit":500000,"single_receiving_limit":500000,"period_sending_limit":500000,"period_sending_limit_time_unit":"day","period_receiving_limit":500000,"period_receiving_limit_time_unit":"day","requirements":[{"id":"019318f9-c895-744d-8f65-4636cc26dd1c","type_id":"019318f9-c895-744d-8f65-4636cc26dd1c","type":"verification","slug":"phone","name":"Phone","description":"Verify yor number"},{"id":"01933d40-03e5-777c-a6e6-bf72eb1c8968","type_id":"01933d40-03e5-777c-a6e6-bf72eb1c8968","type":"verification","slug":"bvn","name":"BVN","description":"BVN"},{"id":"019318f9-c895-744d-8f65-4636cc26dd1f","type_id":"019318f9-c895-744d-8f65-4636cc26dd1f","type":"verification","slug":"liveness","name":"Image liveness check","description":"This step helps us verify your identity by matching your image with the credentials you’ve provided."},{"id":"019318f9-c895-744d-8f65-4636cc26dd1d","type_id":"019318f9-c895-744d-8f65-4636cc26dd1d","type":"verification","slug":"email","name":"Email","description":"Verify your email"}]}},{"id":"01957108-3ccc-7111-9252-57600ebaeec1","meta":null,"created_on":"2025-03-07T14:35:20.140Z","created_by_id":"01957108-0c30-7111-9252-3ae7d32cb95a","modified_on":"2025-03-07T14:36:57.415Z","modified_by_id":"01957108-0c30-7111-9252-3ae7d32cb95a","deleted_on":null,"deleted_by_id":null,"tenant_id":"00000000-0000-0000-0000-000000000000","name":"Masha Brown","type":"personal","status":"active","restricted":false,"review":null,"allowed_time_periods":null,"allowed_locations":null,"primary_user_id":"01957108-0c30-7111-9252-3ae7d32cb95a","tier_id":"01928f2d-6756-755b-8a9d-c8094db2af27","primary_user":{"id":"01957108-0c30-7111-9252-3ae7d32cb95a","meta":null,"created_on":"2025-03-07T14:35:07.619Z","created_by_id":null,"modified_on":"2025-03-09T12:22:10.427Z","modified_by_id":"01957108-0c30-7111-9252-3ae7d32cb95a","deleted_on":null,"deleted_by_id":null,"tenant_id":"00000000-0000-0000-0000-000000000000","email":"Masha@mailinator.com","status":"active","first_name":"Masha","last_name":"Brown","twofa_enabled":false,"last_active":"2025-03-09T12:22:10.426Z","last_ip":"172.71.102.6","allowed_ips":null,"last_timezone":"Europe/Amsterdam","last_location":"Amsterdam","phone":"+2348138096890","review":null,"gender":null,"date_of_birth":null,"cba_id":"118","photo_id":null,"referral_code":"L1FL3V","referred_by":null},"tier":{"id":"01928f2d-6756-755b-8a9d-c8094db2af27","meta":null,"created_on":"2024-10-15T07:56:10.789Z","created_by_id":null,"modified_on":"2025-01-23T15:14:24.513Z","modified_by_id":"01927265-4ed2-79cc-a0e6-e11339a359f3","deleted_on":null,"deleted_by_id":null,"tenant_id":"00000000-0000-0000-0000-000000000000","profile_type":"personal","name":"Tier 1","description":"Tier 1","level":1,"enabled":true,"balance_limit":2000000,"single_sending_limit":500000,"single_receiving_limit":500000,"period_sending_limit":500000,"period_sending_limit_time_unit":"day","period_receiving_limit":500000,"period_receiving_limit_time_unit":"day","requirements":[{"id":"019318f9-c895-744d-8f65-4636cc26dd1d","type_id":"019318f9-c895-744d-8f65-4636cc26dd1d","type":"verification","slug":"email","name":"Email","description":"Verify your email"},{"id":"01933d40-03e5-777c-a6e6-bf72eb1c8968","type_id":"01933d40-03e5-777c-a6e6-bf72eb1c8968","type":"verification","slug":"bvn","name":"BVN","description":"BVN"},{"id":"019318f9-c895-744d-8f65-4636cc26dd1f","type_id":"019318f9-c895-744d-8f65-4636cc26dd1f","type":"verification","slug":"liveness","name":"Image liveness check","description":"This step helps us verify your identity by matching your image with the credentials you’ve provided."},{"id":"019318f9-c895-744d-8f65-4636cc26dd1c","type_id":"019318f9-c895-744d-8f65-4636cc26dd1c","type":"verification","slug":"phone","name":"Phone","description":"Verify yor number"}]}},{"id":"01956c98-2d3e-7bb2-80b2-54155774ec20","meta":null,"created_on":"2025-03-06T17:54:27.261Z","created_by_id":"01956c98-1b41-7bb2-80b2-3fd04de70f26","modified_on":"2025-03-06T18:17:42.255Z","modified_by_id":"01927265-4ed2-79cc-a0e6-e11339a359f3","deleted_on":null,"deleted_by_id":null,"tenant_id":"00000000-0000-0000-0000-000000000000","name":"Victor Ikpe","type":"personal","status":"active","restricted":false,"review":null,"allowed_time_periods":null,"allowed_locations":null,"primary_user_id":"01956c98-1b41-7bb2-80b2-3fd04de70f26","tier_id":"019367c1-ab3c-7115-b8f2-680b07e61445","primary_user":{"id":"01956c98-1b41-7bb2-80b2-3fd04de70f26","meta":null,"created_on":"2025-03-06T17:54:22.656Z","created_by_id":null,"modified_on":"2025-03-06T18:36:03.452Z","modified_by_id":"01956c98-1b41-7bb2-80b2-3fd04de70f26","deleted_on":null,"deleted_by_id":null,"tenant_id":"00000000-0000-0000-0000-000000000000","email":"victor.ikpe@cashdrive.co","status":"active","first_name":"Victor","last_name":"Ikpe","twofa_enabled":false,"last_active":"2025-03-06T18:36:03.452Z","last_ip":"172.71.102.232","allowed_ips":null,"last_timezone":"Europe/Amsterdam","last_location":"Amsterdam","phone":"+2348034801380","review":null,"gender":null,"date_of_birth":null,"cba_id":"117","photo_id":null,"referral_code":"IZI0Q8","referred_by":null},"tier":{"id":"019367c1-ab3c-7115-b8f2-680b07e61445","meta":null,"created_on":"2024-11-26T09:16:05.741Z","created_by_id":null,"modified_on":"2025-01-21T10:57:30.804Z","modified_by_id":"01927265-4ed2-79cc-a0e6-e11339a359f3","deleted_on":null,"deleted_by_id":null,"tenant_id":"00000000-0000-0000-0000-000000000000","profile_type":"personal","name":"Tier 3","description":"Tier 3","level":3,"enabled":true,"balance_limit":5000000,"single_sending_limit":5000000,"single_receiving_limit":5000000,"period_sending_limit":5000000,"period_sending_limit_time_unit":"day","period_receiving_limit":5000000,"period_receiving_limit_time_unit":"day","requirements":[{"id":"01933d2f-aa30-7ddd-a344-aa4e37d9f705","type_id":"01933d2f-aa30-7ddd-a344-aa4e37d9f705","type":"kyc","slug":"employment-information","name":"Employment information","description":"Provide your employment information as part of requirements to ensure your account accuracy."},{"id":"01952904-45ef-7330-84ab-f51b9eb1cd81","type_id":"01952904-45ef-7330-84ab-f51b9eb1cd81","type":"document","slug":"Utility Bill","name":"Utility Bill","description":"Utility bill"}]}},{"id":"01956c8e-7f46-7ffb-b630-1c31af913965","meta":null,"created_on":"2025-03-06T17:43:52.900Z","created_by_id":"01956c8e-43e9-7ffb-b630-01fbc9687a03","modified_on":"2025-03-06T18:15:46.655Z","modified_by_id":"01927265-4ed2-79cc-a0e6-e11339a359f3","deleted_on":null,"deleted_by_id":null,"tenant_id":"00000000-0000-0000-0000-000000000000","name":"Enoma Agbonifo","type":"personal","status":"active","restricted":false,"review":null,"allowed_time_periods":null,"allowed_locations":null,"primary_user_id":"01956c8e-43e9-7ffb-b630-01fbc9687a03","tier_id":"019367c1-ab3c-7115-b8f2-680b07e61445","primary_user":{"id":"01956c8e-43e9-7ffb-b630-01fbc9687a03","meta":null,"created_on":"2025-03-06T17:43:37.705Z","created_by_id":null,"modified_on":"2025-03-08T19:13:28.790Z","modified_by_id":"01956c8e-43e9-7ffb-b630-01fbc9687a03","deleted_on":null,"deleted_by_id":null,"tenant_id":"00000000-0000-0000-0000-000000000000","email":"enomaagbonifo@gmail.com","status":"active","first_name":"Enoma","last_name":"Agbonifo","twofa_enabled":false,"last_active":"2025-03-08T19:13:28.790Z","last_ip":"172.68.234.149","allowed_ips":null,"last_timezone":"Asia/Bangkok","last_location":"Bangkok","phone":"+2349060005189","review":null,"gender":null,"date_of_birth":null,"cba_id":"116","photo_id":null,"referral_code":"TDMGYJ","referred_by":null},"tier":{"id":"019367c1-ab3c-7115-b8f2-680b07e61445","meta":null,"created_on":"2024-11-26T09:16:05.741Z","created_by_id":null,"modified_on":"2025-01-21T10:57:30.804Z","modified_by_id":"01927265-4ed2-79cc-a0e6-e11339a359f3","deleted_on":null,"deleted_by_id":null,"tenant_id":"00000000-0000-0000-0000-000000000000","profile_type":"personal","name":"Tier 3","description":"Tier 3","level":3,"enabled":true,"balance_limit":5000000,"single_sending_limit":5000000,"single_receiving_limit":5000000,"period_sending_limit":5000000,"period_sending_limit_time_unit":"day","period_receiving_limit":5000000,"period_receiving_limit_time_unit":"day","requirements":[{"id":"01933d2f-aa30-7ddd-a344-aa4e37d9f705","type_id":"01933d2f-aa30-7ddd-a344-aa4e37d9f705","type":"kyc","slug":"employment-information","name":"Employment information","description":"Provide your employment information as part of requirements to ensure your account accuracy."},{"id":"01952904-45ef-7330-84ab-f51b9eb1cd81","type_id":"01952904-45ef-7330-84ab-f51b9eb1cd81","type":"document","slug":"Utility Bill","name":"Utility Bill","description":"Utility bill"}]}},{"id":"01956c64-5f59-7886-9f22-3ec916efc19a","meta":null,"created_on":"2025-03-06T16:57:52.216Z","created_by_id":"01956c63-08c8-7886-9f21-74c16c9642dc","modified_on":"2025-03-06T16:59:20.045Z","modified_by_id":"01956c63-08c8-7886-9f21-74c16c9642dc","deleted_on":null,"deleted_by_id":null,"tenant_id":"00000000-0000-0000-0000-000000000000","name":"mercy boku","type":"personal","status":"active","restricted":false,"review":null,"allowed_time_periods":null,"allowed_locations":null,"primary_user_id":"01956c63-08c8-7886-9f21-74c16c9642dc","tier_id":"01928f2d-6756-755b-8a9d-c8094db2af27","primary_user":{"id":"01956c63-08c8-7886-9f21-74c16c9642dc","meta":null,"created_on":"2025-03-06T16:56:24.519Z","created_by_id":null,"modified_on":"2025-03-06T17:43:03.247Z","modified_by_id":"01956c63-08c8-7886-9f21-74c16c9642dc","deleted_on":null,"deleted_by_id":null,"tenant_id":"00000000-0000-0000-0000-000000000000","email":"mercy@mailinator.com","status":"active","first_name":"mercy","last_name":"boku","twofa_enabled":false,"last_active":"2025-03-06T17:43:03.246Z","last_ip":"172.71.102.235","allowed_ips":null,"last_timezone":"Europe/Amsterdam","last_location":"Amsterdam","phone":"+2348134044000","review":null,"gender":null,"date_of_birth":null,"cba_id":"115","photo_id":null,"referral_code":"EOJWG8","referred_by":"019372de-17ef-7cc2-8fc0-43fe11ba042f"},"tier":{"id":"01928f2d-6756-755b-8a9d-c8094db2af27","meta":null,"created_on":"2024-10-15T07:56:10.789Z","created_by_id":null,"modified_on":"2025-01-23T15:14:24.513Z","modified_by_id":"01927265-4ed2-79cc-a0e6-e11339a359f3","deleted_on":null,"deleted_by_id":null,"tenant_id":"00000000-0000-0000-0000-000000000000","profile_type":"personal","name":"Tier 1","description":"Tier 1","level":1,"enabled":true,"balance_limit":2000000,"single_sending_limit":500000,"single_receiving_limit":500000,"period_sending_limit":500000,"period_sending_limit_time_unit":"day","period_receiving_limit":500000,"period_receiving_limit_time_unit":"day","requirements":[{"id":"019318f9-c895-744d-8f65-4636cc26dd1c","type_id":"019318f9-c895-744d-8f65-4636cc26dd1c","type":"verification","slug":"phone","name":"Phone","description":"Verify yor number"},{"id":"019318f9-c895-744d-8f65-4636cc26dd1d","type_id":"019318f9-c895-744d-8f65-4636cc26dd1d","type":"verification","slug":"email","name":"Email","description":"Verify your email"},{"id":"019318f9-c895-744d-8f65-4636cc26dd1f","type_id":"019318f9-c895-744d-8f65-4636cc26dd1f","type":"verification","slug":"liveness","name":"Image liveness check","description":"This step helps us verify your identity by matching your image with the credentials you’ve provided."},{"id":"01933d40-03e5-777c-a6e6-bf72eb1c8968","type_id":"01933d40-03e5-777c-a6e6-bf72eb1c8968","type":"verification","slug":"bvn","name":"BVN","description":"BVN"}]}},{"id":"01956c45-d027-7ddb-9bba-7cc8a1f4a40f","meta":null,"created_on":"2025-03-06T16:24:29.478Z","created_by_id":"01956c45-a32b-7ddb-9bba-61c1d291096a","modified_on":"2025-03-06T16:24:29.478Z","modified_by_id":null,"deleted_on":null,"deleted_by_id":null,"tenant_id":"00000000-0000-0000-0000-000000000000","name":"Fred Brownn","type":"personal","status":"active","restricted":false,"review":null,"allowed_time_periods":null,"allowed_locations":null,"primary_user_id":"01956c45-a32b-7ddb-9bba-61c1d291096a","tier_id":null,"primary_user":{"id":"01956c45-a32b-7ddb-9bba-61c1d291096a","meta":null,"created_on":"2025-03-06T16:24:17.961Z","created_by_id":null,"modified_on":"2025-03-06T17:35:33.227Z","modified_by_id":"01956c45-a32b-7ddb-9bba-61c1d291096a","deleted_on":null,"deleted_by_id":null,"tenant_id":"00000000-0000-0000-0000-000000000000","email":"brownn@yopmail.com","status":"active","first_name":"Fred","last_name":"Brownn","twofa_enabled":false,"last_active":"2025-03-06T17:35:33.227Z","last_ip":"172.71.123.90","allowed_ips":null,"last_timezone":"Europe/Paris","last_location":"Paris","phone":"+2348138092323","review":null,"gender":null,"date_of_birth":null,"cba_id":null,"photo_id":null,"referral_code":"PHGQVJ","referred_by":null},"tier":null},{"id":"01956c35-a7ea-7229-a170-5b5c94ba46e3","meta":null,"created_on":"2025-03-06T16:06:50.600Z","created_by_id":"01956c35-85dd-7229-a170-43e1c6f5cb9c","modified_on":"2025-03-06T16:06:50.600Z","modified_by_id":null,"deleted_on":null,"deleted_by_id":null,"tenant_id":"00000000-0000-0000-0000-000000000000","name":"Azeez Olamilekan","type":"personal","status":"active","restricted":false,"review":null,"allowed_time_periods":null,"allowed_locations":null,"primary_user_id":"01956c35-85dd-7229-a170-43e1c6f5cb9c","tier_id":null,"primary_user":{"id":"01956c35-85dd-7229-a170-43e1c6f5cb9c","meta":null,"created_on":"2025-03-06T16:06:41.884Z","created_by_id":null,"modified_on":"2025-03-06T16:13:49.211Z","modified_by_id":"01956c35-85dd-7229-a170-43e1c6f5cb9c","deleted_on":null,"deleted_by_id":null,"tenant_id":"00000000-0000-0000-0000-000000000000","email":"yup@mailinator.com","status":"active","first_name":"Azeez","last_name":"Olamilekan","twofa_enabled":false,"last_active":"2025-03-06T16:13:49.208Z","last_ip":"172.68.42.183","allowed_ips":null,"last_timezone":"Africa/Johannesburg","last_location":"Johannesburg","phone":"+2349055466312","review":null,"gender":null,"date_of_birth":null,"cba_id":null,"photo_id":null,"referral_code":"V7U6DN","referred_by":null},"tier":null}],"meta":{"page":1,"total_pages":23,"total_items":228}}