{"status":"success","data":[{"id":"01957bf2-a4ba-7885-8ddc-892f0aae2063","meta":null,"created_on":"2025-03-09T17:27:34.329Z","created_by_id":"01957be8-12db-7885-8ddb-9223eb6ceafe","modified_on":"2025-03-09T17:27:34.329Z","modified_by_id":null,"deleted_on":null,"deleted_by_id":null,"tenant_id":"00000000-0000-0000-0000-000000000000","profile_id":"01957be8-8038-7885-8ddb-aeece37fa5a1","identifier":"70123456789","status":"pending","type_id":"01933a66-8850-7335-a997-758238b72bd4","type":{"id":"01933a66-8850-7335-a997-758238b72bd4","meta":null,"created_on":"2024-11-17T13:53:38.382Z","created_by_id":null,"modified_on":"2025-02-04T18:38:35.977Z","modified_by_id":"01927265-4ed2-79cc-a0e6-e11339a359f3","deleted_on":null,"deleted_by_id":null,"tenant_id":"00000000-0000-0000-0000-000000000000","profile_type":"personal","name":"NIN Verification","slug":"nin","description":"In compliance with CBN regulations, we need to verify your NIN to identify you and prevent fraud.","maximum":1,"minimum":0,"enabled":true}},{"id":"01957bf0-c646-7885-8ddc-555209264968","meta":null,"created_on":"2025-03-09T17:25:31.845Z","created_by_id":"01957be8-12db-7885-8ddb-9223eb6ceafe","modified_on":"2025-03-09T17:25:31.845Z","modified_by_id":null,"deleted_on":null,"deleted_by_id":null,"tenant_id":"00000000-0000-0000-0000-000000000000","profile_id":"01957be8-8038-7885-8ddb-aeece37fa5a1","identifier":"70123456789","status":"pending","type_id":"01933a66-8850-7335-a997-758238b72bd4","type":{"id":"01933a66-8850-7335-a997-758238b72bd4","meta":null,"created_on":"2024-11-17T13:53:38.382Z","created_by_id":null,"modified_on":"2025-02-04T18:38:35.977Z","modified_by_id":"01927265-4ed2-79cc-a0e6-e11339a359f3","deleted_on":null,"deleted_by_id":null,"tenant_id":"00000000-0000-0000-0000-000000000000","profile_type":"personal","name":"NIN Verification","slug":"nin","description":"In compliance with CBN regulations, we need to verify your NIN to identify you and prevent fraud.","maximum":1,"minimum":0,"enabled":true}},{"id":"01957bed-eec8-7885-8ddc-27f23f833864","meta":null,"created_on":"2025-03-09T17:22:25.607Z","created_by_id":"01957be8-12db-7885-8ddb-9223eb6ceafe","modified_on":"2025-03-09T17:22:25.607Z","modified_by_id":null,"deleted_on":null,"deleted_by_id":null,"tenant_id":"00000000-0000-0000-0000-000000000000","profile_id":"01957be8-8038-7885-8ddb-aeece37fa5a1","identifier":"c28acec7-958a-4765-b2c2-b732b6759687","status":"approved","type_id":"019318f9-c895-744d-8f65-4636cc26dd1f","type":{"id":"019318f9-c895-744d-8f65-4636cc26dd1f","meta":null,"created_on":"2024-11-11T02:07:23.286Z","created_by_id":null,"modified_on":"2024-12-03T13:44:13.683Z","modified_by_id":null,"deleted_on":null,"deleted_by_id":null,"tenant_id":"00000000-0000-0000-0000-000000000000","profile_type":"personal","name":"Image liveness check","slug":"liveness","description":"This step helps us verify your identity by matching your image with the credentials you’ve provided.","maximum":1,"minimum":0,"enabled":true}},{"id":"01957beb-8ab8-7885-8ddb-eba86648cbe6","meta":null,"created_on":"2025-03-09T17:19:48.919Z","created_by_id":"01957be8-12db-7885-8ddb-9223eb6ceafe","modified_on":"2025-03-09T17:19:48.919Z","modified_by_id":null,"deleted_on":null,"deleted_by_id":null,"tenant_id":"00000000-0000-0000-0000-000000000000","profile_id":"01957be8-8038-7885-8ddb-aeece37fa5a1","identifier":"22452807653","status":"approved","type_id":"01933d40-03e5-777c-a6e6-bf72eb1c8968","type":{"id":"01933d40-03e5-777c-a6e6-bf72eb1c8968","meta":null,"created_on":"2024-11-18T03:10:25.836Z","created_by_id":null,"modified_on":"2025-01-10T18:37:37.482Z","modified_by_id":null,"deleted_on":null,"deleted_by_id":null,"tenant_id":"00000000-0000-0000-0000-000000000000","profile_type":"personal","name":"BVN","slug":"bvn","description":"BVN","maximum":1,"minimum":0,"enabled":true}},{"id":"01957be8-80a8-7885-8ddb-d1f442bb813f","meta":null,"created_on":"2025-03-09T17:16:29.735Z","created_by_id":"01957be8-12db-7885-8ddb-9223eb6ceafe","modified_on":"2025-03-09T17:16:29.735Z","modified_by_id":null,"deleted_on":null,"deleted_by_id":null,"tenant_id":"00000000-0000-0000-0000-000000000000","profile_id":"01957be8-8038-7885-8ddb-aeece37fa5a1","identifier":"+2349066533254","status":"approved","type_id":"019318f9-c895-744d-8f65-4636cc26dd1c","type":{"id":"019318f9-c895-744d-8f65-4636cc26dd1c","meta":null,"created_on":"2024-11-12T12:29:02.517Z","created_by_id":null,"modified_on":"2024-12-03T13:45:43.084Z","modified_by_id":null,"deleted_on":null,"deleted_by_id":null,"tenant_id":"00000000-0000-0000-0000-000000000000","profile_type":"personal","name":"Phone","slug":"phone","description":"Verify yor number","maximum":1,"minimum":0,"enabled":true}},{"id":"01957be8-809f-7885-8ddb-c6d5337eb077","meta":null,"created_on":"2025-03-09T17:16:29.727Z","created_by_id":"01957be8-12db-7885-8ddb-9223eb6ceafe","modified_on":"2025-03-09T17:16:29.727Z","modified_by_id":null,"deleted_on":null,"deleted_by_id":null,"tenant_id":"00000000-0000-0000-0000-000000000000","profile_id":"01957be8-8038-7885-8ddb-aeece37fa5a1","identifier":"kilo@mailinator.com","status":"approved","type_id":"019318f9-c895-744d-8f65-4636cc26dd1d","type":{"id":"019318f9-c895-744d-8f65-4636cc26dd1d","meta":null,"created_on":"2024-11-12T12:29:02.517Z","created_by_id":null,"modified_on":"2024-12-03T13:46:54.449Z","modified_by_id":null,"deleted_on":null,"deleted_by_id":null,"tenant_id":"00000000-0000-0000-0000-000000000000","profile_type":"personal","name":"Email","slug":"email","description":"Verify your email","maximum":1,"minimum":0,"enabled":true}},{"id":"01957b90-e559-7885-8dd8-ed88fc0e3259","meta":null,"created_on":"2025-03-09T15:40:48.345Z","created_by_id":"01957b4e-d4cb-7885-8dd6-e4f4f062e5e7","modified_on":"2025-03-09T15:40:48.345Z","modified_by_id":null,"deleted_on":null,"deleted_by_id":null,"tenant_id":"00000000-0000-0000-0000-000000000000","profile_id":"01957b4f-1132-7885-8dd6-f8d06a536b40","identifier":"70123456789","status":"pending","type_id":"01933a66-8850-7335-a997-758238b72bd4","type":{"id":"01933a66-8850-7335-a997-758238b72bd4","meta":null,"created_on":"2024-11-17T13:53:38.382Z","created_by_id":null,"modified_on":"2025-02-04T18:38:35.977Z","modified_by_id":"01927265-4ed2-79cc-a0e6-e11339a359f3","deleted_on":null,"deleted_by_id":null,"tenant_id":"00000000-0000-0000-0000-000000000000","profile_type":"personal","name":"NIN Verification","slug":"nin","description":"In compliance with CBN regulations, we need to verify your NIN to identify you and prevent fraud.","maximum":1,"minimum":0,"enabled":true}},{"id":"01957b8f-2eac-7885-8dd8-bc4e27ecd6eb","meta":null,"created_on":"2025-03-09T15:38:56.044Z","created_by_id":"01957b4e-d4cb-7885-8dd6-e4f4f062e5e7","modified_on":"2025-03-09T15:38:56.044Z","modified_by_id":null,"deleted_on":null,"deleted_by_id":null,"tenant_id":"00000000-0000-0000-0000-000000000000","profile_id":"01957b4f-1132-7885-8dd6-f8d06a536b40","identifier":"22379970825","status":"approved","type_id":"01933d40-03e5-777c-a6e6-bf72eb1c8968","type":{"id":"01933d40-03e5-777c-a6e6-bf72eb1c8968","meta":null,"created_on":"2024-11-18T03:10:25.836Z","created_by_id":null,"modified_on":"2025-01-10T18:37:37.482Z","modified_by_id":null,"deleted_on":null,"deleted_by_id":null,"tenant_id":"00000000-0000-0000-0000-000000000000","profile_type":"personal","name":"BVN","slug":"bvn","description":"BVN","maximum":1,"minimum":0,"enabled":true}},{"id":"01957b71-8602-7885-8dd8-5becc844d7a5","meta":null,"created_on":"2025-03-09T15:06:32.319Z","created_by_id":"01957b71-5f64-7885-8dd8-2ba2633ce276","modified_on":"2025-03-09T15:06:32.319Z","modified_by_id":null,"deleted_on":null,"deleted_by_id":null,"tenant_id":"00000000-0000-0000-0000-000000000000","profile_id":"01957b71-85bc-7885-8dd8-419719f1af82","identifier":"+2349133779423","status":"approved","type_id":"019318f9-c895-744d-8f65-4636cc26dd1c","type":{"id":"019318f9-c895-744d-8f65-4636cc26dd1c","meta":null,"created_on":"2024-11-12T12:29:02.517Z","created_by_id":null,"modified_on":"2024-12-03T13:45:43.084Z","modified_by_id":null,"deleted_on":null,"deleted_by_id":null,"tenant_id":"00000000-0000-0000-0000-000000000000","profile_type":"personal","name":"Phone","slug":"phone","description":"Verify yor number","maximum":1,"minimum":0,"enabled":true}},{"id":"01957b71-8600-7885-8dd8-57875c4e0334","meta":null,"created_on":"2025-03-09T15:06:32.319Z","created_by_id":"01957b71-5f64-7885-8dd8-2ba2633ce276","modified_on":"2025-03-09T15:06:32.319Z","modified_by_id":null,"deleted_on":null,"deleted_by_id":null,"tenant_id":"00000000-0000-0000-0000-000000000000","profile_id":"01957b71-85bc-7885-8dd8-419719f1af82","identifier":"sammiet@gmail.com","status":"approved","type_id":"019318f9-c895-744d-8f65-4636cc26dd1d","type":{"id":"019318f9-c895-744d-8f65-4636cc26dd1d","meta":null,"created_on":"2024-11-12T12:29:02.517Z","created_by_id":null,"modified_on":"2024-12-03T13:46:54.449Z","modified_by_id":null,"deleted_on":null,"deleted_by_id":null,"tenant_id":"00000000-0000-0000-0000-000000000000","profile_type":"personal","name":"Email","slug":"email","description":"Verify your email","maximum":1,"minimum":0,"enabled":true}}],"meta":{"page":1,"total_pages":91,"total_items":910}}