{"status":"success","data":[{"id":"019435d4-2106-7aa1-b636-29de80b54443","meta":null,"created_on":"2025-01-05T09:38:02.118Z","created_by_id":null,"modified_on":"2025-01-05T09:38:02.118Z","modified_by_id":null,"deleted_on":null,"deleted_by_id":null,"name":"Rustic Soft Gloves","slug":"rustic-soft-gloves","description":"Senior","status":"active","profile_id":"0193a649-e3d0-7881-8b7f-2ef1d89a9aff","tenant_id":"00000000-0000-0000-0000-000000000000","userCount":1,"user_count":1},{"id":"0194390f-3451-7aa1-9609-b7bb23e65f18","meta":null,"created_on":"2025-01-06T00:41:25.328Z","created_by_id":null,"modified_on":"2025-01-06T00:41:25.328Z","modified_by_id":null,"deleted_on":null,"deleted_by_id":null,"name":"Licensed Steel Gloves","slug":"licensed-steel-gloves","description":"Human","status":"active","profile_id":"0193a649-e3d0-7881-8b7f-2ef1d89a9aff","tenant_id":"00000000-0000-0000-0000-000000000000","userCount":0,"user_count":0},{"id":"019435cb-8e7d-7aa1-b635-ad7f79da04bf","meta":null,"created_on":"2025-01-05T09:28:40.316Z","created_by_id":null,"modified_on":"2025-01-07T09:10:24.971Z","modified_by_id":null,"deleted_on":null,"deleted_by_id":null,"name":"Intelligent Rubber Computer","slug":"intelligent-rubber-computer","description":"Regional","status":"inactive","profile_id":"0193a649-e3d0-7881-8b7f-2ef1d89a9aff","tenant_id":"00000000-0000-0000-0000-000000000000","userCount":3,"user_count":3},{"id":"01926788-704b-7336-86de-a5f24f6e9083","meta":null,"created_on":"2024-10-07T15:10:47.882Z","created_by_id":null,"modified_on":"2024-10-07T15:10:47.882Z","modified_by_id":null,"deleted_on":null,"deleted_by_id":null,"name":"Owner","slug":"owner","description":"Owner","status":"active","profile_id":null,"tenant_id":null,"userCount":3,"user_count":3},{"id":"0193db10-195e-7443-b5ef-f49cfe8c90ef","meta":null,"created_on":"2024-12-18T18:38:05.662Z","created_by_id":null,"modified_on":"2024-12-18T18:38:05.662Z","modified_by_id":null,"deleted_on":null,"deleted_by_id":null,"name":"sodiqsnst Mary Jenkins","slug":"sodiqsnst-mary-jenkins","description":"sodiq","status":"active","profile_id":"0193a649-e3d0-7881-8b7f-2ef1d89a9aff","tenant_id":"00000000-0000-0000-0000-000000000000","userCount":0,"user_count":0},{"id":"01926788-56f8-7336-86de-98a2678c8611","meta":null,"created_on":"2024-10-07T15:10:41.400Z","created_by_id":null,"modified_on":"2024-10-07T15:10:41.400Z","modified_by_id":null,"deleted_on":null,"deleted_by_id":null,"name":"Authorizer","slug":"authorizer","description":"Authorizer","status":"active","profile_id":null,"tenant_id":null,"userCount":0,"user_count":0},{"id":"01926788-3c4b-7336-86de-90ae20285abb","meta":null,"created_on":"2024-10-07T15:10:34.474Z","created_by_id":null,"modified_on":"2024-10-07T15:10:34.474Z","modified_by_id":null,"deleted_on":null,"deleted_by_id":null,"name":"Viewer","slug":"viewer","description":"Viewer","status":"active","profile_id":null,"tenant_id":null,"userCount":0,"user_count":0},{"id":"01926788-1eaf-7336-86de-89316b9797d9","meta":null,"created_on":"2024-10-07T15:10:26.980Z","created_by_id":null,"modified_on":"2024-10-07T15:10:26.980Z","modified_by_id":null,"deleted_on":null,"deleted_by_id":null,"name":"Initiator","slug":"initiator","description":"Initiator","status":"active","profile_id":null,"tenant_id":null,"userCount":4,"user_count":4},{"id":"019435d1-02dd-7aa1-b635-ce8df84783c8","meta":null,"created_on":"2025-01-05T09:34:37.788Z","created_by_id":null,"modified_on":"2025-01-09T18:10:29.623Z","modified_by_id":null,"deleted_on":null,"deleted_by_id":null,"name":"Sleek Soft Pizza","slug":"sleek-soft-pizza","description":"Senior","status":"inactive","profile_id":"0193a649-e3d0-7881-8b7f-2ef1d89a9aff","tenant_id":"00000000-0000-0000-0000-000000000000","userCount":2,"user_count":2},{"id":"019435d1-53b8-7aa1-b635-dec5a3f048ff","meta":null,"created_on":"2025-01-05T09:34:58.488Z","created_by_id":null,"modified_on":"2025-01-13T00:19:10.194Z","modified_by_id":null,"deleted_on":null,"deleted_by_id":null,"name":"Generic Wooden Ball","slug":"generic-wooden-ball","description":"Direct","status":"inactive","profile_id":"0193a649-e3d0-7881-8b7f-2ef1d89a9aff","tenant_id":"00000000-0000-0000-0000-000000000000","userCount":2,"user_count":2}],"meta":{"page":1,"total_pages":3,"total_items":23}}