{"status":"success","data":[{"id":"01945e1a-762a-7554-958e-891101d524e2","meta":null,"created_on":"2025-01-13T05:19:40.075Z","created_by_id":null,"modified_on":"2025-01-13T05:19:40.075Z","modified_by_id":null,"deleted_on":null,"deleted_by_id":null,"tenant_id":"00000000-0000-0000-0000-000000000000","profile_id":"0193a649-e3d0-7881-8b7f-2ef1d89a9aff","status":"pending","command":"PayBillPaymentCommand","command_data":{"categoryId":"cabletv","billerId":"gotv","data":{"account_number":"1102003467","amount":900,"option_id":"GOHAN","pin":"1234","account_id":"0193a699-2f15-7881-8b7f-ae50980bcfad"}},"maker_id":"01944a80-f3cb-7881-990d-98798437f1f3","made_on":"2025-01-13T05:19:40.072Z","checker_id":null,"checked_on":null,"maker_checker_id":"0193df18-702c-7ddc-9298-482c857161b9","reason":null},{"id":"01945e1a-6ad5-7554-958e-834ccbc21072","meta":null,"created_on":"2025-01-13T05:19:37.174Z","created_by_id":null,"modified_on":"2025-01-13T05:19:37.174Z","modified_by_id":null,"deleted_on":null,"deleted_by_id":null,"tenant_id":"00000000-0000-0000-0000-000000000000","profile_id":"0193a649-e3d0-7881-8b7f-2ef1d89a9aff","status":"pending","command":"PayBillPaymentCommand","command_data":{"categoryId":"cabletv","billerId":"dstv","data":{"account_number":"1102003467","amount":5300,"option_id":"NLTESE36","pin":"1234","account_id":"0193a699-2f15-7881-8b7f-ae50980bcfad","account_name":"Test Name"}},"maker_id":"01944a80-f3cb-7881-990d-98798437f1f3","made_on":"2025-01-13T05:19:37.173Z","checker_id":null,"checked_on":null,"maker_checker_id":"0193df18-702c-7ddc-9298-482c857161b9","reason":null},{"id":"01945e1a-6884-7554-958e-7b1c4f4fbf5c","meta":null,"created_on":"2025-01-13T05:19:36.579Z","created_by_id":null,"modified_on":"2025-01-13T05:19:36.579Z","modified_by_id":null,"deleted_on":null,"deleted_by_id":null,"tenant_id":"00000000-0000-0000-0000-000000000000","profile_id":"0193a649-e3d0-7881-8b7f-2ef1d89a9aff","status":"pending","command":"PayBillPaymentCommand","command_data":{"categoryId":"databundle","billerId":"smile","data":{"account_number":"11020034671","amount":1800,"option_id":"101","pin":"1234","account_id":"0193a699-2f15-7881-8b7f-ae50980bcfad"}},"maker_id":"01944a80-f3cb-7881-990d-98798437f1f3","made_on":"2025-01-13T05:19:36.578Z","checker_id":null,"checked_on":null,"maker_checker_id":"0193df18-702c-7ddc-9298-482c857161b9","reason":null},{"id":"01945e1a-662d-7554-958e-739b25fe707b","meta":null,"created_on":"2025-01-13T05:19:35.981Z","created_by_id":null,"modified_on":"2025-01-13T05:19:35.981Z","modified_by_id":null,"deleted_on":null,"deleted_by_id":null,"tenant_id":"00000000-0000-0000-0000-000000000000","profile_id":"0193a649-e3d0-7881-8b7f-2ef1d89a9aff","status":"pending","command":"PayBillPaymentCommand","command_data":{"categoryId":"databundle","billerId":"9mobile","data":{"account_number":"11020034671","amount":200,"option_id":"200","pin":"1234","account_id":"0193a699-2f15-7881-8b7f-ae50980bcfad"}},"maker_id":"01944a80-f3cb-7881-990d-98798437f1f3","made_on":"2025-01-13T05:19:35.980Z","checker_id":null,"checked_on":null,"maker_checker_id":"0193df18-702c-7ddc-9298-482c857161b9","reason":null},{"id":"01945e1a-5cca-7554-958e-631c8f826912","meta":null,"created_on":"2025-01-13T05:19:33.579Z","created_by_id":null,"modified_on":"2025-01-13T05:19:33.579Z","modified_by_id":null,"deleted_on":null,"deleted_by_id":null,"tenant_id":"00000000-0000-0000-0000-000000000000","profile_id":"0193a649-e3d0-7881-8b7f-2ef1d89a9aff","status":"pending","command":"PayBillPaymentCommand","command_data":{"categoryId":"databundle","billerId":"mtn","data":{"account_number":"11020034671","amount":100,"option_id":"100","pin":"1234","account_id":"0193a699-2f15-7881-8b7f-ae50980bcfad"}},"maker_id":"01944a80-f3cb-7881-990d-98798437f1f3","made_on":"2025-01-13T05:19:33.578Z","checker_id":null,"checked_on":null,"maker_checker_id":"0193df18-702c-7ddc-9298-482c857161b9","reason":null},{"id":"01945e1a-5a6d-7554-958e-5d7a112b3d05","meta":null,"created_on":"2025-01-13T05:19:32.973Z","created_by_id":null,"modified_on":"2025-01-13T05:19:32.973Z","modified_by_id":null,"deleted_on":null,"deleted_by_id":null,"tenant_id":"00000000-0000-0000-0000-000000000000","profile_id":"0193a649-e3d0-7881-8b7f-2ef1d89a9aff","status":"pending","command":"PayBillPaymentCommand","command_data":{"categoryId":"airtime","billerId":"smile","data":{"account_number":"1102003467","amount":100,"pin":"1234","account_id":"0193a699-2f15-7881-8b7f-ae50980bcfad"}},"maker_id":"01944a80-f3cb-7881-990d-98798437f1f3","made_on":"2025-01-13T05:19:32.972Z","checker_id":null,"checked_on":null,"maker_checker_id":"0193df18-702c-7ddc-9298-482c857161b9","reason":null},{"id":"01945e1a-57cf-7554-958e-5158080edf3a","meta":null,"created_on":"2025-01-13T05:19:32.303Z","created_by_id":null,"modified_on":"2025-01-13T05:19:32.303Z","modified_by_id":null,"deleted_on":null,"deleted_by_id":null,"tenant_id":"00000000-0000-0000-0000-000000000000","profile_id":"0193a649-e3d0-7881-8b7f-2ef1d89a9aff","status":"pending","command":"PayBillPaymentCommand","command_data":{"categoryId":"airtime","billerId":"9mobile","data":{"account_number":"1102003467","amount":100,"pin":"1234","account_id":"0193a699-2f15-7881-8b7f-ae50980bcfad"}},"maker_id":"01944a80-f3cb-7881-990d-98798437f1f3","made_on":"2025-01-13T05:19:32.302Z","checker_id":null,"checked_on":null,"maker_checker_id":"0193df18-702c-7ddc-9298-482c857161b9","reason":null},{"id":"01945e1a-5561-7554-958e-4a19e1026c80","meta":null,"created_on":"2025-01-13T05:19:31.681Z","created_by_id":null,"modified_on":"2025-01-13T05:19:31.681Z","modified_by_id":null,"deleted_on":null,"deleted_by_id":null,"tenant_id":"00000000-0000-0000-0000-000000000000","profile_id":"0193a649-e3d0-7881-8b7f-2ef1d89a9aff","status":"pending","command":"PayBillPaymentCommand","command_data":{"categoryId":"airtime","billerId":"airtel","data":{"account_number":"1102003467","amount":100,"pin":"1234","account_id":"0193a699-2f15-7881-8b7f-ae50980bcfad"}},"maker_id":"01944a80-f3cb-7881-990d-98798437f1f3","made_on":"2025-01-13T05:19:31.680Z","checker_id":null,"checked_on":null,"maker_checker_id":"0193df18-702c-7ddc-9298-482c857161b9","reason":null},{"id":"01945e1a-4ff8-7554-958e-3c4da21b3454","meta":null,"created_on":"2025-01-13T05:19:30.297Z","created_by_id":null,"modified_on":"2025-01-13T05:19:30.297Z","modified_by_id":null,"deleted_on":null,"deleted_by_id":null,"tenant_id":"00000000-0000-0000-0000-000000000000","profile_id":"0193a649-e3d0-7881-8b7f-2ef1d89a9aff","status":"pending","command":"PayBillPaymentCommand","command_data":{"categoryId":"airtime","billerId":"mtn","data":{"account_number":"7918852161","amount":100,"pin":"1234","account_id":"0193a699-2f15-7881-8b7f-ae50980bcfad"}},"maker_id":"01944a80-f3cb-7881-990d-98798437f1f3","made_on":"2025-01-13T05:19:30.295Z","checker_id":null,"checked_on":null,"maker_checker_id":"0193df18-702c-7ddc-9298-482c857161b9","reason":null},{"id":"01945e19-cc9e-7554-958e-2c7f276fecd8","meta":null,"created_on":"2025-01-13T05:18:56.671Z","created_by_id":null,"modified_on":"2025-01-13T05:18:56.671Z","modified_by_id":null,"deleted_on":null,"deleted_by_id":null,"tenant_id":"00000000-0000-0000-0000-000000000000","profile_id":"0193a649-e3d0-7881-8b7f-2ef1d89a9aff","status":"pending","command":"TransferCommand","command_data":{"account_id":"0193a699-2f15-7881-8b7f-ae50980bcfad","data":{"account_number":"1780004070","bank_code":"999998","amount":100.23,"narration":"Sodiq","pin":"1234","bank_name":"Northquest Finance","account_name":"Mike Jacob"}},"maker_id":"01944a80-f3cb-7881-990d-98798437f1f3","made_on":"2025-01-13T05:18:56.669Z","checker_id":null,"checked_on":null,"maker_checker_id":"0193df18-702c-7ddc-9298-482c857161b9","reason":null}],"meta":{"page":1,"total_pages":2,"total_items":14}}