{"status":"success","data":[{"id":"01946f99-ea92-7667-ae29-e19999e16e8e","meta":{"pin":"1234","biller_id":"mtn","category_id":"airtime","account_number":"08160247584"},"created_on":"2025-01-16T14:52:25.617Z","created_by_id":"019372de-17ef-7cc2-8fc0-43fe11ba042f","modified_on":"2025-01-16T14:58:59.391Z","modified_by_id":"019372de-17ef-7cc2-8fc0-43fe11ba042f","deleted_on":null,"deleted_by_id":null,"tenant_id":"00000000-0000-0000-0000-000000000000","frequency":"daily","type":"bill-payment","start_date":"2025-01-17T00:00:00.000Z","next_run_date":"2025-01-17T00:00:00.000Z","end_date":"2025-02-28T00:00:00.000Z","status":"active","amount":"10000.00","profile_id":"0193a649-e3d0-7881-8b7f-2ef1d89a9aff","account_id":"0193a699-2f15-7881-8b7f-ae50980bcfad","user":{"id":"019372de-17ef-7cc2-8fc0-43fe11ba042f","meta":null,"created_on":"2024-11-28T13:02:58.029Z","created_by_id":null,"modified_on":"2025-01-17T18:42:04.724Z","modified_by_id":"019372de-17ef-7cc2-8fc0-43fe11ba042f","deleted_on":null,"deleted_by_id":null,"tenant_id":"00000000-0000-0000-0000-000000000000","email":"Ismael@mailinator.com","status":"active","first_name":"Sunday","last_name":"Testing","password":"$2b$10$5RSW/VGXXWJggvpeNVTiHe2OKktddDMT2sbbddGpjEPl4wCcUNhPK","twofa_enabled":false,"twofa_secret":"MRWVK4SWG46HCVCDJ5NVOZCNFIUE6WSR","refresh_token":"5566ec9940ed7464fcc67e47e2e1e9bc4c8e3dd8580a4b0eca094a7d445af5d1","last_active":"2025-01-17T18:42:04.716Z","last_ip":"172.71.154.4","allowed_ips":null,"last_timezone":"America/Los_Angeles","last_location":"Hayward","phone":"+2349055755671","review":null,"gender":"male","date_of_birth":null,"cba_id":"31","photo_id":null,"referral_code":"7LD1QN","pin":"$2b$10$kvIE3Gx0KBuPhysn3z.4COEKINtMWOVbW8lY2k.nCHqZH9teFQHEy","allowed_locations":null,"referred_by":null}},{"id":"019469a6-7032-777b-9e0f-b353ecfe2401","meta":{"pin":"1234","biller_id":"startimes","option_id":"nova","category_id":"cabletv","account_name":"Danny","account_number":"234&6789199"},"created_on":"2025-01-15T11:08:22.962Z","created_by_id":null,"modified_on":"2025-01-15T11:23:22.472Z","modified_by_id":null,"deleted_on":null,"deleted_by_id":null,"tenant_id":"00000000-0000-0000-0000-000000000000","frequency":"once","type":"bill-payment","start_date":"2025-01-16T00:00:00.000Z","next_run_date":"2025-01-16T00:00:00.000Z","end_date":"2025-03-31T00:00:00.000Z","status":"inactive","amount":"900.00","profile_id":"0193a649-e3d0-7881-8b7f-2ef1d89a9aff","account_id":"0193a699-2f15-7881-8b7f-ae50980bcfad","user":null},{"id":"01946997-5d40-777b-9e0f-68abcbab3ee2","meta":{"pin":"1234","biller_id":"mtn","category_id":"airtime","account_number":"08160247584"},"created_on":"2025-01-15T10:51:55.072Z","created_by_id":null,"modified_on":"2025-01-15T11:24:48.544Z","modified_by_id":null,"deleted_on":null,"deleted_by_id":null,"tenant_id":"00000000-0000-0000-0000-000000000000","frequency":"weekly","type":"bill-payment","start_date":"2025-01-20T12:24:00.000Z","next_run_date":"2025-01-20T12:24:00.000Z","end_date":"2025-04-22T12:24:00.000Z","status":"active","amount":"500.00","profile_id":"0193a649-e3d0-7881-8b7f-2ef1d89a9aff","account_id":"0193a699-2f15-7881-8b7f-ae50980bcfad","user":null},{"id":"019464a3-9319-7447-abf9-290c57bbf7eb","meta":{"pin":"1234","biller_id":"airtel","category_id":"airtime","account_number":"09055855632"},"created_on":"2025-01-14T11:47:09.209Z","created_by_id":null,"modified_on":"2025-01-14T11:48:17.806Z","modified_by_id":null,"deleted_on":null,"deleted_by_id":null,"tenant_id":"00000000-0000-0000-0000-000000000000","frequency":"daily","type":"bill-payment","start_date":"2025-01-15T00:00:00.000Z","next_run_date":"2025-01-15T00:00:00.000Z","end_date":"2025-01-21T00:00:00.000Z","status":"inactive","amount":"500.00","profile_id":"0193a649-e3d0-7881-8b7f-2ef1d89a9aff","account_id":"0193a699-2f15-7881-8b7f-ae50980bcfad","user":null},{"id":"01945269-a130-7aa0-b317-b61fce9b0a7e","meta":{"pin":"1234","biller_id":"smile","category_id":"airtime","account_number":"09030253741"},"created_on":"2025-01-10T22:50:41.840Z","created_by_id":null,"modified_on":"2025-01-10T22:50:41.840Z","modified_by_id":null,"deleted_on":null,"deleted_by_id":null,"tenant_id":"00000000-0000-0000-0000-000000000000","frequency":"daily","type":"bill-payment","start_date":"2025-01-11T00:00:00.000Z","next_run_date":"2025-01-11T00:00:00.000Z","end_date":"2025-01-13T00:00:00.000Z","status":"active","amount":"500.00","profile_id":"0193a649-e3d0-7881-8b7f-2ef1d89a9aff","account_id":"0193a699-2f15-7881-8b7f-ae50980bcfad","user":null},{"id":"01945211-43f5-7ff5-a664-3440817f1d86","meta":{"pin":"1234","biller_id":"mtn","option_id":"220","category_id":"databundle","account_number":"09065507422"},"created_on":"2025-01-10T21:14:10.804Z","created_by_id":null,"modified_on":"2025-01-10T21:14:10.804Z","modified_by_id":null,"deleted_on":null,"deleted_by_id":null,"tenant_id":"00000000-0000-0000-0000-000000000000","frequency":"daily","type":"bill-payment","start_date":"2025-01-11T00:00:00.000Z","next_run_date":"2025-01-11T00:00:00.000Z","end_date":"2025-01-17T00:00:00.000Z","status":"active","amount":"220.00","profile_id":"0193a649-e3d0-7881-8b7f-2ef1d89a9aff","account_id":"0193a699-2f15-7881-8b7f-ae50980bcfad","user":null},{"id":"01945181-ce77-7ff5-a662-1428a2fd69c0","meta":{"pin":"1234","biller_id":"mtn","option_id":"","category_id":"airtime","account_number":"09055755671"},"created_on":"2025-01-10T18:37:29.079Z","created_by_id":null,"modified_on":"2025-01-10T18:37:29.079Z","modified_by_id":null,"deleted_on":null,"deleted_by_id":null,"tenant_id":"00000000-0000-0000-0000-000000000000","frequency":"daily","type":"bill-payment","start_date":"2025-01-10T21:00:00.000Z","next_run_date":"2025-01-10T21:00:00.000Z","end_date":"2025-01-20T21:00:00.000Z","status":"active","amount":"100.23","profile_id":"0193a649-e3d0-7881-8b7f-2ef1d89a9aff","account_id":"0193e462-3285-7ff7-a93e-42b71063a119","user":null},{"id":"01945181-cb00-7ff5-a662-0dbada8369fc","meta":{"recipients":[{"bank_code":"999998","bank_name":"vee test","narration":"Sodiq","account_name":"Ake Mobolaji & Temabo","account_number":"1780004070"}]},"created_on":"2025-01-10T18:37:28.192Z","created_by_id":null,"modified_on":"2025-01-10T18:37:28.478Z","modified_by_id":null,"deleted_on":null,"deleted_by_id":null,"tenant_id":"00000000-0000-0000-0000-000000000000","frequency":"daily","type":"transfer","start_date":"2025-01-10T00:00:00.000Z","next_run_date":"2025-01-11T00:00:00.000Z","end_date":"2025-01-20T00:00:00.000Z","status":"active","amount":"50.23","profile_id":"0193a649-e3d0-7881-8b7f-2ef1d89a9aff","account_id":"0193e462-3285-7ff7-a93e-42b71063a119","user":null},{"id":"01945116-02c3-7ff5-a65e-867be7613e12","meta":{"pin":"1234","biller_id":"abuja_electric_postpaid","category_id":"electricity","account_number":"33233212343"},"created_on":"2025-01-10T16:39:44.579Z","created_by_id":null,"modified_on":"2025-01-13T18:07:46.420Z","modified_by_id":null,"deleted_on":null,"deleted_by_id":null,"tenant_id":"00000000-0000-0000-0000-000000000000","frequency":"daily","type":"bill-payment","start_date":"2025-01-17T00:00:00.000Z","next_run_date":"2025-01-17T00:00:00.000Z","end_date":"2025-01-22T00:00:00.000Z","status":"inactive","amount":"5000.00","profile_id":"0193a649-e3d0-7881-8b7f-2ef1d89a9aff","account_id":"0193a699-2f15-7881-8b7f-ae50980bcfad","user":null},{"id":"01944f58-8493-7771-a7f2-0db7556c3ca8","meta":{"pin":"1234","biller_id":"abuja_electric_postpaid","category_id":"electricity","account_number":"22822422312"},"created_on":"2025-01-10T08:33:08.755Z","created_by_id":null,"modified_on":"2025-01-10T22:12:26.715Z","modified_by_id":null,"deleted_on":null,"deleted_by_id":null,"tenant_id":"00000000-0000-0000-0000-000000000000","frequency":"daily","type":"bill-payment","start_date":"2025-01-11T00:00:00.000Z","next_run_date":"2025-01-11T00:00:00.000Z","end_date":"2025-01-15T00:00:00.000Z","status":"cancelled","amount":"1000000.00","profile_id":"0193a649-e3d0-7881-8b7f-2ef1d89a9aff","account_id":"0193a699-2f15-7881-8b7f-ae50980bcfad","user":null}],"meta":{"page":1,"total_pages":6,"total_items":58}}