{"status":"success","data":[{"id":"0193182f-68e6-7eeb-a7eb-f9fb3bd0052e","meta":{"last_name":"Greene","first_name":"Tonye"},"created_on":"2024-11-10T22:26:20.518Z","created_by_id":null,"modified_on":"2024-11-10T22:26:20.518Z","modified_by_id":null,"deleted_on":null,"deleted_by_id":null,"tenant_id":"00000000-0000-0000-0000-000000000000","name":"Tonye","type":"personal","status":"active","review":null,"allowed_time_periods":null,"primary_user_id":"0193182f-2b29-7eeb-a7eb-f68ffcbdf020","tier_id":"01928f2d-6756-755b-8a9d-c8094db2af27","primary_user":{"id":"0193182f-2b29-7eeb-a7eb-f68ffcbdf020","meta":null,"created_on":"2024-11-10T22:26:04.714Z","created_by_id":null,"modified_on":"2025-01-09T09:42:22.251Z","modified_by_id":null,"deleted_on":null,"deleted_by_id":null,"tenant_id":"00000000-0000-0000-0000-000000000000","email":"ellysmoore@gmail.com","status":"active","first_name":"Tonye","last_name":"Greene","twofa_enabled":false,"last_active":"2025-01-09T09:42:22.178Z","last_ip":"::ffff:10.0.3.166","allowed_ips":null,"last_timezone":null,"last_location":null,"phone":null,"review":null,"gender":"male","date_of_birth":null,"cba_id":null,"photo_id":null,"referral_code":"","allowed_locations":null,"referred_by":null},"tier":{"id":"01928f2d-6756-755b-8a9d-c8094db2af27","meta":null,"created_on":"2024-10-15T07:56:10.789Z","created_by_id":null,"modified_on":"2025-01-23T15:14:24.513Z","modified_by_id":"01927265-4ed2-79cc-a0e6-e11339a359f3","deleted_on":null,"deleted_by_id":null,"tenant_id":"00000000-0000-0000-0000-000000000000","profile_type":"personal","name":"Tier 1","description":"Tier 1","level":1,"enabled":true,"balance_limit":2000000,"single_sending_limit":500000,"single_receiving_limit":500000,"period_sending_limit":500000,"period_sending_limit_time_unit":"day","period_receiving_limit":500000,"period_receiving_limit_time_unit":"day","requirements":[{"id":"0193731a-59fe-788a-9877-8bef6d0c2cfc","type_id":"0193731a-59fe-788a-9877-8bef6d0c2cfc","type":"kyc","slug":"personal-information","name":"Personal Information"},{"id":"01933d40-03e5-777c-a6e6-bf72eb1c8968","type_id":"01933d40-03e5-777c-a6e6-bf72eb1c8968","type":"verification","slug":"bvn","name":"BVN"},{"id":"019318f9-c895-744d-8f65-4636cc26dd1f","type_id":"019318f9-c895-744d-8f65-4636cc26dd1f","type":"verification","slug":"liveness","name":"Image liveness check"}]}},{"id":"01931920-474f-744d-8f65-75414e4158cc","meta":{"nin":"","last_name":"","first_name":""},"created_on":"2024-11-11T02:49:26.096Z","created_by_id":null,"modified_on":"2024-11-11T02:49:26.096Z","modified_by_id":null,"deleted_on":null,"deleted_by_id":null,"tenant_id":"00000000-0000-0000-0000-000000000000","name":"Profile","type":"personal","status":"active","review":null,"allowed_time_periods":null,"primary_user_id":"019261d7-36c3-7cce-a142-bc625de42ba5","tier_id":"01928f2d-6756-755b-8a9d-c8094db2af27","primary_user":{"id":"019261d7-36c3-7cce-a142-bc625de42ba5","meta":null,"created_on":"2024-10-06T12:39:07.203Z","created_by_id":null,"modified_on":"2025-01-05T20:07:52.013Z","modified_by_id":null,"deleted_on":null,"deleted_by_id":null,"tenant_id":"00000000-0000-0000-0000-000000000000","email":"invitedUser1@mailinator.com","status":"active","first_name":"Azeez","last_name":"Invited-User","twofa_enabled":false,"last_active":"2025-01-05T20:07:11.994Z","last_ip":"::ffff:10.0.3.166","allowed_ips":null,"last_timezone":null,"last_location":null,"phone":null,"review":null,"gender":"male","date_of_birth":null,"cba_id":null,"photo_id":null,"referral_code":null,"allowed_locations":null,"referred_by":null},"tier":{"id":"01928f2d-6756-755b-8a9d-c8094db2af27","meta":null,"created_on":"2024-10-15T07:56:10.789Z","created_by_id":null,"modified_on":"2025-01-23T15:14:24.513Z","modified_by_id":"01927265-4ed2-79cc-a0e6-e11339a359f3","deleted_on":null,"deleted_by_id":null,"tenant_id":"00000000-0000-0000-0000-000000000000","profile_type":"personal","name":"Tier 1","description":"Tier 1","level":1,"enabled":true,"balance_limit":2000000,"single_sending_limit":500000,"single_receiving_limit":500000,"period_sending_limit":500000,"period_sending_limit_time_unit":"day","period_receiving_limit":500000,"period_receiving_limit_time_unit":"day","requirements":[{"id":"0193731a-59fe-788a-9877-8bef6d0c2cfc","type_id":"0193731a-59fe-788a-9877-8bef6d0c2cfc","type":"kyc","slug":"personal-information","name":"Personal Information"},{"id":"01933d40-03e5-777c-a6e6-bf72eb1c8968","type_id":"01933d40-03e5-777c-a6e6-bf72eb1c8968","type":"verification","slug":"bvn","name":"BVN"},{"id":"019318f9-c895-744d-8f65-4636cc26dd1f","type_id":"019318f9-c895-744d-8f65-4636cc26dd1f","type":"verification","slug":"liveness","name":"Image liveness check"}]}},{"id":"01932562-f71c-7ee3-88de-c821dddbc6f4","meta":{"last_name":"ajidagba","first_name":"rasheedat"},"created_on":"2024-11-13T11:57:43.067Z","created_by_id":null,"modified_on":"2024-11-13T11:57:43.067Z","modified_by_id":null,"deleted_on":null,"deleted_by_id":null,"tenant_id":"00000000-0000-0000-0000-000000000000","name":"rasheedat","type":"personal","status":"active","review":null,"allowed_time_periods":null,"primary_user_id":"01932562-ce58-7ee3-88de-c25dd7f5d12b","tier_id":"01928f2d-6756-755b-8a9d-c8094db2af27","primary_user":{"id":"01932562-ce58-7ee3-88de-c25dd7f5d12b","meta":null,"created_on":"2024-11-13T11:57:32.632Z","created_by_id":null,"modified_on":"2024-12-20T11:27:22.953Z","modified_by_id":null,"deleted_on":null,"deleted_by_id":null,"tenant_id":"00000000-0000-0000-0000-000000000000","email":"rasheedat+3@assurdly.com","status":"active","first_name":"rasheedat","last_name":"ajidagba","twofa_enabled":false,"last_active":"2024-12-20T11:27:22.950Z","last_ip":"::ffff:10.0.1.30","allowed_ips":null,"last_timezone":null,"last_location":null,"phone":"+2348135194521","review":null,"gender":"male","date_of_birth":null,"cba_id":"32","photo_id":null,"referral_code":"YIRIN2","allowed_locations":null,"referred_by":null},"tier":{"id":"01928f2d-6756-755b-8a9d-c8094db2af27","meta":null,"created_on":"2024-10-15T07:56:10.789Z","created_by_id":null,"modified_on":"2025-01-23T15:14:24.513Z","modified_by_id":"01927265-4ed2-79cc-a0e6-e11339a359f3","deleted_on":null,"deleted_by_id":null,"tenant_id":"00000000-0000-0000-0000-000000000000","profile_type":"personal","name":"Tier 1","description":"Tier 1","level":1,"enabled":true,"balance_limit":2000000,"single_sending_limit":500000,"single_receiving_limit":500000,"period_sending_limit":500000,"period_sending_limit_time_unit":"day","period_receiving_limit":500000,"period_receiving_limit_time_unit":"day","requirements":[{"id":"0193731a-59fe-788a-9877-8bef6d0c2cfc","type_id":"0193731a-59fe-788a-9877-8bef6d0c2cfc","type":"kyc","slug":"personal-information","name":"Personal Information"},{"id":"01933d40-03e5-777c-a6e6-bf72eb1c8968","type_id":"01933d40-03e5-777c-a6e6-bf72eb1c8968","type":"verification","slug":"bvn","name":"BVN"},{"id":"019318f9-c895-744d-8f65-4636cc26dd1f","type_id":"019318f9-c895-744d-8f65-4636cc26dd1f","type":"verification","slug":"liveness","name":"Image liveness check"}]}},{"id":"0192f830-de29-7aa1-bdc7-2b10e00b482d","meta":{"gender":"male","business-name":"Armstrong - Ratke"},"created_on":"2024-11-04T17:20:05.160Z","created_by_id":null,"modified_on":"2025-01-09T07:18:23.680Z","modified_by_id":null,"deleted_on":null,"deleted_by_id":null,"tenant_id":"00000000-0000-0000-0000-000000000000","name":"wunmi","type":"personal","status":"active","review":null,"allowed_time_periods":null,"primary_user_id":"01925343-fbc8-7886-abfb-41c8746fc8ce","tier_id":"01928f2d-6756-755b-8a9d-c8094db2af27","primary_user":{"id":"01925343-fbc8-7886-abfb-41c8746fc8ce","meta":null,"created_on":"2024-10-03T16:43:37.286Z","created_by_id":null,"modified_on":"2025-01-23T14:32:30.984Z","modified_by_id":"01925343-fbc8-7886-abfb-41c8746fc8ce","deleted_on":null,"deleted_by_id":null,"tenant_id":"00000000-0000-0000-0000-000000000000","email":"darehorla@gmail.com","status":"active","first_name":"Sodiq","last_name":"Dare","twofa_enabled":false,"last_active":"2025-01-23T14:32:30.982Z","last_ip":"172.70.86.57","allowed_ips":null,"last_timezone":"Europe/London","last_location":"London","phone":"+2348149583662","review":null,"gender":"male","date_of_birth":"2002-05-28","cba_id":null,"photo_id":null,"referral_code":"27HJX1","allowed_locations":null,"referred_by":null},"tier":{"id":"01928f2d-6756-755b-8a9d-c8094db2af27","meta":null,"created_on":"2024-10-15T07:56:10.789Z","created_by_id":null,"modified_on":"2025-01-23T15:14:24.513Z","modified_by_id":"01927265-4ed2-79cc-a0e6-e11339a359f3","deleted_on":null,"deleted_by_id":null,"tenant_id":"00000000-0000-0000-0000-000000000000","profile_type":"personal","name":"Tier 1","description":"Tier 1","level":1,"enabled":true,"balance_limit":2000000,"single_sending_limit":500000,"single_receiving_limit":500000,"period_sending_limit":500000,"period_sending_limit_time_unit":"day","period_receiving_limit":500000,"period_receiving_limit_time_unit":"day","requirements":[{"id":"0193731a-59fe-788a-9877-8bef6d0c2cfc","type_id":"0193731a-59fe-788a-9877-8bef6d0c2cfc","type":"kyc","slug":"personal-information","name":"Personal Information"},{"id":"01933d40-03e5-777c-a6e6-bf72eb1c8968","type_id":"01933d40-03e5-777c-a6e6-bf72eb1c8968","type":"verification","slug":"bvn","name":"BVN"},{"id":"019318f9-c895-744d-8f65-4636cc26dd1f","type_id":"019318f9-c895-744d-8f65-4636cc26dd1f","type":"verification","slug":"liveness","name":"Image liveness check"}]}},{"id":"019308ee-9025-7cca-a550-970e8dd19d5e","meta":{"fields":{"name":"Habeeb","gender":"male","id-type":"National ID card","business-email":"hab@gmail.com","business-phone":"1231211211","business-types":"Sole Proprietorship","business-address":"Address"},"gender":"","id-type":"National ID card","id_type":"","last_name":"Micheal","profileId":"019308ee-9025-7cca-a550-970e8dd19d5e","first_name":"Olamide","phone_number":"07084385638","business-email":"hab@gmail.com","business-phone":"1231211211","business-types":"Sole Proprietorship","business_email":"","business_phone":"","business_types":"","business-address":"Address","business_address":""},"created_on":"2024-11-07T23:21:12.410Z","created_by_id":null,"modified_on":"2024-11-25T22:11:00.186Z","modified_by_id":null,"deleted_on":null,"deleted_by_id":null,"tenant_id":"00000000-0000-0000-0000-000000000000","name":"","type":"personal","status":"active","review":null,"allowed_time_periods":null,"primary_user_id":"019301e0-bdfb-7449-9b7f-55ff4ba9d07b","tier_id":"01928f2d-6756-755b-8a9d-c8094db2af27","primary_user":{"id":"019301e0-bdfb-7449-9b7f-55ff4ba9d07b","meta":null,"created_on":"2024-11-06T14:28:46.201Z","created_by_id":null,"modified_on":"2025-01-22T21:41:06.197Z","modified_by_id":"019301e0-bdfb-7449-9b7f-55ff4ba9d07b","deleted_on":null,"deleted_by_id":null,"tenant_id":"00000000-0000-0000-0000-000000000000","email":"habeebshewen@gmail.com","status":"active","first_name":"Olamide","last_name":"Micheal","twofa_enabled":false,"last_active":"2025-01-22T21:41:06.181Z","last_ip":"172.69.79.219","allowed_ips":null,"last_timezone":"Europe/London","last_location":"Manchester","phone":null,"review":null,"gender":"male","date_of_birth":null,"cba_id":null,"photo_id":null,"referral_code":"","allowed_locations":null,"referred_by":null},"tier":{"id":"01928f2d-6756-755b-8a9d-c8094db2af27","meta":null,"created_on":"2024-10-15T07:56:10.789Z","created_by_id":null,"modified_on":"2025-01-23T15:14:24.513Z","modified_by_id":"01927265-4ed2-79cc-a0e6-e11339a359f3","deleted_on":null,"deleted_by_id":null,"tenant_id":"00000000-0000-0000-0000-000000000000","profile_type":"personal","name":"Tier 1","description":"Tier 1","level":1,"enabled":true,"balance_limit":2000000,"single_sending_limit":500000,"single_receiving_limit":500000,"period_sending_limit":500000,"period_sending_limit_time_unit":"day","period_receiving_limit":500000,"period_receiving_limit_time_unit":"day","requirements":[{"id":"0193731a-59fe-788a-9877-8bef6d0c2cfc","type_id":"0193731a-59fe-788a-9877-8bef6d0c2cfc","type":"kyc","slug":"personal-information","name":"Personal Information"},{"id":"01933d40-03e5-777c-a6e6-bf72eb1c8968","type_id":"01933d40-03e5-777c-a6e6-bf72eb1c8968","type":"verification","slug":"bvn","name":"BVN"},{"id":"019318f9-c895-744d-8f65-4636cc26dd1f","type_id":"019318f9-c895-744d-8f65-4636cc26dd1f","type":"verification","slug":"liveness","name":"Image liveness check"}]}},{"id":"01925d39-f9df-7880-ae6f-43ecd2479db5","meta":{"nin":"1234567890","last_name":"Ibrahim","first_name":"Azeez"},"created_on":"2024-10-05T15:08:53.528Z","created_by_id":null,"modified_on":"2024-12-16T16:02:11.314Z","modified_by_id":null,"deleted_on":null,"deleted_by_id":null,"tenant_id":"00000000-0000-0000-0000-000000000000","name":"Azeez-Profile","type":"personal","status":"active","review":"","allowed_time_periods":null,"primary_user_id":"019252dd-ecc7-7447-bcc2-ad23e54a6b90","tier_id":"01928f2d-6756-755b-8a9d-c8094db2af27","primary_user":{"id":"019252dd-ecc7-7447-bcc2-ad23e54a6b90","meta":null,"created_on":"2024-10-03T14:52:08.775Z","created_by_id":null,"modified_on":"2024-11-05T13:31:53.449Z","modified_by_id":null,"deleted_on":null,"deleted_by_id":null,"tenant_id":"00000000-0000-0000-0000-000000000000","email":"Rhett@mailinator.com","status":"active","first_name":"Wunmi","last_name":"Ade","twofa_enabled":false,"last_active":"2024-11-18T13:33:47.068Z","last_ip":null,"allowed_ips":null,"last_timezone":null,"last_location":null,"phone":null,"review":null,"gender":"male","date_of_birth":null,"cba_id":null,"photo_id":null,"referral_code":"","allowed_locations":null,"referred_by":null},"tier":{"id":"01928f2d-6756-755b-8a9d-c8094db2af27","meta":null,"created_on":"2024-10-15T07:56:10.789Z","created_by_id":null,"modified_on":"2025-01-23T15:14:24.513Z","modified_by_id":"01927265-4ed2-79cc-a0e6-e11339a359f3","deleted_on":null,"deleted_by_id":null,"tenant_id":"00000000-0000-0000-0000-000000000000","profile_type":"personal","name":"Tier 1","description":"Tier 1","level":1,"enabled":true,"balance_limit":2000000,"single_sending_limit":500000,"single_receiving_limit":500000,"period_sending_limit":500000,"period_sending_limit_time_unit":"day","period_receiving_limit":500000,"period_receiving_limit_time_unit":"day","requirements":[{"id":"0193731a-59fe-788a-9877-8bef6d0c2cfc","type_id":"0193731a-59fe-788a-9877-8bef6d0c2cfc","type":"kyc","slug":"personal-information","name":"Personal Information"},{"id":"01933d40-03e5-777c-a6e6-bf72eb1c8968","type_id":"01933d40-03e5-777c-a6e6-bf72eb1c8968","type":"verification","slug":"bvn","name":"BVN"},{"id":"019318f9-c895-744d-8f65-4636cc26dd1f","type_id":"019318f9-c895-744d-8f65-4636cc26dd1f","type":"verification","slug":"liveness","name":"Image liveness check"}]}},{"id":"01931920-45c0-744d-8f65-61462b00d07a","meta":{"nin":"1234567890","last_name":"Ibrahim","first_name":"Azeez"},"created_on":"2024-11-11T02:49:25.697Z","created_by_id":null,"modified_on":"2025-01-09T13:31:57.145Z","modified_by_id":null,"deleted_on":null,"deleted_by_id":null,"tenant_id":"00000000-0000-0000-0000-000000000000","name":"Profile","type":"personal","status":"inactive","review":"","allowed_time_periods":null,"primary_user_id":"019261d7-36c3-7cce-a142-bc625de42ba5","tier_id":"01928f2d-6756-755b-8a9d-c8094db2af27","primary_user":{"id":"019261d7-36c3-7cce-a142-bc625de42ba5","meta":null,"created_on":"2024-10-06T12:39:07.203Z","created_by_id":null,"modified_on":"2025-01-05T20:07:52.013Z","modified_by_id":null,"deleted_on":null,"deleted_by_id":null,"tenant_id":"00000000-0000-0000-0000-000000000000","email":"invitedUser1@mailinator.com","status":"active","first_name":"Azeez","last_name":"Invited-User","twofa_enabled":false,"last_active":"2025-01-05T20:07:11.994Z","last_ip":"::ffff:10.0.3.166","allowed_ips":null,"last_timezone":null,"last_location":null,"phone":null,"review":null,"gender":"male","date_of_birth":null,"cba_id":null,"photo_id":null,"referral_code":null,"allowed_locations":null,"referred_by":null},"tier":{"id":"01928f2d-6756-755b-8a9d-c8094db2af27","meta":null,"created_on":"2024-10-15T07:56:10.789Z","created_by_id":null,"modified_on":"2025-01-23T15:14:24.513Z","modified_by_id":"01927265-4ed2-79cc-a0e6-e11339a359f3","deleted_on":null,"deleted_by_id":null,"tenant_id":"00000000-0000-0000-0000-000000000000","profile_type":"personal","name":"Tier 1","description":"Tier 1","level":1,"enabled":true,"balance_limit":2000000,"single_sending_limit":500000,"single_receiving_limit":500000,"period_sending_limit":500000,"period_sending_limit_time_unit":"day","period_receiving_limit":500000,"period_receiving_limit_time_unit":"day","requirements":[{"id":"0193731a-59fe-788a-9877-8bef6d0c2cfc","type_id":"0193731a-59fe-788a-9877-8bef6d0c2cfc","type":"kyc","slug":"personal-information","name":"Personal Information"},{"id":"01933d40-03e5-777c-a6e6-bf72eb1c8968","type_id":"01933d40-03e5-777c-a6e6-bf72eb1c8968","type":"verification","slug":"bvn","name":"BVN"},{"id":"019318f9-c895-744d-8f65-4636cc26dd1f","type_id":"019318f9-c895-744d-8f65-4636cc26dd1f","type":"verification","slug":"liveness","name":"Image liveness check"}]}},{"id":"01925d3a-172c-7880-ae6f-5677776d7c27","meta":{"nin":"1234567890","last_name":"Ibrahim","first_name":"Azeez"},"created_on":"2024-10-05T15:09:01.100Z","created_by_id":null,"modified_on":"2024-12-16T10:14:53.627Z","modified_by_id":null,"deleted_on":null,"deleted_by_id":null,"tenant_id":"00000000-0000-0000-0000-000000000000","name":"Azeez-Profile","type":"personal","status":"active","review":"","allowed_time_periods":null,"primary_user_id":"019252dd-ecc7-7447-bcc2-ad23e54a6b90","tier_id":"01928f2d-6756-755b-8a9d-c8094db2af27","primary_user":{"id":"019252dd-ecc7-7447-bcc2-ad23e54a6b90","meta":null,"created_on":"2024-10-03T14:52:08.775Z","created_by_id":null,"modified_on":"2024-11-05T13:31:53.449Z","modified_by_id":null,"deleted_on":null,"deleted_by_id":null,"tenant_id":"00000000-0000-0000-0000-000000000000","email":"Rhett@mailinator.com","status":"active","first_name":"Wunmi","last_name":"Ade","twofa_enabled":false,"last_active":"2024-11-18T13:33:47.068Z","last_ip":null,"allowed_ips":null,"last_timezone":null,"last_location":null,"phone":null,"review":null,"gender":"male","date_of_birth":null,"cba_id":null,"photo_id":null,"referral_code":"","allowed_locations":null,"referred_by":null},"tier":{"id":"01928f2d-6756-755b-8a9d-c8094db2af27","meta":null,"created_on":"2024-10-15T07:56:10.789Z","created_by_id":null,"modified_on":"2025-01-23T15:14:24.513Z","modified_by_id":"01927265-4ed2-79cc-a0e6-e11339a359f3","deleted_on":null,"deleted_by_id":null,"tenant_id":"00000000-0000-0000-0000-000000000000","profile_type":"personal","name":"Tier 1","description":"Tier 1","level":1,"enabled":true,"balance_limit":2000000,"single_sending_limit":500000,"single_receiving_limit":500000,"period_sending_limit":500000,"period_sending_limit_time_unit":"day","period_receiving_limit":500000,"period_receiving_limit_time_unit":"day","requirements":[{"id":"0193731a-59fe-788a-9877-8bef6d0c2cfc","type_id":"0193731a-59fe-788a-9877-8bef6d0c2cfc","type":"kyc","slug":"personal-information","name":"Personal Information"},{"id":"01933d40-03e5-777c-a6e6-bf72eb1c8968","type_id":"01933d40-03e5-777c-a6e6-bf72eb1c8968","type":"verification","slug":"bvn","name":"BVN"},{"id":"019318f9-c895-744d-8f65-4636cc26dd1f","type_id":"019318f9-c895-744d-8f65-4636cc26dd1f","type":"verification","slug":"liveness","name":"Image liveness check"}]}},{"id":"0193033b-3bf2-7aaf-8ef8-4d17c82a18ee","meta":{"gender":"","id_type":"","last_name":"","first_name":"","phone_number":"07084385638","business_email":"","business_phone":"","business_types":"","identification":"Driver’s License","business_address":""},"created_on":"2024-11-06T20:47:13.907Z","created_by_id":null,"modified_on":"2024-12-19T16:47:48.112Z","modified_by_id":null,"deleted_on":null,"deleted_by_id":null,"tenant_id":"00000000-0000-0000-0000-000000000000","name":"","type":"personal","status":"inactive","review":"","allowed_time_periods":null,"primary_user_id":"019301e0-bdfb-7449-9b7f-55ff4ba9d07b","tier_id":"01928f2d-6756-755b-8a9d-c8094db2af27","primary_user":{"id":"019301e0-bdfb-7449-9b7f-55ff4ba9d07b","meta":null,"created_on":"2024-11-06T14:28:46.201Z","created_by_id":null,"modified_on":"2025-01-22T21:41:06.197Z","modified_by_id":"019301e0-bdfb-7449-9b7f-55ff4ba9d07b","deleted_on":null,"deleted_by_id":null,"tenant_id":"00000000-0000-0000-0000-000000000000","email":"habeebshewen@gmail.com","status":"active","first_name":"Olamide","last_name":"Micheal","twofa_enabled":false,"last_active":"2025-01-22T21:41:06.181Z","last_ip":"172.69.79.219","allowed_ips":null,"last_timezone":"Europe/London","last_location":"Manchester","phone":null,"review":null,"gender":"male","date_of_birth":null,"cba_id":null,"photo_id":null,"referral_code":"","allowed_locations":null,"referred_by":null},"tier":{"id":"01928f2d-6756-755b-8a9d-c8094db2af27","meta":null,"created_on":"2024-10-15T07:56:10.789Z","created_by_id":null,"modified_on":"2025-01-23T15:14:24.513Z","modified_by_id":"01927265-4ed2-79cc-a0e6-e11339a359f3","deleted_on":null,"deleted_by_id":null,"tenant_id":"00000000-0000-0000-0000-000000000000","profile_type":"personal","name":"Tier 1","description":"Tier 1","level":1,"enabled":true,"balance_limit":2000000,"single_sending_limit":500000,"single_receiving_limit":500000,"period_sending_limit":500000,"period_sending_limit_time_unit":"day","period_receiving_limit":500000,"period_receiving_limit_time_unit":"day","requirements":[{"id":"0193731a-59fe-788a-9877-8bef6d0c2cfc","type_id":"0193731a-59fe-788a-9877-8bef6d0c2cfc","type":"kyc","slug":"personal-information","name":"Personal Information"},{"id":"01933d40-03e5-777c-a6e6-bf72eb1c8968","type_id":"01933d40-03e5-777c-a6e6-bf72eb1c8968","type":"verification","slug":"bvn","name":"BVN"},{"id":"019318f9-c895-744d-8f65-4636cc26dd1f","type_id":"019318f9-c895-744d-8f65-4636cc26dd1f","type":"verification","slug":"liveness","name":"Image liveness check"}]}},{"id":"01931947-9fea-744d-8f66-118c138292e3","meta":{"nin":"70123456789","email":"azeez@gmail.com","phone":"07012345678","gender":"Male","last_name":"Ibraheeem","first_name":"Azeeez","business-name":"Reinger Group","identification":"Voter’s Card"},"created_on":"2024-11-11T03:32:24.682Z","created_by_id":null,"modified_on":"2025-01-26T20:08:33.435Z","modified_by_id":"019317a0-b7e5-7eeb-a7eb-bd18cf39a633","deleted_on":null,"deleted_by_id":null,"tenant_id":"00000000-0000-0000-0000-000000000000","name":"Profile","type":"personal","status":"active","review":null,"allowed_time_periods":null,"primary_user_id":"019317a0-b7e5-7eeb-a7eb-bd18cf39a633","tier_id":"019367c1-ab3c-7115-b8f2-680b07e61445","primary_user":{"id":"019317a0-b7e5-7eeb-a7eb-bd18cf39a633","meta":{},"created_on":"2024-11-10T19:50:29.093Z","created_by_id":null,"modified_on":"2025-01-26T20:09:13.328Z","modified_by_id":"019317a0-b7e5-7eeb-a7eb-bd18cf39a633","deleted_on":null,"deleted_by_id":null,"tenant_id":"00000000-0000-0000-0000-000000000000","email":"mikeangel@mailinator.com","status":"active","first_name":"Mike","last_name":"Angelo","twofa_enabled":false,"last_active":"2025-01-26T20:09:11.514Z","last_ip":"172.68.26.184","allowed_ips":null,"last_timezone":"America/Chicago","last_location":"Dallas","phone":"09055755671","review":null,"gender":"male","date_of_birth":null,"cba_id":"19","photo_id":null,"referral_code":"AZVBZI","allowed_locations":null,"referred_by":null},"tier":{"id":"019367c1-ab3c-7115-b8f2-680b07e61445","meta":null,"created_on":"2024-11-26T09:16:05.741Z","created_by_id":null,"modified_on":"2025-01-21T10:57:30.804Z","modified_by_id":"01927265-4ed2-79cc-a0e6-e11339a359f3","deleted_on":null,"deleted_by_id":null,"tenant_id":"00000000-0000-0000-0000-000000000000","profile_type":"personal","name":"Tier 3","description":"Tier 3","level":3,"enabled":true,"balance_limit":5000000,"single_sending_limit":5000000,"single_receiving_limit":5000000,"period_sending_limit":5000000,"period_sending_limit_time_unit":"day","period_receiving_limit":5000000,"period_receiving_limit_time_unit":"day","requirements":[{"id":"01933d2f-aa30-7ddd-a344-aa4e37d9f705","type_id":"01933d2f-aa30-7ddd-a344-aa4e37d9f705","type":"kyc","slug":"employment-information","name":"Employment information"},{"id":"01933d32-3598-7ddd-a344-c31e7532bb1b","type_id":"01933d32-3598-7ddd-a344-c31e7532bb1b","type":"kyc","slug":"pep-status","name":"Confirm your PEP status"},{"id":"019367be-267f-7115-b8f2-5b09dbcebec1","type_id":"019367be-267f-7115-b8f2-5b09dbcebec1","type":"kyc","slug":"address-verification","name":"Address Verification"}]}}],"meta":{"page":1,"total_pages":13,"total_items":126}}