{"status":"success","data":[{"id":"0196262d-34b6-7335-a628-72c30e1a899c","meta":null,"created_on":"2025-04-11T18:46:58.998Z","created_by_id":"019372de-17ef-7cc2-8fc0-43fe11ba042f","modified_on":"2025-04-11T18:46:58.998Z","modified_by_id":null,"deleted_on":null,"deleted_by_id":null,"tenant_id":"00000000-0000-0000-0000-000000000000","name":"Bernhard LLC Business","type":"business","status":"active","restricted":false,"review":null,"allowed_time_periods":null,"allowed_locations":null,"primary_user_id":"019372de-17ef-7cc2-8fc0-43fe11ba042f","tier_id":null,"primary_user":{"id":"019372de-17ef-7cc2-8fc0-43fe11ba042f","meta":{},"created_on":"2024-11-28T13:02:58.029Z","created_by_id":null,"modified_on":"2025-04-11T18:48:06.721Z","modified_by_id":"019372de-17ef-7cc2-8fc0-43fe11ba042f","deleted_on":null,"deleted_by_id":null,"tenant_id":"00000000-0000-0000-0000-000000000000","email":"ismael@mailinator.com","status":"active","first_name":"Sunday","last_name":"Testing","twofa_enabled":false,"last_active":"2025-04-11T18:48:00.507Z","last_ip":"20.39.61.198","allowed_ips":null,"last_timezone":"America/New_York","last_location":"Tappahannock","phone":"+2348089722636","review":null,"gender":"male","date_of_birth":null,"cba_id":"31","photo_id":null,"referral_code":"7LD1QN","referred_by":null,"has_pin":false,"has_password":false},"tier":null},{"id":"01961be0-7e06-7aa9-8b93-74233fc4f2eb","meta":null,"created_on":"2025-04-09T18:46:59.328Z","created_by_id":"0195d26a-2323-711c-8833-9e3f99ed4f85","modified_on":"2025-04-09T18:46:59.328Z","modified_by_id":null,"deleted_on":null,"deleted_by_id":null,"tenant_id":"00000000-0000-0000-0000-000000000000","name":"Mayert, Gerhold and Rippin Business","type":"business","status":"active","restricted":false,"review":null,"allowed_time_periods":null,"allowed_locations":null,"primary_user_id":"0195d26a-2323-711c-8833-9e3f99ed4f85","tier_id":null,"primary_user":{"id":"0195d26a-2323-711c-8833-9e3f99ed4f85","meta":null,"created_on":"2025-03-26T12:25:26.050Z","created_by_id":null,"modified_on":"2025-04-09T18:47:43.847Z","modified_by_id":"0195d26a-2323-711c-8833-9e3f99ed4f85","deleted_on":null,"deleted_by_id":null,"tenant_id":"00000000-0000-0000-0000-000000000000","email":"boom@mailinator.com","status":"active","first_name":"Ibrahim","last_name":"Azeez","twofa_enabled":false,"last_active":"2025-04-09T18:46:59.319Z","last_ip":"20.171.120.131","allowed_ips":null,"last_timezone":"America/Phoenix","last_location":"Phoenix","phone":"+2349058893837","review":null,"gender":"male","date_of_birth":"2001-06-16","cba_id":"140","photo_id":"0195d26a-e0b1-711c-8834-089bb7f9010d","referral_code":"PJ5R4O","referred_by":null,"has_pin":false,"has_password":false},"tier":null},{"id":"01961bde-52a3-7aa9-8b8f-264d6ea12248","meta":null,"created_on":"2025-04-09T18:44:37.155Z","created_by_id":"019372de-17ef-7cc2-8fc0-43fe11ba042f","modified_on":"2025-04-09T18:44:37.155Z","modified_by_id":null,"deleted_on":null,"deleted_by_id":null,"tenant_id":"00000000-0000-0000-0000-000000000000","name":"Rosenbaum, Johnston and Langosh Business","type":"business","status":"active","restricted":false,"review":null,"allowed_time_periods":null,"allowed_locations":null,"primary_user_id":"019372de-17ef-7cc2-8fc0-43fe11ba042f","tier_id":null,"primary_user":{"id":"019372de-17ef-7cc2-8fc0-43fe11ba042f","meta":{},"created_on":"2024-11-28T13:02:58.029Z","created_by_id":null,"modified_on":"2025-04-11T18:48:06.721Z","modified_by_id":"019372de-17ef-7cc2-8fc0-43fe11ba042f","deleted_on":null,"deleted_by_id":null,"tenant_id":"00000000-0000-0000-0000-000000000000","email":"ismael@mailinator.com","status":"active","first_name":"Sunday","last_name":"Testing","twofa_enabled":false,"last_active":"2025-04-11T18:48:00.507Z","last_ip":"20.39.61.198","allowed_ips":null,"last_timezone":"America/New_York","last_location":"Tappahannock","phone":"+2348089722636","review":null,"gender":"male","date_of_birth":null,"cba_id":"31","photo_id":null,"referral_code":"7LD1QN","referred_by":null,"has_pin":false,"has_password":false},"tier":null},{"id":"01961b11-4f44-7aa9-8b8b-25836d6aae17","meta":null,"created_on":"2025-04-09T15:00:41.414Z","created_by_id":"019372de-17ef-7cc2-8fc0-43fe11ba042f","modified_on":"2025-04-09T15:00:41.414Z","modified_by_id":null,"deleted_on":null,"deleted_by_id":null,"tenant_id":"00000000-0000-0000-0000-000000000000","name":"Ledner LLC Business","type":"business","status":"active","restricted":false,"review":null,"allowed_time_periods":null,"allowed_locations":null,"primary_user_id":"019372de-17ef-7cc2-8fc0-43fe11ba042f","tier_id":null,"primary_user":{"id":"019372de-17ef-7cc2-8fc0-43fe11ba042f","meta":{},"created_on":"2024-11-28T13:02:58.029Z","created_by_id":null,"modified_on":"2025-04-11T18:48:06.721Z","modified_by_id":"019372de-17ef-7cc2-8fc0-43fe11ba042f","deleted_on":null,"deleted_by_id":null,"tenant_id":"00000000-0000-0000-0000-000000000000","email":"ismael@mailinator.com","status":"active","first_name":"Sunday","last_name":"Testing","twofa_enabled":false,"last_active":"2025-04-11T18:48:00.507Z","last_ip":"20.39.61.198","allowed_ips":null,"last_timezone":"America/New_York","last_location":"Tappahannock","phone":"+2348089722636","review":null,"gender":"male","date_of_birth":null,"cba_id":"31","photo_id":null,"referral_code":"7LD1QN","referred_by":null,"has_pin":false,"has_password":false},"tier":null},{"id":"01960e58-bf95-7993-88f3-aae114acd99a","meta":null,"created_on":"2025-04-07T03:43:39.412Z","created_by_id":"019372de-17ef-7cc2-8fc0-43fe11ba042f","modified_on":"2025-04-07T03:43:39.412Z","modified_by_id":null,"deleted_on":null,"deleted_by_id":null,"tenant_id":"00000000-0000-0000-0000-000000000000","name":"McGlynn - Borer Business","type":"business","status":"active","restricted":false,"review":null,"allowed_time_periods":null,"allowed_locations":null,"primary_user_id":"019372de-17ef-7cc2-8fc0-43fe11ba042f","tier_id":null,"primary_user":{"id":"019372de-17ef-7cc2-8fc0-43fe11ba042f","meta":{},"created_on":"2024-11-28T13:02:58.029Z","created_by_id":null,"modified_on":"2025-04-11T18:48:06.721Z","modified_by_id":"019372de-17ef-7cc2-8fc0-43fe11ba042f","deleted_on":null,"deleted_by_id":null,"tenant_id":"00000000-0000-0000-0000-000000000000","email":"ismael@mailinator.com","status":"active","first_name":"Sunday","last_name":"Testing","twofa_enabled":false,"last_active":"2025-04-11T18:48:00.507Z","last_ip":"20.39.61.198","allowed_ips":null,"last_timezone":"America/New_York","last_location":"Tappahannock","phone":"+2348089722636","review":null,"gender":"male","date_of_birth":null,"cba_id":"31","photo_id":null,"referral_code":"7LD1QN","referred_by":null,"has_pin":false,"has_password":false},"tier":null},{"id":"01960cc5-68ac-7993-88ec-c301c481d379","meta":null,"created_on":"2025-04-06T20:23:06.155Z","created_by_id":"019372de-17ef-7cc2-8fc0-43fe11ba042f","modified_on":"2025-04-06T20:23:06.155Z","modified_by_id":null,"deleted_on":null,"deleted_by_id":null,"tenant_id":"00000000-0000-0000-0000-000000000000","name":"Kautzer, Prohaska and Hegmann Business","type":"business","status":"active","restricted":false,"review":null,"allowed_time_periods":null,"allowed_locations":null,"primary_user_id":"019372de-17ef-7cc2-8fc0-43fe11ba042f","tier_id":null,"primary_user":{"id":"019372de-17ef-7cc2-8fc0-43fe11ba042f","meta":{},"created_on":"2024-11-28T13:02:58.029Z","created_by_id":null,"modified_on":"2025-04-11T18:48:06.721Z","modified_by_id":"019372de-17ef-7cc2-8fc0-43fe11ba042f","deleted_on":null,"deleted_by_id":null,"tenant_id":"00000000-0000-0000-0000-000000000000","email":"ismael@mailinator.com","status":"active","first_name":"Sunday","last_name":"Testing","twofa_enabled":false,"last_active":"2025-04-11T18:48:00.507Z","last_ip":"20.39.61.198","allowed_ips":null,"last_timezone":"America/New_York","last_location":"Tappahannock","phone":"+2348089722636","review":null,"gender":"male","date_of_birth":null,"cba_id":"31","photo_id":null,"referral_code":"7LD1QN","referred_by":null,"has_pin":false,"has_password":false},"tier":null},{"id":"01960cb8-e88a-7993-88eb-1a169d6f2632","meta":null,"created_on":"2025-04-06T20:09:26.921Z","created_by_id":"0195d26a-2323-711c-8833-9e3f99ed4f85","modified_on":"2025-04-06T20:09:26.921Z","modified_by_id":null,"deleted_on":null,"deleted_by_id":null,"tenant_id":"00000000-0000-0000-0000-000000000000","name":"Beer, Lesch and Dicki Business","type":"business","status":"active","restricted":false,"review":null,"allowed_time_periods":null,"allowed_locations":null,"primary_user_id":"0195d26a-2323-711c-8833-9e3f99ed4f85","tier_id":null,"primary_user":{"id":"0195d26a-2323-711c-8833-9e3f99ed4f85","meta":null,"created_on":"2025-03-26T12:25:26.050Z","created_by_id":null,"modified_on":"2025-04-09T18:47:43.847Z","modified_by_id":"0195d26a-2323-711c-8833-9e3f99ed4f85","deleted_on":null,"deleted_by_id":null,"tenant_id":"00000000-0000-0000-0000-000000000000","email":"boom@mailinator.com","status":"active","first_name":"Ibrahim","last_name":"Azeez","twofa_enabled":false,"last_active":"2025-04-09T18:46:59.319Z","last_ip":"20.171.120.131","allowed_ips":null,"last_timezone":"America/Phoenix","last_location":"Phoenix","phone":"+2349058893837","review":null,"gender":"male","date_of_birth":"2001-06-16","cba_id":"140","photo_id":"0195d26a-e0b1-711c-8834-089bb7f9010d","referral_code":"PJ5R4O","referred_by":null,"has_pin":false,"has_password":false},"tier":null},{"id":"01960220-8d55-7eeb-9127-49fcb58c09ec","meta":null,"created_on":"2025-04-04T18:46:49.940Z","created_by_id":"0195d26a-2323-711c-8833-9e3f99ed4f85","modified_on":"2025-04-04T18:46:49.940Z","modified_by_id":null,"deleted_on":null,"deleted_by_id":null,"tenant_id":"00000000-0000-0000-0000-000000000000","name":"Mayert - Hessel Business","type":"business","status":"active","restricted":false,"review":null,"allowed_time_periods":null,"allowed_locations":null,"primary_user_id":"0195d26a-2323-711c-8833-9e3f99ed4f85","tier_id":null,"primary_user":{"id":"0195d26a-2323-711c-8833-9e3f99ed4f85","meta":null,"created_on":"2025-03-26T12:25:26.050Z","created_by_id":null,"modified_on":"2025-04-09T18:47:43.847Z","modified_by_id":"0195d26a-2323-711c-8833-9e3f99ed4f85","deleted_on":null,"deleted_by_id":null,"tenant_id":"00000000-0000-0000-0000-000000000000","email":"boom@mailinator.com","status":"active","first_name":"Ibrahim","last_name":"Azeez","twofa_enabled":false,"last_active":"2025-04-09T18:46:59.319Z","last_ip":"20.171.120.131","allowed_ips":null,"last_timezone":"America/Phoenix","last_location":"Phoenix","phone":"+2349058893837","review":null,"gender":"male","date_of_birth":"2001-06-16","cba_id":"140","photo_id":"0195d26a-e0b1-711c-8834-089bb7f9010d","referral_code":"PJ5R4O","referred_by":null,"has_pin":false,"has_password":false},"tier":null},{"id":"0196021f-f5bd-7eeb-9125-6cd225cef762","meta":null,"created_on":"2025-04-04T18:46:11.132Z","created_by_id":"019372de-17ef-7cc2-8fc0-43fe11ba042f","modified_on":"2025-04-04T18:46:11.132Z","modified_by_id":null,"deleted_on":null,"deleted_by_id":null,"tenant_id":"00000000-0000-0000-0000-000000000000","name":"McDermott Inc Business","type":"business","status":"active","restricted":false,"review":null,"allowed_time_periods":null,"allowed_locations":null,"primary_user_id":"019372de-17ef-7cc2-8fc0-43fe11ba042f","tier_id":null,"primary_user":{"id":"019372de-17ef-7cc2-8fc0-43fe11ba042f","meta":{},"created_on":"2024-11-28T13:02:58.029Z","created_by_id":null,"modified_on":"2025-04-11T18:48:06.721Z","modified_by_id":"019372de-17ef-7cc2-8fc0-43fe11ba042f","deleted_on":null,"deleted_by_id":null,"tenant_id":"00000000-0000-0000-0000-000000000000","email":"ismael@mailinator.com","status":"active","first_name":"Sunday","last_name":"Testing","twofa_enabled":false,"last_active":"2025-04-11T18:48:00.507Z","last_ip":"20.39.61.198","allowed_ips":null,"last_timezone":"America/New_York","last_location":"Tappahannock","phone":"+2348089722636","review":null,"gender":"male","date_of_birth":null,"cba_id":"31","photo_id":null,"referral_code":"7LD1QN","referred_by":null,"has_pin":false,"has_password":false},"tier":null},{"id":"0195fc85-8e82-7887-ab37-99e227af12ec","meta":{"rc-number":"0000000","business-name":"Neem","business-email":"hi@neem.co","business-phone":"+2349055755613","business-types":"Sole Proprietorship","business-address":"LAGOS, NIGERIA, LAGOS, Ibeju-Lekki, LAGOS"},"created_on":"2025-04-03T16:39:26.084Z","created_by_id":"0195fc84-c556-7887-ab37-850d7747490f","modified_on":"2025-04-05T11:24:22.059Z","modified_by_id":"0193d109-a926-7446-abe5-7dafe8b742bd","deleted_on":null,"deleted_by_id":null,"tenant_id":"00000000-0000-0000-0000-000000000000","name":"","type":"business","status":"active","restricted":false,"review":"some\nsome","allowed_time_periods":null,"allowed_locations":null,"primary_user_id":"0195fc84-c556-7887-ab37-850d7747490f","tier_id":null,"primary_user":{"id":"0195fc84-c556-7887-ab37-850d7747490f","meta":null,"created_on":"2025-04-03T16:38:34.584Z","created_by_id":null,"modified_on":"2025-04-03T16:42:58.226Z","modified_by_id":"0195fc84-c556-7887-ab37-850d7747490f","deleted_on":null,"deleted_by_id":null,"tenant_id":"00000000-0000-0000-0000-000000000000","email":"baller@mailinator.com","status":"active","first_name":"Azeez","last_name":"Ibrahim","twofa_enabled":false,"last_active":"2025-04-03T16:42:58.224Z","last_ip":"162.158.23.200","allowed_ips":null,"last_timezone":"Europe/Paris","last_location":"Marseille","phone":"+2349066233261","review":null,"gender":null,"date_of_birth":null,"cba_id":null,"photo_id":null,"referral_code":"54LUM7","referred_by":null,"has_pin":false,"has_password":false},"tier":null}],"meta":{"page":1,"total_pages":21,"total_items":206}}