{"status":"success","data":[{"id":"01946b46-caf2-7440-81b5-967ceaeea374","created_on":"2025-01-15T18:43:09.169Z","first_name":"Gregoria","last_name":"Sipes","email":"Kira@mailinator.com","phone":null,"last_active":"2025-01-15T18:43:09.169Z","userProfile":{"id":"01946b46-cbb4-7440-81b5-9a9f79bc6fcf","status":"active","role_id":"019435d4-2106-7aa1-b636-29de80b54443","role":{"name":"Rustic Soft Gloves","slug":"rustic-soft-gloves"}}},{"id":"01946808-7023-777b-9e0c-2de1732fd3a5","created_on":"2025-01-15T03:36:11.043Z","first_name":"Cornelius","last_name":"Ferry","email":"Klein@mailinator.com","phone":null,"last_active":"2025-01-15T03:36:11.043Z","userProfile":{"id":"01946808-702b-777b-9e0c-36d7e3825b42","status":"active","role_id":"019435d3-5e27-7aa1-b636-0e6113f9564e","role":{"name":"Handmade Rubber Mouse","slug":"handmade-rubber-mouse"}}},{"id":"019464e3-2002-777b-9e06-612144a03c1d","created_on":"2025-01-14T12:56:34.050Z","first_name":null,"last_name":null,"email":"test@gmail.com","phone":null,"last_active":"2025-01-14T12:56:34.050Z","userProfile":{"id":"019464e3-2008-777b-9e06-6917fe285cd9","status":"pending","role_id":"019435d4-2106-7aa1-b636-29de80b54443","role":{"name":"Rustic Soft Gloves","slug":"rustic-soft-gloves"}}},{"id":"01944c40-1132-777f-a935-bb601297864f","created_on":"2025-01-09T18:07:34.707Z","first_name":null,"last_name":null,"email":"jothn@gmail.com","phone":null,"last_active":"2025-01-09T18:07:34.707Z","userProfile":{"id":"01944c40-1137-777f-a935-c693302fa239","status":"pending","role_id":"019435d1-53b8-7aa1-b635-dec5a3f048ff","role":{"name":"Generic Wooden Ball","slug":"generic-wooden-ball"}}},{"id":"01944bbd-b959-777f-a932-3f9b08b0197f","created_on":"2025-01-09T15:45:12.537Z","first_name":null,"last_name":null,"email":"mike@mailinator.com","phone":null,"last_active":"2025-01-09T15:45:12.537Z","userProfile":{"id":"01944bbd-b961-777f-a932-44593139b25b","status":"pending","role_id":"019435d1-02dd-7aa1-b635-ce8df84783c8","role":{"name":"Sleek Soft Pizza","slug":"sleek-soft-pizza"}}},{"id":"01944bbd-1bfe-777f-a932-2b036ebda4a6","created_on":"2025-01-09T15:44:32.254Z","first_name":null,"last_name":null,"email":"azeez@mailinator.com","phone":null,"last_active":"2025-01-09T15:44:32.254Z","userProfile":{"id":"01944bbd-1c03-777f-a932-356ceb3eb15f","status":"pending","role_id":"019435d1-02dd-7aa1-b635-ce8df84783c8","role":{"name":"Sleek Soft Pizza","slug":"sleek-soft-pizza"}}},{"id":"01944a80-f3cb-7881-990d-98798437f1f3","created_on":"2025-01-09T09:59:12.588Z","first_name":"Haven","last_name":"Mitchell","email":"calista@mailinator.com","phone":null,"last_active":"2025-01-13T11:35:33.782Z","userProfile":{"id":"01944a80-f3d1-7881-990d-a4d23f1656fe","status":"active","role_id":"01926788-1eaf-7336-86de-89316b9797d9","role":{"name":"Initiator","slug":"initiator"}}},{"id":"019442b6-ec7e-788e-b499-e1295489e89e","created_on":"2025-01-07T21:41:11.934Z","first_name":null,"last_name":null,"email":"Tani@mailinator.com","phone":null,"last_active":"2025-01-07T21:41:11.934Z","userProfile":{"id":"019442b6-ec82-788e-b499-ea45a18acec8","status":"pending","role_id":"019435d1-53b8-7aa1-b635-dec5a3f048ff","role":{"name":"Generic Wooden Ball","slug":"generic-wooden-ball"}}},{"id":"01943b41-f4ca-722f-821b-30a276bebb7f","created_on":"2025-01-06T10:56:05.835Z","first_name":"jayne","last_name":"ade","email":"janet@assurdly.com","phone":"+23408160247584","last_active":"2025-01-09T14:12:53.684Z","userProfile":{"id":"019464c9-2f09-777b-9e05-d5aabe61fd5d","status":"pending","role_id":"019435d3-5e27-7aa1-b636-0e6113f9564e","role":{"name":"Handmade Rubber Mouse","slug":"handmade-rubber-mouse"}}},{"id":"019438bd-d51e-7aa1-9609-028439fe0fcf","created_on":"2025-01-05T23:12:32.542Z","first_name":"Cleveland","last_name":"Runolfsdottir","email":"Easter@mailinator.com","phone":null,"last_active":"2025-01-05T23:12:32.542Z","userProfile":{"id":"019438bd-d522-7aa1-9609-0a3516f0747f","status":"active","role_id":"019435cb-8e7d-7aa1-b635-ad7f79da04bf","role":{"name":"Intelligent Rubber Computer","slug":"intelligent-rubber-computer"}}}],"meta":{"page":1,"total_pages":2,"total_items":18}}