{"status":"success","data":[{"id":"01945e1a-90b9-7554-958e-a0d67742db14","meta":null,"created_on":"2025-01-13T05:19:46.873Z","created_by":null,"modified_on":"2025-01-13T05:19:46.873Z","modified_by":null,"deleted_on":null,"deleted_by":null,"tenant_id":"00000000-0000-0000-0000-000000000000","profile_id":"0193a649-e3d0-7881-8b7f-2ef1d89a9aff","status":"pending","command":"PayBillPaymentCommand","command_data":{"categoryId":"epin","billerId":"waec","data":{"account_number":"1102003467","amount":1800,"option_id":"1800","pin":"1234","account_id":"0193a699-2f15-7881-8b7f-ae50980bcfad"}},"maker_id":"01944a80-f3cb-7881-990d-98798437f1f3","made_on":"2025-01-13T05:19:46.872Z","checker_id":null,"checked_on":null,"maker_checker_id":"0193df18-702c-7ddc-9298-482c857161b9","reason":null},{"id":"01945e1a-8c0a-7554-958e-9ab507a4e0ba","meta":null,"created_on":"2025-01-13T05:19:45.674Z","created_by":null,"modified_on":"2025-01-13T05:19:45.674Z","modified_by":null,"deleted_on":null,"deleted_by":null,"tenant_id":"00000000-0000-0000-0000-000000000000","profile_id":"0193a649-e3d0-7881-8b7f-2ef1d89a9aff","status":"pending","command":"PayBillPaymentCommand","command_data":{"categoryId":"electricity","billerId":"abuja_electric_postpaid","data":{"account_number":"07034953306","amount":2300,"pin":"1234","account_id":"0193a699-2f15-7881-8b7f-ae50980bcfad"}},"maker_id":"01944a80-f3cb-7881-990d-98798437f1f3","made_on":"2025-01-13T05:19:45.673Z","checker_id":null,"checked_on":null,"maker_checker_id":"0193df18-702c-7ddc-9298-482c857161b9","reason":null},{"id":"01945e1a-8115-7554-958e-928bab9e66bc","meta":null,"created_on":"2025-01-13T05:19:42.797Z","created_by":null,"modified_on":"2025-01-13T05:19:42.797Z","modified_by":null,"deleted_on":null,"deleted_by":null,"tenant_id":"00000000-0000-0000-0000-000000000000","profile_id":"0193a649-e3d0-7881-8b7f-2ef1d89a9aff","status":"pending","command":"PayBillPaymentCommand","command_data":{"categoryId":"cabletv","billerId":"startimes","data":{"account_number":"1102003467","amount":90,"option_id":"novaday","pin":"1234","account_id":"019390f5-db96-7335-b5bb-74eac1376a9c"}},"maker_id":"01944a80-f3cb-7881-990d-98798437f1f3","made_on":"2025-01-13T05:19:42.796Z","checker_id":null,"checked_on":null,"maker_checker_id":"0193df18-702c-7ddc-9298-482c857161b9","reason":null},{"id":"01945e1a-762a-7554-958e-891101d524e2","meta":null,"created_on":"2025-01-13T05:19:40.075Z","created_by":null,"modified_on":"2025-01-13T05:19:40.075Z","modified_by":null,"deleted_on":null,"deleted_by":null,"tenant_id":"00000000-0000-0000-0000-000000000000","profile_id":"0193a649-e3d0-7881-8b7f-2ef1d89a9aff","status":"pending","command":"PayBillPaymentCommand","command_data":{"categoryId":"cabletv","billerId":"gotv","data":{"account_number":"1102003467","amount":900,"option_id":"GOHAN","pin":"1234","account_id":"0193a699-2f15-7881-8b7f-ae50980bcfad"}},"maker_id":"01944a80-f3cb-7881-990d-98798437f1f3","made_on":"2025-01-13T05:19:40.072Z","checker_id":null,"checked_on":null,"maker_checker_id":"0193df18-702c-7ddc-9298-482c857161b9","reason":null},{"id":"01945e1a-6ad5-7554-958e-834ccbc21072","meta":null,"created_on":"2025-01-13T05:19:37.174Z","created_by":null,"modified_on":"2025-01-13T05:19:37.174Z","modified_by":null,"deleted_on":null,"deleted_by":null,"tenant_id":"00000000-0000-0000-0000-000000000000","profile_id":"0193a649-e3d0-7881-8b7f-2ef1d89a9aff","status":"pending","command":"PayBillPaymentCommand","command_data":{"categoryId":"cabletv","billerId":"dstv","data":{"account_number":"1102003467","amount":5300,"option_id":"NLTESE36","pin":"1234","account_id":"0193a699-2f15-7881-8b7f-ae50980bcfad","account_name":"Test Name"}},"maker_id":"01944a80-f3cb-7881-990d-98798437f1f3","made_on":"2025-01-13T05:19:37.173Z","checker_id":null,"checked_on":null,"maker_checker_id":"0193df18-702c-7ddc-9298-482c857161b9","reason":null},{"id":"01945e1a-6884-7554-958e-7b1c4f4fbf5c","meta":null,"created_on":"2025-01-13T05:19:36.579Z","created_by":null,"modified_on":"2025-01-13T05:19:36.579Z","modified_by":null,"deleted_on":null,"deleted_by":null,"tenant_id":"00000000-0000-0000-0000-000000000000","profile_id":"0193a649-e3d0-7881-8b7f-2ef1d89a9aff","status":"pending","command":"PayBillPaymentCommand","command_data":{"categoryId":"databundle","billerId":"smile","data":{"account_number":"11020034671","amount":1800,"option_id":"101","pin":"1234","account_id":"0193a699-2f15-7881-8b7f-ae50980bcfad"}},"maker_id":"01944a80-f3cb-7881-990d-98798437f1f3","made_on":"2025-01-13T05:19:36.578Z","checker_id":null,"checked_on":null,"maker_checker_id":"0193df18-702c-7ddc-9298-482c857161b9","reason":null},{"id":"01945e1a-662d-7554-958e-739b25fe707b","meta":null,"created_on":"2025-01-13T05:19:35.981Z","created_by":null,"modified_on":"2025-01-13T05:19:35.981Z","modified_by":null,"deleted_on":null,"deleted_by":null,"tenant_id":"00000000-0000-0000-0000-000000000000","profile_id":"0193a649-e3d0-7881-8b7f-2ef1d89a9aff","status":"pending","command":"PayBillPaymentCommand","command_data":{"categoryId":"databundle","billerId":"9mobile","data":{"account_number":"11020034671","amount":200,"option_id":"200","pin":"1234","account_id":"0193a699-2f15-7881-8b7f-ae50980bcfad"}},"maker_id":"01944a80-f3cb-7881-990d-98798437f1f3","made_on":"2025-01-13T05:19:35.980Z","checker_id":null,"checked_on":null,"maker_checker_id":"0193df18-702c-7ddc-9298-482c857161b9","reason":null},{"id":"01945e1a-63cb-7554-958e-696e2080302d","meta":null,"created_on":"2025-01-13T05:19:35.372Z","created_by":null,"modified_on":"2025-01-13T05:19:35.372Z","modified_by":null,"deleted_on":null,"deleted_by":null,"tenant_id":"00000000-0000-0000-0000-000000000000","profile_id":"0193a649-e3d0-7881-8b7f-2ef1d89a9aff","status":"pending","command":"PayBillPaymentCommand","command_data":{"categoryId":"databundle","billerId":"airtel","data":{"account_number":"11020034671","amount":50,"option_id":"49.99","pin":"1234","account_id":"0193a699-2f15-7881-8b7f-ae50980bcfad"}},"maker_id":"01944a80-f3cb-7881-990d-98798437f1f3","made_on":"2025-01-13T05:19:35.370Z","checker_id":null,"checked_on":null,"maker_checker_id":"0193df18-702c-7ddc-9298-482c857161b9","reason":null},{"id":"01945e1a-5cca-7554-958e-631c8f826912","meta":null,"created_on":"2025-01-13T05:19:33.579Z","created_by":null,"modified_on":"2025-01-13T05:19:33.579Z","modified_by":null,"deleted_on":null,"deleted_by":null,"tenant_id":"00000000-0000-0000-0000-000000000000","profile_id":"0193a649-e3d0-7881-8b7f-2ef1d89a9aff","status":"pending","command":"PayBillPaymentCommand","command_data":{"categoryId":"databundle","billerId":"mtn","data":{"account_number":"11020034671","amount":100,"option_id":"100","pin":"1234","account_id":"0193a699-2f15-7881-8b7f-ae50980bcfad"}},"maker_id":"01944a80-f3cb-7881-990d-98798437f1f3","made_on":"2025-01-13T05:19:33.578Z","checker_id":null,"checked_on":null,"maker_checker_id":"0193df18-702c-7ddc-9298-482c857161b9","reason":null},{"id":"01945e1a-5a6d-7554-958e-5d7a112b3d05","meta":null,"created_on":"2025-01-13T05:19:32.973Z","created_by":null,"modified_on":"2025-01-13T05:19:32.973Z","modified_by":null,"deleted_on":null,"deleted_by":null,"tenant_id":"00000000-0000-0000-0000-000000000000","profile_id":"0193a649-e3d0-7881-8b7f-2ef1d89a9aff","status":"pending","command":"PayBillPaymentCommand","command_data":{"categoryId":"airtime","billerId":"smile","data":{"account_number":"1102003467","amount":100,"pin":"1234","account_id":"0193a699-2f15-7881-8b7f-ae50980bcfad"}},"maker_id":"01944a80-f3cb-7881-990d-98798437f1f3","made_on":"2025-01-13T05:19:32.972Z","checker_id":null,"checked_on":null,"maker_checker_id":"0193df18-702c-7ddc-9298-482c857161b9","reason":null}],"meta":{"page":1,"total_pages":2,"total_items":18}}