{"status":"success","data":[{"id":"019469a6-7032-777b-9e0f-b353ecfe2401","meta":{"category_id":"cabletv","account_number":"234&6789199","option_id":"nova","biller_id":"startimes","pin":"1234","account_name":"Danny"},"created_on":"2025-01-15T11:08:22.962Z","created_by":"019372de-17ef-7cc2-8fc0-43fe11ba042f","modified_on":"2025-01-15T11:23:22.472Z","modified_by":null,"deleted_on":null,"deleted_by":null,"tenant_id":"00000000-0000-0000-0000-000000000000","frequency":"once","type":"bill-payment","start_date":"2025-01-16T00:00:00.000Z","next_run_date":"2025-01-16T00:00:00.000Z","end_date":"2025-03-31T00:00:00.000Z","status":"inactive","amount":"900.00","profile_id":"0193a649-e3d0-7881-8b7f-2ef1d89a9aff","account_id":"0193a699-2f15-7881-8b7f-ae50980bcfad","user":{"id":"019372de-17ef-7cc2-8fc0-43fe11ba042f","meta":null,"created_on":"2024-11-28T13:02:58.029Z","created_by":null,"modified_on":"2025-01-15T18:43:03.378Z","modified_by":null,"deleted_on":null,"deleted_by":null,"tenant_id":"00000000-0000-0000-0000-000000000000","first_name":"Sunday","last_name":"Testing","email":"Ismael@mailinator.com","phone":"+2349055755671","status":"active","review":null,"gender":"male","date_of_birth":null,"cba_id":"31","photo_id":null,"referral_code":"7LD1QN","password":"$2b$10$wHYj9T3b39N/ONpl6OgtG.PgVvXda5CqyY0UaznkoDo7fUntAwpda","pin":"$2b$10$kvIE3Gx0KBuPhysn3z.4COEKINtMWOVbW8lY2k.nCHqZH9teFQHEy","twofa_secret":"LNOTMVBSMNEXMO2AIUSDCT2ELJWGWYZZ","refresh_token":"03139aa2d2a654caad84ad9025e1546c388992fcdd8e3ac6efa3cd23e8df31d1","twofa_enabled":false,"last_active":"2025-01-15T18:42:52.261Z","last_ip":"172.70.42.146","allowed_ips":null,"last_timezone":"America/Chicago","last_location":"","allowed_locations":null,"referred_by":null}},{"id":"01946997-5d40-777b-9e0f-68abcbab3ee2","meta":{"category_id":"airtime","account_number":"08160247584","biller_id":"mtn","pin":"1234"},"created_on":"2025-01-15T10:51:55.072Z","created_by":"019372de-17ef-7cc2-8fc0-43fe11ba042f","modified_on":"2025-01-15T11:24:48.544Z","modified_by":null,"deleted_on":null,"deleted_by":null,"tenant_id":"00000000-0000-0000-0000-000000000000","frequency":"weekly","type":"bill-payment","start_date":"2025-01-20T12:24:00.000Z","next_run_date":"2025-01-20T12:24:00.000Z","end_date":"2025-04-22T12:24:00.000Z","status":"active","amount":"500.00","profile_id":"0193a649-e3d0-7881-8b7f-2ef1d89a9aff","account_id":"0193a699-2f15-7881-8b7f-ae50980bcfad","user":{"id":"019372de-17ef-7cc2-8fc0-43fe11ba042f","meta":null,"created_on":"2024-11-28T13:02:58.029Z","created_by":null,"modified_on":"2025-01-15T18:43:03.378Z","modified_by":null,"deleted_on":null,"deleted_by":null,"tenant_id":"00000000-0000-0000-0000-000000000000","first_name":"Sunday","last_name":"Testing","email":"Ismael@mailinator.com","phone":"+2349055755671","status":"active","review":null,"gender":"male","date_of_birth":null,"cba_id":"31","photo_id":null,"referral_code":"7LD1QN","password":"$2b$10$wHYj9T3b39N/ONpl6OgtG.PgVvXda5CqyY0UaznkoDo7fUntAwpda","pin":"$2b$10$kvIE3Gx0KBuPhysn3z.4COEKINtMWOVbW8lY2k.nCHqZH9teFQHEy","twofa_secret":"LNOTMVBSMNEXMO2AIUSDCT2ELJWGWYZZ","refresh_token":"03139aa2d2a654caad84ad9025e1546c388992fcdd8e3ac6efa3cd23e8df31d1","twofa_enabled":false,"last_active":"2025-01-15T18:42:52.261Z","last_ip":"172.70.42.146","allowed_ips":null,"last_timezone":"America/Chicago","last_location":"","allowed_locations":null,"referred_by":null}},{"id":"019464a3-9319-7447-abf9-290c57bbf7eb","meta":{"category_id":"airtime","account_number":"09055855632","biller_id":"airtel","pin":"1234"},"created_on":"2025-01-14T11:47:09.209Z","created_by":"019372de-17ef-7cc2-8fc0-43fe11ba042f","modified_on":"2025-01-14T11:48:17.806Z","modified_by":null,"deleted_on":null,"deleted_by":null,"tenant_id":"00000000-0000-0000-0000-000000000000","frequency":"daily","type":"bill-payment","start_date":"2025-01-15T00:00:00.000Z","next_run_date":"2025-01-15T00:00:00.000Z","end_date":"2025-01-21T00:00:00.000Z","status":"inactive","amount":"500.00","profile_id":"0193a649-e3d0-7881-8b7f-2ef1d89a9aff","account_id":"0193a699-2f15-7881-8b7f-ae50980bcfad","user":{"id":"019372de-17ef-7cc2-8fc0-43fe11ba042f","meta":null,"created_on":"2024-11-28T13:02:58.029Z","created_by":null,"modified_on":"2025-01-15T18:43:03.378Z","modified_by":null,"deleted_on":null,"deleted_by":null,"tenant_id":"00000000-0000-0000-0000-000000000000","first_name":"Sunday","last_name":"Testing","email":"Ismael@mailinator.com","phone":"+2349055755671","status":"active","review":null,"gender":"male","date_of_birth":null,"cba_id":"31","photo_id":null,"referral_code":"7LD1QN","password":"$2b$10$wHYj9T3b39N/ONpl6OgtG.PgVvXda5CqyY0UaznkoDo7fUntAwpda","pin":"$2b$10$kvIE3Gx0KBuPhysn3z.4COEKINtMWOVbW8lY2k.nCHqZH9teFQHEy","twofa_secret":"LNOTMVBSMNEXMO2AIUSDCT2ELJWGWYZZ","refresh_token":"03139aa2d2a654caad84ad9025e1546c388992fcdd8e3ac6efa3cd23e8df31d1","twofa_enabled":false,"last_active":"2025-01-15T18:42:52.261Z","last_ip":"172.70.42.146","allowed_ips":null,"last_timezone":"America/Chicago","last_location":"","allowed_locations":null,"referred_by":null}},{"id":"01945269-a130-7aa0-b317-b61fce9b0a7e","meta":{"category_id":"airtime","account_number":"09030253741","biller_id":"smile","pin":"1234"},"created_on":"2025-01-10T22:50:41.840Z","created_by":"01944a80-f3cb-7881-990d-98798437f1f3","modified_on":"2025-01-10T22:50:41.840Z","modified_by":null,"deleted_on":null,"deleted_by":null,"tenant_id":"00000000-0000-0000-0000-000000000000","frequency":"daily","type":"bill-payment","start_date":"2025-01-11T00:00:00.000Z","next_run_date":"2025-01-11T00:00:00.000Z","end_date":"2025-01-13T00:00:00.000Z","status":"active","amount":"500.00","profile_id":"0193a649-e3d0-7881-8b7f-2ef1d89a9aff","account_id":"0193a699-2f15-7881-8b7f-ae50980bcfad","user":{"id":"01944a80-f3cb-7881-990d-98798437f1f3","meta":null,"created_on":"2025-01-09T09:59:12.588Z","created_by":null,"modified_on":"2025-01-13T11:35:33.785Z","modified_by":null,"deleted_on":null,"deleted_by":null,"tenant_id":"00000000-0000-0000-0000-000000000000","first_name":"Haven","last_name":"Mitchell","email":"calista@mailinator.com","phone":null,"status":"active","review":null,"gender":null,"date_of_birth":null,"cba_id":null,"photo_id":null,"referral_code":null,"password":"$2b$10$ciABZXdc.dEiGGpTEBnM8.TGGqgTJX5sNh.H7wjpPHXw/0oMrWK7C","pin":"$2b$10$Bxr1n3WZaR22qRZTeXe82.sxzCYSbnzCuqzsyjfB2GaiU//tDIclm","twofa_secret":"ENDCK3RXPU4T4TTGMFRT4T3OOMYDQMRM","refresh_token":"82b16aa67013625f5629be3c6ba8afa498e6c6b2acc5a22e83312be48fcd431e","twofa_enabled":false,"last_active":"2025-01-13T11:35:33.782Z","last_ip":"172.71.102.149","allowed_ips":null,"last_timezone":"Europe/Amsterdam","last_location":"Amsterdam","allowed_locations":null,"referred_by":null}},{"id":"01945211-43f5-7ff5-a664-3440817f1d86","meta":{"category_id":"databundle","account_number":"09065507422","option_id":"220","biller_id":"mtn","pin":"1234"},"created_on":"2025-01-10T21:14:10.804Z","created_by":"019372de-17ef-7cc2-8fc0-43fe11ba042f","modified_on":"2025-01-10T21:14:10.804Z","modified_by":null,"deleted_on":null,"deleted_by":null,"tenant_id":"00000000-0000-0000-0000-000000000000","frequency":"daily","type":"bill-payment","start_date":"2025-01-11T00:00:00.000Z","next_run_date":"2025-01-11T00:00:00.000Z","end_date":"2025-01-17T00:00:00.000Z","status":"active","amount":"220.00","profile_id":"0193a649-e3d0-7881-8b7f-2ef1d89a9aff","account_id":"0193a699-2f15-7881-8b7f-ae50980bcfad","user":{"id":"019372de-17ef-7cc2-8fc0-43fe11ba042f","meta":null,"created_on":"2024-11-28T13:02:58.029Z","created_by":null,"modified_on":"2025-01-15T18:43:03.378Z","modified_by":null,"deleted_on":null,"deleted_by":null,"tenant_id":"00000000-0000-0000-0000-000000000000","first_name":"Sunday","last_name":"Testing","email":"Ismael@mailinator.com","phone":"+2349055755671","status":"active","review":null,"gender":"male","date_of_birth":null,"cba_id":"31","photo_id":null,"referral_code":"7LD1QN","password":"$2b$10$wHYj9T3b39N/ONpl6OgtG.PgVvXda5CqyY0UaznkoDo7fUntAwpda","pin":"$2b$10$kvIE3Gx0KBuPhysn3z.4COEKINtMWOVbW8lY2k.nCHqZH9teFQHEy","twofa_secret":"LNOTMVBSMNEXMO2AIUSDCT2ELJWGWYZZ","refresh_token":"03139aa2d2a654caad84ad9025e1546c388992fcdd8e3ac6efa3cd23e8df31d1","twofa_enabled":false,"last_active":"2025-01-15T18:42:52.261Z","last_ip":"172.70.42.146","allowed_ips":null,"last_timezone":"America/Chicago","last_location":"","allowed_locations":null,"referred_by":null}},{"id":"01945181-ce77-7ff5-a662-1428a2fd69c0","meta":{"category_id":"airtime","option_id":"","biller_id":"mtn","pin":"1234","account_number":"09055755671"},"created_on":"2025-01-10T18:37:29.079Z","created_by":"019372de-17ef-7cc2-8fc0-43fe11ba042f","modified_on":"2025-01-10T18:37:29.079Z","modified_by":null,"deleted_on":null,"deleted_by":null,"tenant_id":"00000000-0000-0000-0000-000000000000","frequency":"daily","type":"bill-payment","start_date":"2025-01-10T21:00:00.000Z","next_run_date":"2025-01-10T21:00:00.000Z","end_date":"2025-01-20T21:00:00.000Z","status":"active","amount":"100.23","profile_id":"0193a649-e3d0-7881-8b7f-2ef1d89a9aff","account_id":"0193e462-3285-7ff7-a93e-42b71063a119","user":{"id":"019372de-17ef-7cc2-8fc0-43fe11ba042f","meta":null,"created_on":"2024-11-28T13:02:58.029Z","created_by":null,"modified_on":"2025-01-15T18:43:03.378Z","modified_by":null,"deleted_on":null,"deleted_by":null,"tenant_id":"00000000-0000-0000-0000-000000000000","first_name":"Sunday","last_name":"Testing","email":"Ismael@mailinator.com","phone":"+2349055755671","status":"active","review":null,"gender":"male","date_of_birth":null,"cba_id":"31","photo_id":null,"referral_code":"7LD1QN","password":"$2b$10$wHYj9T3b39N/ONpl6OgtG.PgVvXda5CqyY0UaznkoDo7fUntAwpda","pin":"$2b$10$kvIE3Gx0KBuPhysn3z.4COEKINtMWOVbW8lY2k.nCHqZH9teFQHEy","twofa_secret":"LNOTMVBSMNEXMO2AIUSDCT2ELJWGWYZZ","refresh_token":"03139aa2d2a654caad84ad9025e1546c388992fcdd8e3ac6efa3cd23e8df31d1","twofa_enabled":false,"last_active":"2025-01-15T18:42:52.261Z","last_ip":"172.70.42.146","allowed_ips":null,"last_timezone":"America/Chicago","last_location":"","allowed_locations":null,"referred_by":null}},{"id":"01945181-cb00-7ff5-a662-0dbada8369fc","meta":{"recipients":[{"account_number":"1780004070","bank_code":"999998","bank_name":"vee test","account_name":"Ake Mobolaji & Temabo","narration":"Sodiq"}]},"created_on":"2025-01-10T18:37:28.192Z","created_by":"019372de-17ef-7cc2-8fc0-43fe11ba042f","modified_on":"2025-01-10T18:37:28.478Z","modified_by":null,"deleted_on":null,"deleted_by":null,"tenant_id":"00000000-0000-0000-0000-000000000000","frequency":"daily","type":"transfer","start_date":"2025-01-10T00:00:00.000Z","next_run_date":"2025-01-11T00:00:00.000Z","end_date":"2025-01-20T00:00:00.000Z","status":"active","amount":"50.23","profile_id":"0193a649-e3d0-7881-8b7f-2ef1d89a9aff","account_id":"0193e462-3285-7ff7-a93e-42b71063a119","user":{"id":"019372de-17ef-7cc2-8fc0-43fe11ba042f","meta":null,"created_on":"2024-11-28T13:02:58.029Z","created_by":null,"modified_on":"2025-01-15T18:43:03.378Z","modified_by":null,"deleted_on":null,"deleted_by":null,"tenant_id":"00000000-0000-0000-0000-000000000000","first_name":"Sunday","last_name":"Testing","email":"Ismael@mailinator.com","phone":"+2349055755671","status":"active","review":null,"gender":"male","date_of_birth":null,"cba_id":"31","photo_id":null,"referral_code":"7LD1QN","password":"$2b$10$wHYj9T3b39N/ONpl6OgtG.PgVvXda5CqyY0UaznkoDo7fUntAwpda","pin":"$2b$10$kvIE3Gx0KBuPhysn3z.4COEKINtMWOVbW8lY2k.nCHqZH9teFQHEy","twofa_secret":"LNOTMVBSMNEXMO2AIUSDCT2ELJWGWYZZ","refresh_token":"03139aa2d2a654caad84ad9025e1546c388992fcdd8e3ac6efa3cd23e8df31d1","twofa_enabled":false,"last_active":"2025-01-15T18:42:52.261Z","last_ip":"172.70.42.146","allowed_ips":null,"last_timezone":"America/Chicago","last_location":"","allowed_locations":null,"referred_by":null}},{"id":"01945116-02c3-7ff5-a65e-867be7613e12","meta":{"category_id":"electricity","account_number":"33233212343","biller_id":"abuja_electric_postpaid","pin":"1234"},"created_on":"2025-01-10T16:39:44.579Z","created_by":"019372de-17ef-7cc2-8fc0-43fe11ba042f","modified_on":"2025-01-13T18:07:46.420Z","modified_by":null,"deleted_on":null,"deleted_by":null,"tenant_id":"00000000-0000-0000-0000-000000000000","frequency":"daily","type":"bill-payment","start_date":"2025-01-17T00:00:00.000Z","next_run_date":"2025-01-17T00:00:00.000Z","end_date":"2025-01-22T00:00:00.000Z","status":"inactive","amount":"5000.00","profile_id":"0193a649-e3d0-7881-8b7f-2ef1d89a9aff","account_id":"0193a699-2f15-7881-8b7f-ae50980bcfad","user":{"id":"019372de-17ef-7cc2-8fc0-43fe11ba042f","meta":null,"created_on":"2024-11-28T13:02:58.029Z","created_by":null,"modified_on":"2025-01-15T18:43:03.378Z","modified_by":null,"deleted_on":null,"deleted_by":null,"tenant_id":"00000000-0000-0000-0000-000000000000","first_name":"Sunday","last_name":"Testing","email":"Ismael@mailinator.com","phone":"+2349055755671","status":"active","review":null,"gender":"male","date_of_birth":null,"cba_id":"31","photo_id":null,"referral_code":"7LD1QN","password":"$2b$10$wHYj9T3b39N/ONpl6OgtG.PgVvXda5CqyY0UaznkoDo7fUntAwpda","pin":"$2b$10$kvIE3Gx0KBuPhysn3z.4COEKINtMWOVbW8lY2k.nCHqZH9teFQHEy","twofa_secret":"LNOTMVBSMNEXMO2AIUSDCT2ELJWGWYZZ","refresh_token":"03139aa2d2a654caad84ad9025e1546c388992fcdd8e3ac6efa3cd23e8df31d1","twofa_enabled":false,"last_active":"2025-01-15T18:42:52.261Z","last_ip":"172.70.42.146","allowed_ips":null,"last_timezone":"America/Chicago","last_location":"","allowed_locations":null,"referred_by":null}},{"id":"01944f58-8493-7771-a7f2-0db7556c3ca8","meta":{"category_id":"electricity","account_number":"22822422312","biller_id":"abuja_electric_postpaid","pin":"1234"},"created_on":"2025-01-10T08:33:08.755Z","created_by":"019372de-17ef-7cc2-8fc0-43fe11ba042f","modified_on":"2025-01-10T22:12:26.715Z","modified_by":null,"deleted_on":null,"deleted_by":null,"tenant_id":"00000000-0000-0000-0000-000000000000","frequency":"daily","type":"bill-payment","start_date":"2025-01-11T00:00:00.000Z","next_run_date":"2025-01-11T00:00:00.000Z","end_date":"2025-01-15T00:00:00.000Z","status":"cancelled","amount":"1000000.00","profile_id":"0193a649-e3d0-7881-8b7f-2ef1d89a9aff","account_id":"0193a699-2f15-7881-8b7f-ae50980bcfad","user":{"id":"019372de-17ef-7cc2-8fc0-43fe11ba042f","meta":null,"created_on":"2024-11-28T13:02:58.029Z","created_by":null,"modified_on":"2025-01-15T18:43:03.378Z","modified_by":null,"deleted_on":null,"deleted_by":null,"tenant_id":"00000000-0000-0000-0000-000000000000","first_name":"Sunday","last_name":"Testing","email":"Ismael@mailinator.com","phone":"+2349055755671","status":"active","review":null,"gender":"male","date_of_birth":null,"cba_id":"31","photo_id":null,"referral_code":"7LD1QN","password":"$2b$10$wHYj9T3b39N/ONpl6OgtG.PgVvXda5CqyY0UaznkoDo7fUntAwpda","pin":"$2b$10$kvIE3Gx0KBuPhysn3z.4COEKINtMWOVbW8lY2k.nCHqZH9teFQHEy","twofa_secret":"LNOTMVBSMNEXMO2AIUSDCT2ELJWGWYZZ","refresh_token":"03139aa2d2a654caad84ad9025e1546c388992fcdd8e3ac6efa3cd23e8df31d1","twofa_enabled":false,"last_active":"2025-01-15T18:42:52.261Z","last_ip":"172.70.42.146","allowed_ips":null,"last_timezone":"America/Chicago","last_location":"","allowed_locations":null,"referred_by":null}},{"id":"01944bbb-f894-777f-a932-114e74591aad","meta":{"category_id":"cabletv","account_number":"22822822313","option_id":"PRWFRNSE36","biller_id":"dstv","pin":"1234","account_name":"Sten Mockett"},"created_on":"2025-01-09T15:43:17.651Z","created_by":"019372de-17ef-7cc2-8fc0-43fe11ba042f","modified_on":"2025-01-13T16:34:31.982Z","modified_by":null,"deleted_on":null,"deleted_by":null,"tenant_id":"00000000-0000-0000-0000-000000000000","frequency":"daily","type":"bill-payment","start_date":"2025-01-27T17:34:00.000Z","next_run_date":"2025-01-27T17:34:00.000Z","end_date":"2025-02-28T17:34:00.000Z","status":"active","amount":"29300.00","profile_id":"0193a649-e3d0-7881-8b7f-2ef1d89a9aff","account_id":"0193a699-2f15-7881-8b7f-ae50980bcfad","user":{"id":"019372de-17ef-7cc2-8fc0-43fe11ba042f","meta":null,"created_on":"2024-11-28T13:02:58.029Z","created_by":null,"modified_on":"2025-01-15T18:43:03.378Z","modified_by":null,"deleted_on":null,"deleted_by":null,"tenant_id":"00000000-0000-0000-0000-000000000000","first_name":"Sunday","last_name":"Testing","email":"Ismael@mailinator.com","phone":"+2349055755671","status":"active","review":null,"gender":"male","date_of_birth":null,"cba_id":"31","photo_id":null,"referral_code":"7LD1QN","password":"$2b$10$wHYj9T3b39N/ONpl6OgtG.PgVvXda5CqyY0UaznkoDo7fUntAwpda","pin":"$2b$10$kvIE3Gx0KBuPhysn3z.4COEKINtMWOVbW8lY2k.nCHqZH9teFQHEy","twofa_secret":"LNOTMVBSMNEXMO2AIUSDCT2ELJWGWYZZ","refresh_token":"03139aa2d2a654caad84ad9025e1546c388992fcdd8e3ac6efa3cd23e8df31d1","twofa_enabled":false,"last_active":"2025-01-15T18:42:52.261Z","last_ip":"172.70.42.146","allowed_ips":null,"last_timezone":"America/Chicago","last_location":"","allowed_locations":null,"referred_by":null}}],"meta":{"page":1,"total_pages":6,"total_items":57}}