{"status":"success","data":[{"id":"0194daed-2b03-733a-b687-929de088ba01","meta":null,"created_on":"2025-02-06T11:02:43.715Z","created_by_id":"0194daec-e8fe-733a-b687-8516caa204d0","modified_on":"2025-02-06T11:02:43.715Z","modified_by_id":null,"deleted_on":null,"deleted_by_id":null,"tenant_id":"00000000-0000-0000-0000-000000000000","name":"Zedikiah Lee","type":"personal","status":"active","review":null,"allowed_time_periods":null,"primary_user_id":"0194daec-e8fe-733a-b687-8516caa204d0","tier_id":null,"primary_user":{"id":"0194daec-e8fe-733a-b687-8516caa204d0","meta":null,"created_on":"2025-02-06T11:02:26.814Z","created_by_id":null,"modified_on":"2025-02-07T17:35:30.640Z","modified_by_id":"0194daec-e8fe-733a-b687-8516caa204d0","deleted_on":null,"deleted_by_id":null,"tenant_id":"00000000-0000-0000-0000-000000000000","email":"zedcd1-in@yopmail.com","status":"active","first_name":"Zedikiah","last_name":"Lee","twofa_enabled":false,"last_active":"2025-02-07T17:35:30.638Z","last_ip":"172.71.182.155","allowed_ips":null,"last_timezone":"Europe/Amsterdam","last_location":"Amsterdam","phone":"+2349015660262","review":null,"gender":null,"date_of_birth":null,"cba_id":null,"photo_id":null,"referral_code":"K5CI2W","allowed_locations":null,"referred_by":null},"tier":null},{"id":"0194dae7-8502-733a-b687-63a9990ca43b","meta":null,"created_on":"2025-02-06T10:56:33.537Z","created_by_id":"0194dae6-a7ee-733a-b687-1174d0f9352d","modified_on":"2025-02-06T10:56:33.537Z","modified_by_id":null,"deleted_on":null,"deleted_by_id":null,"tenant_id":"00000000-0000-0000-0000-000000000000","name":"Quitzon Marques","type":"personal","status":"active","review":null,"allowed_time_periods":null,"primary_user_id":"0194dae6-a7ee-733a-b687-1174d0f9352d","tier_id":null,"primary_user":{"id":"0194dae6-a7ee-733a-b687-1174d0f9352d","meta":{},"created_on":"2025-02-06T10:55:36.942Z","created_by_id":null,"modified_on":"2025-02-07T17:42:10.448Z","modified_by_id":"0194dae6-a7ee-733a-b687-1174d0f9352d","deleted_on":null,"deleted_by_id":null,"tenant_id":"00000000-0000-0000-0000-000000000000","email":"Jennings@mailinator.com","status":"active","first_name":"Quitzon","last_name":"Marques","twofa_enabled":false,"last_active":"2025-02-07T17:42:10.447Z","last_ip":"172.69.194.61","allowed_ips":null,"last_timezone":"Europe/London","last_location":"London","phone":"+2349067034564","review":null,"gender":null,"date_of_birth":null,"cba_id":null,"photo_id":null,"referral_code":"U2R0WJ","allowed_locations":null,"referred_by":"019372de-17ef-7cc2-8fc0-43fe11ba042f"},"tier":null},{"id":"0194d24e-b28b-7bb6-b3fa-744f5cb3d8fb","meta":null,"created_on":"2025-02-04T18:52:40.459Z","created_by_id":"0194d24e-7879-7bb6-b3fa-2548c7ebf5aa","modified_on":"2025-02-04T18:52:40.459Z","modified_by_id":null,"deleted_on":null,"deleted_by_id":null,"tenant_id":"00000000-0000-0000-0000-000000000000","name":"Fred Brown","type":"personal","status":"active","review":null,"allowed_time_periods":null,"primary_user_id":"0194d24e-7879-7bb6-b3fa-2548c7ebf5aa","tier_id":null,"primary_user":{"id":"0194d24e-7879-7bb6-b3fa-2548c7ebf5aa","meta":null,"created_on":"2025-02-04T18:52:25.594Z","created_by_id":null,"modified_on":"2025-02-05T18:24:48.627Z","modified_by_id":"0194d24e-7879-7bb6-b3fa-2548c7ebf5aa","deleted_on":null,"deleted_by_id":null,"tenant_id":"00000000-0000-0000-0000-000000000000","email":"slon@yopmail.com","status":"active","first_name":"Fred","last_name":"Brown","twofa_enabled":false,"last_active":"2025-02-05T18:24:48.626Z","last_ip":"172.69.195.179","allowed_ips":null,"last_timezone":"Europe/London","last_location":"London","phone":"+2348123478855","review":null,"gender":null,"date_of_birth":null,"cba_id":null,"photo_id":null,"referral_code":"8N4224","allowed_locations":null,"referred_by":"019372de-17ef-7cc2-8fc0-43fe11ba042f"},"tier":null},{"id":"0194d13c-f7fa-7332-8df6-c93ee35355cf","meta":null,"created_on":"2025-02-04T13:53:41.370Z","created_by_id":"0194d13c-d402-7332-8df6-bd96c967e462","modified_on":"2025-02-04T13:53:41.370Z","modified_by_id":null,"deleted_on":null,"deleted_by_id":null,"tenant_id":"00000000-0000-0000-0000-000000000000","name":"Ibrahim Azeez","type":"personal","status":"active","review":null,"allowed_time_periods":null,"primary_user_id":"0194d13c-d402-7332-8df6-bd96c967e462","tier_id":null,"primary_user":{"id":"0194d13c-d402-7332-8df6-bd96c967e462","meta":null,"created_on":"2025-02-04T13:53:32.163Z","created_by_id":null,"modified_on":"2025-02-04T17:04:07.887Z","modified_by_id":"0194d13c-d402-7332-8df6-bd96c967e462","deleted_on":null,"deleted_by_id":null,"tenant_id":"00000000-0000-0000-0000-000000000000","email":"check@mailinator.com","status":"active","first_name":"Ibrahim","last_name":"Azeez","twofa_enabled":false,"last_active":"2025-02-04T17:04:07.885Z","last_ip":"172.68.42.183","allowed_ips":null,"last_timezone":"Africa/Johannesburg","last_location":"Johannesburg","phone":"+23407055755671","review":null,"gender":null,"date_of_birth":null,"cba_id":null,"photo_id":null,"referral_code":"7OHXY2","allowed_locations":null,"referred_by":null},"tier":null},{"id":"0194cd06-ce94-7aa6-acd2-9d2f23e2b3ef","meta":null,"created_on":"2025-02-03T18:16:02.963Z","created_by_id":"0194cd05-321a-7aa6-acd2-021731e6ddfd","modified_on":"2025-02-03T18:29:36.445Z","modified_by_id":"0194cd05-321a-7aa6-acd2-021731e6ddfd","deleted_on":null,"deleted_by_id":null,"tenant_id":"00000000-0000-0000-0000-000000000000","name":"Bogisich Janelle","type":"personal","status":"active","review":null,"allowed_time_periods":null,"primary_user_id":"0194cd05-321a-7aa6-acd2-021731e6ddfd","tier_id":"01928f2d-6756-755b-8a9d-c8094db2af27","primary_user":{"id":"0194cd05-321a-7aa6-acd2-021731e6ddfd","meta":null,"created_on":"2025-02-03T18:14:17.370Z","created_by_id":null,"modified_on":"2025-02-03T18:39:02.195Z","modified_by_id":"0194cd05-321a-7aa6-acd2-021731e6ddfd","deleted_on":null,"deleted_by_id":null,"tenant_id":"00000000-0000-0000-0000-000000000000","email":"Madisyn@mailinator.com","status":"active","first_name":"Bogisich","last_name":"Janelle","twofa_enabled":false,"last_active":"2025-02-03T18:39:02.194Z","last_ip":"172.68.42.205","allowed_ips":null,"last_timezone":"Africa/Johannesburg","last_location":"Johannesburg","phone":null,"review":null,"gender":null,"date_of_birth":null,"cba_id":null,"photo_id":null,"referral_code":"8RZALA","allowed_locations":null,"referred_by":"019372de-17ef-7cc2-8fc0-43fe11ba042f"},"tier":{"id":"01928f2d-6756-755b-8a9d-c8094db2af27","meta":null,"created_on":"2024-10-15T07:56:10.789Z","created_by_id":null,"modified_on":"2025-01-23T15:14:24.513Z","modified_by_id":"01927265-4ed2-79cc-a0e6-e11339a359f3","deleted_on":null,"deleted_by_id":null,"tenant_id":"00000000-0000-0000-0000-000000000000","profile_type":"personal","name":"Tier 1","description":"Tier 1","level":1,"enabled":true,"balance_limit":2000000,"single_sending_limit":500000,"single_receiving_limit":500000,"period_sending_limit":500000,"period_sending_limit_time_unit":"day","period_receiving_limit":500000,"period_receiving_limit_time_unit":"day","requirements":[{"id":"0193731a-59fe-788a-9877-8bef6d0c2cfc","type_id":"0193731a-59fe-788a-9877-8bef6d0c2cfc","type":"kyc","slug":"personal-information","name":"Personal Information","description":"Provide other personal information (gender, country) and verify your phone number and email address."},{"id":"01933d40-03e5-777c-a6e6-bf72eb1c8968","type_id":"01933d40-03e5-777c-a6e6-bf72eb1c8968","type":"verification","slug":"bvn","name":"BVN","description":"BVN"},{"id":"019318f9-c895-744d-8f65-4636cc26dd1f","type_id":"019318f9-c895-744d-8f65-4636cc26dd1f","type":"verification","slug":"liveness","name":"Image liveness check","description":"This step helps us verify your identity by matching your image with the credentials you’ve provided."}]}},{"id":"0194a803-de8e-7dd7-aad1-f133eabe15b0","meta":null,"created_on":"2025-01-27T13:46:53.454Z","created_by_id":"0194a803-ac74-7dd7-aad1-e03a5a71aaaf","modified_on":"2025-01-29T12:41:30.282Z","modified_by_id":"01927265-4ed2-79cc-a0e6-e11339a359f3","deleted_on":null,"deleted_by_id":null,"tenant_id":"00000000-0000-0000-0000-000000000000","name":"Fuan Brown","type":"personal","status":"active","review":"","allowed_time_periods":null,"primary_user_id":"0194a803-ac74-7dd7-aad1-e03a5a71aaaf","tier_id":"01928f2d-6756-755b-8a9d-c8094db2af27","primary_user":{"id":"0194a803-ac74-7dd7-aad1-e03a5a71aaaf","meta":null,"created_on":"2025-01-27T13:46:40.627Z","created_by_id":null,"modified_on":"2025-01-27T14:34:06.649Z","modified_by_id":"0194a803-ac74-7dd7-aad1-e03a5a71aaaf","deleted_on":null,"deleted_by_id":null,"tenant_id":"00000000-0000-0000-0000-000000000000","email":"brown@mailinator.com","status":"active","first_name":"Fuan","last_name":"Brown","twofa_enabled":false,"last_active":"2025-01-27T14:34:06.641Z","last_ip":"172.70.162.110","allowed_ips":null,"last_timezone":"Europe/London","last_location":"London","phone":"+2348123478877","review":null,"gender":null,"date_of_birth":null,"cba_id":null,"photo_id":null,"referral_code":"V03FNM","allowed_locations":null,"referred_by":null},"tier":{"id":"01928f2d-6756-755b-8a9d-c8094db2af27","meta":null,"created_on":"2024-10-15T07:56:10.789Z","created_by_id":null,"modified_on":"2025-01-23T15:14:24.513Z","modified_by_id":"01927265-4ed2-79cc-a0e6-e11339a359f3","deleted_on":null,"deleted_by_id":null,"tenant_id":"00000000-0000-0000-0000-000000000000","profile_type":"personal","name":"Tier 1","description":"Tier 1","level":1,"enabled":true,"balance_limit":2000000,"single_sending_limit":500000,"single_receiving_limit":500000,"period_sending_limit":500000,"period_sending_limit_time_unit":"day","period_receiving_limit":500000,"period_receiving_limit_time_unit":"day","requirements":[{"id":"0193731a-59fe-788a-9877-8bef6d0c2cfc","type_id":"0193731a-59fe-788a-9877-8bef6d0c2cfc","type":"kyc","slug":"personal-information","name":"Personal Information","description":"Provide other personal information (gender, country) and verify your phone number and email address."},{"id":"01933d40-03e5-777c-a6e6-bf72eb1c8968","type_id":"01933d40-03e5-777c-a6e6-bf72eb1c8968","type":"verification","slug":"bvn","name":"BVN","description":"BVN"},{"id":"019318f9-c895-744d-8f65-4636cc26dd1f","type_id":"019318f9-c895-744d-8f65-4636cc26dd1f","type":"verification","slug":"liveness","name":"Image liveness check","description":"This step helps us verify your identity by matching your image with the credentials you’ve provided."}]}},{"id":"01948f7c-9369-7cc6-93de-917e67f20682","meta":null,"created_on":"2025-01-22T19:28:13.670Z","created_by_id":"01948f7c-64fb-7cc6-93de-83282fa131be","modified_on":"2025-01-22T19:28:13.670Z","modified_by_id":null,"deleted_on":null,"deleted_by_id":null,"tenant_id":"00000000-0000-0000-0000-000000000000","name":"Ibrahim Azeez","type":"personal","status":"active","review":null,"allowed_time_periods":null,"primary_user_id":"01948f7c-64fb-7cc6-93de-83282fa131be","tier_id":null,"primary_user":{"id":"01948f7c-64fb-7cc6-93de-83282fa131be","meta":null,"created_on":"2025-01-22T19:28:01.786Z","created_by_id":null,"modified_on":"2025-01-22T19:32:41.728Z","modified_by_id":"01948f7c-64fb-7cc6-93de-83282fa131be","deleted_on":null,"deleted_by_id":null,"tenant_id":"00000000-0000-0000-0000-000000000000","email":"azeez+57@assurdly.com","status":"active","first_name":"Ibrahim","last_name":"Azeez","twofa_enabled":false,"last_active":"2025-01-22T19:32:41.727Z","last_ip":"172.69.195.134","allowed_ips":null,"last_timezone":"Europe/London","last_location":"London","phone":"+23409055745671","review":null,"gender":null,"date_of_birth":null,"cba_id":null,"photo_id":null,"referral_code":"T23XJR","allowed_locations":null,"referred_by":null},"tier":null},{"id":"01948de6-b23d-7227-9742-1acc4ca96139","meta":null,"created_on":"2025-01-22T12:04:53.949Z","created_by_id":"0194779e-0699-722d-b130-8816d366e2fc","modified_on":"2025-01-22T12:04:53.949Z","modified_by_id":null,"deleted_on":null,"deleted_by_id":null,"tenant_id":"00000000-0000-0000-0000-000000000000","name":"Destiny Erhabor","type":"personal","status":"active","review":null,"allowed_time_periods":null,"primary_user_id":"0194779e-0699-722d-b130-8816d366e2fc","tier_id":null,"primary_user":{"id":"0194779e-0699-722d-b130-8816d366e2fc","meta":null,"created_on":"2025-01-18T04:13:52.665Z","created_by_id":"019372de-17ef-7cc2-8fc0-43fe11ba042f","modified_on":"2025-01-29T16:06:04.032Z","modified_by_id":"0194779e-0699-722d-b130-8816d366e2fc","deleted_on":null,"deleted_by_id":null,"tenant_id":"00000000-0000-0000-0000-000000000000","email":"destinyerhabor6@gmail.com","status":"active","first_name":"Destiny","last_name":"Erhabor","twofa_enabled":false,"last_active":"2025-01-29T16:06:04.029Z","last_ip":"172.69.43.187","allowed_ips":null,"last_timezone":"Europe/London","last_location":"London","phone":null,"review":null,"gender":null,"date_of_birth":null,"cba_id":null,"photo_id":null,"referral_code":null,"allowed_locations":null,"referred_by":null},"tier":null},{"id":"01948dbf-e0b3-7227-9740-beb8f31fda2e","meta":null,"created_on":"2025-01-22T11:22:29.936Z","created_by_id":"01948dbf-d640-7227-9740-ac054d4b5b70","modified_on":"2025-01-22T11:22:29.936Z","modified_by_id":null,"deleted_on":null,"deleted_by_id":null,"tenant_id":"00000000-0000-0000-0000-000000000000","name":"Lara Barry","type":"personal","status":"active","review":null,"allowed_time_periods":null,"primary_user_id":"01948dbf-d640-7227-9740-ac054d4b5b70","tier_id":null,"primary_user":{"id":"01948dbf-d640-7227-9740-ac054d4b5b70","meta":null,"created_on":"2025-01-22T11:22:27.263Z","created_by_id":null,"modified_on":"2025-01-22T15:19:40.391Z","modified_by_id":"01948dbf-d640-7227-9740-ac054d4b5b70","deleted_on":null,"deleted_by_id":null,"tenant_id":"00000000-0000-0000-0000-000000000000","email":"Lara@mailinator.com","status":"active","first_name":"Lara","last_name":"Barry","twofa_enabled":false,"last_active":"2025-01-22T15:19:40.302Z","last_ip":"172.70.91.164","allowed_ips":null,"last_timezone":"Europe/London","last_location":"London","phone":"+2348058693556","review":null,"gender":null,"date_of_birth":null,"cba_id":null,"photo_id":null,"referral_code":"CBG4PP","allowed_locations":null,"referred_by":null},"tier":null},{"id":"01948669-e23b-7886-8c7f-8360b509b2d6","meta":null,"created_on":"2025-01-21T01:11:13.719Z","created_by_id":"01948669-cb1c-7886-8c7f-72a5cf65fe6d","modified_on":"2025-01-21T01:11:13.719Z","modified_by_id":null,"deleted_on":null,"deleted_by_id":null,"tenant_id":"00000000-0000-0000-0000-000000000000","name":"Gbemiga Akindeju","type":"personal","status":"active","review":null,"allowed_time_periods":null,"primary_user_id":"01948669-cb1c-7886-8c7f-72a5cf65fe6d","tier_id":null,"primary_user":{"id":"01948669-cb1c-7886-8c7f-72a5cf65fe6d","meta":null,"created_on":"2025-01-21T01:11:07.804Z","created_by_id":null,"modified_on":"2025-01-21T02:32:25.682Z","modified_by_id":"01948669-cb1c-7886-8c7f-72a5cf65fe6d","deleted_on":null,"deleted_by_id":null,"tenant_id":"00000000-0000-0000-0000-000000000000","email":"noyojes785@fanicle.com","status":"active","first_name":"Gbemiga","last_name":"Akindeju","twofa_enabled":false,"last_active":"2025-01-21T02:32:25.669Z","last_ip":"141.101.76.84","allowed_ips":null,"last_timezone":"Europe/Amsterdam","last_location":"Amsterdam","phone":"+2347085284790","review":null,"gender":null,"date_of_birth":null,"cba_id":null,"photo_id":null,"referral_code":"TXZQO3","allowed_locations":null,"referred_by":null},"tier":null}],"meta":{"page":1,"total_pages":14,"total_items":132}}