{"status":"success","data":[{"id":"01960c92-ff77-7004-9277-f23e47cd96e0","meta":{"pin":"1234","amount":10000000000000000,"logo_url":"djdjjde","biller_id":"mtn","option_id":"prepaid","category_id":"airtime","account_name":"djdjjd","account_number":"0000000040","liveness_session_id":""},"created_on":"2025-04-06T19:28:02.457Z","created_by_id":"019372de-17ef-7cc2-8fc0-43fe11ba042f","modified_on":"2025-04-06T19:28:02.457Z","modified_by_id":null,"deleted_on":null,"deleted_by_id":null,"tenant_id":"00000000-0000-0000-0000-000000000000","frequency":"once","type":"bill-payment","start_date":"2025-12-30T21:00:00.000Z","next_run_date":"2025-12-30T21:00:00.000Z","end_date":"2025-12-31T12:00:00.000Z","status":"active","amount":"0.00","profile_id":"0193a649-e3d0-7881-8b7f-2ef1d89a9aff","account_id":"0193a699-2f15-7881-8b7f-ae50980bcfad","user":{"id":"019372de-17ef-7cc2-8fc0-43fe11ba042f","meta":{},"created_on":"2024-11-28T13:02:58.029Z","created_by_id":null,"modified_on":"2025-04-07T03:43:52.927Z","modified_by_id":"019372de-17ef-7cc2-8fc0-43fe11ba042f","deleted_on":null,"deleted_by_id":null,"tenant_id":"00000000-0000-0000-0000-000000000000","email":"ismael@mailinator.com","status":"active","first_name":"Sunday","last_name":"Testing","twofa_enabled":false,"last_active":"2025-04-07T03:43:52.927Z","last_ip":"172.69.17.87","allowed_ips":null,"last_timezone":"Africa/Monrovia","last_location":"Monrovia","phone":"+2348089722636","review":null,"gender":"male","date_of_birth":null,"cba_id":"31","photo_id":null,"referral_code":"7LD1QN","referred_by":null}},{"id":"01960c8d-f709-799d-938c-37efc84bf64d","meta":{"pin":"1234","amount":10000000000000000,"biller_id":"mtn","option_id":"prepaid","category_id":"airtime","account_number":"0000000040","liveness_session_id":""},"created_on":"2025-04-06T19:22:32.612Z","created_by_id":"019372de-17ef-7cc2-8fc0-43fe11ba042f","modified_on":"2025-04-06T19:22:32.612Z","modified_by_id":null,"deleted_on":null,"deleted_by_id":null,"tenant_id":"00000000-0000-0000-0000-000000000000","frequency":"once","type":"bill-payment","start_date":"2025-12-30T21:00:00.000Z","next_run_date":"2025-12-30T21:00:00.000Z","end_date":"2025-12-31T12:00:00.000Z","status":"active","amount":"0.00","profile_id":"0193a649-e3d0-7881-8b7f-2ef1d89a9aff","account_id":"0193a699-2f15-7881-8b7f-ae50980bcfad","user":{"id":"019372de-17ef-7cc2-8fc0-43fe11ba042f","meta":{},"created_on":"2024-11-28T13:02:58.029Z","created_by_id":null,"modified_on":"2025-04-07T03:43:52.927Z","modified_by_id":"019372de-17ef-7cc2-8fc0-43fe11ba042f","deleted_on":null,"deleted_by_id":null,"tenant_id":"00000000-0000-0000-0000-000000000000","email":"ismael@mailinator.com","status":"active","first_name":"Sunday","last_name":"Testing","twofa_enabled":false,"last_active":"2025-04-07T03:43:52.927Z","last_ip":"172.69.17.87","allowed_ips":null,"last_timezone":"Africa/Monrovia","last_location":"Monrovia","phone":"+2348089722636","review":null,"gender":"male","date_of_birth":null,"cba_id":"31","photo_id":null,"referral_code":"7LD1QN","referred_by":null}},{"id":"01960c8d-bcc5-7777-9199-43d7a41df821","meta":{"pin":"1234","amount":10000000000000000,"biller_id":"mtn","option_id":"prepaid","category_id":"airtime","account_number":"0000000040","liveness_session_id":""},"created_on":"2025-04-06T19:22:17.659Z","created_by_id":"019372de-17ef-7cc2-8fc0-43fe11ba042f","modified_on":"2025-04-06T19:22:17.659Z","modified_by_id":null,"deleted_on":null,"deleted_by_id":null,"tenant_id":"00000000-0000-0000-0000-000000000000","frequency":"once","type":"bill-payment","start_date":"2025-12-30T21:00:00.000Z","next_run_date":"2025-12-30T21:00:00.000Z","end_date":"2025-12-31T12:00:00.000Z","status":"active","amount":"0.00","profile_id":"0193a649-e3d0-7881-8b7f-2ef1d89a9aff","account_id":"0193a699-2f15-7881-8b7f-ae50980bcfad","user":{"id":"019372de-17ef-7cc2-8fc0-43fe11ba042f","meta":{},"created_on":"2024-11-28T13:02:58.029Z","created_by_id":null,"modified_on":"2025-04-07T03:43:52.927Z","modified_by_id":"019372de-17ef-7cc2-8fc0-43fe11ba042f","deleted_on":null,"deleted_by_id":null,"tenant_id":"00000000-0000-0000-0000-000000000000","email":"ismael@mailinator.com","status":"active","first_name":"Sunday","last_name":"Testing","twofa_enabled":false,"last_active":"2025-04-07T03:43:52.927Z","last_ip":"172.69.17.87","allowed_ips":null,"last_timezone":"Africa/Monrovia","last_location":"Monrovia","phone":"+2348089722636","review":null,"gender":"male","date_of_birth":null,"cba_id":"31","photo_id":null,"referral_code":"7LD1QN","referred_by":null}},{"id":"01960c78-1d40-7aa0-8060-202b7a560ab2","meta":{"recipients":[{"amount":133,"bank_code":"999998","bank_name":"vee test","narration":"Sodiq","account_name":"John Doe","account_number":"1780004070"}]},"created_on":"2025-04-06T18:58:40.546Z","created_by_id":"019372de-17ef-7cc2-8fc0-43fe11ba042f","modified_on":"2025-04-06T19:20:09.784Z","modified_by_id":null,"deleted_on":null,"deleted_by_id":null,"tenant_id":"00000000-0000-0000-0000-000000000000","frequency":"once","type":"transfer","start_date":"2025-01-30T21:00:00.000Z","next_run_date":"2025-01-30T21:00:00.000Z","end_date":"2025-12-31T12:00:00.000Z","status":"completed","amount":"0.00","profile_id":"0193a649-e3d0-7881-8b7f-2ef1d89a9aff","account_id":"0193a699-2f15-7881-8b7f-ae50980bcfad","user":{"id":"019372de-17ef-7cc2-8fc0-43fe11ba042f","meta":{},"created_on":"2024-11-28T13:02:58.029Z","created_by_id":null,"modified_on":"2025-04-07T03:43:52.927Z","modified_by_id":"019372de-17ef-7cc2-8fc0-43fe11ba042f","deleted_on":null,"deleted_by_id":null,"tenant_id":"00000000-0000-0000-0000-000000000000","email":"ismael@mailinator.com","status":"active","first_name":"Sunday","last_name":"Testing","twofa_enabled":false,"last_active":"2025-04-07T03:43:52.927Z","last_ip":"172.69.17.87","allowed_ips":null,"last_timezone":"Africa/Monrovia","last_location":"Monrovia","phone":"+2348089722636","review":null,"gender":"male","date_of_birth":null,"cba_id":"31","photo_id":null,"referral_code":"7LD1QN","referred_by":null}},{"id":"01960c76-38a3-7994-9257-6c8ef0b153a6","meta":{"recipients":[{"amount":133,"bank_code":"999998","bank_name":"vee test","narration":"Sodiq","account_name":"John Doe","account_number":"1780004070"}]},"created_on":"2025-04-06T18:56:36.482Z","created_by_id":"019372de-17ef-7cc2-8fc0-43fe11ba042f","modified_on":"2025-04-06T18:56:45.311Z","modified_by_id":null,"deleted_on":null,"deleted_by_id":null,"tenant_id":"00000000-0000-0000-0000-000000000000","frequency":"once","type":"transfer","start_date":"2025-01-30T21:00:00.000Z","next_run_date":"2025-01-30T21:00:00.000Z","end_date":"2025-12-31T12:00:00.000Z","status":"completed","amount":"0.00","profile_id":"0193a649-e3d0-7881-8b7f-2ef1d89a9aff","account_id":"0193a699-2f15-7881-8b7f-ae50980bcfad","user":{"id":"019372de-17ef-7cc2-8fc0-43fe11ba042f","meta":{},"created_on":"2024-11-28T13:02:58.029Z","created_by_id":null,"modified_on":"2025-04-07T03:43:52.927Z","modified_by_id":"019372de-17ef-7cc2-8fc0-43fe11ba042f","deleted_on":null,"deleted_by_id":null,"tenant_id":"00000000-0000-0000-0000-000000000000","email":"ismael@mailinator.com","status":"active","first_name":"Sunday","last_name":"Testing","twofa_enabled":false,"last_active":"2025-04-07T03:43:52.927Z","last_ip":"172.69.17.87","allowed_ips":null,"last_timezone":"Africa/Monrovia","last_location":"Monrovia","phone":"+2348089722636","review":null,"gender":"male","date_of_birth":null,"cba_id":"31","photo_id":null,"referral_code":"7LD1QN","referred_by":null}},{"id":"01960c75-9e20-7dd4-b115-5d673da6ae9e","meta":{"recipients":[{"amount":133,"bank_code":"999998","bank_name":"vee test","narration":"Sodiq","account_name":"John Doe","account_number":"1780004070"}]},"created_on":"2025-04-06T18:55:56.934Z","created_by_id":"019372de-17ef-7cc2-8fc0-43fe11ba042f","modified_on":"2025-04-06T18:55:56.934Z","modified_by_id":null,"deleted_on":null,"deleted_by_id":null,"tenant_id":"00000000-0000-0000-0000-000000000000","frequency":"once","type":"transfer","start_date":"2025-12-30T21:00:00.000Z","next_run_date":"2025-12-30T21:00:00.000Z","end_date":"2025-12-31T12:00:00.000Z","status":"inactive","amount":"0.00","profile_id":"0193a649-e3d0-7881-8b7f-2ef1d89a9aff","account_id":"0193a699-2f15-7881-8b7f-ae50980bcfad","user":{"id":"019372de-17ef-7cc2-8fc0-43fe11ba042f","meta":{},"created_on":"2024-11-28T13:02:58.029Z","created_by_id":null,"modified_on":"2025-04-07T03:43:52.927Z","modified_by_id":"019372de-17ef-7cc2-8fc0-43fe11ba042f","deleted_on":null,"deleted_by_id":null,"tenant_id":"00000000-0000-0000-0000-000000000000","email":"ismael@mailinator.com","status":"active","first_name":"Sunday","last_name":"Testing","twofa_enabled":false,"last_active":"2025-04-07T03:43:52.927Z","last_ip":"172.69.17.87","allowed_ips":null,"last_timezone":"Africa/Monrovia","last_location":"Monrovia","phone":"+2348089722636","review":null,"gender":"male","date_of_birth":null,"cba_id":"31","photo_id":null,"referral_code":"7LD1QN","referred_by":null}},{"id":"01960a27-32b6-7aa8-8776-10ab4fd7ae99","meta":{"recipients":[{"amount":133,"bank_code":"999998","bank_name":"vee test","narration":"Sodiq","account_name":"John Doe","account_number":"1780004070"}]},"created_on":"2025-04-06T08:11:03.231Z","created_by_id":"019372de-17ef-7cc2-8fc0-43fe11ba042f","modified_on":"2025-04-06T08:11:03.231Z","modified_by_id":null,"deleted_on":null,"deleted_by_id":null,"tenant_id":"00000000-0000-0000-0000-000000000000","frequency":"once","type":"transfer","start_date":"2025-12-30T21:00:00.000Z","next_run_date":"2025-12-30T21:00:00.000Z","end_date":"2025-12-31T12:00:00.000Z","status":"inactive","amount":"0.00","profile_id":"0193a649-e3d0-7881-8b7f-2ef1d89a9aff","account_id":"0193a699-2f15-7881-8b7f-ae50980bcfad","user":{"id":"019372de-17ef-7cc2-8fc0-43fe11ba042f","meta":{},"created_on":"2024-11-28T13:02:58.029Z","created_by_id":null,"modified_on":"2025-04-07T03:43:52.927Z","modified_by_id":"019372de-17ef-7cc2-8fc0-43fe11ba042f","deleted_on":null,"deleted_by_id":null,"tenant_id":"00000000-0000-0000-0000-000000000000","email":"ismael@mailinator.com","status":"active","first_name":"Sunday","last_name":"Testing","twofa_enabled":false,"last_active":"2025-04-07T03:43:52.927Z","last_ip":"172.69.17.87","allowed_ips":null,"last_timezone":"Africa/Monrovia","last_location":"Monrovia","phone":"+2348089722636","review":null,"gender":"male","date_of_birth":null,"cba_id":"31","photo_id":null,"referral_code":"7LD1QN","referred_by":null}},{"id":"0195611d-ee5c-7bb6-afde-49d79359327f","meta":{"recipients":[{"amount":1000,"bank_code":"050030","bank_name":"NORTHQUEST FINANCE COMPANY LIMITED ","narration":"","account_name":"Olayemi Victoria","account_number":"8134044021"}]},"created_on":"2025-03-04T12:25:06.389Z","created_by_id":"019372de-17ef-7cc2-8fc0-43fe11ba042f","modified_on":"2025-04-06T08:20:44.377Z","modified_by_id":null,"deleted_on":null,"deleted_by_id":null,"tenant_id":"00000000-0000-0000-0000-000000000000","frequency":"once","type":"transfer","start_date":"2025-03-04T14:00:00.000Z","next_run_date":"2025-03-04T14:00:00.000Z","end_date":"2025-03-04T14:00:00.000Z","status":"completed","amount":"0.00","profile_id":"0193a649-e3d0-7881-8b7f-2ef1d89a9aff","account_id":"0193a699-2f15-7881-8b7f-ae50980bcfad","user":{"id":"019372de-17ef-7cc2-8fc0-43fe11ba042f","meta":{},"created_on":"2024-11-28T13:02:58.029Z","created_by_id":null,"modified_on":"2025-04-07T03:43:52.927Z","modified_by_id":"019372de-17ef-7cc2-8fc0-43fe11ba042f","deleted_on":null,"deleted_by_id":null,"tenant_id":"00000000-0000-0000-0000-000000000000","email":"ismael@mailinator.com","status":"active","first_name":"Sunday","last_name":"Testing","twofa_enabled":false,"last_active":"2025-04-07T03:43:52.927Z","last_ip":"172.69.17.87","allowed_ips":null,"last_timezone":"Africa/Monrovia","last_location":"Monrovia","phone":"+2348089722636","review":null,"gender":"male","date_of_birth":null,"cba_id":"31","photo_id":null,"referral_code":"7LD1QN","referred_by":null}},{"id":"01955753-3e36-7dd1-9968-2550d652f8ca","meta":{"recipients":[{"amount":100,"bank_code":"999998","bank_name":"vee test","narration":"Test","account_name":"John Doe","account_number":"0000000108"}]},"created_on":"2025-03-02T14:47:08.085Z","created_by_id":"019372de-17ef-7cc2-8fc0-43fe11ba042f","modified_on":"2025-04-06T08:20:43.999Z","modified_by_id":null,"deleted_on":null,"deleted_by_id":null,"tenant_id":"00000000-0000-0000-0000-000000000000","frequency":"daily","type":"transfer","start_date":"2025-03-03T00:00:00.000Z","next_run_date":"2025-04-07T00:00:00.000Z","end_date":"2025-03-04T23:59:59.999Z","status":"completed","amount":"0.00","profile_id":"0193a649-e3d0-7881-8b7f-2ef1d89a9aff","account_id":"0193a699-2f15-7881-8b7f-ae50980bcfad","user":{"id":"019372de-17ef-7cc2-8fc0-43fe11ba042f","meta":{},"created_on":"2024-11-28T13:02:58.029Z","created_by_id":null,"modified_on":"2025-04-07T03:43:52.927Z","modified_by_id":"019372de-17ef-7cc2-8fc0-43fe11ba042f","deleted_on":null,"deleted_by_id":null,"tenant_id":"00000000-0000-0000-0000-000000000000","email":"ismael@mailinator.com","status":"active","first_name":"Sunday","last_name":"Testing","twofa_enabled":false,"last_active":"2025-04-07T03:43:52.927Z","last_ip":"172.69.17.87","allowed_ips":null,"last_timezone":"Africa/Monrovia","last_location":"Monrovia","phone":"+2348089722636","review":null,"gender":"male","date_of_birth":null,"cba_id":"31","photo_id":null,"referral_code":"7LD1QN","referred_by":null}},{"id":"01953f23-f623-7111-8e57-d6e7c936b602","meta":{"recipients":[{"amount":2000,"bank_code":"000014","bank_name":"Access Bank","narration":"bulk transfer","account_name":"John Doe","account_number":"5680166012"}]},"created_on":"2025-02-25T22:04:36.258Z","created_by_id":"019372de-17ef-7cc2-8fc0-43fe11ba042f","modified_on":"2025-04-06T08:20:43.626Z","modified_by_id":null,"deleted_on":null,"deleted_by_id":null,"tenant_id":"00000000-0000-0000-0000-000000000000","frequency":"once","type":"transfer","start_date":"2025-02-26T23:04:00.000Z","next_run_date":"2025-02-26T23:04:00.000Z","end_date":"2025-02-26T23:04:00.000Z","status":"completed","amount":"0.00","profile_id":"0193a649-e3d0-7881-8b7f-2ef1d89a9aff","account_id":"0193a699-2f15-7881-8b7f-ae50980bcfad","user":{"id":"019372de-17ef-7cc2-8fc0-43fe11ba042f","meta":{},"created_on":"2024-11-28T13:02:58.029Z","created_by_id":null,"modified_on":"2025-04-07T03:43:52.927Z","modified_by_id":"019372de-17ef-7cc2-8fc0-43fe11ba042f","deleted_on":null,"deleted_by_id":null,"tenant_id":"00000000-0000-0000-0000-000000000000","email":"ismael@mailinator.com","status":"active","first_name":"Sunday","last_name":"Testing","twofa_enabled":false,"last_active":"2025-04-07T03:43:52.927Z","last_ip":"172.69.17.87","allowed_ips":null,"last_timezone":"Africa/Monrovia","last_location":"Monrovia","phone":"+2348089722636","review":null,"gender":"male","date_of_birth":null,"cba_id":"31","photo_id":null,"referral_code":"7LD1QN","referred_by":null}}],"meta":{"page":1,"total_pages":11,"total_items":102}}