{"status":"success","data":[{"id":"01925d39-f9df-7880-ae6f-43ecd2479db5","meta":{"first_name":"Azeez","last_name":"Ibrahim","nin":"1234567890"},"created_on":"2024-10-05T15:08:53.528Z","created_by":null,"modified_on":"2024-12-16T16:02:11.314Z","modified_by":null,"deleted_on":null,"deleted_by":null,"tenant_id":"00000000-0000-0000-0000-000000000000","name":"Azeez-Profile","type":"personal","status":"active","review":"undefined\nundefined\nundefined\nundefined\nundefined\nundefined\nundefined","primary_user_id":"019252dd-ecc7-7447-bcc2-ad23e54a6b90","tier_id":"01928f2d-6756-755b-8a9d-c8094db2af27","primary_user":{"id":"019252dd-ecc7-7447-bcc2-ad23e54a6b90","meta":null,"created_on":"2024-10-03T14:52:08.775Z","created_by":null,"modified_on":"2024-11-05T13:31:53.449Z","modified_by":null,"deleted_on":null,"deleted_by":null,"tenant_id":"00000000-0000-0000-0000-000000000000","first_name":"Wunmi","last_name":"Ade","email":"Rhett@mailinator.com","phone":null,"status":"active","review":null,"gender":"male","date_of_birth":null,"cba_id":null,"photo_id":null,"referral_code":"","twofa_enabled":false,"last_active":"2024-11-18T13:33:47.068Z","last_ip":null,"last_time_zone":null,"referred_by":null},"tier":{"id":"01928f2d-6756-755b-8a9d-c8094db2af27","meta":null,"created_on":"2024-10-15T07:56:10.789Z","created_by":null,"modified_on":"2024-12-18T15:35:22.050Z","modified_by":null,"deleted_on":null,"deleted_by":null,"tenant_id":"00000000-0000-0000-0000-000000000000","profile_type":"personal","name":"Tier 1","description":"Tier 1","level":1,"enabled":true,"balance_limit":2000000,"single_sending_limit":500000,"single_receiving_limit":500000,"period_sending_limit":500000,"period_sending_limit_time_unit":"day","period_receiving_limit":500000,"period_receiving_limit_time_unit":"day","requirements":[{"type":"kyc","type_id":"0193731a-59fe-788a-9877-8bef6d0c2cfc"},{"type":"verification","type_id":"01933d40-03e5-777c-a6e6-bf72eb1c8968"},{"type":"verification","type_id":"019318f9-c895-744d-8f65-4636cc26dd1f"}]}},{"id":"01931920-45c0-744d-8f65-61462b00d07a","meta":{"first_name":"Azeez","last_name":"Ibrahim","nin":"1234567890"},"created_on":"2024-11-11T02:49:25.697Z","created_by":null,"modified_on":"2024-12-18T15:22:20.881Z","modified_by":null,"deleted_on":null,"deleted_by":null,"tenant_id":"00000000-0000-0000-0000-000000000000","name":"Profile","type":"personal","status":"active","review":"undefined\nundefined","primary_user_id":"019261d7-36c3-7cce-a142-bc625de42ba5","tier_id":"01928f2d-6756-755b-8a9d-c8094db2af27","primary_user":{"id":"019261d7-36c3-7cce-a142-bc625de42ba5","meta":null,"created_on":"2024-10-06T12:39:07.203Z","created_by":null,"modified_on":"2025-01-03T18:36:37.930Z","modified_by":null,"deleted_on":null,"deleted_by":null,"tenant_id":"00000000-0000-0000-0000-000000000000","first_name":"Azeez","last_name":"Invited-User","email":"invitedUser1@mailinator.com","phone":null,"status":"active","review":null,"gender":"male","date_of_birth":null,"cba_id":null,"photo_id":null,"referral_code":null,"twofa_enabled":false,"last_active":"2025-01-03T18:36:37.928Z","last_ip":"::ffff:10.0.1.174","last_time_zone":null,"referred_by":null},"tier":{"id":"01928f2d-6756-755b-8a9d-c8094db2af27","meta":null,"created_on":"2024-10-15T07:56:10.789Z","created_by":null,"modified_on":"2024-12-18T15:35:22.050Z","modified_by":null,"deleted_on":null,"deleted_by":null,"tenant_id":"00000000-0000-0000-0000-000000000000","profile_type":"personal","name":"Tier 1","description":"Tier 1","level":1,"enabled":true,"balance_limit":2000000,"single_sending_limit":500000,"single_receiving_limit":500000,"period_sending_limit":500000,"period_sending_limit_time_unit":"day","period_receiving_limit":500000,"period_receiving_limit_time_unit":"day","requirements":[{"type":"kyc","type_id":"0193731a-59fe-788a-9877-8bef6d0c2cfc"},{"type":"verification","type_id":"01933d40-03e5-777c-a6e6-bf72eb1c8968"},{"type":"verification","type_id":"019318f9-c895-744d-8f65-4636cc26dd1f"}]}},{"id":"0192f830-de29-7aa1-bdc7-2b10e00b482d","meta":{"gender":"male"},"created_on":"2024-11-04T17:20:05.160Z","created_by":null,"modified_on":"2024-11-04T17:20:05.160Z","modified_by":null,"deleted_on":null,"deleted_by":null,"tenant_id":"00000000-0000-0000-0000-000000000000","name":"wunmi","type":"personal","status":"active","review":null,"primary_user_id":"01925343-fbc8-7886-abfb-41c8746fc8ce","tier_id":"01928f2d-6756-755b-8a9d-c8094db2af27","primary_user":{"id":"01925343-fbc8-7886-abfb-41c8746fc8ce","meta":null,"created_on":"2024-10-03T16:43:37.286Z","created_by":null,"modified_on":"2025-01-03T17:21:43.664Z","modified_by":null,"deleted_on":null,"deleted_by":null,"tenant_id":"00000000-0000-0000-0000-000000000000","first_name":"Sodiq","last_name":"Dare","email":"darehorla@gmail.com","phone":"+2348149583662","status":"active","review":null,"gender":"male","date_of_birth":"2002-05-28","cba_id":null,"photo_id":null,"referral_code":"27HJX1","twofa_enabled":false,"last_active":"2025-01-03T17:21:43.588Z","last_ip":"::ffff:10.0.1.174","last_time_zone":null,"referred_by":null},"tier":{"id":"01928f2d-6756-755b-8a9d-c8094db2af27","meta":null,"created_on":"2024-10-15T07:56:10.789Z","created_by":null,"modified_on":"2024-12-18T15:35:22.050Z","modified_by":null,"deleted_on":null,"deleted_by":null,"tenant_id":"00000000-0000-0000-0000-000000000000","profile_type":"personal","name":"Tier 1","description":"Tier 1","level":1,"enabled":true,"balance_limit":2000000,"single_sending_limit":500000,"single_receiving_limit":500000,"period_sending_limit":500000,"period_sending_limit_time_unit":"day","period_receiving_limit":500000,"period_receiving_limit_time_unit":"day","requirements":[{"type":"kyc","type_id":"0193731a-59fe-788a-9877-8bef6d0c2cfc"},{"type":"verification","type_id":"01933d40-03e5-777c-a6e6-bf72eb1c8968"},{"type":"verification","type_id":"019318f9-c895-744d-8f65-4636cc26dd1f"}]}},{"id":"0193182f-68e6-7eeb-a7eb-f9fb3bd0052e","meta":{"first_name":"Tonye","last_name":"Greene"},"created_on":"2024-11-10T22:26:20.518Z","created_by":null,"modified_on":"2024-11-10T22:26:20.518Z","modified_by":null,"deleted_on":null,"deleted_by":null,"tenant_id":"00000000-0000-0000-0000-000000000000","name":"Tonye","type":"personal","status":"active","review":null,"primary_user_id":"0193182f-2b29-7eeb-a7eb-f68ffcbdf020","tier_id":"01928f2d-6756-755b-8a9d-c8094db2af27","primary_user":{"id":"0193182f-2b29-7eeb-a7eb-f68ffcbdf020","meta":null,"created_on":"2024-11-10T22:26:04.714Z","created_by":null,"modified_on":"2024-12-16T12:05:24.880Z","modified_by":null,"deleted_on":null,"deleted_by":null,"tenant_id":"00000000-0000-0000-0000-000000000000","first_name":"Tonye","last_name":"Greene","email":"ellysmoore@gmail.com","phone":null,"status":"active","review":null,"gender":"male","date_of_birth":null,"cba_id":null,"photo_id":null,"referral_code":"","twofa_enabled":false,"last_active":"2024-12-16T12:05:24.877Z","last_ip":"::ffff:10.0.1.30","last_time_zone":null,"referred_by":null},"tier":{"id":"01928f2d-6756-755b-8a9d-c8094db2af27","meta":null,"created_on":"2024-10-15T07:56:10.789Z","created_by":null,"modified_on":"2024-12-18T15:35:22.050Z","modified_by":null,"deleted_on":null,"deleted_by":null,"tenant_id":"00000000-0000-0000-0000-000000000000","profile_type":"personal","name":"Tier 1","description":"Tier 1","level":1,"enabled":true,"balance_limit":2000000,"single_sending_limit":500000,"single_receiving_limit":500000,"period_sending_limit":500000,"period_sending_limit_time_unit":"day","period_receiving_limit":500000,"period_receiving_limit_time_unit":"day","requirements":[{"type":"kyc","type_id":"0193731a-59fe-788a-9877-8bef6d0c2cfc"},{"type":"verification","type_id":"01933d40-03e5-777c-a6e6-bf72eb1c8968"},{"type":"verification","type_id":"019318f9-c895-744d-8f65-4636cc26dd1f"}]}},{"id":"01931920-474f-744d-8f65-75414e4158cc","meta":{"first_name":"","last_name":"","nin":""},"created_on":"2024-11-11T02:49:26.096Z","created_by":null,"modified_on":"2024-11-11T02:49:26.096Z","modified_by":null,"deleted_on":null,"deleted_by":null,"tenant_id":"00000000-0000-0000-0000-000000000000","name":"Profile","type":"personal","status":"active","review":null,"primary_user_id":"019261d7-36c3-7cce-a142-bc625de42ba5","tier_id":"01928f2d-6756-755b-8a9d-c8094db2af27","primary_user":{"id":"019261d7-36c3-7cce-a142-bc625de42ba5","meta":null,"created_on":"2024-10-06T12:39:07.203Z","created_by":null,"modified_on":"2025-01-03T18:36:37.930Z","modified_by":null,"deleted_on":null,"deleted_by":null,"tenant_id":"00000000-0000-0000-0000-000000000000","first_name":"Azeez","last_name":"Invited-User","email":"invitedUser1@mailinator.com","phone":null,"status":"active","review":null,"gender":"male","date_of_birth":null,"cba_id":null,"photo_id":null,"referral_code":null,"twofa_enabled":false,"last_active":"2025-01-03T18:36:37.928Z","last_ip":"::ffff:10.0.1.174","last_time_zone":null,"referred_by":null},"tier":{"id":"01928f2d-6756-755b-8a9d-c8094db2af27","meta":null,"created_on":"2024-10-15T07:56:10.789Z","created_by":null,"modified_on":"2024-12-18T15:35:22.050Z","modified_by":null,"deleted_on":null,"deleted_by":null,"tenant_id":"00000000-0000-0000-0000-000000000000","profile_type":"personal","name":"Tier 1","description":"Tier 1","level":1,"enabled":true,"balance_limit":2000000,"single_sending_limit":500000,"single_receiving_limit":500000,"period_sending_limit":500000,"period_sending_limit_time_unit":"day","period_receiving_limit":500000,"period_receiving_limit_time_unit":"day","requirements":[{"type":"kyc","type_id":"0193731a-59fe-788a-9877-8bef6d0c2cfc"},{"type":"verification","type_id":"01933d40-03e5-777c-a6e6-bf72eb1c8968"},{"type":"verification","type_id":"019318f9-c895-744d-8f65-4636cc26dd1f"}]}},{"id":"01932562-f71c-7ee3-88de-c821dddbc6f4","meta":{"first_name":"rasheedat","last_name":"ajidagba"},"created_on":"2024-11-13T11:57:43.067Z","created_by":null,"modified_on":"2024-11-13T11:57:43.067Z","modified_by":null,"deleted_on":null,"deleted_by":null,"tenant_id":"00000000-0000-0000-0000-000000000000","name":"rasheedat","type":"personal","status":"active","review":null,"primary_user_id":"01932562-ce58-7ee3-88de-c25dd7f5d12b","tier_id":"01928f2d-6756-755b-8a9d-c8094db2af27","primary_user":{"id":"01932562-ce58-7ee3-88de-c25dd7f5d12b","meta":null,"created_on":"2024-11-13T11:57:32.632Z","created_by":null,"modified_on":"2024-12-20T11:27:22.953Z","modified_by":null,"deleted_on":null,"deleted_by":null,"tenant_id":"00000000-0000-0000-0000-000000000000","first_name":"rasheedat","last_name":"ajidagba","email":"rasheedat+3@assurdly.com","phone":"+2348135194521","status":"active","review":null,"gender":"male","date_of_birth":null,"cba_id":"32","photo_id":null,"referral_code":"YIRIN2","twofa_enabled":false,"last_active":"2024-12-20T11:27:22.950Z","last_ip":"::ffff:10.0.1.30","last_time_zone":null,"referred_by":null},"tier":{"id":"01928f2d-6756-755b-8a9d-c8094db2af27","meta":null,"created_on":"2024-10-15T07:56:10.789Z","created_by":null,"modified_on":"2024-12-18T15:35:22.050Z","modified_by":null,"deleted_on":null,"deleted_by":null,"tenant_id":"00000000-0000-0000-0000-000000000000","profile_type":"personal","name":"Tier 1","description":"Tier 1","level":1,"enabled":true,"balance_limit":2000000,"single_sending_limit":500000,"single_receiving_limit":500000,"period_sending_limit":500000,"period_sending_limit_time_unit":"day","period_receiving_limit":500000,"period_receiving_limit_time_unit":"day","requirements":[{"type":"kyc","type_id":"0193731a-59fe-788a-9877-8bef6d0c2cfc"},{"type":"verification","type_id":"01933d40-03e5-777c-a6e6-bf72eb1c8968"},{"type":"verification","type_id":"019318f9-c895-744d-8f65-4636cc26dd1f"}]}},{"id":"01925d3a-172c-7880-ae6f-5677776d7c27","meta":{"first_name":"Azeez","last_name":"Ibrahim","nin":"1234567890"},"created_on":"2024-10-05T15:09:01.100Z","created_by":null,"modified_on":"2024-12-16T10:14:53.627Z","modified_by":null,"deleted_on":null,"deleted_by":null,"tenant_id":"00000000-0000-0000-0000-000000000000","name":"Azeez-Profile","type":"personal","status":"active","review":"undefined","primary_user_id":"019252dd-ecc7-7447-bcc2-ad23e54a6b90","tier_id":"01928f2d-6756-755b-8a9d-c8094db2af27","primary_user":{"id":"019252dd-ecc7-7447-bcc2-ad23e54a6b90","meta":null,"created_on":"2024-10-03T14:52:08.775Z","created_by":null,"modified_on":"2024-11-05T13:31:53.449Z","modified_by":null,"deleted_on":null,"deleted_by":null,"tenant_id":"00000000-0000-0000-0000-000000000000","first_name":"Wunmi","last_name":"Ade","email":"Rhett@mailinator.com","phone":null,"status":"active","review":null,"gender":"male","date_of_birth":null,"cba_id":null,"photo_id":null,"referral_code":"","twofa_enabled":false,"last_active":"2024-11-18T13:33:47.068Z","last_ip":null,"last_time_zone":null,"referred_by":null},"tier":{"id":"01928f2d-6756-755b-8a9d-c8094db2af27","meta":null,"created_on":"2024-10-15T07:56:10.789Z","created_by":null,"modified_on":"2024-12-18T15:35:22.050Z","modified_by":null,"deleted_on":null,"deleted_by":null,"tenant_id":"00000000-0000-0000-0000-000000000000","profile_type":"personal","name":"Tier 1","description":"Tier 1","level":1,"enabled":true,"balance_limit":2000000,"single_sending_limit":500000,"single_receiving_limit":500000,"period_sending_limit":500000,"period_sending_limit_time_unit":"day","period_receiving_limit":500000,"period_receiving_limit_time_unit":"day","requirements":[{"type":"kyc","type_id":"0193731a-59fe-788a-9877-8bef6d0c2cfc"},{"type":"verification","type_id":"01933d40-03e5-777c-a6e6-bf72eb1c8968"},{"type":"verification","type_id":"019318f9-c895-744d-8f65-4636cc26dd1f"}]}},{"id":"019308ee-9025-7cca-a550-970e8dd19d5e","meta":{"first_name":"Olamide","last_name":"Micheal","profileId":"019308ee-9025-7cca-a550-970e8dd19d5e","fields":{"name":"Habeeb","business-address":"Address","business-phone":"1231211211","id-type":"National ID card","business-types":"Sole Proprietorship","business-email":"hab@gmail.com","gender":"male"},"business-address":"Address","business-phone":"1231211211","id-type":"National ID card","business-types":"Sole Proprietorship","business-email":"hab@gmail.com","gender":"","business_address":"","business_phone":"","id_type":"","business_types":"","business_email":"","phone_number":"07084385638"},"created_on":"2024-11-07T23:21:12.410Z","created_by":null,"modified_on":"2024-11-25T22:11:00.186Z","modified_by":null,"deleted_on":null,"deleted_by":null,"tenant_id":"00000000-0000-0000-0000-000000000000","name":"","type":"personal","status":"active","review":null,"primary_user_id":"019301e0-bdfb-7449-9b7f-55ff4ba9d07b","tier_id":"01928f2d-6756-755b-8a9d-c8094db2af27","primary_user":{"id":"019301e0-bdfb-7449-9b7f-55ff4ba9d07b","meta":null,"created_on":"2024-11-06T14:28:46.201Z","created_by":null,"modified_on":"2025-01-01T09:31:38.993Z","modified_by":null,"deleted_on":null,"deleted_by":null,"tenant_id":"00000000-0000-0000-0000-000000000000","first_name":"Olamide","last_name":"Micheal","email":"habeebshewen@gmail.com","phone":null,"status":"active","review":null,"gender":"male","date_of_birth":null,"cba_id":null,"photo_id":null,"referral_code":"","twofa_enabled":false,"last_active":"2025-01-01T09:31:38.990Z","last_ip":"::ffff:10.0.3.166","last_time_zone":null,"referred_by":null},"tier":{"id":"01928f2d-6756-755b-8a9d-c8094db2af27","meta":null,"created_on":"2024-10-15T07:56:10.789Z","created_by":null,"modified_on":"2024-12-18T15:35:22.050Z","modified_by":null,"deleted_on":null,"deleted_by":null,"tenant_id":"00000000-0000-0000-0000-000000000000","profile_type":"personal","name":"Tier 1","description":"Tier 1","level":1,"enabled":true,"balance_limit":2000000,"single_sending_limit":500000,"single_receiving_limit":500000,"period_sending_limit":500000,"period_sending_limit_time_unit":"day","period_receiving_limit":500000,"period_receiving_limit_time_unit":"day","requirements":[{"type":"kyc","type_id":"0193731a-59fe-788a-9877-8bef6d0c2cfc"},{"type":"verification","type_id":"01933d40-03e5-777c-a6e6-bf72eb1c8968"},{"type":"verification","type_id":"019318f9-c895-744d-8f65-4636cc26dd1f"}]}},{"id":"01931947-9fea-744d-8f66-118c138292e3","meta":{"first_name":"Azeeez","last_name":"Ibraheeem","nin":"70123456789","identification":"Voter’s Card","email":"azeez@gmail.com","phone":"07012345678","gender":"Male"},"created_on":"2024-11-11T03:32:24.682Z","created_by":null,"modified_on":"2024-12-16T16:10:15.957Z","modified_by":null,"deleted_on":null,"deleted_by":null,"tenant_id":"00000000-0000-0000-0000-000000000000","name":"Profile","type":"personal","status":"active","review":null,"primary_user_id":"019317a0-b7e5-7eeb-a7eb-bd18cf39a633","tier_id":"019367c1-ab3c-7115-b8f2-680b07e61445","primary_user":{"id":"019317a0-b7e5-7eeb-a7eb-bd18cf39a633","meta":{},"created_on":"2024-11-10T19:50:29.093Z","created_by":null,"modified_on":"2025-01-03T17:22:54.582Z","modified_by":null,"deleted_on":null,"deleted_by":null,"tenant_id":"00000000-0000-0000-0000-000000000000","first_name":"Mike","last_name":"Angelo","email":"mikeangel@mailinator.com","phone":"09055755671","status":"active","review":null,"gender":"male","date_of_birth":null,"cba_id":"19","photo_id":null,"referral_code":"AZVBZI","twofa_enabled":false,"last_active":"2025-01-03T17:22:54.575Z","last_ip":"::ffff:10.0.1.174","last_time_zone":null,"referred_by":null},"tier":{"id":"019367c1-ab3c-7115-b8f2-680b07e61445","meta":null,"created_on":"2024-11-26T09:16:05.741Z","created_by":null,"modified_on":"2024-11-26T09:16:05.741Z","modified_by":null,"deleted_on":null,"deleted_by":null,"tenant_id":"00000000-0000-0000-0000-000000000000","profile_type":"personal","name":"Tier 3","description":"Tier 3","level":3,"enabled":true,"balance_limit":20000,"single_sending_limit":20000,"single_receiving_limit":20000,"period_sending_limit":20000,"period_sending_limit_time_unit":"day","period_receiving_limit":20000,"period_receiving_limit_time_unit":"day","requirements":[{"type":"kyc","type_id":"01933d2f-aa30-7ddd-a344-aa4e37d9f705"},{"type":"kyc","type_id":"019367b2-0af9-7115-b8f1-dc685d92e97f"},{"type":"kyc","type_id":"019367be-267f-7115-b8f2-5b09dbcebec1"}]}},{"id":"0193033b-3bf2-7aaf-8ef8-4d17c82a18ee","meta":{"first_name":"","last_name":"","business_address":"","business_phone":"","id_type":"","business_types":"","business_email":"","gender":"","phone_number":"07084385638","identification":"Driver’s License"},"created_on":"2024-11-06T20:47:13.907Z","created_by":null,"modified_on":"2024-12-19T16:47:48.112Z","modified_by":null,"deleted_on":null,"deleted_by":null,"tenant_id":"00000000-0000-0000-0000-000000000000","name":"","type":"personal","status":"inactive","review":"undefined","primary_user_id":"019301e0-bdfb-7449-9b7f-55ff4ba9d07b","tier_id":"01928f2d-6756-755b-8a9d-c8094db2af27","primary_user":{"id":"019301e0-bdfb-7449-9b7f-55ff4ba9d07b","meta":null,"created_on":"2024-11-06T14:28:46.201Z","created_by":null,"modified_on":"2025-01-01T09:31:38.993Z","modified_by":null,"deleted_on":null,"deleted_by":null,"tenant_id":"00000000-0000-0000-0000-000000000000","first_name":"Olamide","last_name":"Micheal","email":"habeebshewen@gmail.com","phone":null,"status":"active","review":null,"gender":"male","date_of_birth":null,"cba_id":null,"photo_id":null,"referral_code":"","twofa_enabled":false,"last_active":"2025-01-01T09:31:38.990Z","last_ip":"::ffff:10.0.3.166","last_time_zone":null,"referred_by":null},"tier":{"id":"01928f2d-6756-755b-8a9d-c8094db2af27","meta":null,"created_on":"2024-10-15T07:56:10.789Z","created_by":null,"modified_on":"2024-12-18T15:35:22.050Z","modified_by":null,"deleted_on":null,"deleted_by":null,"tenant_id":"00000000-0000-0000-0000-000000000000","profile_type":"personal","name":"Tier 1","description":"Tier 1","level":1,"enabled":true,"balance_limit":2000000,"single_sending_limit":500000,"single_receiving_limit":500000,"period_sending_limit":500000,"period_sending_limit_time_unit":"day","period_receiving_limit":500000,"period_receiving_limit_time_unit":"day","requirements":[{"type":"kyc","type_id":"0193731a-59fe-788a-9877-8bef6d0c2cfc"},{"type":"verification","type_id":"01933d40-03e5-777c-a6e6-bf72eb1c8968"},{"type":"verification","type_id":"019318f9-c895-744d-8f65-4636cc26dd1f"}]}}],"meta":{"page":1,"total_pages":11,"total_items":109}}