{"status":"success","data":[{"id":"0194dd2f-df7e-7eec-9653-729bf7f2b20f","meta":{"recipients":[{"amount":1000,"bank_code":"000016","bank_name":"First Bank of Nigeria","narration":"iono","account_name":"John Doe","account_number":"0112345678"}]},"created_on":"2025-02-06T21:34:49.724Z","created_by_id":"019317a0-b7e5-7eeb-a7eb-bd18cf39a633","modified_on":"2025-02-06T21:34:49.724Z","modified_by_id":null,"deleted_on":null,"deleted_by_id":null,"tenant_id":"00000000-0000-0000-0000-000000000000","frequency":"once","type":"transfer","start_date":"2025-02-07T00:00:00.000Z","next_run_date":"2025-02-07T00:00:00.000Z","end_date":"2025-02-07T00:00:00.000Z","status":"active","amount":"0.00","profile_id":"01931947-9fea-744d-8f66-118c138292e3","account_id":"0193f0e2-ab16-799a-85ae-fa4fbe2990a7","user":{"id":"019317a0-b7e5-7eeb-a7eb-bd18cf39a633","meta":{},"created_on":"2024-11-10T19:50:29.093Z","created_by_id":null,"modified_on":"2025-03-05T18:47:29.902Z","modified_by_id":"019317a0-b7e5-7eeb-a7eb-bd18cf39a633","deleted_on":null,"deleted_by_id":null,"tenant_id":"00000000-0000-0000-0000-000000000000","email":"mikeangel@mailinator.com","status":"active","first_name":"Mike","last_name":"Angelo","twofa_enabled":false,"last_active":"2025-03-05T18:47:29.902Z","last_ip":"104.23.190.41","allowed_ips":null,"last_timezone":"","last_location":"","phone":"+234(0)9055755671","review":null,"gender":"male","date_of_birth":null,"cba_id":"19","photo_id":null,"referral_code":"AZVBZI","referred_by":null}},{"id":"0194d984-4246-7443-8814-a92c5503aefe","meta":{"recipients":[{"amount":500,"bank_code":"000014","bank_name":"Access Bank","narration":"","account_name":"John Doe","account_number":"1005556235"}]},"created_on":"2025-02-06T04:28:31.175Z","created_by_id":"019317a0-b7e5-7eeb-a7eb-bd18cf39a633","modified_on":"2025-02-06T04:28:31.175Z","modified_by_id":null,"deleted_on":null,"deleted_by_id":null,"tenant_id":"00000000-0000-0000-0000-000000000000","frequency":"once","type":"transfer","start_date":"2025-02-08T00:00:00.000Z","next_run_date":"2025-02-08T00:00:00.000Z","end_date":"2025-02-08T00:00:00.000Z","status":"active","amount":"0.00","profile_id":"01931947-9fea-744d-8f66-118c138292e3","account_id":"0193f0e2-ab16-799a-85ae-fa4fbe2990a7","user":{"id":"019317a0-b7e5-7eeb-a7eb-bd18cf39a633","meta":{},"created_on":"2024-11-10T19:50:29.093Z","created_by_id":null,"modified_on":"2025-03-05T18:47:29.902Z","modified_by_id":"019317a0-b7e5-7eeb-a7eb-bd18cf39a633","deleted_on":null,"deleted_by_id":null,"tenant_id":"00000000-0000-0000-0000-000000000000","email":"mikeangel@mailinator.com","status":"active","first_name":"Mike","last_name":"Angelo","twofa_enabled":false,"last_active":"2025-03-05T18:47:29.902Z","last_ip":"104.23.190.41","allowed_ips":null,"last_timezone":"","last_location":"","phone":"+234(0)9055755671","review":null,"gender":"male","date_of_birth":null,"cba_id":"19","photo_id":null,"referral_code":"AZVBZI","referred_by":null}},{"id":"0194d849-e386-7cc1-a9b5-907fed96384e","meta":{"recipients":[{"amount":1,"bank_code":"999998","bank_name":"vee test","narration":"","account_name":"vee Test","account_number":"0112345678"}]},"created_on":"2025-02-05T22:45:08.615Z","created_by_id":"019317a0-b7e5-7eeb-a7eb-bd18cf39a633","modified_on":"2025-02-05T22:45:08.615Z","modified_by_id":null,"deleted_on":null,"deleted_by_id":null,"tenant_id":"00000000-0000-0000-0000-000000000000","frequency":"weekly","type":"transfer","start_date":"2025-02-06T00:00:00.000Z","next_run_date":"2025-02-06T00:00:00.000Z","end_date":"2025-02-13T00:00:00.000Z","status":"active","amount":"0.00","profile_id":"01931947-9fea-744d-8f66-118c138292e3","account_id":"0193f0e2-ab16-799a-85ae-fa4fbe2990a7","user":{"id":"019317a0-b7e5-7eeb-a7eb-bd18cf39a633","meta":{},"created_on":"2024-11-10T19:50:29.093Z","created_by_id":null,"modified_on":"2025-03-05T18:47:29.902Z","modified_by_id":"019317a0-b7e5-7eeb-a7eb-bd18cf39a633","deleted_on":null,"deleted_by_id":null,"tenant_id":"00000000-0000-0000-0000-000000000000","email":"mikeangel@mailinator.com","status":"active","first_name":"Mike","last_name":"Angelo","twofa_enabled":false,"last_active":"2025-03-05T18:47:29.902Z","last_ip":"104.23.190.41","allowed_ips":null,"last_timezone":"","last_location":"","phone":"+234(0)9055755671","review":null,"gender":"male","date_of_birth":null,"cba_id":"19","photo_id":null,"referral_code":"AZVBZI","referred_by":null}},{"id":"0194d849-7ccf-7cc1-a9b5-8c37cfb97437","meta":{"recipients":[{"amount":1.11,"bank_code":"999998","bank_name":"vee test","narration":"","account_name":"vee Test","account_number":"0112345678"}]},"created_on":"2025-02-05T22:44:42.319Z","created_by_id":"019317a0-b7e5-7eeb-a7eb-bd18cf39a633","modified_on":"2025-02-05T22:44:42.319Z","modified_by_id":null,"deleted_on":null,"deleted_by_id":null,"tenant_id":"00000000-0000-0000-0000-000000000000","frequency":"once","type":"transfer","start_date":"2025-02-07T00:00:00.000Z","next_run_date":"2025-02-07T00:00:00.000Z","end_date":"2025-02-07T00:00:00.000Z","status":"active","amount":"0.00","profile_id":"01931947-9fea-744d-8f66-118c138292e3","account_id":"0193f0e2-ab16-799a-85ae-fa4fbe2990a7","user":{"id":"019317a0-b7e5-7eeb-a7eb-bd18cf39a633","meta":{},"created_on":"2024-11-10T19:50:29.093Z","created_by_id":null,"modified_on":"2025-03-05T18:47:29.902Z","modified_by_id":"019317a0-b7e5-7eeb-a7eb-bd18cf39a633","deleted_on":null,"deleted_by_id":null,"tenant_id":"00000000-0000-0000-0000-000000000000","email":"mikeangel@mailinator.com","status":"active","first_name":"Mike","last_name":"Angelo","twofa_enabled":false,"last_active":"2025-03-05T18:47:29.902Z","last_ip":"104.23.190.41","allowed_ips":null,"last_timezone":"","last_location":"","phone":"+234(0)9055755671","review":null,"gender":"male","date_of_birth":null,"cba_id":"19","photo_id":null,"referral_code":"AZVBZI","referred_by":null}},{"id":"0194d838-edb1-7cc1-a9b4-cabd8654eafd","meta":{"recipients":[{"amount":1,"bank_code":"999998","bank_name":"vee test","narration":"","account_name":"vee Test","account_number":"0112345678"}]},"created_on":"2025-02-05T22:26:37.106Z","created_by_id":"019317a0-b7e5-7eeb-a7eb-bd18cf39a633","modified_on":"2025-02-05T22:26:37.106Z","modified_by_id":null,"deleted_on":null,"deleted_by_id":null,"tenant_id":"00000000-0000-0000-0000-000000000000","frequency":"once","type":"transfer","start_date":"2025-02-07T00:00:00.000Z","next_run_date":"2025-02-07T00:00:00.000Z","end_date":"2025-02-07T00:00:00.000Z","status":"active","amount":"0.00","profile_id":"01931947-9fea-744d-8f66-118c138292e3","account_id":"0193f0e2-ab16-799a-85ae-fa4fbe2990a7","user":{"id":"019317a0-b7e5-7eeb-a7eb-bd18cf39a633","meta":{},"created_on":"2024-11-10T19:50:29.093Z","created_by_id":null,"modified_on":"2025-03-05T18:47:29.902Z","modified_by_id":"019317a0-b7e5-7eeb-a7eb-bd18cf39a633","deleted_on":null,"deleted_by_id":null,"tenant_id":"00000000-0000-0000-0000-000000000000","email":"mikeangel@mailinator.com","status":"active","first_name":"Mike","last_name":"Angelo","twofa_enabled":false,"last_active":"2025-03-05T18:47:29.902Z","last_ip":"104.23.190.41","allowed_ips":null,"last_timezone":"","last_location":"","phone":"+234(0)9055755671","review":null,"gender":"male","date_of_birth":null,"cba_id":"19","photo_id":null,"referral_code":"AZVBZI","referred_by":null}},{"id":"0194d82a-b65b-7cc1-a9b4-90576ddc23d4","meta":{"recipients":[{"amount":5,"bank_code":"999998","bank_name":"vee test","narration":"","account_name":"vee Test","account_number":"0112345678"}]},"created_on":"2025-02-05T22:11:05.436Z","created_by_id":"019317a0-b7e5-7eeb-a7eb-bd18cf39a633","modified_on":"2025-02-05T22:11:05.436Z","modified_by_id":null,"deleted_on":null,"deleted_by_id":null,"tenant_id":"00000000-0000-0000-0000-000000000000","frequency":"once","type":"transfer","start_date":"2025-02-07T00:00:00.000Z","next_run_date":"2025-02-07T00:00:00.000Z","end_date":"2025-02-07T00:00:00.000Z","status":"active","amount":"0.00","profile_id":"01931947-9fea-744d-8f66-118c138292e3","account_id":"0193f0e2-ab16-799a-85ae-fa4fbe2990a7","user":{"id":"019317a0-b7e5-7eeb-a7eb-bd18cf39a633","meta":{},"created_on":"2024-11-10T19:50:29.093Z","created_by_id":null,"modified_on":"2025-03-05T18:47:29.902Z","modified_by_id":"019317a0-b7e5-7eeb-a7eb-bd18cf39a633","deleted_on":null,"deleted_by_id":null,"tenant_id":"00000000-0000-0000-0000-000000000000","email":"mikeangel@mailinator.com","status":"active","first_name":"Mike","last_name":"Angelo","twofa_enabled":false,"last_active":"2025-03-05T18:47:29.902Z","last_ip":"104.23.190.41","allowed_ips":null,"last_timezone":"","last_location":"","phone":"+234(0)9055755671","review":null,"gender":"male","date_of_birth":null,"cba_id":"19","photo_id":null,"referral_code":"AZVBZI","referred_by":null}},{"id":"0194d82a-41cd-7cc1-a9b4-8e10a449ef4a","meta":{"recipients":[{"amount":50,"bank_code":"999998","bank_name":"vee test","narration":"","account_name":"vee Test","account_number":"0112345678"}]},"created_on":"2025-02-05T22:10:35.540Z","created_by_id":"019317a0-b7e5-7eeb-a7eb-bd18cf39a633","modified_on":"2025-02-05T22:10:35.540Z","modified_by_id":null,"deleted_on":null,"deleted_by_id":null,"tenant_id":"00000000-0000-0000-0000-000000000000","frequency":"daily","type":"transfer","start_date":"2025-02-06T00:00:00.000Z","next_run_date":"2025-02-06T00:00:00.000Z","end_date":"2025-02-20T00:00:00.000Z","status":"active","amount":"0.00","profile_id":"01931947-9fea-744d-8f66-118c138292e3","account_id":"0193f0e2-ab16-799a-85ae-fa4fbe2990a7","user":{"id":"019317a0-b7e5-7eeb-a7eb-bd18cf39a633","meta":{},"created_on":"2024-11-10T19:50:29.093Z","created_by_id":null,"modified_on":"2025-03-05T18:47:29.902Z","modified_by_id":"019317a0-b7e5-7eeb-a7eb-bd18cf39a633","deleted_on":null,"deleted_by_id":null,"tenant_id":"00000000-0000-0000-0000-000000000000","email":"mikeangel@mailinator.com","status":"active","first_name":"Mike","last_name":"Angelo","twofa_enabled":false,"last_active":"2025-03-05T18:47:29.902Z","last_ip":"104.23.190.41","allowed_ips":null,"last_timezone":"","last_location":"","phone":"+234(0)9055755671","review":null,"gender":"male","date_of_birth":null,"cba_id":"19","photo_id":null,"referral_code":"AZVBZI","referred_by":null}},{"id":"0194d81b-b29f-7cc1-a9b4-2e866e9c5248","meta":{"recipients":[{"amount":500,"bank_code":"000010","bank_name":"Ecobank Nigeria","narration":"","account_name":"John Doe","account_number":"0005643122"}]},"created_on":"2025-02-05T21:54:41.440Z","created_by_id":"019317a0-b7e5-7eeb-a7eb-bd18cf39a633","modified_on":"2025-02-05T21:54:41.440Z","modified_by_id":null,"deleted_on":null,"deleted_by_id":null,"tenant_id":"00000000-0000-0000-0000-000000000000","frequency":"daily","type":"transfer","start_date":"2025-02-08T00:00:00.000Z","next_run_date":"2025-02-08T00:00:00.000Z","end_date":"2025-02-18T00:00:00.000Z","status":"active","amount":"0.00","profile_id":"01931947-9fea-744d-8f66-118c138292e3","account_id":"0193f0e2-ab16-799a-85ae-fa4fbe2990a7","user":{"id":"019317a0-b7e5-7eeb-a7eb-bd18cf39a633","meta":{},"created_on":"2024-11-10T19:50:29.093Z","created_by_id":null,"modified_on":"2025-03-05T18:47:29.902Z","modified_by_id":"019317a0-b7e5-7eeb-a7eb-bd18cf39a633","deleted_on":null,"deleted_by_id":null,"tenant_id":"00000000-0000-0000-0000-000000000000","email":"mikeangel@mailinator.com","status":"active","first_name":"Mike","last_name":"Angelo","twofa_enabled":false,"last_active":"2025-03-05T18:47:29.902Z","last_ip":"104.23.190.41","allowed_ips":null,"last_timezone":"","last_location":"","phone":"+234(0)9055755671","review":null,"gender":"male","date_of_birth":null,"cba_id":"19","photo_id":null,"referral_code":"AZVBZI","referred_by":null}},{"id":"0194d818-ef98-7cc1-a9b4-27907813c5ad","meta":{"recipients":[{"amount":500,"bank_code":"000010","bank_name":"Ecobank Nigeria","narration":"","account_name":"John Doe","account_number":"0005643122"}]},"created_on":"2025-02-05T21:51:40.441Z","created_by_id":"019317a0-b7e5-7eeb-a7eb-bd18cf39a633","modified_on":"2025-02-05T21:51:40.441Z","modified_by_id":null,"deleted_on":null,"deleted_by_id":null,"tenant_id":"00000000-0000-0000-0000-000000000000","frequency":"once","type":"transfer","start_date":"2025-02-06T00:00:00.000Z","next_run_date":"2025-02-06T00:00:00.000Z","end_date":"2025-02-06T00:00:00.000Z","status":"active","amount":"0.00","profile_id":"01931947-9fea-744d-8f66-118c138292e3","account_id":"0193f0e2-ab16-799a-85ae-fa4fbe2990a7","user":{"id":"019317a0-b7e5-7eeb-a7eb-bd18cf39a633","meta":{},"created_on":"2024-11-10T19:50:29.093Z","created_by_id":null,"modified_on":"2025-03-05T18:47:29.902Z","modified_by_id":"019317a0-b7e5-7eeb-a7eb-bd18cf39a633","deleted_on":null,"deleted_by_id":null,"tenant_id":"00000000-0000-0000-0000-000000000000","email":"mikeangel@mailinator.com","status":"active","first_name":"Mike","last_name":"Angelo","twofa_enabled":false,"last_active":"2025-03-05T18:47:29.902Z","last_ip":"104.23.190.41","allowed_ips":null,"last_timezone":"","last_location":"","phone":"+234(0)9055755671","review":null,"gender":"male","date_of_birth":null,"cba_id":"19","photo_id":null,"referral_code":"AZVBZI","referred_by":null}},{"id":"0194d817-7b33-7cc1-a9b4-05be7ef91fa7","meta":{"recipients":[{"amount":1,"bank_code":"999998","bank_name":"vee test","narration":"","account_name":"vee Test","account_number":"0112345678"}]},"created_on":"2025-02-05T21:50:05.108Z","created_by_id":"019317a0-b7e5-7eeb-a7eb-bd18cf39a633","modified_on":"2025-02-05T21:50:05.108Z","modified_by_id":null,"deleted_on":null,"deleted_by_id":null,"tenant_id":"00000000-0000-0000-0000-000000000000","frequency":"weekly","type":"transfer","start_date":"2025-02-12T00:00:00.000Z","next_run_date":"2025-02-12T00:00:00.000Z","end_date":"2025-02-20T00:00:00.000Z","status":"active","amount":"0.00","profile_id":"01931947-9fea-744d-8f66-118c138292e3","account_id":"0193f0e2-ab16-799a-85ae-fa4fbe2990a7","user":{"id":"019317a0-b7e5-7eeb-a7eb-bd18cf39a633","meta":{},"created_on":"2024-11-10T19:50:29.093Z","created_by_id":null,"modified_on":"2025-03-05T18:47:29.902Z","modified_by_id":"019317a0-b7e5-7eeb-a7eb-bd18cf39a633","deleted_on":null,"deleted_by_id":null,"tenant_id":"00000000-0000-0000-0000-000000000000","email":"mikeangel@mailinator.com","status":"active","first_name":"Mike","last_name":"Angelo","twofa_enabled":false,"last_active":"2025-03-05T18:47:29.902Z","last_ip":"104.23.190.41","allowed_ips":null,"last_timezone":"","last_location":"","phone":"+234(0)9055755671","review":null,"gender":"male","date_of_birth":null,"cba_id":"19","photo_id":null,"referral_code":"AZVBZI","referred_by":null}}],"meta":{"page":1,"total_pages":9,"total_items":85}}