{"status":"success","data":[{"id":"0193b706-17f2-7887-bcd8-f02405c09dd1","meta":null,"created_on":"2024-12-11T18:40:50.162Z","created_by":"019317a0-b7e5-7eeb-a7eb-bd18cf39a633","modified_on":"2024-12-11T18:40:50.162Z","modified_by":null,"deleted_on":null,"deleted_by":null,"tenant_id":"00000000-0000-0000-0000-000000000000","account_id":"0193912b-6f5e-7335-b5bc-3302dcc08103","profile_id":"01931947-9fea-744d-8f66-118c138292e3","currency":"NGN","amount":"10.00","reference":"Tiytoxakeen","processor_reference":null,"processor_status":null,"processor_message":null,"status":"processing","entry_type":"debit","narration":"Sodiq","transaction_date":"2024-12-11T18:40:50.161Z","transaction_type":"fee","processor":"cba","reviewed_on":null,"reviewed_by":null,"batch_id":null,"schedule_id":null,"transfer":null,"transfer_beneficiary":null,"bill_payment_beneficiary":null,"disputes":[],"batch":null,"account":{"id":"0193912b-6f5e-7335-b5bc-3302dcc08103","meta":null,"created_on":"2024-12-04T10:16:03.166Z","created_by":null,"modified_on":"2024-12-11T18:40:49.510Z","modified_by":null,"deleted_on":null,"deleted_by":null,"tenant_id":"00000000-0000-0000-0000-000000000000","name":"Education","cba_id":"0000000041","profile_id":"01931947-9fea-744d-8f66-118c138292e3","account_number":"0000000041","ledger_balance":"4020.84","hold_balance":"0.00","available_balance":"4020.84","currency":"NGN","restricted":false}},{"id":"0193b706-17e4-7887-bcd8-e2e67301e23d","meta":null,"created_on":"2024-12-11T18:40:50.148Z","created_by":"019317a0-b7e5-7eeb-a7eb-bd18cf39a633","modified_on":"2024-12-11T18:40:50.685Z","modified_by":null,"deleted_on":null,"deleted_by":null,"tenant_id":"00000000-0000-0000-0000-000000000000","account_id":"0193912b-6f5e-7335-b5bc-3302dcc08103","profile_id":"01931947-9fea-744d-8f66-118c138292e3","currency":"NGN","amount":"100.00","reference":"Tiytoxakeen","processor_reference":null,"processor_status":null,"processor_message":null,"status":"success","entry_type":"debit","narration":"Sodiq","transaction_date":"2024-12-11T18:40:50.140Z","transaction_type":"transfer","processor":"cba","reviewed_on":null,"reviewed_by":null,"batch_id":null,"schedule_id":null,"transfer":{"id":"0193b706-17e8-7887-bcd8-eb6811394fa8","meta":null,"created_on":"2024-12-11T18:40:50.148Z","created_by":"019317a0-b7e5-7eeb-a7eb-bd18cf39a633","modified_on":"2024-12-11T18:40:50.148Z","modified_by":null,"deleted_on":null,"deleted_by":null,"tenant_id":"00000000-0000-0000-0000-000000000000","bank_code":"050030","bank_name":"NORTHQUEST FINANCE COMPANY LIMITED ","account_name":"Eazi Wallet","account_number":"0000000074","profile_id":"01931947-9fea-744d-8f66-118c138292e3","transaction_id":"0193b706-17e4-7887-bcd8-e2e67301e23d","account_id":"0193912b-6f5e-7335-b5bc-3302dcc08103"},"transfer_beneficiary":null,"bill_payment_beneficiary":null,"disputes":[],"batch":null,"account":{"id":"0193912b-6f5e-7335-b5bc-3302dcc08103","meta":null,"created_on":"2024-12-04T10:16:03.166Z","created_by":null,"modified_on":"2024-12-11T18:40:49.510Z","modified_by":null,"deleted_on":null,"deleted_by":null,"tenant_id":"00000000-0000-0000-0000-000000000000","name":"Education","cba_id":"0000000041","profile_id":"01931947-9fea-744d-8f66-118c138292e3","account_number":"0000000041","ledger_balance":"4020.84","hold_balance":"0.00","available_balance":"4020.84","currency":"NGN","restricted":false}},{"id":"0193b6ce-0c60-7887-bcd7-6a3d962424ad","meta":null,"created_on":"2024-12-11T17:39:37.185Z","created_by":"019317a0-b7e5-7eeb-a7eb-bd18cf39a633","modified_on":"2024-12-11T17:39:37.787Z","modified_by":null,"deleted_on":null,"deleted_by":null,"tenant_id":"00000000-0000-0000-0000-000000000000","account_id":"0193912b-6f5e-7335-b5bc-3302dcc08103","profile_id":"01931947-9fea-744d-8f66-118c138292e3","currency":"NGN","amount":"10.00","reference":"Tcaouejxamk","processor_reference":null,"processor_status":null,"processor_message":null,"status":"success","entry_type":"debit","narration":"Nothing","transaction_date":"2024-12-11T17:39:37.184Z","transaction_type":"fee","processor":"cba","reviewed_on":null,"reviewed_by":null,"batch_id":null,"schedule_id":null,"transfer":null,"transfer_beneficiary":null,"bill_payment_beneficiary":null,"disputes":[],"batch":null,"account":{"id":"0193912b-6f5e-7335-b5bc-3302dcc08103","meta":null,"created_on":"2024-12-04T10:16:03.166Z","created_by":null,"modified_on":"2024-12-11T18:40:49.510Z","modified_by":null,"deleted_on":null,"deleted_by":null,"tenant_id":"00000000-0000-0000-0000-000000000000","name":"Education","cba_id":"0000000041","profile_id":"01931947-9fea-744d-8f66-118c138292e3","account_number":"0000000041","ledger_balance":"4020.84","hold_balance":"0.00","available_balance":"4020.84","currency":"NGN","restricted":false}},{"id":"0193b6ce-0c47-7887-bcd7-51fb40a87ffe","meta":null,"created_on":"2024-12-11T17:39:37.159Z","created_by":"019317a0-b7e5-7eeb-a7eb-bd18cf39a633","modified_on":"2024-12-11T17:39:37.783Z","modified_by":null,"deleted_on":null,"deleted_by":null,"tenant_id":"00000000-0000-0000-0000-000000000000","account_id":"0193912b-6f5e-7335-b5bc-3302dcc08103","profile_id":"01931947-9fea-744d-8f66-118c138292e3","currency":"NGN","amount":"80.00","reference":"Tcaouejxamk","processor_reference":"Tcaouejxamk","processor_status":"00","processor_message":"Transfer Successful","status":"success","entry_type":"debit","narration":"Nothing","transaction_date":"2024-12-11T17:39:37.131Z","transaction_type":"transfer","processor":"nip","reviewed_on":null,"reviewed_by":null,"batch_id":null,"schedule_id":null,"transfer":{"id":"0193b6ce-0c4b-7887-bcd7-5b8e0bebbc2e","meta":null,"created_on":"2024-12-11T17:39:37.159Z","created_by":"019317a0-b7e5-7eeb-a7eb-bd18cf39a633","modified_on":"2024-12-11T17:39:37.159Z","modified_by":null,"deleted_on":null,"deleted_by":null,"tenant_id":"00000000-0000-0000-0000-000000000000","bank_code":"000014","bank_name":"Access Bank","account_name":"John Doe","account_number":"0112345678","profile_id":"01931947-9fea-744d-8f66-118c138292e3","transaction_id":"0193b6ce-0c47-7887-bcd7-51fb40a87ffe","account_id":"0193912b-6f5e-7335-b5bc-3302dcc08103"},"transfer_beneficiary":{"id":"0193b6ce-0c52-7887-bcd7-6723dc825a22","meta":null,"created_on":"2024-12-11T17:39:37.159Z","created_by":"019317a0-b7e5-7eeb-a7eb-bd18cf39a633","modified_on":"2024-12-11T17:39:37.159Z","modified_by":null,"deleted_on":null,"deleted_by":null,"tenant_id":"00000000-0000-0000-0000-000000000000","transaction_id":"0193b6ce-0c47-7887-bcd7-51fb40a87ffe","beneficiary_id":"0193a720-e549-7881-8b82-ba1fee449278"},"bill_payment_beneficiary":null,"disputes":[],"batch":null,"account":{"id":"0193912b-6f5e-7335-b5bc-3302dcc08103","meta":null,"created_on":"2024-12-04T10:16:03.166Z","created_by":null,"modified_on":"2024-12-11T18:40:49.510Z","modified_by":null,"deleted_on":null,"deleted_by":null,"tenant_id":"00000000-0000-0000-0000-000000000000","name":"Education","cba_id":"0000000041","profile_id":"01931947-9fea-744d-8f66-118c138292e3","account_number":"0000000041","ledger_balance":"4020.84","hold_balance":"0.00","available_balance":"4020.84","currency":"NGN","restricted":false}},{"id":"0193b6a2-b3ae-7887-bcd6-6f9addafed31","meta":null,"created_on":"2024-12-11T16:52:16.351Z","created_by":"019317a0-b7e5-7eeb-a7eb-bd18cf39a633","modified_on":"2024-12-11T16:52:18.531Z","modified_by":null,"deleted_on":null,"deleted_by":null,"tenant_id":"00000000-0000-0000-0000-000000000000","account_id":"0193912b-6f5e-7335-b5bc-3302dcc08103","profile_id":"01931947-9fea-744d-8f66-118c138292e3","currency":"NGN","amount":"10.00","reference":"Tvbxukdtcsb","processor_reference":null,"processor_status":null,"processor_message":null,"status":"success","entry_type":"debit","narration":"only","transaction_date":"2024-12-11T16:52:16.350Z","transaction_type":"fee","processor":"cba","reviewed_on":null,"reviewed_by":null,"batch_id":null,"schedule_id":null,"transfer":null,"transfer_beneficiary":null,"bill_payment_beneficiary":null,"disputes":[],"batch":null,"account":{"id":"0193912b-6f5e-7335-b5bc-3302dcc08103","meta":null,"created_on":"2024-12-04T10:16:03.166Z","created_by":null,"modified_on":"2024-12-11T18:40:49.510Z","modified_by":null,"deleted_on":null,"deleted_by":null,"tenant_id":"00000000-0000-0000-0000-000000000000","name":"Education","cba_id":"0000000041","profile_id":"01931947-9fea-744d-8f66-118c138292e3","account_number":"0000000041","ledger_balance":"4020.84","hold_balance":"0.00","available_balance":"4020.84","currency":"NGN","restricted":false}},{"id":"0193b6a2-b3ad-7887-bcd6-67fa63ff59d6","meta":null,"created_on":"2024-12-11T16:52:16.351Z","created_by":"019317a0-b7e5-7eeb-a7eb-bd18cf39a633","modified_on":"2024-12-11T16:52:17.249Z","modified_by":null,"deleted_on":null,"deleted_by":null,"tenant_id":"00000000-0000-0000-0000-000000000000","account_id":"0193912b-6f5e-7335-b5bc-3302dcc08103","profile_id":"01931947-9fea-744d-8f66-118c138292e3","currency":"NGN","amount":"10.00","reference":"Tzqdzufyxgb","processor_reference":null,"processor_status":null,"processor_message":null,"status":"success","entry_type":"debit","narration":"bills","transaction_date":"2024-12-11T16:52:16.349Z","transaction_type":"fee","processor":"cba","reviewed_on":null,"reviewed_by":null,"batch_id":null,"schedule_id":null,"transfer":null,"transfer_beneficiary":null,"bill_payment_beneficiary":null,"disputes":[],"batch":null,"account":{"id":"0193912b-6f5e-7335-b5bc-3302dcc08103","meta":null,"created_on":"2024-12-04T10:16:03.166Z","created_by":null,"modified_on":"2024-12-11T18:40:49.510Z","modified_by":null,"deleted_on":null,"deleted_by":null,"tenant_id":"00000000-0000-0000-0000-000000000000","name":"Education","cba_id":"0000000041","profile_id":"01931947-9fea-744d-8f66-118c138292e3","account_number":"0000000041","ledger_balance":"4020.84","hold_balance":"0.00","available_balance":"4020.84","currency":"NGN","restricted":false}},{"id":"0193b6a2-b313-7887-bcd6-4eda9777186f","meta":null,"created_on":"2024-12-11T16:52:16.139Z","created_by":"019317a0-b7e5-7eeb-a7eb-bd18cf39a633","modified_on":"2024-12-11T16:52:17.245Z","modified_by":null,"deleted_on":null,"deleted_by":null,"tenant_id":"00000000-0000-0000-0000-000000000000","account_id":"0193912b-6f5e-7335-b5bc-3302dcc08103","profile_id":"01931947-9fea-744d-8f66-118c138292e3","currency":"NGN","amount":"50.00","reference":"Tzqdzufyxgb","processor_reference":"Tzqdzufyxgb","processor_status":"00","processor_message":"Transfer Successful","status":"success","entry_type":"debit","narration":"bills","transaction_date":"2024-12-11T16:52:16.275Z","transaction_type":"transfer","processor":"nip","reviewed_on":null,"reviewed_by":null,"batch_id":"0193b6a2-b28c-7887-bcd6-3d328366fd1c","schedule_id":null,"transfer":{"id":"0193b6a2-b316-7887-bcd6-5f550f52a820","meta":null,"created_on":"2024-12-11T16:52:16.139Z","created_by":"019317a0-b7e5-7eeb-a7eb-bd18cf39a633","modified_on":"2024-12-11T16:52:16.139Z","modified_by":null,"deleted_on":null,"deleted_by":null,"tenant_id":"00000000-0000-0000-0000-000000000000","bank_code":"999998","bank_name":"vee test","account_name":"John Doe","account_number":"1102003467","profile_id":"01931947-9fea-744d-8f66-118c138292e3","transaction_id":"0193b6a2-b313-7887-bcd6-4eda9777186f","account_id":"0193912b-6f5e-7335-b5bc-3302dcc08103"},"transfer_beneficiary":null,"bill_payment_beneficiary":null,"disputes":[],"batch":{"id":"0193b6a2-b28c-7887-bcd6-3d328366fd1c","meta":null,"created_on":"2024-12-11T16:52:16.139Z","created_by":"019317a0-b7e5-7eeb-a7eb-bd18cf39a633","modified_on":"2024-12-11T16:52:16.139Z","modified_by":null,"deleted_on":null,"deleted_by":null,"tenant_id":"00000000-0000-0000-0000-000000000000","status":"approved"},"account":{"id":"0193912b-6f5e-7335-b5bc-3302dcc08103","meta":null,"created_on":"2024-12-04T10:16:03.166Z","created_by":null,"modified_on":"2024-12-11T18:40:49.510Z","modified_by":null,"deleted_on":null,"deleted_by":null,"tenant_id":"00000000-0000-0000-0000-000000000000","name":"Education","cba_id":"0000000041","profile_id":"01931947-9fea-744d-8f66-118c138292e3","account_number":"0000000041","ledger_balance":"4020.84","hold_balance":"0.00","available_balance":"4020.84","currency":"NGN","restricted":false}},{"id":"0193b6a2-b2fd-7887-bcd6-43afa9e8922f","meta":null,"created_on":"2024-12-11T16:52:16.139Z","created_by":"019317a0-b7e5-7eeb-a7eb-bd18cf39a633","modified_on":"2024-12-11T16:52:18.527Z","modified_by":null,"deleted_on":null,"deleted_by":null,"tenant_id":"00000000-0000-0000-0000-000000000000","account_id":"0193912b-6f5e-7335-b5bc-3302dcc08103","profile_id":"01931947-9fea-744d-8f66-118c138292e3","currency":"NGN","amount":"60.00","reference":"Tvbxukdtcsb","processor_reference":"Tvbxukdtcsb","processor_status":"00","processor_message":"Transfer Successful","status":"success","entry_type":"debit","narration":"only","transaction_date":"2024-12-11T16:52:16.252Z","transaction_type":"transfer","processor":"nip","reviewed_on":null,"reviewed_by":null,"batch_id":"0193b6a2-b28c-7887-bcd6-3d328366fd1c","schedule_id":null,"transfer":{"id":"0193b6a2-b316-7887-bcd6-519d7ba1a21a","meta":null,"created_on":"2024-12-11T16:52:16.139Z","created_by":"019317a0-b7e5-7eeb-a7eb-bd18cf39a633","modified_on":"2024-12-11T16:52:16.139Z","modified_by":null,"deleted_on":null,"deleted_by":null,"tenant_id":"00000000-0000-0000-0000-000000000000","bank_code":"999998","bank_name":"vee test","account_name":"John Doe","account_number":"1102003467","profile_id":"01931947-9fea-744d-8f66-118c138292e3","transaction_id":"0193b6a2-b2fd-7887-bcd6-43afa9e8922f","account_id":"0193912b-6f5e-7335-b5bc-3302dcc08103"},"transfer_beneficiary":null,"bill_payment_beneficiary":null,"disputes":[],"batch":{"id":"0193b6a2-b28c-7887-bcd6-3d328366fd1c","meta":null,"created_on":"2024-12-11T16:52:16.139Z","created_by":"019317a0-b7e5-7eeb-a7eb-bd18cf39a633","modified_on":"2024-12-11T16:52:16.139Z","modified_by":null,"deleted_on":null,"deleted_by":null,"tenant_id":"00000000-0000-0000-0000-000000000000","status":"approved"},"account":{"id":"0193912b-6f5e-7335-b5bc-3302dcc08103","meta":null,"created_on":"2024-12-04T10:16:03.166Z","created_by":null,"modified_on":"2024-12-11T18:40:49.510Z","modified_by":null,"deleted_on":null,"deleted_by":null,"tenant_id":"00000000-0000-0000-0000-000000000000","name":"Education","cba_id":"0000000041","profile_id":"01931947-9fea-744d-8f66-118c138292e3","account_number":"0000000041","ledger_balance":"4020.84","hold_balance":"0.00","available_balance":"4020.84","currency":"NGN","restricted":false}},{"id":"0193b658-71c7-7880-8112-cbc755ef85fc","meta":null,"created_on":"2024-12-11T15:31:09.895Z","created_by":"019317a0-b7e5-7eeb-a7eb-bd18cf39a633","modified_on":"2024-12-11T15:31:09.895Z","modified_by":null,"deleted_on":null,"deleted_by":null,"tenant_id":"00000000-0000-0000-0000-000000000000","account_id":"0193912b-6f5e-7335-b5bc-3302dcc08103","profile_id":"01931947-9fea-744d-8f66-118c138292e3","currency":"NGN","amount":"10.00","reference":"Tloyblnorea","processor_reference":null,"processor_status":null,"processor_message":null,"status":"processing","entry_type":"debit","narration":"Sodiq","transaction_date":"2024-12-11T15:31:09.894Z","transaction_type":"fee","processor":"cba","reviewed_on":null,"reviewed_by":null,"batch_id":null,"schedule_id":null,"transfer":null,"transfer_beneficiary":null,"bill_payment_beneficiary":null,"disputes":[],"batch":null,"account":{"id":"0193912b-6f5e-7335-b5bc-3302dcc08103","meta":null,"created_on":"2024-12-04T10:16:03.166Z","created_by":null,"modified_on":"2024-12-11T18:40:49.510Z","modified_by":null,"deleted_on":null,"deleted_by":null,"tenant_id":"00000000-0000-0000-0000-000000000000","name":"Education","cba_id":"0000000041","profile_id":"01931947-9fea-744d-8f66-118c138292e3","account_number":"0000000041","ledger_balance":"4020.84","hold_balance":"0.00","available_balance":"4020.84","currency":"NGN","restricted":false}},{"id":"0193b658-71bd-7880-8112-ba7364eacdc3","meta":null,"created_on":"2024-12-11T15:31:09.885Z","created_by":"019317a0-b7e5-7eeb-a7eb-bd18cf39a633","modified_on":"2024-12-11T15:31:10.395Z","modified_by":null,"deleted_on":null,"deleted_by":null,"tenant_id":"00000000-0000-0000-0000-000000000000","account_id":"0193912b-6f5e-7335-b5bc-3302dcc08103","profile_id":"01931947-9fea-744d-8f66-118c138292e3","currency":"NGN","amount":"100.00","reference":"Tloyblnorea","processor_reference":null,"processor_status":null,"processor_message":null,"status":"success","entry_type":"debit","narration":"Sodiq","transaction_date":"2024-12-11T15:31:09.876Z","transaction_type":"transfer","processor":"cba","reviewed_on":null,"reviewed_by":null,"batch_id":null,"schedule_id":null,"transfer":{"id":"0193b658-71c0-7880-8112-c027ff1c7ca2","meta":null,"created_on":"2024-12-11T15:31:09.885Z","created_by":"019317a0-b7e5-7eeb-a7eb-bd18cf39a633","modified_on":"2024-12-11T15:31:09.885Z","modified_by":null,"deleted_on":null,"deleted_by":null,"tenant_id":"00000000-0000-0000-0000-000000000000","bank_code":"050030","bank_name":"NORTHQUEST FINANCE COMPANY LIMITED ","account_name":"Eazi Wallet","account_number":"0000000074","profile_id":"01931947-9fea-744d-8f66-118c138292e3","transaction_id":"0193b658-71bd-7880-8112-ba7364eacdc3","account_id":"0193912b-6f5e-7335-b5bc-3302dcc08103"},"transfer_beneficiary":null,"bill_payment_beneficiary":null,"disputes":[],"batch":null,"account":{"id":"0193912b-6f5e-7335-b5bc-3302dcc08103","meta":null,"created_on":"2024-12-04T10:16:03.166Z","created_by":null,"modified_on":"2024-12-11T18:40:49.510Z","modified_by":null,"deleted_on":null,"deleted_by":null,"tenant_id":"00000000-0000-0000-0000-000000000000","name":"Education","cba_id":"0000000041","profile_id":"01931947-9fea-744d-8f66-118c138292e3","account_number":"0000000041","ledger_balance":"4020.84","hold_balance":"0.00","available_balance":"4020.84","currency":"NGN","restricted":false}}],"meta":{"page":1,"total_pages":127,"total_items":1266}}