{"status":"success","data":[{"id":"0194bbe4-40c3-7448-b8f8-3eb770312a8a","meta":{"business-types":"Sole Proprietorship"},"created_on":"2025-01-31T10:24:45.762Z","created_by_id":"0194bbe4-1a10-7448-b8f8-28ea0803aa3d","modified_on":"2025-01-31T10:24:45.762Z","modified_by_id":null,"deleted_on":null,"deleted_by_id":null,"tenant_id":"00000000-0000-0000-0000-000000000000","name":"Profile","type":"business","status":"active","review":null,"allowed_time_periods":null,"primary_user_id":"0194bbe4-1a10-7448-b8f8-28ea0803aa3d","tier_id":null,"primary_user":{"id":"0194bbe4-1a10-7448-b8f8-28ea0803aa3d","meta":null,"created_on":"2025-01-31T10:24:35.856Z","created_by_id":null,"modified_on":"2025-01-31T10:39:21.463Z","modified_by_id":"0194bbe4-1a10-7448-b8f8-28ea0803aa3d","deleted_on":null,"deleted_by_id":null,"tenant_id":"00000000-0000-0000-0000-000000000000","email":"Arc@mailinator.com","status":"active","first_name":"Tyo","last_name":"Rat","twofa_enabled":false,"last_active":"2025-01-31T10:39:21.463Z","last_ip":"141.101.98.15","allowed_ips":null,"last_timezone":"Europe/London","last_location":"London","phone":"+2349055755598","review":null,"gender":null,"date_of_birth":null,"cba_id":null,"photo_id":null,"referral_code":"3999FE","allowed_locations":null,"referred_by":null},"tier":null},{"id":"0194b87b-a12c-7bb8-88e9-cec69df15839","meta":null,"created_on":"2025-01-30T18:31:37.516Z","created_by_id":"019372de-17ef-7cc2-8fc0-43fe11ba042f","modified_on":"2025-01-30T18:31:37.516Z","modified_by_id":null,"deleted_on":null,"deleted_by_id":null,"tenant_id":"00000000-0000-0000-0000-000000000000","name":"Nolan Group Business","type":"business","status":"active","review":null,"allowed_time_periods":null,"primary_user_id":"019372de-17ef-7cc2-8fc0-43fe11ba042f","tier_id":null,"primary_user":{"id":"019372de-17ef-7cc2-8fc0-43fe11ba042f","meta":{},"created_on":"2024-11-28T13:02:58.029Z","created_by_id":null,"modified_on":"2025-02-05T18:36:49.602Z","modified_by_id":"019372de-17ef-7cc2-8fc0-43fe11ba042f","deleted_on":null,"deleted_by_id":null,"tenant_id":"00000000-0000-0000-0000-000000000000","email":"ismael@mailinator.com","status":"active","first_name":"Sunday","last_name":"Testing","twofa_enabled":false,"last_active":"2025-02-05T18:28:38.748Z","last_ip":"172.70.91.164","allowed_ips":null,"last_timezone":"Europe/London","last_location":"London","phone":"+2349055755671","review":null,"gender":"male","date_of_birth":null,"cba_id":"31","photo_id":null,"referral_code":"7LD1QN","allowed_locations":["abia","adamawa","akwa-ibom","anambra","bauchi","bayelsa","benue"],"referred_by":null},"tier":null},{"id":"0194b83b-1cc6-7bb8-88e6-71e0925be9f0","meta":null,"created_on":"2025-01-30T17:21:09.317Z","created_by_id":"019372de-17ef-7cc2-8fc0-43fe11ba042f","modified_on":"2025-01-30T17:21:09.317Z","modified_by_id":null,"deleted_on":null,"deleted_by_id":null,"tenant_id":"00000000-0000-0000-0000-000000000000","name":"Spencer - Predovic Business","type":"business","status":"active","review":null,"allowed_time_periods":null,"primary_user_id":"019372de-17ef-7cc2-8fc0-43fe11ba042f","tier_id":null,"primary_user":{"id":"019372de-17ef-7cc2-8fc0-43fe11ba042f","meta":{},"created_on":"2024-11-28T13:02:58.029Z","created_by_id":null,"modified_on":"2025-02-05T18:36:49.602Z","modified_by_id":"019372de-17ef-7cc2-8fc0-43fe11ba042f","deleted_on":null,"deleted_by_id":null,"tenant_id":"00000000-0000-0000-0000-000000000000","email":"ismael@mailinator.com","status":"active","first_name":"Sunday","last_name":"Testing","twofa_enabled":false,"last_active":"2025-02-05T18:28:38.748Z","last_ip":"172.70.91.164","allowed_ips":null,"last_timezone":"Europe/London","last_location":"London","phone":"+2349055755671","review":null,"gender":"male","date_of_birth":null,"cba_id":"31","photo_id":null,"referral_code":"7LD1QN","allowed_locations":["abia","adamawa","akwa-ibom","anambra","bauchi","bayelsa","benue"],"referred_by":null},"tier":null},{"id":"0194b7e0-c8be-7bb8-88e2-bac9c622dea2","meta":null,"created_on":"2025-01-30T15:42:29.561Z","created_by_id":"019372de-17ef-7cc2-8fc0-43fe11ba042f","modified_on":"2025-01-30T15:42:29.561Z","modified_by_id":null,"deleted_on":null,"deleted_by_id":null,"tenant_id":"00000000-0000-0000-0000-000000000000","name":"Dibbert, Miller and Larson Business","type":"business","status":"active","review":null,"allowed_time_periods":null,"primary_user_id":"019372de-17ef-7cc2-8fc0-43fe11ba042f","tier_id":null,"primary_user":{"id":"019372de-17ef-7cc2-8fc0-43fe11ba042f","meta":{},"created_on":"2024-11-28T13:02:58.029Z","created_by_id":null,"modified_on":"2025-02-05T18:36:49.602Z","modified_by_id":"019372de-17ef-7cc2-8fc0-43fe11ba042f","deleted_on":null,"deleted_by_id":null,"tenant_id":"00000000-0000-0000-0000-000000000000","email":"ismael@mailinator.com","status":"active","first_name":"Sunday","last_name":"Testing","twofa_enabled":false,"last_active":"2025-02-05T18:28:38.748Z","last_ip":"172.70.91.164","allowed_ips":null,"last_timezone":"Europe/London","last_location":"London","phone":"+2349055755671","review":null,"gender":"male","date_of_birth":null,"cba_id":"31","photo_id":null,"referral_code":"7LD1QN","allowed_locations":["abia","adamawa","akwa-ibom","anambra","bauchi","bayelsa","benue"],"referred_by":null},"tier":null},{"id":"0194b71a-97ac-777c-b557-54c80931889c","meta":{"rc-number":"0000000","business-name":"Neem","business-email":"hi@neem.co","business-phone":"+2349055755671","business-types":"Cooperative (Co-op)","business-address":"LAGOS, NIGERIA, LAGOS, Ibeju-Lekki, LAGOS"},"created_on":"2025-01-30T12:06:00.875Z","created_by_id":"0194b717-9ed1-777c-b557-43f547e10344","modified_on":"2025-01-30T12:06:00.875Z","modified_by_id":null,"deleted_on":null,"deleted_by_id":null,"tenant_id":"00000000-0000-0000-0000-000000000000","name":"Profile","type":"business","status":"active","review":null,"allowed_time_periods":null,"primary_user_id":"0194b717-9ed1-777c-b557-43f547e10344","tier_id":null,"primary_user":{"id":"0194b717-9ed1-777c-b557-43f547e10344","meta":null,"created_on":"2025-01-30T12:02:46.095Z","created_by_id":null,"modified_on":"2025-01-30T12:10:09.097Z","modified_by_id":"0194b717-9ed1-777c-b557-43f547e10344","deleted_on":null,"deleted_by_id":null,"tenant_id":"00000000-0000-0000-0000-000000000000","email":"boye@mailinator.com","status":"active","first_name":"Boye","last_name":"Akinurun","twofa_enabled":false,"last_active":"2025-01-30T12:10:09.096Z","last_ip":"172.71.95.34","allowed_ips":null,"last_timezone":"Europe/Amsterdam","last_location":"Amsterdam","phone":"+2349055755674","review":null,"gender":null,"date_of_birth":null,"cba_id":null,"photo_id":null,"referral_code":"7UIO0P","allowed_locations":null,"referred_by":null},"tier":null},{"id":"0194b6df-0473-7998-ab21-483ef9eef8ec","meta":null,"created_on":"2025-01-30T11:00:56.561Z","created_by_id":"019372de-17ef-7cc2-8fc0-43fe11ba042f","modified_on":"2025-01-30T11:00:56.561Z","modified_by_id":null,"deleted_on":null,"deleted_by_id":null,"tenant_id":"00000000-0000-0000-0000-000000000000","name":"Kessler, Conroy and Padberg Business","type":"business","status":"active","review":null,"allowed_time_periods":null,"primary_user_id":"019372de-17ef-7cc2-8fc0-43fe11ba042f","tier_id":null,"primary_user":{"id":"019372de-17ef-7cc2-8fc0-43fe11ba042f","meta":{},"created_on":"2024-11-28T13:02:58.029Z","created_by_id":null,"modified_on":"2025-02-05T18:36:49.602Z","modified_by_id":"019372de-17ef-7cc2-8fc0-43fe11ba042f","deleted_on":null,"deleted_by_id":null,"tenant_id":"00000000-0000-0000-0000-000000000000","email":"ismael@mailinator.com","status":"active","first_name":"Sunday","last_name":"Testing","twofa_enabled":false,"last_active":"2025-02-05T18:28:38.748Z","last_ip":"172.70.91.164","allowed_ips":null,"last_timezone":"Europe/London","last_location":"London","phone":"+2349055755671","review":null,"gender":"male","date_of_birth":null,"cba_id":"31","photo_id":null,"referral_code":"7LD1QN","allowed_locations":["abia","adamawa","akwa-ibom","anambra","bauchi","bayelsa","benue"],"referred_by":null},"tier":null},{"id":"0194b6c5-30a1-7770-bdf4-75d9ad575863","meta":null,"created_on":"2025-01-30T10:32:43.937Z","created_by_id":"019372de-17ef-7cc2-8fc0-43fe11ba042f","modified_on":"2025-01-30T10:32:43.937Z","modified_by_id":null,"deleted_on":null,"deleted_by_id":null,"tenant_id":"00000000-0000-0000-0000-000000000000","name":"Dickens LLC Business","type":"business","status":"active","review":null,"allowed_time_periods":null,"primary_user_id":"019372de-17ef-7cc2-8fc0-43fe11ba042f","tier_id":null,"primary_user":{"id":"019372de-17ef-7cc2-8fc0-43fe11ba042f","meta":{},"created_on":"2024-11-28T13:02:58.029Z","created_by_id":null,"modified_on":"2025-02-05T18:36:49.602Z","modified_by_id":"019372de-17ef-7cc2-8fc0-43fe11ba042f","deleted_on":null,"deleted_by_id":null,"tenant_id":"00000000-0000-0000-0000-000000000000","email":"ismael@mailinator.com","status":"active","first_name":"Sunday","last_name":"Testing","twofa_enabled":false,"last_active":"2025-02-05T18:28:38.748Z","last_ip":"172.70.91.164","allowed_ips":null,"last_timezone":"Europe/London","last_location":"London","phone":"+2349055755671","review":null,"gender":"male","date_of_birth":null,"cba_id":"31","photo_id":null,"referral_code":"7LD1QN","allowed_locations":["abia","adamawa","akwa-ibom","anambra","bauchi","bayelsa","benue"],"referred_by":null},"tier":null},{"id":"0194b6bd-9162-7770-bdf3-ffe2bcf7530f","meta":null,"created_on":"2025-01-30T10:24:24.417Z","created_by_id":"019372de-17ef-7cc2-8fc0-43fe11ba042f","modified_on":"2025-02-05T16:18:29.525Z","modified_by_id":"019372de-17ef-7cc2-8fc0-43fe11ba042f","deleted_on":null,"deleted_by_id":null,"tenant_id":"00000000-0000-0000-0000-000000000000","name":"Tremblay and Sons Business","type":"business","status":"active","review":null,"allowed_time_periods":null,"primary_user_id":"019372de-17ef-7cc2-8fc0-43fe11ba042f","tier_id":"0193b49c-a302-711f-a668-d685d243452a","primary_user":{"id":"019372de-17ef-7cc2-8fc0-43fe11ba042f","meta":{},"created_on":"2024-11-28T13:02:58.029Z","created_by_id":null,"modified_on":"2025-02-05T18:36:49.602Z","modified_by_id":"019372de-17ef-7cc2-8fc0-43fe11ba042f","deleted_on":null,"deleted_by_id":null,"tenant_id":"00000000-0000-0000-0000-000000000000","email":"ismael@mailinator.com","status":"active","first_name":"Sunday","last_name":"Testing","twofa_enabled":false,"last_active":"2025-02-05T18:28:38.748Z","last_ip":"172.70.91.164","allowed_ips":null,"last_timezone":"Europe/London","last_location":"London","phone":"+2349055755671","review":null,"gender":"male","date_of_birth":null,"cba_id":"31","photo_id":null,"referral_code":"7LD1QN","allowed_locations":["abia","adamawa","akwa-ibom","anambra","bauchi","bayelsa","benue"],"referred_by":null},"tier":{"id":"0193b49c-a302-711f-a668-d685d243452a","meta":null,"created_on":"2024-12-11T07:26:24.515Z","created_by_id":null,"modified_on":"2024-12-11T07:26:24.515Z","modified_by_id":null,"deleted_on":null,"deleted_by_id":null,"tenant_id":"00000000-0000-0000-0000-000000000001","profile_type":"business","name":"Tier 1","description":"Tier 1","level":1,"enabled":true,"balance_limit":0,"single_sending_limit":500000,"single_receiving_limit":500000,"period_sending_limit":500000,"period_sending_limit_time_unit":"day","period_receiving_limit":500000,"period_receiving_limit_time_unit":"day","requirements":[]}},{"id":"0194b601-1ed3-7aaf-88d6-bd414dcfe28c","meta":null,"created_on":"2025-01-30T06:58:34.323Z","created_by_id":"019372de-17ef-7cc2-8fc0-43fe11ba042f","modified_on":"2025-01-30T06:58:34.323Z","modified_by_id":null,"deleted_on":null,"deleted_by_id":null,"tenant_id":"00000000-0000-0000-0000-000000000000","name":"Koepp - Halvorson Business","type":"business","status":"active","review":null,"allowed_time_periods":null,"primary_user_id":"019372de-17ef-7cc2-8fc0-43fe11ba042f","tier_id":null,"primary_user":{"id":"019372de-17ef-7cc2-8fc0-43fe11ba042f","meta":{},"created_on":"2024-11-28T13:02:58.029Z","created_by_id":null,"modified_on":"2025-02-05T18:36:49.602Z","modified_by_id":"019372de-17ef-7cc2-8fc0-43fe11ba042f","deleted_on":null,"deleted_by_id":null,"tenant_id":"00000000-0000-0000-0000-000000000000","email":"ismael@mailinator.com","status":"active","first_name":"Sunday","last_name":"Testing","twofa_enabled":false,"last_active":"2025-02-05T18:28:38.748Z","last_ip":"172.70.91.164","allowed_ips":null,"last_timezone":"Europe/London","last_location":"London","phone":"+2349055755671","review":null,"gender":"male","date_of_birth":null,"cba_id":"31","photo_id":null,"referral_code":"7LD1QN","allowed_locations":["abia","adamawa","akwa-ibom","anambra","bauchi","bayelsa","benue"],"referred_by":null},"tier":null},{"id":"0194b5fb-4484-7aaf-88d6-065bbcb64b30","meta":null,"created_on":"2025-01-30T06:52:10.755Z","created_by_id":"019372de-17ef-7cc2-8fc0-43fe11ba042f","modified_on":"2025-01-30T06:52:10.755Z","modified_by_id":null,"deleted_on":null,"deleted_by_id":null,"tenant_id":"00000000-0000-0000-0000-000000000000","name":"Williamson - Wisoky Business","type":"business","status":"active","review":null,"allowed_time_periods":null,"primary_user_id":"019372de-17ef-7cc2-8fc0-43fe11ba042f","tier_id":null,"primary_user":{"id":"019372de-17ef-7cc2-8fc0-43fe11ba042f","meta":{},"created_on":"2024-11-28T13:02:58.029Z","created_by_id":null,"modified_on":"2025-02-05T18:36:49.602Z","modified_by_id":"019372de-17ef-7cc2-8fc0-43fe11ba042f","deleted_on":null,"deleted_by_id":null,"tenant_id":"00000000-0000-0000-0000-000000000000","email":"ismael@mailinator.com","status":"active","first_name":"Sunday","last_name":"Testing","twofa_enabled":false,"last_active":"2025-02-05T18:28:38.748Z","last_ip":"172.70.91.164","allowed_ips":null,"last_timezone":"Europe/London","last_location":"London","phone":"+2349055755671","review":null,"gender":"male","date_of_birth":null,"cba_id":"31","photo_id":null,"referral_code":"7LD1QN","allowed_locations":["abia","adamawa","akwa-ibom","anambra","bauchi","bayelsa","benue"],"referred_by":null},"tier":null}],"meta":{"page":1,"total_pages":11,"total_items":109}}