{"status":"success","data":[{"id":"019530c4-c08d-7330-a051-5bb9775b4fe2","meta":null,"created_on":"2025-02-23T03:05:51.348Z","created_by_id":null,"modified_on":"2025-02-23T03:05:51.348Z","modified_by_id":null,"deleted_on":null,"deleted_by_id":null,"name":"Abule Egba","code":"Abule Egba","latitude":"6.65074410","longitude":"3.26554510","type":"city","parent_id":"019530c4-c08d-7330-a051-56738cb10c98"},{"id":"019530c4-c08d-7330-a051-6133a26ce13b","meta":null,"created_on":"2025-02-23T03:05:51.348Z","created_by_id":null,"modified_on":"2025-02-23T03:05:51.348Z","modified_by_id":null,"deleted_on":null,"deleted_by_id":null,"name":"Agege","code":"Agege","latitude":"6.61522360","longitude":"3.30029700","type":"city","parent_id":"019530c4-c08d-7330-a051-56738cb10c98"},{"id":"019530c4-c08d-7330-a051-6d84a1c004b0","meta":null,"created_on":"2025-02-23T03:05:51.348Z","created_by_id":null,"modified_on":"2025-02-23T03:05:51.348Z","modified_by_id":null,"deleted_on":null,"deleted_by_id":null,"name":"Alimosho","code":"Alimosho","latitude":"6.58890000","longitude":"3.24850000","type":"city","parent_id":"019530c4-c08d-7330-a051-56738cb10c98"},{"id":"019530c4-c08d-7330-a051-7409620f1f8b","meta":null,"created_on":"2025-02-23T03:05:51.348Z","created_by_id":null,"modified_on":"2025-02-23T03:05:51.348Z","modified_by_id":null,"deleted_on":null,"deleted_by_id":null,"name":"Amuwo-Odofin","code":"Amuwo-Odofin","latitude":"6.44674340","longitude":"3.19682600","type":"city","parent_id":"019530c4-c08d-7330-a051-56738cb10c98"},{"id":"019530c4-c08d-7330-a051-7cf5887c587a","meta":null,"created_on":"2025-02-23T03:05:51.348Z","created_by_id":null,"modified_on":"2025-02-23T03:05:51.348Z","modified_by_id":null,"deleted_on":null,"deleted_by_id":null,"name":"Apapa","code":"Apapa","latitude":"6.44880000","longitude":"3.35901000","type":"city","parent_id":"019530c4-c08d-7330-a051-56738cb10c98"},{"id":"019530c4-c08d-7330-a051-827c9a5fb417","meta":null,"created_on":"2025-02-23T03:05:51.348Z","created_by_id":null,"modified_on":"2025-02-23T03:05:51.348Z","modified_by_id":null,"deleted_on":null,"deleted_by_id":null,"name":"Badagry","code":"Badagry","latitude":"6.41502000","longitude":"2.88132000","type":"city","parent_id":"019530c4-c08d-7330-a051-56738cb10c98"},{"id":"019530c4-c08d-7330-a051-8cc63e27fecd","meta":null,"created_on":"2025-02-23T03:05:51.348Z","created_by_id":null,"modified_on":"2025-02-23T03:05:51.348Z","modified_by_id":null,"deleted_on":null,"deleted_by_id":null,"name":"Bariga","code":"Bariga","latitude":"6.53931230","longitude":"3.37627060","type":"city","parent_id":"019530c4-c08d-7330-a051-56738cb10c98"},{"id":"019530c4-c08d-7330-a051-906a34e1a661","meta":null,"created_on":"2025-02-23T03:05:51.348Z","created_by_id":null,"modified_on":"2025-02-23T03:05:51.348Z","modified_by_id":null,"deleted_on":null,"deleted_by_id":null,"name":"Ebute Ikorodu","code":"Ebute Ikorodu","latitude":"6.60086000","longitude":"3.48818000","type":"city","parent_id":"019530c4-c08d-7330-a051-56738cb10c98"},{"id":"019530c4-c08d-7330-a051-983a10c502e4","meta":null,"created_on":"2025-02-23T03:05:51.348Z","created_by_id":null,"modified_on":"2025-02-23T03:05:51.348Z","modified_by_id":null,"deleted_on":null,"deleted_by_id":null,"name":"Ebute Metta","code":"Ebute Metta","latitude":"6.48437590","longitude":"3.37591680","type":"city","parent_id":"019530c4-c08d-7330-a051-56738cb10c98"},{"id":"019530c4-c08d-7330-a051-a095ae4dbded","meta":null,"created_on":"2025-02-23T03:05:51.348Z","created_by_id":null,"modified_on":"2025-02-23T03:05:51.348Z","modified_by_id":null,"deleted_on":null,"deleted_by_id":null,"name":"Ejirin","code":"Ejirin","latitude":"6.61423000","longitude":"3.90019000","type":"city","parent_id":"019530c4-c08d-7330-a051-56738cb10c98"}],"meta":{"page":1,"total_pages":4,"total_items":36}}