{"status":"success","data":[{"id":"0194d2ae-739c-7bb6-b3fb-d1524805093d","meta":null,"created_on":"2025-02-04T20:37:15.805Z","created_by_id":"01940e4c-d7b1-7992-b128-833d506b072f","modified_on":"2025-02-04T20:37:15.805Z","modified_by_id":null,"deleted_on":null,"deleted_by_id":null,"tenant_id":"00000000-0000-0000-0000-000000000000","profile_id":"01940e4d-d7bf-7992-b128-94378cf60800","identifier":"162a2f41-66b6-4f9f-98b3-a0603dd2864d","status":"pending","type_id":"019318f9-c895-744d-8f65-4636cc26dd1f"},{"id":"0194d2ab-66bc-7bb6-b3fb-b47017d3e544","meta":null,"created_on":"2025-02-04T20:33:55.900Z","created_by_id":"01940e4c-d7b1-7992-b128-833d506b072f","modified_on":"2025-02-04T20:33:55.900Z","modified_by_id":null,"deleted_on":null,"deleted_by_id":null,"tenant_id":"00000000-0000-0000-0000-000000000000","profile_id":"01940e4d-d7bf-7992-b128-94378cf60800","identifier":"a07380c4-1c72-4449-8f74-716bbfa941c1","status":"pending","type_id":"019318f9-c895-744d-8f65-4636cc26dd1f"},{"id":"0194d2a8-df9e-7bb6-b3fb-a8a4e620372b","meta":null,"created_on":"2025-02-04T20:31:10.238Z","created_by_id":"01940e4c-d7b1-7992-b128-833d506b072f","modified_on":"2025-02-04T20:31:10.238Z","modified_by_id":null,"deleted_on":null,"deleted_by_id":null,"tenant_id":"00000000-0000-0000-0000-000000000000","profile_id":"01940e4d-d7bf-7992-b128-94378cf60800","identifier":"adb50f3d-9af4-468b-a0bc-7d0d8fafbd1b","status":"pending","type_id":"019318f9-c895-744d-8f65-4636cc26dd1f"},{"id":"0194d2a8-df04-7bb6-b3fb-a58de4b834c3","meta":null,"created_on":"2025-02-04T20:31:10.079Z","created_by_id":"01940e4c-d7b1-7992-b128-833d506b072f","modified_on":"2025-02-04T20:31:10.079Z","modified_by_id":null,"deleted_on":null,"deleted_by_id":null,"tenant_id":"00000000-0000-0000-0000-000000000000","profile_id":"01940e4d-d7bf-7992-b128-94378cf60800","identifier":"e280a7b7-f71a-4861-9f73-c9e0f35197bd","status":"pending","type_id":"019318f9-c895-744d-8f65-4636cc26dd1f"},{"id":"0194d2a8-8972-7bb6-b3fb-9bd679d91a0e","meta":null,"created_on":"2025-02-04T20:30:48.179Z","created_by_id":"01940e4c-d7b1-7992-b128-833d506b072f","modified_on":"2025-02-04T20:30:48.179Z","modified_by_id":null,"deleted_on":null,"deleted_by_id":null,"tenant_id":"00000000-0000-0000-0000-000000000000","profile_id":"01940e4d-d7bf-7992-b128-94378cf60800","identifier":"3863f4ac-1d10-4476-bf86-1da935e8cc3b","status":"pending","type_id":"019318f9-c895-744d-8f65-4636cc26dd1f"},{"id":"0194d2a8-4746-7bb6-b3fb-975c2cfd6dbe","meta":null,"created_on":"2025-02-04T20:30:31.238Z","created_by_id":"01940e4c-d7b1-7992-b128-833d506b072f","modified_on":"2025-02-04T20:30:31.238Z","modified_by_id":null,"deleted_on":null,"deleted_by_id":null,"tenant_id":"00000000-0000-0000-0000-000000000000","profile_id":"01940e4d-d7bf-7992-b128-94378cf60800","identifier":"b2186a37-19cc-43cf-8980-7ea575a111d3","status":"pending","type_id":"019318f9-c895-744d-8f65-4636cc26dd1f"},{"id":"0194d2a8-1d6c-7bb6-b3fb-8d8bfdf353ad","meta":null,"created_on":"2025-02-04T20:30:20.524Z","created_by_id":"01940e4c-d7b1-7992-b128-833d506b072f","modified_on":"2025-02-04T20:30:20.524Z","modified_by_id":null,"deleted_on":null,"deleted_by_id":null,"tenant_id":"00000000-0000-0000-0000-000000000000","profile_id":"01940e4d-d7bf-7992-b128-94378cf60800","identifier":"13584047-be82-48d1-9891-b7a66b03465b","status":"pending","type_id":"019318f9-c895-744d-8f65-4636cc26dd1f"},{"id":"0194d2a8-1cdc-7bb6-b3fb-83bc97ef0b18","meta":null,"created_on":"2025-02-04T20:30:20.381Z","created_by_id":"01940e4c-d7b1-7992-b128-833d506b072f","modified_on":"2025-02-04T20:30:20.381Z","modified_by_id":null,"deleted_on":null,"deleted_by_id":null,"tenant_id":"00000000-0000-0000-0000-000000000000","profile_id":"01940e4d-d7bf-7992-b128-94378cf60800","identifier":"06163386-bc99-4f9e-92b9-82eefd3fe2aa","status":"pending","type_id":"019318f9-c895-744d-8f65-4636cc26dd1f"},{"id":"0194d2a5-6158-7bb6-b3fb-7bf734422652","meta":null,"created_on":"2025-02-04T20:27:21.304Z","created_by_id":"01940e4c-d7b1-7992-b128-833d506b072f","modified_on":"2025-02-04T20:27:21.304Z","modified_by_id":null,"deleted_on":null,"deleted_by_id":null,"tenant_id":"00000000-0000-0000-0000-000000000000","profile_id":"01940e4d-d7bf-7992-b128-94378cf60800","identifier":"13a30966-cf71-4bb1-aaf3-0223adfe0534","status":"pending","type_id":"019318f9-c895-744d-8f65-4636cc26dd1f"},{"id":"0194d2a5-60da-7bb6-b3fb-72d26273e506","meta":null,"created_on":"2025-02-04T20:27:21.179Z","created_by_id":"01940e4c-d7b1-7992-b128-833d506b072f","modified_on":"2025-02-04T20:27:21.179Z","modified_by_id":null,"deleted_on":null,"deleted_by_id":null,"tenant_id":"00000000-0000-0000-0000-000000000000","profile_id":"01940e4d-d7bf-7992-b128-94378cf60800","identifier":"bc48633e-a3ea-48a0-8c38-216d90d2c46b","status":"pending","type_id":"019318f9-c895-744d-8f65-4636cc26dd1f"}],"meta":{"page":1,"total_pages":28,"total_items":273}}