{"status":"success","data":[{"id":"01955750-e6a4-7dd1-9967-ef63e38a322a","meta":null,"created_on":"2025-03-02T14:44:34.595Z","created_by_id":"019372de-17ef-7cc2-8fc0-43fe11ba042f","modified_on":"2025-03-02T14:45:17.976Z","modified_by_id":"019372de-17ef-7cc2-8fc0-43fe11ba042f","deleted_on":null,"deleted_by_id":null,"tenant_id":"00000000-0000-0000-0000-000000000000","profile_id":"0193a649-e3d0-7881-8b7f-2ef1d89a9aff","status":"approved","command":"TransferCommand","command_data":{"account_id":"0193a699-2f15-7881-8b7f-ae50980bcfad","data":{"account_number":"0000000108","bank_code":"999998","amount":100,"pin":"1234","narration":"","account_name":"John Doe","bank_name":"vee"}},"maker_id":"019372de-17ef-7cc2-8fc0-43fe11ba042f","made_on":"2025-03-02T14:44:34.595Z","checker_id":"019372de-17ef-7cc2-8fc0-43fe11ba042f","checked_on":null,"maker_checker_id":"0193df18-702c-7ddc-9298-482c857161b9","reason":null},{"id":"019551dc-2581-7ddf-b460-ee9952707327","meta":null,"created_on":"2025-03-01T13:18:56.912Z","created_by_id":"019372de-17ef-7cc2-8fc0-43fe11ba042f","modified_on":"2025-03-01T13:18:56.912Z","modified_by_id":null,"deleted_on":null,"deleted_by_id":null,"tenant_id":"00000000-0000-0000-0000-000000000000","profile_id":"0193a649-e3d0-7881-8b7f-2ef1d89a9aff","status":"pending","command":"TransferCommand","command_data":{"account_id":"019529d0-bbfb-7330-84b3-0ec64380583a","data":{"account_number":"0112345678","bank_code":"999998","amount":100,"narration":"Sodiq","pin":"1234","liveness_session_id":"","account_name":"Sodiq","bank_name":"Access","save_beneficiary":true}},"maker_id":"019372de-17ef-7cc2-8fc0-43fe11ba042f","made_on":"2025-03-01T13:18:56.798Z","checker_id":null,"checked_on":null,"maker_checker_id":"0193df18-702c-7ddc-9298-482c857161b9","reason":null},{"id":"019551d7-e5bf-7552-9f91-6a9a382015ac","meta":null,"created_on":"2025-03-01T13:14:18.448Z","created_by_id":"019372de-17ef-7cc2-8fc0-43fe11ba042f","modified_on":"2025-03-01T13:14:18.448Z","modified_by_id":null,"deleted_on":null,"deleted_by_id":null,"tenant_id":"00000000-0000-0000-0000-000000000000","profile_id":"0193a649-e3d0-7881-8b7f-2ef1d89a9aff","status":"pending","command":"TransferCommand","command_data":{"account_id":"019529d0-bbfb-7330-84b3-0ec64380583a","data":{"account_number":"0112345678","bank_code":"999998","amount":100,"narration":"Sodiq","pin":"1234","liveness_session_id":"","account_name":"Sodiq","bank_name":"Access","save_beneficiary":true}},"maker_id":"019372de-17ef-7cc2-8fc0-43fe11ba042f","made_on":"2025-03-01T13:14:18.339Z","checker_id":null,"checked_on":null,"maker_checker_id":"0193df18-702c-7ddc-9298-482c857161b9","reason":null},{"id":"019551d5-af4d-7552-9f91-60076e986739","meta":null,"created_on":"2025-03-01T13:11:53.375Z","created_by_id":"019372de-17ef-7cc2-8fc0-43fe11ba042f","modified_on":"2025-03-01T13:11:53.375Z","modified_by_id":null,"deleted_on":null,"deleted_by_id":null,"tenant_id":"00000000-0000-0000-0000-000000000000","profile_id":"0193a649-e3d0-7881-8b7f-2ef1d89a9aff","status":"pending","command":"TransferCommand","command_data":{"account_id":"019529d0-bbfb-7330-84b3-0ec64380583a","data":{"account_number":"0112345678","bank_code":"999998","amount":100,"narration":"Sodiq","pin":"1234","liveness_session_id":"","account_name":"Sodiq","bank_name":"Access","save_beneficiary":true}},"maker_id":"019372de-17ef-7cc2-8fc0-43fe11ba042f","made_on":"2025-03-01T13:11:53.265Z","checker_id":null,"checked_on":null,"maker_checker_id":"0193df18-702c-7ddc-9298-482c857161b9","reason":null},{"id":"019551d4-78de-788c-8882-dfbabc2fa35d","meta":null,"created_on":"2025-03-01T13:10:33.964Z","created_by_id":"019372de-17ef-7cc2-8fc0-43fe11ba042f","modified_on":"2025-03-01T13:10:33.964Z","modified_by_id":null,"deleted_on":null,"deleted_by_id":null,"tenant_id":"00000000-0000-0000-0000-000000000000","profile_id":"0193a649-e3d0-7881-8b7f-2ef1d89a9aff","status":"pending","command":"TransferCommand","command_data":{"account_id":"019529d0-bbfb-7330-84b3-0ec64380583a","data":{"account_number":"0112345678","bank_code":"999998","amount":100,"narration":"Sodiq","pin":"1234","liveness_session_id":"","account_name":"Sodiq","bank_name":"Access","save_beneficiary":true}},"maker_id":"019372de-17ef-7cc2-8fc0-43fe11ba042f","made_on":"2025-03-01T13:10:33.854Z","checker_id":null,"checked_on":null,"maker_checker_id":"0193df18-702c-7ddc-9298-482c857161b9","reason":null},{"id":"019551d4-2b6c-722f-a9a8-79abf86c7a1c","meta":null,"created_on":"2025-03-01T13:10:14.138Z","created_by_id":"019372de-17ef-7cc2-8fc0-43fe11ba042f","modified_on":"2025-03-01T13:10:14.138Z","modified_by_id":null,"deleted_on":null,"deleted_by_id":null,"tenant_id":"00000000-0000-0000-0000-000000000000","profile_id":"0193a649-e3d0-7881-8b7f-2ef1d89a9aff","status":"pending","command":"TransferCommand","command_data":{"account_id":"019529d0-bbfb-7330-84b3-0ec64380583a","data":{"account_number":"0112345678","bank_code":"999998","amount":100,"narration":"Sodiq","pin":"1234","liveness_session_id":"","account_name":"Sodiq","bank_name":"Access","save_beneficiary":true}},"maker_id":"019372de-17ef-7cc2-8fc0-43fe11ba042f","made_on":"2025-03-01T13:10:14.028Z","checker_id":null,"checked_on":null,"maker_checker_id":"0193df18-702c-7ddc-9298-482c857161b9","reason":null},{"id":"019551d3-afd1-7aa2-853e-4209e5fa497d","meta":null,"created_on":"2025-03-01T13:09:42.493Z","created_by_id":"019372de-17ef-7cc2-8fc0-43fe11ba042f","modified_on":"2025-03-01T13:09:42.493Z","modified_by_id":null,"deleted_on":null,"deleted_by_id":null,"tenant_id":"00000000-0000-0000-0000-000000000000","profile_id":"0193a649-e3d0-7881-8b7f-2ef1d89a9aff","status":"pending","command":"TransferCommand","command_data":{"account_id":"019529d0-bbfb-7330-84b3-0ec64380583a","data":{"account_number":"0112345678","bank_code":"999998","amount":100,"narration":"Sodiq","pin":"1234","liveness_session_id":"","account_name":"Sodiq","bank_name":"Access","save_beneficiary":true}},"maker_id":"019372de-17ef-7cc2-8fc0-43fe11ba042f","made_on":"2025-03-01T13:09:42.354Z","checker_id":null,"checked_on":null,"maker_checker_id":"0193df18-702c-7ddc-9298-482c857161b9","reason":null},{"id":"019551d3-30f5-700a-ac15-d49e8d399296","meta":null,"created_on":"2025-03-01T13:09:10.020Z","created_by_id":"019372de-17ef-7cc2-8fc0-43fe11ba042f","modified_on":"2025-03-01T13:09:10.020Z","modified_by_id":null,"deleted_on":null,"deleted_by_id":null,"tenant_id":"00000000-0000-0000-0000-000000000000","profile_id":"0193a649-e3d0-7881-8b7f-2ef1d89a9aff","status":"pending","command":"TransferCommand","command_data":{"account_id":"019529d0-bbfb-7330-84b3-0ec64380583a","data":{"account_number":"0112345678","bank_code":"999998","amount":100,"narration":"Sodiq","pin":"1234","liveness_session_id":"","account_name":"Sodiq","bank_name":"Access","save_beneficiary":true}},"maker_id":"019372de-17ef-7cc2-8fc0-43fe11ba042f","made_on":"2025-03-01T13:09:09.909Z","checker_id":null,"checked_on":null,"maker_checker_id":"0193df18-702c-7ddc-9298-482c857161b9","reason":null},{"id":"019551d2-8285-700d-b9cc-fff33ae77306","meta":null,"created_on":"2025-03-01T13:08:25.363Z","created_by_id":"019372de-17ef-7cc2-8fc0-43fe11ba042f","modified_on":"2025-03-01T13:08:25.363Z","modified_by_id":null,"deleted_on":null,"deleted_by_id":null,"tenant_id":"00000000-0000-0000-0000-000000000000","profile_id":"0193a649-e3d0-7881-8b7f-2ef1d89a9aff","status":"pending","command":"TransferCommand","command_data":{"account_id":"019529d0-bbfb-7330-84b3-0ec64380583a","data":{"account_number":"0112345678","bank_code":"999998","amount":100,"narration":"Sodiq","pin":"1234","liveness_session_id":"","account_name":"Sodiq","bank_name":"Access","save_beneficiary":true}},"maker_id":"019372de-17ef-7cc2-8fc0-43fe11ba042f","made_on":"2025-03-01T13:08:25.253Z","checker_id":null,"checked_on":null,"maker_checker_id":"0193df18-702c-7ddc-9298-482c857161b9","reason":null},{"id":"019551d0-d18d-711d-b442-f1faf81b9f30","meta":null,"created_on":"2025-03-01T13:06:34.520Z","created_by_id":"019372de-17ef-7cc2-8fc0-43fe11ba042f","modified_on":"2025-03-01T13:06:34.520Z","modified_by_id":null,"deleted_on":null,"deleted_by_id":null,"tenant_id":"00000000-0000-0000-0000-000000000000","profile_id":"0193a649-e3d0-7881-8b7f-2ef1d89a9aff","status":"pending","command":"TransferCommand","command_data":{"account_id":"019529d0-bbfb-7330-84b3-0ec64380583a","data":{"account_number":"0112345678","bank_code":"999998","amount":100,"narration":"Sodiq","pin":"1234","liveness_session_id":"","account_name":"Sodiq","bank_name":"Access","save_beneficiary":true}},"maker_id":"019372de-17ef-7cc2-8fc0-43fe11ba042f","made_on":"2025-03-01T13:06:34.372Z","checker_id":null,"checked_on":null,"maker_checker_id":"0193df18-702c-7ddc-9298-482c857161b9","reason":null}],"meta":{"page":1,"total_pages":52,"total_items":520}}