{"status":"success","data":[{"id":"01955754-24b0-7dd1-9968-3d055f3724fd","meta":null,"created_on":"2025-03-02T14:48:07.087Z","created_by_id":"019372de-17ef-7cc2-8fc0-43fe11ba042f","modified_on":"2025-03-02T14:48:10.743Z","modified_by_id":"019372de-17ef-7cc2-8fc0-43fe11ba042f","deleted_on":null,"deleted_by_id":null,"tenant_id":"00000000-0000-0000-0000-000000000000","account_id":"0193a699-2f15-7881-8b7f-ae50980bcfad","profile_id":"0193a649-e3d0-7881-8b7f-2ef1d89a9aff","cba_id":"3636","currency":"NGN","amount":"10.00","balance_after":null,"reference":"TNWQI31AO50I","processor_reference":null,"processor_status":null,"processor_message":null,"status":"success","entry_type":"debit","narration":"","transaction_date":"2025-03-02T14:48:07.087Z","transaction_type":"fee","processor":"cba","reviewed_on":null,"reviewed_by":null,"batch_id":null,"schedule_id":null,"account":{"id":"0193a699-2f15-7881-8b7f-ae50980bcfad","meta":null,"created_on":"2024-12-08T14:07:57.204Z","created_by_id":null,"modified_on":"2025-03-02T20:16:03.477Z","modified_by_id":"019372de-17ef-7cc2-8fc0-43fe11ba042f","deleted_on":null,"deleted_by_id":null,"tenant_id":"00000000-0000-0000-0000-000000000000","name":"expenses","type":"account","cba_id":"0000000074","status":"active","profile_id":"0193a649-e3d0-7881-8b7f-2ef1d89a9aff","account_number":"0000000074","bank_id":"0193324f-cad0-7f86-923b-43fb21ac5b29","ledger_balance":709873188.1,"hold_balance":0,"available_balance":709873188.1,"currency":"NGN","restricted":false},"transfer":null,"disputes":[],"batch":null,"transfer_beneficiary":null,"bill_payment_beneficiary":null},{"id":"01955754-24a5-7dd1-9968-282d33729315","meta":null,"created_on":"2025-03-02T14:48:07.076Z","created_by_id":"019372de-17ef-7cc2-8fc0-43fe11ba042f","modified_on":"2025-03-02T14:48:10.737Z","modified_by_id":"019372de-17ef-7cc2-8fc0-43fe11ba042f","deleted_on":null,"deleted_by_id":null,"tenant_id":"00000000-0000-0000-0000-000000000000","account_id":"0193a699-2f15-7881-8b7f-ae50980bcfad","profile_id":"0193a649-e3d0-7881-8b7f-2ef1d89a9aff","cba_id":"3635","currency":"NGN","amount":"100.00","balance_after":null,"reference":"TNWQI31AO50I","processor_reference":null,"processor_status":null,"processor_message":null,"status":"success","entry_type":"debit","narration":"","transaction_date":"2025-03-02T14:48:07.003Z","transaction_type":"transfer","processor":"nip","reviewed_on":null,"reviewed_by":null,"batch_id":null,"schedule_id":null,"account":{"id":"0193a699-2f15-7881-8b7f-ae50980bcfad","meta":null,"created_on":"2024-12-08T14:07:57.204Z","created_by_id":null,"modified_on":"2025-03-02T20:16:04.151Z","modified_by_id":"019372de-17ef-7cc2-8fc0-43fe11ba042f","deleted_on":null,"deleted_by_id":null,"tenant_id":"00000000-0000-0000-0000-000000000000","name":"expenses","type":"account","cba_id":"0000000074","status":"active","profile_id":"0193a649-e3d0-7881-8b7f-2ef1d89a9aff","account_number":"0000000074","bank_id":"0193324f-cad0-7f86-923b-43fb21ac5b29","ledger_balance":709873188.1,"hold_balance":0,"available_balance":709873188.1,"currency":"NGN","restricted":false},"transfer":{"id":"01955754-24a9-7dd1-9968-36c72ce89010","meta":null,"created_on":"2025-03-02T14:48:07.076Z","created_by_id":"019372de-17ef-7cc2-8fc0-43fe11ba042f","modified_on":"2025-03-02T14:48:07.076Z","modified_by_id":null,"deleted_on":null,"deleted_by_id":null,"tenant_id":"00000000-0000-0000-0000-000000000000","bank_code":"999998","bank_name":"vee test","bank_logo":"https://lendstack-s3.s3.us-east-2.amazonaws.com/bank_logos/035.png","account_name":"John Doe","account_number":"0000000108","profile_id":"0193a649-e3d0-7881-8b7f-2ef1d89a9aff","transaction_id":"01955754-24a5-7dd1-9968-282d33729315","account_id":"0193a699-2f15-7881-8b7f-ae50980bcfad"},"disputes":[],"batch":null,"transfer_beneficiary":null,"bill_payment_beneficiary":null},{"id":"01955751-915c-7dd1-9968-153b2aacf640","meta":null,"created_on":"2025-03-02T14:45:18.299Z","created_by_id":"019372de-17ef-7cc2-8fc0-43fe11ba042f","modified_on":"2025-03-02T14:45:24.926Z","modified_by_id":"019372de-17ef-7cc2-8fc0-43fe11ba042f","deleted_on":null,"deleted_by_id":null,"tenant_id":"00000000-0000-0000-0000-000000000000","account_id":"0193a699-2f15-7881-8b7f-ae50980bcfad","profile_id":"0193a649-e3d0-7881-8b7f-2ef1d89a9aff","cba_id":"3634","currency":"NGN","amount":"10.00","balance_after":null,"reference":"TLYVF9S0JGNM","processor_reference":null,"processor_status":null,"processor_message":null,"status":"success","entry_type":"debit","narration":"","transaction_date":"2025-03-02T14:45:18.299Z","transaction_type":"fee","processor":"cba","reviewed_on":null,"reviewed_by":null,"batch_id":null,"schedule_id":null,"account":{"id":"0193a699-2f15-7881-8b7f-ae50980bcfad","meta":null,"created_on":"2024-12-08T14:07:57.204Z","created_by_id":null,"modified_on":"2025-03-02T20:16:04.152Z","modified_by_id":"019372de-17ef-7cc2-8fc0-43fe11ba042f","deleted_on":null,"deleted_by_id":null,"tenant_id":"00000000-0000-0000-0000-000000000000","name":"expenses","type":"account","cba_id":"0000000074","status":"active","profile_id":"0193a649-e3d0-7881-8b7f-2ef1d89a9aff","account_number":"0000000074","bank_id":"0193324f-cad0-7f86-923b-43fb21ac5b29","ledger_balance":709873188.1,"hold_balance":0,"available_balance":709873188.1,"currency":"NGN","restricted":false},"transfer":null,"disputes":[],"batch":null,"transfer_beneficiary":null,"bill_payment_beneficiary":null},{"id":"01955751-914d-7dd1-9968-00e8c85554a7","meta":null,"created_on":"2025-03-02T14:45:18.283Z","created_by_id":"019372de-17ef-7cc2-8fc0-43fe11ba042f","modified_on":"2025-03-02T14:45:24.922Z","modified_by_id":"019372de-17ef-7cc2-8fc0-43fe11ba042f","deleted_on":null,"deleted_by_id":null,"tenant_id":"00000000-0000-0000-0000-000000000000","account_id":"0193a699-2f15-7881-8b7f-ae50980bcfad","profile_id":"0193a649-e3d0-7881-8b7f-2ef1d89a9aff","cba_id":"3633","currency":"NGN","amount":"100.00","balance_after":null,"reference":"TLYVF9S0JGNM","processor_reference":null,"processor_status":null,"processor_message":null,"status":"success","entry_type":"debit","narration":"","transaction_date":"2025-03-02T14:45:18.218Z","transaction_type":"transfer","processor":"nip","reviewed_on":null,"reviewed_by":null,"batch_id":null,"schedule_id":null,"account":{"id":"0193a699-2f15-7881-8b7f-ae50980bcfad","meta":null,"created_on":"2024-12-08T14:07:57.204Z","created_by_id":null,"modified_on":"2025-03-02T20:16:03.773Z","modified_by_id":"019372de-17ef-7cc2-8fc0-43fe11ba042f","deleted_on":null,"deleted_by_id":null,"tenant_id":"00000000-0000-0000-0000-000000000000","name":"expenses","type":"account","cba_id":"0000000074","status":"active","profile_id":"0193a649-e3d0-7881-8b7f-2ef1d89a9aff","account_number":"0000000074","bank_id":"0193324f-cad0-7f86-923b-43fb21ac5b29","ledger_balance":709873188.1,"hold_balance":0,"available_balance":709873188.1,"currency":"NGN","restricted":false},"transfer":{"id":"01955751-9152-7dd1-9968-0fe2b2af9e8e","meta":null,"created_on":"2025-03-02T14:45:18.283Z","created_by_id":"019372de-17ef-7cc2-8fc0-43fe11ba042f","modified_on":"2025-03-02T14:45:18.283Z","modified_by_id":null,"deleted_on":null,"deleted_by_id":null,"tenant_id":"00000000-0000-0000-0000-000000000000","bank_code":"999998","bank_name":"vee test","bank_logo":"https://lendstack-s3.s3.us-east-2.amazonaws.com/bank_logos/035.png","account_name":"John Doe","account_number":"0000000108","profile_id":"0193a649-e3d0-7881-8b7f-2ef1d89a9aff","transaction_id":"01955751-914d-7dd1-9968-00e8c85554a7","account_id":"0193a699-2f15-7881-8b7f-ae50980bcfad"},"disputes":[],"batch":null,"transfer_beneficiary":null,"bill_payment_beneficiary":null},{"id":"0195484b-6698-7cce-b25b-a4efd6731226","meta":null,"created_on":"2025-02-27T16:44:15.894Z","created_by_id":"019372de-17ef-7cc2-8fc0-43fe11ba042f","modified_on":"2025-02-27T16:44:17.651Z","modified_by_id":"019372de-17ef-7cc2-8fc0-43fe11ba042f","deleted_on":null,"deleted_by_id":null,"tenant_id":"00000000-0000-0000-0000-000000000000","account_id":"0193a699-2f15-7881-8b7f-ae50980bcfad","profile_id":"0193a649-e3d0-7881-8b7f-2ef1d89a9aff","cba_id":null,"currency":"NGN","amount":"233.33","balance_after":null,"reference":"TETXT9QTV50N","processor_reference":null,"processor_status":null,"processor_message":null,"status":"success","entry_type":"credit","narration":"Referral reward","transaction_date":"2025-02-27T16:44:15.895Z","transaction_type":"funding","processor":"cba","reviewed_on":null,"reviewed_by":null,"batch_id":null,"schedule_id":null,"account":{"id":"0193a699-2f15-7881-8b7f-ae50980bcfad","meta":null,"created_on":"2024-12-08T14:07:57.204Z","created_by_id":null,"modified_on":"2025-03-02T20:16:04.145Z","modified_by_id":"019372de-17ef-7cc2-8fc0-43fe11ba042f","deleted_on":null,"deleted_by_id":null,"tenant_id":"00000000-0000-0000-0000-000000000000","name":"expenses","type":"account","cba_id":"0000000074","status":"active","profile_id":"0193a649-e3d0-7881-8b7f-2ef1d89a9aff","account_number":"0000000074","bank_id":"0193324f-cad0-7f86-923b-43fb21ac5b29","ledger_balance":709873188.1,"hold_balance":0,"available_balance":709873188.1,"currency":"NGN","restricted":false},"transfer":null,"disputes":[],"batch":null,"transfer_beneficiary":null,"bill_payment_beneficiary":null},{"id":"01954844-24d0-7cce-b25a-11de6152f946","meta":null,"created_on":"2025-02-27T16:36:20.304Z","created_by_id":"019372de-17ef-7cc2-8fc0-43fe11ba042f","modified_on":"2025-02-27T16:36:24.534Z","modified_by_id":"019372de-17ef-7cc2-8fc0-43fe11ba042f","deleted_on":null,"deleted_by_id":null,"tenant_id":"00000000-0000-0000-0000-000000000000","account_id":"0193a699-2f15-7881-8b7f-ae50980bcfad","profile_id":"0193a649-e3d0-7881-8b7f-2ef1d89a9aff","cba_id":"3565","currency":"NGN","amount":"10.00","balance_after":null,"reference":"T4XOT2RUBN7I","processor_reference":null,"processor_status":null,"processor_message":null,"status":"success","entry_type":"debit","narration":"","transaction_date":"2025-02-27T16:36:20.303Z","transaction_type":"fee","processor":"cba","reviewed_on":null,"reviewed_by":null,"batch_id":null,"schedule_id":null,"account":{"id":"0193a699-2f15-7881-8b7f-ae50980bcfad","meta":null,"created_on":"2024-12-08T14:07:57.204Z","created_by_id":null,"modified_on":"2025-03-02T20:16:04.076Z","modified_by_id":"019372de-17ef-7cc2-8fc0-43fe11ba042f","deleted_on":null,"deleted_by_id":null,"tenant_id":"00000000-0000-0000-0000-000000000000","name":"expenses","type":"account","cba_id":"0000000074","status":"active","profile_id":"0193a649-e3d0-7881-8b7f-2ef1d89a9aff","account_number":"0000000074","bank_id":"0193324f-cad0-7f86-923b-43fb21ac5b29","ledger_balance":709873188.1,"hold_balance":0,"available_balance":709873188.1,"currency":"NGN","restricted":false},"transfer":null,"disputes":[],"batch":null,"transfer_beneficiary":null,"bill_payment_beneficiary":null},{"id":"01954844-24c2-7cce-b25a-07a3b1013a9e","meta":null,"created_on":"2025-02-27T16:36:20.290Z","created_by_id":"019372de-17ef-7cc2-8fc0-43fe11ba042f","modified_on":"2025-02-27T16:36:24.534Z","modified_by_id":"019372de-17ef-7cc2-8fc0-43fe11ba042f","deleted_on":null,"deleted_by_id":null,"tenant_id":"00000000-0000-0000-0000-000000000000","account_id":"0193a699-2f15-7881-8b7f-ae50980bcfad","profile_id":"0193a649-e3d0-7881-8b7f-2ef1d89a9aff","cba_id":"483","currency":"NGN","amount":"10000.00","balance_after":null,"reference":"T4XOT2RUBN7I","processor_reference":null,"processor_status":null,"processor_message":null,"status":"success","entry_type":"debit","narration":"","transaction_date":"2025-02-27T16:36:20.231Z","transaction_type":"transfer","processor":"cba","reviewed_on":null,"reviewed_by":null,"batch_id":null,"schedule_id":null,"account":{"id":"0193a699-2f15-7881-8b7f-ae50980bcfad","meta":null,"created_on":"2024-12-08T14:07:57.204Z","created_by_id":null,"modified_on":"2025-03-02T20:16:03.974Z","modified_by_id":"019372de-17ef-7cc2-8fc0-43fe11ba042f","deleted_on":null,"deleted_by_id":null,"tenant_id":"00000000-0000-0000-0000-000000000000","name":"expenses","type":"account","cba_id":"0000000074","status":"active","profile_id":"0193a649-e3d0-7881-8b7f-2ef1d89a9aff","account_number":"0000000074","bank_id":"0193324f-cad0-7f86-923b-43fb21ac5b29","ledger_balance":709873188.1,"hold_balance":0,"available_balance":709873188.1,"currency":"NGN","restricted":false},"transfer":{"id":"01954844-24c8-7cce-b25a-0e3fd2942093","meta":null,"created_on":"2025-02-27T16:36:20.290Z","created_by_id":"019372de-17ef-7cc2-8fc0-43fe11ba042f","modified_on":"2025-02-27T16:36:20.290Z","modified_by_id":null,"deleted_on":null,"deleted_by_id":null,"tenant_id":"00000000-0000-0000-0000-000000000000","bank_code":"050030","bank_name":"NORTHQUEST FINANCE COMPANY LIMITED ","bank_logo":"https://cdn.prod.website-files.com/67342b6ac3243e10a48bee9d/673b02614b7fc0a77c0172b2_NorthQuest%20Finance%20%20Logo-p-500.png","account_name":"Fuan Akinsanya","account_number":"8138096123","profile_id":"0193a649-e3d0-7881-8b7f-2ef1d89a9aff","transaction_id":"01954844-24c2-7cce-b25a-07a3b1013a9e","account_id":"0193a699-2f15-7881-8b7f-ae50980bcfad"},"disputes":[],"batch":null,"transfer_beneficiary":null,"bill_payment_beneficiary":null},{"id":"01954830-e1dc-7cce-b259-2c1659e22e16","meta":null,"created_on":"2025-02-27T16:15:17.978Z","created_by_id":"019372de-17ef-7cc2-8fc0-43fe11ba042f","modified_on":"2025-02-27T16:15:20.116Z","modified_by_id":"019372de-17ef-7cc2-8fc0-43fe11ba042f","deleted_on":null,"deleted_by_id":null,"tenant_id":"00000000-0000-0000-0000-000000000000","account_id":"0193a699-2f15-7881-8b7f-ae50980bcfad","profile_id":"0193a649-e3d0-7881-8b7f-2ef1d89a9aff","cba_id":null,"currency":"NGN","amount":"233.33","balance_after":null,"reference":"TRL2VS84XDYY","processor_reference":null,"processor_status":null,"processor_message":null,"status":"success","entry_type":"credit","narration":"Referral reward","transaction_date":"2025-02-27T16:15:17.980Z","transaction_type":"funding","processor":"cba","reviewed_on":null,"reviewed_by":null,"batch_id":null,"schedule_id":null,"account":{"id":"0193a699-2f15-7881-8b7f-ae50980bcfad","meta":null,"created_on":"2024-12-08T14:07:57.204Z","created_by_id":null,"modified_on":"2025-03-02T20:16:04.086Z","modified_by_id":"019372de-17ef-7cc2-8fc0-43fe11ba042f","deleted_on":null,"deleted_by_id":null,"tenant_id":"00000000-0000-0000-0000-000000000000","name":"expenses","type":"account","cba_id":"0000000074","status":"active","profile_id":"0193a649-e3d0-7881-8b7f-2ef1d89a9aff","account_number":"0000000074","bank_id":"0193324f-cad0-7f86-923b-43fb21ac5b29","ledger_balance":709873188.1,"hold_balance":0,"available_balance":709873188.1,"currency":"NGN","restricted":false},"transfer":null,"disputes":[],"batch":null,"transfer_beneficiary":null,"bill_payment_beneficiary":null},{"id":"01954818-0125-7cce-b257-d77a52fb8c92","meta":null,"created_on":"2025-02-27T15:48:07.589Z","created_by_id":"019372de-17ef-7cc2-8fc0-43fe11ba042f","modified_on":"2025-02-27T15:48:11.848Z","modified_by_id":"019372de-17ef-7cc2-8fc0-43fe11ba042f","deleted_on":null,"deleted_by_id":null,"tenant_id":"00000000-0000-0000-0000-000000000000","account_id":"0193a699-2f15-7881-8b7f-ae50980bcfad","profile_id":"0193a649-e3d0-7881-8b7f-2ef1d89a9aff","cba_id":"3561","currency":"NGN","amount":"10.00","balance_after":null,"reference":"TRIKYXJOMATZ","processor_reference":null,"processor_status":null,"processor_message":"Cannot read properties of undefined (reading 'has')","status":"failed","entry_type":"debit","narration":"testing","transaction_date":"2025-02-27T15:48:07.588Z","transaction_type":"fee","processor":"cba","reviewed_on":null,"reviewed_by":null,"batch_id":null,"schedule_id":null,"account":{"id":"0193a699-2f15-7881-8b7f-ae50980bcfad","meta":null,"created_on":"2024-12-08T14:07:57.204Z","created_by_id":null,"modified_on":"2025-03-02T20:16:04.081Z","modified_by_id":"019372de-17ef-7cc2-8fc0-43fe11ba042f","deleted_on":null,"deleted_by_id":null,"tenant_id":"00000000-0000-0000-0000-000000000000","name":"expenses","type":"account","cba_id":"0000000074","status":"active","profile_id":"0193a649-e3d0-7881-8b7f-2ef1d89a9aff","account_number":"0000000074","bank_id":"0193324f-cad0-7f86-923b-43fb21ac5b29","ledger_balance":709873188.1,"hold_balance":0,"available_balance":709873188.1,"currency":"NGN","restricted":false},"transfer":null,"disputes":[],"batch":null,"transfer_beneficiary":null,"bill_payment_beneficiary":null},{"id":"01954818-00cb-7cce-b257-bacd96693e1e","meta":null,"created_on":"2025-02-27T15:48:07.390Z","created_by_id":"019372de-17ef-7cc2-8fc0-43fe11ba042f","modified_on":"2025-02-27T15:48:11.846Z","modified_by_id":"019372de-17ef-7cc2-8fc0-43fe11ba042f","deleted_on":null,"deleted_by_id":null,"tenant_id":"00000000-0000-0000-0000-000000000000","account_id":"0193a699-2f15-7881-8b7f-ae50980bcfad","profile_id":"0193a649-e3d0-7881-8b7f-2ef1d89a9aff","cba_id":"482","currency":"NGN","amount":"100.00","balance_after":null,"reference":"TRIKYXJOMATZ","processor_reference":null,"processor_status":null,"processor_message":"Cannot read properties of undefined (reading 'has')","status":"failed","entry_type":"debit","narration":"testing","transaction_date":"2025-02-27T15:48:07.499Z","transaction_type":"transfer","processor":"nip","reviewed_on":null,"reviewed_by":null,"batch_id":"01954818-005e-7cce-b257-aa3c843ec400","schedule_id":null,"account":{"id":"0193a699-2f15-7881-8b7f-ae50980bcfad","meta":null,"created_on":"2024-12-08T14:07:57.204Z","created_by_id":null,"modified_on":"2025-03-02T20:16:03.575Z","modified_by_id":"019372de-17ef-7cc2-8fc0-43fe11ba042f","deleted_on":null,"deleted_by_id":null,"tenant_id":"00000000-0000-0000-0000-000000000000","name":"expenses","type":"account","cba_id":"0000000074","status":"active","profile_id":"0193a649-e3d0-7881-8b7f-2ef1d89a9aff","account_number":"0000000074","bank_id":"0193324f-cad0-7f86-923b-43fb21ac5b29","ledger_balance":709873188.1,"hold_balance":0,"available_balance":709873188.1,"currency":"NGN","restricted":false},"transfer":{"id":"01954818-00cd-7cce-b257-cc5bd7d7200b","meta":null,"created_on":"2025-02-27T15:48:07.390Z","created_by_id":"019372de-17ef-7cc2-8fc0-43fe11ba042f","modified_on":"2025-02-27T15:48:07.390Z","modified_by_id":null,"deleted_on":null,"deleted_by_id":null,"tenant_id":"00000000-0000-0000-0000-000000000000","bank_code":"050030","bank_name":"NORTHQUEST FINANCE COMPANY LIMITED ","bank_logo":"https://cdn.prod.website-files.com/67342b6ac3243e10a48bee9d/673b02614b7fc0a77c0172b2_NorthQuest%20Finance%20%20Logo-p-500.png","account_name":"Olayemi Victoria","account_number":"0000000409","profile_id":"0193a649-e3d0-7881-8b7f-2ef1d89a9aff","transaction_id":"01954818-00cb-7cce-b257-bacd96693e1e","account_id":"0193a699-2f15-7881-8b7f-ae50980bcfad"},"disputes":[],"batch":{"id":"01954818-005e-7cce-b257-aa3c843ec400","meta":null,"created_on":"2025-02-27T15:48:07.390Z","created_by_id":"019372de-17ef-7cc2-8fc0-43fe11ba042f","modified_on":"2025-02-27T15:48:07.390Z","modified_by_id":null,"deleted_on":null,"deleted_by_id":null,"tenant_id":"00000000-0000-0000-0000-000000000000","status":"approved","name":null},"transfer_beneficiary":null,"bill_payment_beneficiary":null}],"meta":{"page":1,"total_pages":94,"total_items":939}}