{"status":"success","data":[{"id":"019530c4-c06a-7330-9651-46d1f519404d","meta":null,"created_on":"2025-02-23T03:05:51.348Z","created_by_id":null,"modified_on":"2025-02-23T03:05:51.348Z","modified_by_id":null,"deleted_on":null,"deleted_by_id":null,"name":"Algeria","code":"DZA","latitude":"28.00000000","longitude":"3.00000000","type":"country","parent_id":"019530c4-b069-7330-9647-0262bc88d5bb"},{"id":"019530c4-c06b-7330-965c-dbeed055d899","meta":null,"created_on":"2025-02-23T03:05:51.348Z","created_by_id":null,"modified_on":"2025-02-23T03:05:51.348Z","modified_by_id":null,"deleted_on":null,"deleted_by_id":null,"name":"Angola","code":"AGO","latitude":"-12.50000000","longitude":"18.50000000","type":"country","parent_id":"019530c4-b069-7330-9647-0262bc88d5bb"},{"id":"019530c4-c070-7330-9783-9d3552491cb3","meta":null,"created_on":"2025-02-23T03:05:51.348Z","created_by_id":null,"modified_on":"2025-02-23T03:05:51.348Z","modified_by_id":null,"deleted_on":null,"deleted_by_id":null,"name":"Benin","code":"BEN","latitude":"9.50000000","longitude":"2.25000000","type":"country","parent_id":"019530c4-b069-7330-9647-0262bc88d5bb"},{"id":"019530c4-c071-7330-9797-afba04846dc5","meta":null,"created_on":"2025-02-23T03:05:51.348Z","created_by_id":null,"modified_on":"2025-02-23T03:05:51.348Z","modified_by_id":null,"deleted_on":null,"deleted_by_id":null,"name":"Botswana","code":"BWA","latitude":"-22.00000000","longitude":"24.00000000","type":"country","parent_id":"019530c4-b069-7330-9647-0262bc88d5bb"},{"id":"019530c4-c074-7330-984b-7a7d2e1f3711","meta":null,"created_on":"2025-02-23T03:05:51.348Z","created_by_id":null,"modified_on":"2025-02-23T03:05:51.348Z","modified_by_id":null,"deleted_on":null,"deleted_by_id":null,"name":"British Indian Ocean Territory","code":"IOT","latitude":"-6.00000000","longitude":"71.50000000","type":"country","parent_id":"019530c4-b069-7330-9647-0262bc88d5bb"},{"id":"019530c4-c074-7330-985c-9e1bde0f0e14","meta":null,"created_on":"2025-02-23T03:05:51.348Z","created_by_id":null,"modified_on":"2025-02-23T03:05:51.348Z","modified_by_id":null,"deleted_on":null,"deleted_by_id":null,"name":"Burkina Faso","code":"BFA","latitude":"13.00000000","longitude":"-2.00000000","type":"country","parent_id":"019530c4-b069-7330-9647-0262bc88d5bb"},{"id":"019530c4-c075-7330-9861-481f3db45321","meta":null,"created_on":"2025-02-23T03:05:51.348Z","created_by_id":null,"modified_on":"2025-02-23T03:05:51.348Z","modified_by_id":null,"deleted_on":null,"deleted_by_id":null,"name":"Burundi","code":"BDI","latitude":"-3.50000000","longitude":"30.00000000","type":"country","parent_id":"019530c4-b069-7330-9647-0262bc88d5bb"},{"id":"019530c4-c075-7330-9866-86dfc9b608d2","meta":null,"created_on":"2025-02-23T03:05:51.348Z","created_by_id":null,"modified_on":"2025-02-23T03:05:51.348Z","modified_by_id":null,"deleted_on":null,"deleted_by_id":null,"name":"Cameroon","code":"CMR","latitude":"6.00000000","longitude":"12.00000000","type":"country","parent_id":"019530c4-b069-7330-9647-0262bc88d5bb"},{"id":"019530c4-c075-7330-988d-6c57924c82a2","meta":null,"created_on":"2025-02-23T03:05:51.348Z","created_by_id":null,"modified_on":"2025-02-23T03:05:51.348Z","modified_by_id":null,"deleted_on":null,"deleted_by_id":null,"name":"Cape Verde","code":"CPV","latitude":"16.00000000","longitude":"-24.00000000","type":"country","parent_id":"019530c4-b069-7330-9647-0262bc88d5bb"},{"id":"019530c4-c075-7330-988f-427608242d0c","meta":null,"created_on":"2025-02-23T03:05:51.348Z","created_by_id":null,"modified_on":"2025-02-23T03:05:51.348Z","modified_by_id":null,"deleted_on":null,"deleted_by_id":null,"name":"Central African Republic","code":"CAF","latitude":"7.00000000","longitude":"21.00000000","type":"country","parent_id":"019530c4-b069-7330-9647-0262bc88d5bb"}],"meta":{"page":1,"total_pages":6,"total_items":60}}