{"status":"success","data":[{"id":"01961be0-c12a-7aa9-8b94-180b385a2f5e","meta":null,"created_on":"2025-04-09T18:47:16.522Z","created_by_id":"0195d26a-2323-711c-8833-9e3f99ed4f85","modified_on":"2025-04-09T18:47:17.326Z","modified_by_id":"0195d26a-2323-711c-8833-9e3f99ed4f85","deleted_on":null,"deleted_by_id":null,"tenant_id":"00000000-0000-0000-0000-000000000000","account_id":"0195d26b-5331-711c-8834-39e9ecc3f5c1","profile_id":"0195d26a-45cb-711c-8833-b628ce71be8a","cba_id":"4303","currency":"NGN","amount":"10.00","balance_after":null,"reference":"TY15B7N8J0C7","processor_reference":null,"processor_status":null,"processor_message":null,"status":"success","entry_type":"debit","narration":"Sodiq","transaction_date":"2025-04-09T18:47:16.521Z","transaction_type":"fee","processor":"cba","reviewed_on":null,"reviewed_by":null,"batch_id":null,"schedule_id":null,"account":{"id":"0195d26b-5331-711c-8834-39e9ecc3f5c1","meta":null,"created_on":"2025-03-26T12:26:43.889Z","created_by_id":"0195d26a-2323-711c-8833-9e3f99ed4f85","modified_on":"2025-04-09T18:47:18.443Z","modified_by_id":"0195d26a-2323-711c-8833-9e3f99ed4f85","deleted_on":null,"deleted_by_id":null,"tenant_id":"00000000-0000-0000-0000-000000000000","name":"IBRAHIM AZEEZ","type":"account","cba_id":"9058893837","status":"active","profile_id":"0195d26a-45cb-711c-8833-b628ce71be8a","account_number":"9058893837","bank_id":"0193324f-cad0-7f86-923b-43fb21ac5b29","ledger_balance":"998346.09","hold_balance":"0.00","available_balance":"998346.09","currency":"NGN","restricted":false},"transfer":null,"disputes":[],"batch":null,"transfer_beneficiary":null,"bill_payment_beneficiary":null},{"id":"01961be0-c127-7aa9-8b94-16d2c47261bf","meta":null,"created_on":"2025-04-09T18:47:16.454Z","created_by_id":"0195d26a-2323-711c-8833-9e3f99ed4f85","modified_on":"2025-04-09T18:47:18.239Z","modified_by_id":"0195d26a-2323-711c-8833-9e3f99ed4f85","deleted_on":null,"deleted_by_id":null,"tenant_id":"00000000-0000-0000-0000-000000000000","account_id":"0195d26b-5331-711c-8834-39e9ecc3f5c1","profile_id":"0195d26a-45cb-711c-8833-b628ce71be8a","cba_id":"4305","currency":"NGN","amount":"10.00","balance_after":null,"reference":"TOLPYC6ZHE0M","processor_reference":null,"processor_status":null,"processor_message":null,"status":"success","entry_type":"debit","narration":"Sodiq","transaction_date":"2025-04-09T18:47:16.453Z","transaction_type":"fee","processor":"cba","reviewed_on":null,"reviewed_by":null,"batch_id":null,"schedule_id":null,"account":{"id":"0195d26b-5331-711c-8834-39e9ecc3f5c1","meta":null,"created_on":"2025-03-26T12:26:43.889Z","created_by_id":"0195d26a-2323-711c-8833-9e3f99ed4f85","modified_on":"2025-04-09T18:47:18.443Z","modified_by_id":"0195d26a-2323-711c-8833-9e3f99ed4f85","deleted_on":null,"deleted_by_id":null,"tenant_id":"00000000-0000-0000-0000-000000000000","name":"IBRAHIM AZEEZ","type":"account","cba_id":"9058893837","status":"active","profile_id":"0195d26a-45cb-711c-8833-b628ce71be8a","account_number":"9058893837","bank_id":"0193324f-cad0-7f86-923b-43fb21ac5b29","ledger_balance":"998346.09","hold_balance":"0.00","available_balance":"998346.09","currency":"NGN","restricted":false},"transfer":null,"disputes":[],"batch":null,"transfer_beneficiary":null,"bill_payment_beneficiary":null},{"id":"01961be0-c061-7aa9-8b93-f4398d05fbec","meta":null,"created_on":"2025-04-09T18:47:16.165Z","created_by_id":"0195d26a-2323-711c-8833-9e3f99ed4f85","modified_on":"2025-04-09T18:47:18.234Z","modified_by_id":"0195d26a-2323-711c-8833-9e3f99ed4f85","deleted_on":null,"deleted_by_id":null,"tenant_id":"00000000-0000-0000-0000-000000000000","account_id":"0195d26b-5331-711c-8834-39e9ecc3f5c1","profile_id":"0195d26a-45cb-711c-8833-b628ce71be8a","cba_id":"4304","currency":"NGN","amount":"10.00","balance_after":null,"reference":"TOLPYC6ZHE0M","processor_reference":"MOCK_SESSION_ID_67890","processor_status":"success","processor_message":"Transfer Successful","status":"success","entry_type":"debit","narration":"Sodiq","transaction_date":"2025-04-09T18:47:16.321Z","transaction_type":"transfer","processor":"nip","reviewed_on":null,"reviewed_by":null,"batch_id":"01961be0-bfc5-7aa9-8b93-e3d09734ce44","schedule_id":null,"account":{"id":"0195d26b-5331-711c-8834-39e9ecc3f5c1","meta":null,"created_on":"2025-03-26T12:26:43.889Z","created_by_id":"0195d26a-2323-711c-8833-9e3f99ed4f85","modified_on":"2025-04-09T18:47:18.443Z","modified_by_id":"0195d26a-2323-711c-8833-9e3f99ed4f85","deleted_on":null,"deleted_by_id":null,"tenant_id":"00000000-0000-0000-0000-000000000000","name":"IBRAHIM AZEEZ","type":"account","cba_id":"9058893837","status":"active","profile_id":"0195d26a-45cb-711c-8833-b628ce71be8a","account_number":"9058893837","bank_id":"0193324f-cad0-7f86-923b-43fb21ac5b29","ledger_balance":"998346.09","hold_balance":"0.00","available_balance":"998346.09","currency":"NGN","restricted":false},"transfer":{"id":"01961be0-c063-7aa9-8b94-07c3f3e78202","meta":null,"created_on":"2025-04-09T18:47:16.165Z","created_by_id":"0195d26a-2323-711c-8833-9e3f99ed4f85","modified_on":"2025-04-09T18:47:16.165Z","modified_by_id":null,"deleted_on":null,"deleted_by_id":null,"tenant_id":"00000000-0000-0000-0000-000000000000","bank_code":"999998","bank_name":"vee test","bank_logo":"https://lendstack-s3.s3.us-east-2.amazonaws.com/bank_logos/035.png","account_name":"John Doe","account_number":"1780004070","profile_id":"0195d26a-45cb-711c-8833-b628ce71be8a","transaction_id":"01961be0-c061-7aa9-8b93-f4398d05fbec","account_id":"0195d26b-5331-711c-8834-39e9ecc3f5c1"},"disputes":[],"batch":{"id":"01961be0-bfc5-7aa9-8b93-e3d09734ce44","meta":null,"created_on":"2025-04-09T18:47:16.165Z","created_by_id":"0195d26a-2323-711c-8833-9e3f99ed4f85","modified_on":"2025-04-09T18:47:16.165Z","modified_by_id":null,"deleted_on":null,"deleted_by_id":null,"tenant_id":"00000000-0000-0000-0000-000000000000","status":"approved","name":null},"transfer_beneficiary":null,"bill_payment_beneficiary":null},{"id":"01961be0-c003-7aa9-8b93-ed7236d09d30","meta":null,"created_on":"2025-04-09T18:47:16.165Z","created_by_id":"0195d26a-2323-711c-8833-9e3f99ed4f85","modified_on":"2025-04-09T18:47:17.230Z","modified_by_id":"0195d26a-2323-711c-8833-9e3f99ed4f85","deleted_on":null,"deleted_by_id":null,"tenant_id":"00000000-0000-0000-0000-000000000000","account_id":"0195d26b-5331-711c-8834-39e9ecc3f5c1","profile_id":"0195d26a-45cb-711c-8833-b628ce71be8a","cba_id":"4302","currency":"NGN","amount":"10.00","balance_after":null,"reference":"TY15B7N8J0C7","processor_reference":"MOCK_SESSION_ID_67890","processor_status":"success","processor_message":"Transfer Successful","status":"success","entry_type":"debit","narration":"Sodiq","transaction_date":"2025-04-09T18:47:16.227Z","transaction_type":"transfer","processor":"nip","reviewed_on":null,"reviewed_by":null,"batch_id":"01961be0-bfc5-7aa9-8b93-e3d09734ce44","schedule_id":null,"account":{"id":"0195d26b-5331-711c-8834-39e9ecc3f5c1","meta":null,"created_on":"2025-03-26T12:26:43.889Z","created_by_id":"0195d26a-2323-711c-8833-9e3f99ed4f85","modified_on":"2025-04-09T18:47:18.443Z","modified_by_id":"0195d26a-2323-711c-8833-9e3f99ed4f85","deleted_on":null,"deleted_by_id":null,"tenant_id":"00000000-0000-0000-0000-000000000000","name":"IBRAHIM AZEEZ","type":"account","cba_id":"9058893837","status":"active","profile_id":"0195d26a-45cb-711c-8833-b628ce71be8a","account_number":"9058893837","bank_id":"0193324f-cad0-7f86-923b-43fb21ac5b29","ledger_balance":"998346.09","hold_balance":"0.00","available_balance":"998346.09","currency":"NGN","restricted":false},"transfer":{"id":"01961be0-c063-7aa9-8b93-fb7642d82ac9","meta":null,"created_on":"2025-04-09T18:47:16.165Z","created_by_id":"0195d26a-2323-711c-8833-9e3f99ed4f85","modified_on":"2025-04-09T18:47:16.165Z","modified_by_id":null,"deleted_on":null,"deleted_by_id":null,"tenant_id":"00000000-0000-0000-0000-000000000000","bank_code":"999998","bank_name":"vee test","bank_logo":"https://lendstack-s3.s3.us-east-2.amazonaws.com/bank_logos/035.png","account_name":"John Doe","account_number":"1780004070","profile_id":"0195d26a-45cb-711c-8833-b628ce71be8a","transaction_id":"01961be0-c003-7aa9-8b93-ed7236d09d30","account_id":"0195d26b-5331-711c-8834-39e9ecc3f5c1"},"disputes":[],"batch":{"id":"01961be0-bfc5-7aa9-8b93-e3d09734ce44","meta":null,"created_on":"2025-04-09T18:47:16.165Z","created_by_id":"0195d26a-2323-711c-8833-9e3f99ed4f85","modified_on":"2025-04-09T18:47:16.165Z","modified_by_id":null,"deleted_on":null,"deleted_by_id":null,"tenant_id":"00000000-0000-0000-0000-000000000000","status":"approved","name":null},"transfer_beneficiary":null,"bill_payment_beneficiary":null},{"id":"01961be0-b95d-7aa9-8b93-d127d6b8e98d","meta":null,"created_on":"2025-04-09T18:47:14.525Z","created_by_id":"0195d26a-2323-711c-8833-9e3f99ed4f85","modified_on":"2025-04-09T18:47:15.039Z","modified_by_id":"0195d26a-2323-711c-8833-9e3f99ed4f85","deleted_on":null,"deleted_by_id":null,"tenant_id":"00000000-0000-0000-0000-000000000000","account_id":"0195d26b-5331-711c-8834-39e9ecc3f5c1","profile_id":"0195d26a-45cb-711c-8833-b628ce71be8a","cba_id":"4301","currency":"NGN","amount":"10.00","balance_after":null,"reference":"TMBWNYI5I6WC","processor_reference":null,"processor_status":null,"processor_message":null,"status":"success","entry_type":"debit","narration":"Sodiq","transaction_date":"2025-04-09T18:47:14.524Z","transaction_type":"fee","processor":"cba","reviewed_on":null,"reviewed_by":null,"batch_id":null,"schedule_id":null,"account":{"id":"0195d26b-5331-711c-8834-39e9ecc3f5c1","meta":null,"created_on":"2025-03-26T12:26:43.889Z","created_by_id":"0195d26a-2323-711c-8833-9e3f99ed4f85","modified_on":"2025-04-09T18:47:18.443Z","modified_by_id":"0195d26a-2323-711c-8833-9e3f99ed4f85","deleted_on":null,"deleted_by_id":null,"tenant_id":"00000000-0000-0000-0000-000000000000","name":"IBRAHIM AZEEZ","type":"account","cba_id":"9058893837","status":"active","profile_id":"0195d26a-45cb-711c-8833-b628ce71be8a","account_number":"9058893837","bank_id":"0193324f-cad0-7f86-923b-43fb21ac5b29","ledger_balance":"998346.09","hold_balance":"0.00","available_balance":"998346.09","currency":"NGN","restricted":false},"transfer":null,"disputes":[],"batch":null,"transfer_beneficiary":null,"bill_payment_beneficiary":null},{"id":"01961be0-b900-7aa9-8b93-c4265b9f0972","meta":null,"created_on":"2025-04-09T18:47:14.432Z","created_by_id":"0195d26a-2323-711c-8833-9e3f99ed4f85","modified_on":"2025-04-09T18:47:15.035Z","modified_by_id":"0195d26a-2323-711c-8833-9e3f99ed4f85","deleted_on":null,"deleted_by_id":null,"tenant_id":"00000000-0000-0000-0000-000000000000","account_id":"0195d26b-5331-711c-8834-39e9ecc3f5c1","profile_id":"0195d26a-45cb-711c-8833-b628ce71be8a","cba_id":"4300","currency":"NGN","amount":"100.23","balance_after":null,"reference":"TMBWNYI5I6WC","processor_reference":"MOCK_SESSION_ID_67890","processor_status":"success","processor_message":"Transfer Successful","status":"success","entry_type":"debit","narration":"Sodiq","transaction_date":"2025-04-09T18:47:14.431Z","transaction_type":"transfer","processor":"nip","reviewed_on":null,"reviewed_by":null,"batch_id":null,"schedule_id":null,"account":{"id":"0195d26b-5331-711c-8834-39e9ecc3f5c1","meta":null,"created_on":"2025-03-26T12:26:43.889Z","created_by_id":"0195d26a-2323-711c-8833-9e3f99ed4f85","modified_on":"2025-04-09T18:47:18.443Z","modified_by_id":"0195d26a-2323-711c-8833-9e3f99ed4f85","deleted_on":null,"deleted_by_id":null,"tenant_id":"00000000-0000-0000-0000-000000000000","name":"IBRAHIM AZEEZ","type":"account","cba_id":"9058893837","status":"active","profile_id":"0195d26a-45cb-711c-8833-b628ce71be8a","account_number":"9058893837","bank_id":"0193324f-cad0-7f86-923b-43fb21ac5b29","ledger_balance":"998346.09","hold_balance":"0.00","available_balance":"998346.09","currency":"NGN","restricted":false},"transfer":{"id":"01961be0-b905-7aa9-8b93-c9b6f30c65f9","meta":null,"created_on":"2025-04-09T18:47:14.432Z","created_by_id":"0195d26a-2323-711c-8833-9e3f99ed4f85","modified_on":"2025-04-09T18:47:14.432Z","modified_by_id":null,"deleted_on":null,"deleted_by_id":null,"tenant_id":"00000000-0000-0000-0000-000000000000","bank_code":"000014","bank_name":"Access Bank","bank_logo":"https://lendstack-s3.s3.us-east-2.amazonaws.com/bank_logos/044.png","account_name":"John Doe","account_number":"1780004070","profile_id":"0195d26a-45cb-711c-8833-b628ce71be8a","transaction_id":"01961be0-b900-7aa9-8b93-c4265b9f0972","account_id":"0195d26b-5331-711c-8834-39e9ecc3f5c1"},"disputes":[],"batch":null,"transfer_beneficiary":null,"bill_payment_beneficiary":null},{"id":"01960cb9-19bb-7993-88eb-bfa4297e08bd","meta":null,"created_on":"2025-04-06T20:09:39.512Z","created_by_id":"0195d26a-2323-711c-8833-9e3f99ed4f85","modified_on":"2025-04-06T20:10:31.840Z","modified_by_id":"0195d26a-2323-711c-8833-9e3f99ed4f85","deleted_on":null,"deleted_by_id":null,"tenant_id":"00000000-0000-0000-0000-000000000000","account_id":"0195d26b-5331-711c-8834-39e9ecc3f5c1","profile_id":"0195d26a-45cb-711c-8833-b628ce71be8a","cba_id":"4270","currency":"NGN","amount":"10.00","balance_after":"998496.32","reference":"TCL1GHA5N764","processor_reference":null,"processor_status":null,"processor_message":null,"status":"success","entry_type":"debit","narration":"Sodiq","transaction_date":"2025-04-06T20:09:39.509Z","transaction_type":"fee","processor":"cba","reviewed_on":null,"reviewed_by":null,"batch_id":null,"schedule_id":null,"account":{"id":"0195d26b-5331-711c-8834-39e9ecc3f5c1","meta":null,"created_on":"2025-03-26T12:26:43.889Z","created_by_id":"0195d26a-2323-711c-8833-9e3f99ed4f85","modified_on":"2025-04-09T18:47:18.443Z","modified_by_id":"0195d26a-2323-711c-8833-9e3f99ed4f85","deleted_on":null,"deleted_by_id":null,"tenant_id":"00000000-0000-0000-0000-000000000000","name":"IBRAHIM AZEEZ","type":"account","cba_id":"9058893837","status":"active","profile_id":"0195d26a-45cb-711c-8833-b628ce71be8a","account_number":"9058893837","bank_id":"0193324f-cad0-7f86-923b-43fb21ac5b29","ledger_balance":"998346.09","hold_balance":"0.00","available_balance":"998346.09","currency":"NGN","restricted":false},"transfer":null,"disputes":[{"id":"01960cb9-e627-7993-88ec-1b3ed0d3d526","meta":null,"created_on":"2025-04-06T20:10:31.847Z","created_by_id":"0195d26a-2323-711c-8833-9e3f99ed4f85","modified_on":"2025-04-06T20:10:31.847Z","modified_by_id":null,"deleted_on":null,"deleted_by_id":null,"tenant_id":"00000000-0000-0000-0000-000000000000","file_id":"0194462d-2cbc-788e-b49e-8f0163251b62","transaction_id":"01960cb9-19bb-7993-88eb-bfa4297e08bd","status":"pending","note":"egbami, e no dey work","comment":null,"reviewed_on":null,"reviewed_by":null,"profile_id":"0195d26a-45cb-711c-8833-b628ce71be8a"}],"batch":null,"transfer_beneficiary":null,"bill_payment_beneficiary":null},{"id":"01960cb9-18a7-7993-88eb-b5c1d1f6aa3f","meta":null,"created_on":"2025-04-06T20:09:39.239Z","created_by_id":"0195d26a-2323-711c-8833-9e3f99ed4f85","modified_on":"2025-04-06T20:09:40.618Z","modified_by_id":"0195d26a-2323-711c-8833-9e3f99ed4f85","deleted_on":null,"deleted_by_id":null,"tenant_id":"00000000-0000-0000-0000-000000000000","account_id":"0195d26b-5331-711c-8834-39e9ecc3f5c1","profile_id":"0195d26a-45cb-711c-8833-b628ce71be8a","cba_id":"4268","currency":"NGN","amount":"10.00","balance_after":null,"reference":"TRCEUA1MOS4H","processor_reference":null,"processor_status":null,"processor_message":null,"status":"success","entry_type":"debit","narration":"Sodiq","transaction_date":"2025-04-06T20:09:39.238Z","transaction_type":"fee","processor":"cba","reviewed_on":null,"reviewed_by":null,"batch_id":null,"schedule_id":null,"account":{"id":"0195d26b-5331-711c-8834-39e9ecc3f5c1","meta":null,"created_on":"2025-03-26T12:26:43.889Z","created_by_id":"0195d26a-2323-711c-8833-9e3f99ed4f85","modified_on":"2025-04-09T18:47:18.443Z","modified_by_id":"0195d26a-2323-711c-8833-9e3f99ed4f85","deleted_on":null,"deleted_by_id":null,"tenant_id":"00000000-0000-0000-0000-000000000000","name":"IBRAHIM AZEEZ","type":"account","cba_id":"9058893837","status":"active","profile_id":"0195d26a-45cb-711c-8833-b628ce71be8a","account_number":"9058893837","bank_id":"0193324f-cad0-7f86-923b-43fb21ac5b29","ledger_balance":"998346.09","hold_balance":"0.00","available_balance":"998346.09","currency":"NGN","restricted":false},"transfer":null,"disputes":[],"batch":null,"transfer_beneficiary":null,"bill_payment_beneficiary":null},{"id":"01960cb9-1777-7993-88eb-966f189c3fb5","meta":null,"created_on":"2025-04-06T20:09:38.891Z","created_by_id":"0195d26a-2323-711c-8833-9e3f99ed4f85","modified_on":"2025-04-06T20:09:40.517Z","modified_by_id":"0195d26a-2323-711c-8833-9e3f99ed4f85","deleted_on":null,"deleted_by_id":null,"tenant_id":"00000000-0000-0000-0000-000000000000","account_id":"0195d26b-5331-711c-8834-39e9ecc3f5c1","profile_id":"0195d26a-45cb-711c-8833-b628ce71be8a","cba_id":"4267","currency":"NGN","amount":"10.00","balance_after":null,"reference":"TRCEUA1MOS4H","processor_reference":"MOCK_SESSION_ID_67890","processor_status":"success","processor_message":"Transfer Successful","status":"success","entry_type":"debit","narration":"Sodiq","transaction_date":"2025-04-06T20:09:38.934Z","transaction_type":"transfer","processor":"nip","reviewed_on":null,"reviewed_by":null,"batch_id":"01960cb9-174b-7993-88eb-8193ec0a1831","schedule_id":null,"account":{"id":"0195d26b-5331-711c-8834-39e9ecc3f5c1","meta":null,"created_on":"2025-03-26T12:26:43.889Z","created_by_id":"0195d26a-2323-711c-8833-9e3f99ed4f85","modified_on":"2025-04-09T18:47:18.443Z","modified_by_id":"0195d26a-2323-711c-8833-9e3f99ed4f85","deleted_on":null,"deleted_by_id":null,"tenant_id":"00000000-0000-0000-0000-000000000000","name":"IBRAHIM AZEEZ","type":"account","cba_id":"9058893837","status":"active","profile_id":"0195d26a-45cb-711c-8833-b628ce71be8a","account_number":"9058893837","bank_id":"0193324f-cad0-7f86-923b-43fb21ac5b29","ledger_balance":"998346.09","hold_balance":"0.00","available_balance":"998346.09","currency":"NGN","restricted":false},"transfer":{"id":"01960cb9-1779-7993-88eb-a116e1bed22f","meta":null,"created_on":"2025-04-06T20:09:38.891Z","created_by_id":"0195d26a-2323-711c-8833-9e3f99ed4f85","modified_on":"2025-04-06T20:09:38.891Z","modified_by_id":null,"deleted_on":null,"deleted_by_id":null,"tenant_id":"00000000-0000-0000-0000-000000000000","bank_code":"999998","bank_name":"vee test","bank_logo":"https://lendstack-s3.s3.us-east-2.amazonaws.com/bank_logos/035.png","account_name":"John Doe","account_number":"1780004070","profile_id":"0195d26a-45cb-711c-8833-b628ce71be8a","transaction_id":"01960cb9-1777-7993-88eb-966f189c3fb5","account_id":"0195d26b-5331-711c-8834-39e9ecc3f5c1"},"disputes":[],"batch":{"id":"01960cb9-174b-7993-88eb-8193ec0a1831","meta":null,"created_on":"2025-04-06T20:09:38.891Z","created_by_id":"0195d26a-2323-711c-8833-9e3f99ed4f85","modified_on":"2025-04-06T20:09:38.891Z","modified_by_id":null,"deleted_on":null,"deleted_by_id":null,"tenant_id":"00000000-0000-0000-0000-000000000000","status":"approved","name":null},"transfer_beneficiary":null,"bill_payment_beneficiary":null},{"id":"01960cb9-1765-7993-88eb-8a94b4d5cbc8","meta":null,"created_on":"2025-04-06T20:09:38.891Z","created_by_id":"0195d26a-2323-711c-8833-9e3f99ed4f85","modified_on":"2025-04-06T20:09:41.427Z","modified_by_id":"0195d26a-2323-711c-8833-9e3f99ed4f85","deleted_on":null,"deleted_by_id":null,"tenant_id":"00000000-0000-0000-0000-000000000000","account_id":"0195d26b-5331-711c-8834-39e9ecc3f5c1","profile_id":"0195d26a-45cb-711c-8833-b628ce71be8a","cba_id":"4269","currency":"NGN","amount":"10.00","balance_after":null,"reference":"TCL1GHA5N764","processor_reference":"MOCK_SESSION_ID_67890","processor_status":"success","processor_message":"Transfer Successful","status":"success","entry_type":"debit","narration":"Sodiq","transaction_date":"2025-04-06T20:09:38.916Z","transaction_type":"transfer","processor":"nip","reviewed_on":null,"reviewed_by":null,"batch_id":"01960cb9-174b-7993-88eb-8193ec0a1831","schedule_id":null,"account":{"id":"0195d26b-5331-711c-8834-39e9ecc3f5c1","meta":null,"created_on":"2025-03-26T12:26:43.889Z","created_by_id":"0195d26a-2323-711c-8833-9e3f99ed4f85","modified_on":"2025-04-09T18:47:18.443Z","modified_by_id":"0195d26a-2323-711c-8833-9e3f99ed4f85","deleted_on":null,"deleted_by_id":null,"tenant_id":"00000000-0000-0000-0000-000000000000","name":"IBRAHIM AZEEZ","type":"account","cba_id":"9058893837","status":"active","profile_id":"0195d26a-45cb-711c-8833-b628ce71be8a","account_number":"9058893837","bank_id":"0193324f-cad0-7f86-923b-43fb21ac5b29","ledger_balance":"998346.09","hold_balance":"0.00","available_balance":"998346.09","currency":"NGN","restricted":false},"transfer":{"id":"01960cb9-1779-7993-88eb-9daa373ff7ed","meta":null,"created_on":"2025-04-06T20:09:38.891Z","created_by_id":"0195d26a-2323-711c-8833-9e3f99ed4f85","modified_on":"2025-04-06T20:09:38.891Z","modified_by_id":null,"deleted_on":null,"deleted_by_id":null,"tenant_id":"00000000-0000-0000-0000-000000000000","bank_code":"999998","bank_name":"vee test","bank_logo":"https://lendstack-s3.s3.us-east-2.amazonaws.com/bank_logos/035.png","account_name":"John Doe","account_number":"1780004070","profile_id":"0195d26a-45cb-711c-8833-b628ce71be8a","transaction_id":"01960cb9-1765-7993-88eb-8a94b4d5cbc8","account_id":"0195d26b-5331-711c-8834-39e9ecc3f5c1"},"disputes":[],"batch":{"id":"01960cb9-174b-7993-88eb-8193ec0a1831","meta":null,"created_on":"2025-04-06T20:09:38.891Z","created_by_id":"0195d26a-2323-711c-8833-9e3f99ed4f85","modified_on":"2025-04-06T20:09:38.891Z","modified_by_id":null,"deleted_on":null,"deleted_by_id":null,"tenant_id":"00000000-0000-0000-0000-000000000000","status":"approved","name":null},"transfer_beneficiary":null,"bill_payment_beneficiary":null}],"meta":{"page":1,"total_pages":7,"total_items":70}}