{"status":"success","data":[{"id":"01961be0-c77f-7aa9-8b94-3391d66df052","meta":{"pin":"1316","amount":100.23,"biller_id":"mtn","option_id":"","category_id":"airtime","account_number":"09055755671"},"created_on":"2025-04-09T18:47:18.144Z","created_by_id":"0195d26a-2323-711c-8833-9e3f99ed4f85","modified_on":"2025-04-09T18:47:18.144Z","modified_by_id":null,"deleted_on":null,"deleted_by_id":null,"tenant_id":"00000000-0000-0000-0000-000000000000","frequency":"daily","type":"bill-payment","start_date":"2025-05-10T21:00:00.000Z","next_run_date":"2025-05-11T21:00:00.000Z","end_date":"2025-06-20T21:00:00.000Z","status":"active","amount":"0.00","profile_id":"0195d26a-45cb-711c-8833-b628ce71be8a","account_id":"0195d26b-5331-711c-8834-39e9ecc3f5c1","user":{"id":"0195d26a-2323-711c-8833-9e3f99ed4f85","meta":null,"created_on":"2025-03-26T12:25:26.050Z","created_by_id":null,"modified_on":"2025-04-09T18:47:06.232Z","modified_by_id":"0195d26a-2323-711c-8833-9e3f99ed4f85","deleted_on":null,"deleted_by_id":null,"tenant_id":"00000000-0000-0000-0000-000000000000","email":"boom@mailinator.com","status":"active","first_name":"Ibrahim","last_name":"Azeez","twofa_enabled":false,"last_active":"2025-04-09T18:46:59.319Z","last_ip":"20.171.120.131","allowed_ips":null,"last_timezone":"America/Phoenix","last_location":"Phoenix","phone":"+2349058893837","review":null,"gender":"male","date_of_birth":"2001-06-16","cba_id":"140","photo_id":"0195d26a-e0b1-711c-8834-089bb7f9010d","referral_code":"PJ5R4O","referred_by":null}},{"id":"01961be0-c52c-7aa9-8b94-2887141eb996","meta":{"recipients":[{"amount":50.23,"bank_code":"999998","bank_name":"vee test","narration":"Sodiq","account_name":"John Doe","account_number":"1780004070"}]},"created_on":"2025-04-09T18:47:17.549Z","created_by_id":"0195d26a-2323-711c-8833-9e3f99ed4f85","modified_on":"2025-04-09T18:47:17.549Z","modified_by_id":null,"deleted_on":null,"deleted_by_id":null,"tenant_id":"00000000-0000-0000-0000-000000000000","frequency":"daily","type":"transfer","start_date":"2025-05-10T21:00:00.000Z","next_run_date":"2025-05-11T21:00:00.000Z","end_date":"2025-06-20T21:00:00.000Z","status":"active","amount":"0.00","profile_id":"0195d26a-45cb-711c-8833-b628ce71be8a","account_id":"0195d26b-5331-711c-8834-39e9ecc3f5c1","user":{"id":"0195d26a-2323-711c-8833-9e3f99ed4f85","meta":null,"created_on":"2025-03-26T12:25:26.050Z","created_by_id":null,"modified_on":"2025-04-09T18:47:06.232Z","modified_by_id":"0195d26a-2323-711c-8833-9e3f99ed4f85","deleted_on":null,"deleted_by_id":null,"tenant_id":"00000000-0000-0000-0000-000000000000","email":"boom@mailinator.com","status":"active","first_name":"Ibrahim","last_name":"Azeez","twofa_enabled":false,"last_active":"2025-04-09T18:46:59.319Z","last_ip":"20.171.120.131","allowed_ips":null,"last_timezone":"America/Phoenix","last_location":"Phoenix","phone":"+2349058893837","review":null,"gender":"male","date_of_birth":"2001-06-16","cba_id":"140","photo_id":"0195d26a-e0b1-711c-8834-089bb7f9010d","referral_code":"PJ5R4O","referred_by":null}},{"id":"01960cb9-2188-7993-88eb-d9ff9f2344f5","meta":{"pin":"1316","amount":100.23,"biller_id":"mtn","option_id":"","category_id":"airtime","account_number":"09055755671"},"created_on":"2025-04-06T20:09:41.509Z","created_by_id":"0195d26a-2323-711c-8833-9e3f99ed4f85","modified_on":"2025-04-06T20:09:41.509Z","modified_by_id":null,"deleted_on":null,"deleted_by_id":null,"tenant_id":"00000000-0000-0000-0000-000000000000","frequency":"daily","type":"bill-payment","start_date":"2025-05-10T21:00:00.000Z","next_run_date":"2025-05-11T21:00:00.000Z","end_date":"2025-06-20T21:00:00.000Z","status":"active","amount":"0.00","profile_id":"0195d26a-45cb-711c-8833-b628ce71be8a","account_id":"0195d26b-5331-711c-8834-39e9ecc3f5c1","user":{"id":"0195d26a-2323-711c-8833-9e3f99ed4f85","meta":null,"created_on":"2025-03-26T12:25:26.050Z","created_by_id":null,"modified_on":"2025-04-09T18:47:06.232Z","modified_by_id":"0195d26a-2323-711c-8833-9e3f99ed4f85","deleted_on":null,"deleted_by_id":null,"tenant_id":"00000000-0000-0000-0000-000000000000","email":"boom@mailinator.com","status":"active","first_name":"Ibrahim","last_name":"Azeez","twofa_enabled":false,"last_active":"2025-04-09T18:46:59.319Z","last_ip":"20.171.120.131","allowed_ips":null,"last_timezone":"America/Phoenix","last_location":"Phoenix","phone":"+2349058893837","review":null,"gender":"male","date_of_birth":"2001-06-16","cba_id":"140","photo_id":"0195d26a-e0b1-711c-8834-089bb7f9010d","referral_code":"PJ5R4O","referred_by":null}},{"id":"01960cb9-1e78-7993-88eb-ceb2e1695742","meta":{"recipients":[{"amount":50.23,"bank_code":"999998","bank_name":"vee test","narration":"Sodiq","account_name":"John Doe","account_number":"1780004070"}]},"created_on":"2025-04-06T20:09:40.728Z","created_by_id":"0195d26a-2323-711c-8833-9e3f99ed4f85","modified_on":"2025-04-06T20:09:40.728Z","modified_by_id":null,"deleted_on":null,"deleted_by_id":null,"tenant_id":"00000000-0000-0000-0000-000000000000","frequency":"daily","type":"transfer","start_date":"2025-05-10T21:00:00.000Z","next_run_date":"2025-05-11T21:00:00.000Z","end_date":"2025-06-20T21:00:00.000Z","status":"active","amount":"0.00","profile_id":"0195d26a-45cb-711c-8833-b628ce71be8a","account_id":"0195d26b-5331-711c-8834-39e9ecc3f5c1","user":{"id":"0195d26a-2323-711c-8833-9e3f99ed4f85","meta":null,"created_on":"2025-03-26T12:25:26.050Z","created_by_id":null,"modified_on":"2025-04-09T18:47:06.232Z","modified_by_id":"0195d26a-2323-711c-8833-9e3f99ed4f85","deleted_on":null,"deleted_by_id":null,"tenant_id":"00000000-0000-0000-0000-000000000000","email":"boom@mailinator.com","status":"active","first_name":"Ibrahim","last_name":"Azeez","twofa_enabled":false,"last_active":"2025-04-09T18:46:59.319Z","last_ip":"20.171.120.131","allowed_ips":null,"last_timezone":"America/Phoenix","last_location":"Phoenix","phone":"+2349058893837","review":null,"gender":"male","date_of_birth":"2001-06-16","cba_id":"140","photo_id":"0195d26a-e0b1-711c-8834-089bb7f9010d","referral_code":"PJ5R4O","referred_by":null}},{"id":"01960220-d930-7eeb-9128-dd47bd949617","meta":{"pin":"1316","amount":100.23,"biller_id":"mtn","option_id":"","category_id":"airtime","account_number":"09055755671"},"created_on":"2025-04-04T18:47:09.360Z","created_by_id":"0195d26a-2323-711c-8833-9e3f99ed4f85","modified_on":"2025-04-04T18:47:09.360Z","modified_by_id":null,"deleted_on":null,"deleted_by_id":null,"tenant_id":"00000000-0000-0000-0000-000000000000","frequency":"daily","type":"bill-payment","start_date":"2025-05-10T21:00:00.000Z","next_run_date":"2025-05-10T21:00:00.000Z","end_date":"2025-06-20T21:00:00.000Z","status":"inactive","amount":"0.00","profile_id":"0195d26a-45cb-711c-8833-b628ce71be8a","account_id":"0195d26b-5331-711c-8834-39e9ecc3f5c1","user":{"id":"0195d26a-2323-711c-8833-9e3f99ed4f85","meta":null,"created_on":"2025-03-26T12:25:26.050Z","created_by_id":null,"modified_on":"2025-04-09T18:47:06.232Z","modified_by_id":"0195d26a-2323-711c-8833-9e3f99ed4f85","deleted_on":null,"deleted_by_id":null,"tenant_id":"00000000-0000-0000-0000-000000000000","email":"boom@mailinator.com","status":"active","first_name":"Ibrahim","last_name":"Azeez","twofa_enabled":false,"last_active":"2025-04-09T18:46:59.319Z","last_ip":"20.171.120.131","allowed_ips":null,"last_timezone":"America/Phoenix","last_location":"Phoenix","phone":"+2349058893837","review":null,"gender":"male","date_of_birth":"2001-06-16","cba_id":"140","photo_id":"0195d26a-e0b1-711c-8834-089bb7f9010d","referral_code":"PJ5R4O","referred_by":null}},{"id":"01960220-d463-7eeb-9128-d1ba2bd4624c","meta":{"recipients":[{"amount":50.23,"bank_code":"999998","bank_name":"vee test","narration":"Sodiq","account_name":"John Doe","account_number":"1780004070"}]},"created_on":"2025-04-04T18:47:08.130Z","created_by_id":"0195d26a-2323-711c-8833-9e3f99ed4f85","modified_on":"2025-04-04T18:47:08.130Z","modified_by_id":null,"deleted_on":null,"deleted_by_id":null,"tenant_id":"00000000-0000-0000-0000-000000000000","frequency":"daily","type":"transfer","start_date":"2025-05-10T21:00:00.000Z","next_run_date":"2025-05-10T21:00:00.000Z","end_date":"2025-06-20T21:00:00.000Z","status":"inactive","amount":"0.00","profile_id":"0195d26a-45cb-711c-8833-b628ce71be8a","account_id":"0195d26b-5331-711c-8834-39e9ecc3f5c1","user":{"id":"0195d26a-2323-711c-8833-9e3f99ed4f85","meta":null,"created_on":"2025-03-26T12:25:26.050Z","created_by_id":null,"modified_on":"2025-04-09T18:47:06.232Z","modified_by_id":"0195d26a-2323-711c-8833-9e3f99ed4f85","deleted_on":null,"deleted_by_id":null,"tenant_id":"00000000-0000-0000-0000-000000000000","email":"boom@mailinator.com","status":"active","first_name":"Ibrahim","last_name":"Azeez","twofa_enabled":false,"last_active":"2025-04-09T18:46:59.319Z","last_ip":"20.171.120.131","allowed_ips":null,"last_timezone":"America/Phoenix","last_location":"Phoenix","phone":"+2349058893837","review":null,"gender":"male","date_of_birth":"2001-06-16","cba_id":"140","photo_id":"0195d26a-e0b1-711c-8834-089bb7f9010d","referral_code":"PJ5R4O","referred_by":null}},{"id":"0195f7d5-3d28-7887-ab2b-da0c427ef453","meta":{"pin":"1316","amount":100.23,"biller_id":"mtn","option_id":"","category_id":"airtime","account_number":"09055755671"},"created_on":"2025-04-02T18:48:22.053Z","created_by_id":"0195d26a-2323-711c-8833-9e3f99ed4f85","modified_on":"2025-04-02T18:48:22.053Z","modified_by_id":null,"deleted_on":null,"deleted_by_id":null,"tenant_id":"00000000-0000-0000-0000-000000000000","frequency":"daily","type":"bill-payment","start_date":"2025-05-10T21:00:00.000Z","next_run_date":"2025-05-10T21:00:00.000Z","end_date":"2025-06-20T21:00:00.000Z","status":"inactive","amount":"0.00","profile_id":"0195d26a-45cb-711c-8833-b628ce71be8a","account_id":"0195d26b-5331-711c-8834-39e9ecc3f5c1","user":{"id":"0195d26a-2323-711c-8833-9e3f99ed4f85","meta":null,"created_on":"2025-03-26T12:25:26.050Z","created_by_id":null,"modified_on":"2025-04-09T18:47:06.232Z","modified_by_id":"0195d26a-2323-711c-8833-9e3f99ed4f85","deleted_on":null,"deleted_by_id":null,"tenant_id":"00000000-0000-0000-0000-000000000000","email":"boom@mailinator.com","status":"active","first_name":"Ibrahim","last_name":"Azeez","twofa_enabled":false,"last_active":"2025-04-09T18:46:59.319Z","last_ip":"20.171.120.131","allowed_ips":null,"last_timezone":"America/Phoenix","last_location":"Phoenix","phone":"+2349058893837","review":null,"gender":"male","date_of_birth":"2001-06-16","cba_id":"140","photo_id":"0195d26a-e0b1-711c-8834-089bb7f9010d","referral_code":"PJ5R4O","referred_by":null}},{"id":"0195f7d5-3ae2-7887-ab2b-d1b8bb5ad352","meta":{"recipients":[{"amount":50.23,"bank_code":"999998","bank_name":"vee test","narration":"Sodiq","account_name":"John Doe","account_number":"1780004070"}]},"created_on":"2025-04-02T18:48:21.470Z","created_by_id":"0195d26a-2323-711c-8833-9e3f99ed4f85","modified_on":"2025-04-02T18:48:21.470Z","modified_by_id":null,"deleted_on":null,"deleted_by_id":null,"tenant_id":"00000000-0000-0000-0000-000000000000","frequency":"daily","type":"transfer","start_date":"2025-05-10T21:00:00.000Z","next_run_date":"2025-05-10T21:00:00.000Z","end_date":"2025-06-20T21:00:00.000Z","status":"inactive","amount":"0.00","profile_id":"0195d26a-45cb-711c-8833-b628ce71be8a","account_id":"0195d26b-5331-711c-8834-39e9ecc3f5c1","user":{"id":"0195d26a-2323-711c-8833-9e3f99ed4f85","meta":null,"created_on":"2025-03-26T12:25:26.050Z","created_by_id":null,"modified_on":"2025-04-09T18:47:06.232Z","modified_by_id":"0195d26a-2323-711c-8833-9e3f99ed4f85","deleted_on":null,"deleted_by_id":null,"tenant_id":"00000000-0000-0000-0000-000000000000","email":"boom@mailinator.com","status":"active","first_name":"Ibrahim","last_name":"Azeez","twofa_enabled":false,"last_active":"2025-04-09T18:46:59.319Z","last_ip":"20.171.120.131","allowed_ips":null,"last_timezone":"America/Phoenix","last_location":"Phoenix","phone":"+2349058893837","review":null,"gender":"male","date_of_birth":"2001-06-16","cba_id":"140","photo_id":"0195d26a-e0b1-711c-8834-089bb7f9010d","referral_code":"PJ5R4O","referred_by":null}},{"id":"0195f52a-be07-7887-ab1a-a817ca618493","meta":{"pin":"1316","amount":100.23,"biller_id":"mtn","option_id":"","category_id":"airtime","account_number":"09055755671"},"created_on":"2025-04-02T06:22:53.960Z","created_by_id":"0195d26a-2323-711c-8833-9e3f99ed4f85","modified_on":"2025-04-02T06:22:53.960Z","modified_by_id":null,"deleted_on":null,"deleted_by_id":null,"tenant_id":"00000000-0000-0000-0000-000000000000","frequency":"daily","type":"bill-payment","start_date":"2025-05-10T21:00:00.000Z","next_run_date":"2025-05-10T21:00:00.000Z","end_date":"2025-06-20T21:00:00.000Z","status":"inactive","amount":"0.00","profile_id":"0195d26a-45cb-711c-8833-b628ce71be8a","account_id":"0195d26b-5331-711c-8834-39e9ecc3f5c1","user":{"id":"0195d26a-2323-711c-8833-9e3f99ed4f85","meta":null,"created_on":"2025-03-26T12:25:26.050Z","created_by_id":null,"modified_on":"2025-04-09T18:47:06.232Z","modified_by_id":"0195d26a-2323-711c-8833-9e3f99ed4f85","deleted_on":null,"deleted_by_id":null,"tenant_id":"00000000-0000-0000-0000-000000000000","email":"boom@mailinator.com","status":"active","first_name":"Ibrahim","last_name":"Azeez","twofa_enabled":false,"last_active":"2025-04-09T18:46:59.319Z","last_ip":"20.171.120.131","allowed_ips":null,"last_timezone":"America/Phoenix","last_location":"Phoenix","phone":"+2349058893837","review":null,"gender":"male","date_of_birth":"2001-06-16","cba_id":"140","photo_id":"0195d26a-e0b1-711c-8834-089bb7f9010d","referral_code":"PJ5R4O","referred_by":null}},{"id":"0195f52a-bb9b-7887-ab1a-a0fc5fede710","meta":{"recipients":[{"amount":50.23,"bank_code":"999998","bank_name":"vee test","narration":"Sodiq","account_name":"John Doe","account_number":"1780004070"}]},"created_on":"2025-04-02T06:22:53.340Z","created_by_id":"0195d26a-2323-711c-8833-9e3f99ed4f85","modified_on":"2025-04-02T06:22:53.340Z","modified_by_id":null,"deleted_on":null,"deleted_by_id":null,"tenant_id":"00000000-0000-0000-0000-000000000000","frequency":"daily","type":"transfer","start_date":"2025-05-10T21:00:00.000Z","next_run_date":"2025-05-10T21:00:00.000Z","end_date":"2025-06-20T21:00:00.000Z","status":"inactive","amount":"0.00","profile_id":"0195d26a-45cb-711c-8833-b628ce71be8a","account_id":"0195d26b-5331-711c-8834-39e9ecc3f5c1","user":{"id":"0195d26a-2323-711c-8833-9e3f99ed4f85","meta":null,"created_on":"2025-03-26T12:25:26.050Z","created_by_id":null,"modified_on":"2025-04-09T18:47:06.232Z","modified_by_id":"0195d26a-2323-711c-8833-9e3f99ed4f85","deleted_on":null,"deleted_by_id":null,"tenant_id":"00000000-0000-0000-0000-000000000000","email":"boom@mailinator.com","status":"active","first_name":"Ibrahim","last_name":"Azeez","twofa_enabled":false,"last_active":"2025-04-09T18:46:59.319Z","last_ip":"20.171.120.131","allowed_ips":null,"last_timezone":"America/Phoenix","last_location":"Phoenix","phone":"+2349058893837","review":null,"gender":"male","date_of_birth":"2001-06-16","cba_id":"140","photo_id":"0195d26a-e0b1-711c-8834-089bb7f9010d","referral_code":"PJ5R4O","referred_by":null}}],"meta":{"page":1,"total_pages":2,"total_items":14}}