{"status":"success","data":[{"id":"01959045-a4b2-7ee0-bd7c-4babbe907cb7","meta":null,"created_on":"2025-03-13T16:10:38.128Z","created_by_id":"01959045-934e-7ee0-bd7c-36131b927b13","modified_on":"2025-03-13T16:10:38.128Z","modified_by_id":null,"deleted_on":null,"deleted_by_id":null,"tenant_id":"00000000-0000-0000-0000-000000000000","name":"Ibrahim Azeez","type":"personal","status":"active","restricted":false,"review":null,"allowed_time_periods":null,"allowed_locations":null,"primary_user_id":"01959045-934e-7ee0-bd7c-36131b927b13","tier_id":null,"primary_user":{"id":"01959045-934e-7ee0-bd7c-36131b927b13","meta":null,"created_on":"2025-03-13T16:10:33.676Z","created_by_id":null,"modified_on":"2025-03-13T17:54:52.929Z","modified_by_id":"01959045-934e-7ee0-bd7c-36131b927b13","deleted_on":null,"deleted_by_id":null,"tenant_id":"00000000-0000-0000-0000-000000000000","email":"ipo@mailinator.com","status":"active","first_name":"Ibrahim","last_name":"Azeez","twofa_enabled":false,"last_active":"2025-03-13T17:54:52.928Z","last_ip":"197.234.242.44","allowed_ips":null,"last_timezone":"Africa/Johannesburg","last_location":"Johannesburg","phone":"+2349055757758","review":null,"gender":"male","date_of_birth":"2001-06-16","cba_id":null,"photo_id":null,"referral_code":"IJTNFX","referred_by":null,"has_pin":false,"has_password":false},"tier":null},{"id":"0195903a-8e9e-7ee0-bd7b-4d88af2f1736","meta":null,"created_on":"2025-03-13T15:58:31.581Z","created_by_id":"0195903a-7b12-7ee0-bd7b-33bea3349da0","modified_on":"2025-03-13T15:59:40.567Z","modified_by_id":"0195903a-7b12-7ee0-bd7b-33bea3349da0","deleted_on":null,"deleted_by_id":null,"tenant_id":"00000000-0000-0000-0000-000000000000","name":"Ibrahim Azeez","type":"personal","status":"active","restricted":false,"review":null,"allowed_time_periods":null,"allowed_locations":null,"primary_user_id":"0195903a-7b12-7ee0-bd7b-33bea3349da0","tier_id":"01928f2d-6756-755b-8a9d-c8094db2af27","primary_user":{"id":"0195903a-7b12-7ee0-bd7b-33bea3349da0","meta":null,"created_on":"2025-03-13T15:58:26.576Z","created_by_id":null,"modified_on":"2025-03-13T16:11:39.656Z","modified_by_id":"0195903a-7b12-7ee0-bd7b-33bea3349da0","deleted_on":null,"deleted_by_id":null,"tenant_id":"00000000-0000-0000-0000-000000000000","email":"where@mailinator.com","status":"active","first_name":"Ibrahim","last_name":"Azeez","twofa_enabled":false,"last_active":"2025-03-13T16:11:39.656Z","last_ip":"172.68.42.158","allowed_ips":null,"last_timezone":"Africa/Johannesburg","last_location":"Johannesburg","phone":"+2349055777778","review":null,"gender":"male","date_of_birth":"2001-06-16","cba_id":"134","photo_id":null,"referral_code":"VQNYUL","referred_by":null,"has_pin":false,"has_password":false},"tier":{"id":"01928f2d-6756-755b-8a9d-c8094db2af27","meta":null,"created_on":"2024-10-15T07:56:10.789Z","created_by_id":null,"modified_on":"2025-01-23T15:14:24.513Z","modified_by_id":"01927265-4ed2-79cc-a0e6-e11339a359f3","deleted_on":null,"deleted_by_id":null,"tenant_id":"00000000-0000-0000-0000-000000000000","profile_type":"personal","name":"Tier 1","description":"Tier 1","level":1,"enabled":true,"balance_limit":2000000,"single_sending_limit":500000,"single_receiving_limit":500000,"period_sending_limit":500000,"period_sending_limit_time_unit":"day","period_receiving_limit":500000,"period_receiving_limit_time_unit":"day","requirements":[{"id":"019318f9-c895-744d-8f65-4636cc26dd1c","type_id":"019318f9-c895-744d-8f65-4636cc26dd1c","type":"verification","slug":"phone","name":"Phone","description":"Verify yor number"},{"id":"019318f9-c895-744d-8f65-4636cc26dd1d","type_id":"019318f9-c895-744d-8f65-4636cc26dd1d","type":"verification","slug":"email","name":"Email","description":"Verify your email"},{"id":"019318f9-c895-744d-8f65-4636cc26dd1f","type_id":"019318f9-c895-744d-8f65-4636cc26dd1f","type":"verification","slug":"liveness","name":"Image liveness check","description":"This step helps us verify your identity by matching your image with the credentials you’ve provided."},{"id":"01933d40-03e5-777c-a6e6-bf72eb1c8968","type_id":"01933d40-03e5-777c-a6e6-bf72eb1c8968","type":"verification","slug":"bvn","name":"BVN","description":"BVN"}]}},{"id":"01958ada-aaf3-7992-b595-8557df97c773","meta":null,"created_on":"2025-03-12T14:55:41.299Z","created_by_id":"01958ada-1435-7992-b595-6aae5801cdfc","modified_on":"2025-03-12T14:55:41.299Z","modified_by_id":null,"deleted_on":null,"deleted_by_id":null,"tenant_id":"00000000-0000-0000-0000-000000000000","name":"Adex Frett","type":"personal","status":"active","restricted":false,"review":null,"allowed_time_periods":null,"allowed_locations":null,"primary_user_id":"01958ada-1435-7992-b595-6aae5801cdfc","tier_id":null,"primary_user":{"id":"01958ada-1435-7992-b595-6aae5801cdfc","meta":null,"created_on":"2025-03-12T14:55:02.709Z","created_by_id":null,"modified_on":"2025-03-16T14:49:14.903Z","modified_by_id":"01958ada-1435-7992-b595-6aae5801cdfc","deleted_on":null,"deleted_by_id":null,"tenant_id":"00000000-0000-0000-0000-000000000000","email":"fratn@yopmail.com","status":"active","first_name":"Adex","last_name":"Frett","twofa_enabled":false,"last_active":"2025-03-16T14:49:01.116Z","last_ip":"172.70.46.161","allowed_ips":null,"last_timezone":"Europe/Amsterdam","last_location":"Amsterdam","phone":"+2348138096234","review":null,"gender":null,"date_of_birth":null,"cba_id":null,"photo_id":null,"referral_code":"VBES8O","referred_by":null,"has_pin":false,"has_password":false},"tier":null},{"id":"01958ace-15f3-7992-b593-42eb0a8e3601","meta":null,"created_on":"2025-03-12T14:41:56.723Z","created_by_id":"01958acd-e187-7992-b593-2c37c48aa97c","modified_on":"2025-03-12T14:43:26.583Z","modified_by_id":"01958acd-e187-7992-b593-2c37c48aa97c","deleted_on":null,"deleted_by_id":null,"tenant_id":"00000000-0000-0000-0000-000000000000","name":"Fred Frett","type":"personal","status":"active","restricted":false,"review":null,"allowed_time_periods":null,"allowed_locations":null,"primary_user_id":"01958acd-e187-7992-b593-2c37c48aa97c","tier_id":"01928f2d-6756-755b-8a9d-c8094db2af27","primary_user":{"id":"01958acd-e187-7992-b593-2c37c48aa97c","meta":null,"created_on":"2025-03-12T14:41:43.303Z","created_by_id":null,"modified_on":"2025-03-12T15:41:53.010Z","modified_by_id":"0195708b-4335-711a-acaa-0ea3b8ce50c8","deleted_on":null,"deleted_by_id":null,"tenant_id":"00000000-0000-0000-0000-000000000000","email":"fraan@yopmail.com","status":"active","first_name":"Fred","last_name":"Frett","twofa_enabled":false,"last_active":"2025-03-12T15:13:10.266Z","last_ip":"172.71.182.157","allowed_ips":null,"last_timezone":"Europe/Amsterdam","last_location":"Amsterdam","phone":"+2348138096112","review":null,"gender":"female","date_of_birth":"1994-06-20","cba_id":"133","photo_id":null,"referral_code":"5P74P4","referred_by":null,"has_pin":false,"has_password":false},"tier":{"id":"01928f2d-6756-755b-8a9d-c8094db2af27","meta":null,"created_on":"2024-10-15T07:56:10.789Z","created_by_id":null,"modified_on":"2025-01-23T15:14:24.513Z","modified_by_id":"01927265-4ed2-79cc-a0e6-e11339a359f3","deleted_on":null,"deleted_by_id":null,"tenant_id":"00000000-0000-0000-0000-000000000000","profile_type":"personal","name":"Tier 1","description":"Tier 1","level":1,"enabled":true,"balance_limit":2000000,"single_sending_limit":500000,"single_receiving_limit":500000,"period_sending_limit":500000,"period_sending_limit_time_unit":"day","period_receiving_limit":500000,"period_receiving_limit_time_unit":"day","requirements":[{"id":"01933d40-03e5-777c-a6e6-bf72eb1c8968","type_id":"01933d40-03e5-777c-a6e6-bf72eb1c8968","type":"verification","slug":"bvn","name":"BVN","description":"BVN"},{"id":"019318f9-c895-744d-8f65-4636cc26dd1f","type_id":"019318f9-c895-744d-8f65-4636cc26dd1f","type":"verification","slug":"liveness","name":"Image liveness check","description":"This step helps us verify your identity by matching your image with the credentials you’ve provided."},{"id":"019318f9-c895-744d-8f65-4636cc26dd1d","type_id":"019318f9-c895-744d-8f65-4636cc26dd1d","type":"verification","slug":"email","name":"Email","description":"Verify your email"},{"id":"019318f9-c895-744d-8f65-4636cc26dd1c","type_id":"019318f9-c895-744d-8f65-4636cc26dd1c","type":"verification","slug":"phone","name":"Phone","description":"Verify yor number"}]}},{"id":"0195876f-fa99-7665-bf13-141d8469fdf3","meta":null,"created_on":"2025-03-11T23:00:17.690Z","created_by_id":"0195876f-b972-7665-bf12-fc04d3da8a09","modified_on":"2025-03-12T10:22:03.839Z","modified_by_id":"0195876f-b972-7665-bf12-fc04d3da8a09","deleted_on":null,"deleted_by_id":null,"tenant_id":"00000000-0000-0000-0000-000000000000","name":"Hack Saw","type":"personal","status":"active","restricted":false,"review":null,"allowed_time_periods":null,"allowed_locations":null,"primary_user_id":"0195876f-b972-7665-bf12-fc04d3da8a09","tier_id":"01928f2d-6756-755b-8a9d-c8094db2af27","primary_user":{"id":"0195876f-b972-7665-bf12-fc04d3da8a09","meta":null,"created_on":"2025-03-11T23:00:01.003Z","created_by_id":null,"modified_on":"2025-03-13T12:49:31.933Z","modified_by_id":"0195876f-b972-7665-bf12-fc04d3da8a09","deleted_on":null,"deleted_by_id":null,"tenant_id":"00000000-0000-0000-0000-000000000000","email":"hacksaw@gmail.com","status":"active","first_name":"Hack","last_name":"Saw","twofa_enabled":false,"last_active":"2025-03-13T12:49:31.934Z","last_ip":"104.23.172.114","allowed_ips":null,"last_timezone":"","last_location":"","phone":"+2348123444098","review":null,"gender":"male","date_of_birth":"1999-07-05","cba_id":"131","photo_id":null,"referral_code":"JKCQ9N","referred_by":null,"has_pin":false,"has_password":false},"tier":{"id":"01928f2d-6756-755b-8a9d-c8094db2af27","meta":null,"created_on":"2024-10-15T07:56:10.789Z","created_by_id":null,"modified_on":"2025-01-23T15:14:24.513Z","modified_by_id":"01927265-4ed2-79cc-a0e6-e11339a359f3","deleted_on":null,"deleted_by_id":null,"tenant_id":"00000000-0000-0000-0000-000000000000","profile_type":"personal","name":"Tier 1","description":"Tier 1","level":1,"enabled":true,"balance_limit":2000000,"single_sending_limit":500000,"single_receiving_limit":500000,"period_sending_limit":500000,"period_sending_limit_time_unit":"day","period_receiving_limit":500000,"period_receiving_limit_time_unit":"day","requirements":[{"id":"019318f9-c895-744d-8f65-4636cc26dd1c","type_id":"019318f9-c895-744d-8f65-4636cc26dd1c","type":"verification","slug":"phone","name":"Phone","description":"Verify yor number"},{"id":"019318f9-c895-744d-8f65-4636cc26dd1d","type_id":"019318f9-c895-744d-8f65-4636cc26dd1d","type":"verification","slug":"email","name":"Email","description":"Verify your email"},{"id":"019318f9-c895-744d-8f65-4636cc26dd1f","type_id":"019318f9-c895-744d-8f65-4636cc26dd1f","type":"verification","slug":"liveness","name":"Image liveness check","description":"This step helps us verify your identity by matching your image with the credentials you’ve provided."},{"id":"01933d40-03e5-777c-a6e6-bf72eb1c8968","type_id":"01933d40-03e5-777c-a6e6-bf72eb1c8968","type":"verification","slug":"bvn","name":"BVN","description":"BVN"}]}},{"id":"019585ec-be7c-7665-bf10-9f737b068074","meta":null,"created_on":"2025-03-11T15:57:19.867Z","created_by_id":"019585e8-1ee3-7665-bf10-10a0fd919041","modified_on":"2025-03-11T15:57:19.867Z","modified_by_id":null,"deleted_on":null,"deleted_by_id":null,"tenant_id":"00000000-0000-0000-0000-000000000000","name":"Samuel Victoria","type":"personal","status":"active","restricted":false,"review":null,"allowed_time_periods":null,"allowed_locations":null,"primary_user_id":"019585e8-1ee3-7665-bf10-10a0fd919041","tier_id":null,"primary_user":{"id":"019585e8-1ee3-7665-bf10-10a0fd919041","meta":null,"created_on":"2025-03-11T15:52:16.867Z","created_by_id":null,"modified_on":"2025-03-11T16:00:53.512Z","modified_by_id":"019585e8-1ee3-7665-bf10-10a0fd919041","deleted_on":null,"deleted_by_id":null,"tenant_id":"00000000-0000-0000-0000-000000000000","email":"samvic@mailinator.com","status":"active","first_name":"Samuel","last_name":"Victoria","twofa_enabled":false,"last_active":"2025-03-11T16:00:53.511Z","last_ip":"172.71.98.61","allowed_ips":null,"last_timezone":"Europe/Amsterdam","last_location":"Amsterdam","phone":"+2348134040000","review":null,"gender":null,"date_of_birth":null,"cba_id":null,"photo_id":null,"referral_code":"P78KVF","referred_by":"019372de-17ef-7cc2-8fc0-43fe11ba042f","has_pin":false,"has_password":false},"tier":null},{"id":"019585e1-f114-7665-bf0f-ae884041044d","meta":null,"created_on":"2025-03-11T15:45:31.923Z","created_by_id":"019585dc-3614-7665-bf0e-b4d4440be8ee","modified_on":"2025-03-11T15:45:31.923Z","modified_by_id":null,"deleted_on":null,"deleted_by_id":null,"tenant_id":"00000000-0000-0000-0000-000000000000","name":"Olayemi bok","type":"personal","status":"active","restricted":false,"review":null,"allowed_time_periods":null,"allowed_locations":null,"primary_user_id":"019585dc-3614-7665-bf0e-b4d4440be8ee","tier_id":null,"primary_user":{"id":"019585dc-3614-7665-bf0e-b4d4440be8ee","meta":null,"created_on":"2025-03-11T15:39:16.371Z","created_by_id":null,"modified_on":"2025-03-11T15:49:42.774Z","modified_by_id":"019585dc-3614-7665-bf0e-b4d4440be8ee","deleted_on":null,"deleted_by_id":null,"tenant_id":"00000000-0000-0000-0000-000000000000","email":"olami@mailinator.com","status":"active","first_name":"Olayemi","last_name":"bok","twofa_enabled":false,"last_active":"2025-03-11T15:49:42.773Z","last_ip":"172.71.102.225","allowed_ips":null,"last_timezone":"Europe/Amsterdam","last_location":"Amsterdam","phone":"+2348031888008","review":null,"gender":null,"date_of_birth":null,"cba_id":null,"photo_id":null,"referral_code":"W9T6Y2","referred_by":"019372de-17ef-7cc2-8fc0-43fe11ba042f","has_pin":false,"has_password":false},"tier":null},{"id":"019582dc-53df-7bb0-a40d-0e4e29a0790c","meta":null,"created_on":"2025-03-11T01:40:32.351Z","created_by_id":"019582d8-9dec-7bb0-a40c-c658c9c92e37","modified_on":"2025-03-11T01:40:32.351Z","modified_by_id":null,"deleted_on":null,"deleted_by_id":null,"tenant_id":"00000000-0000-0000-0000-000000000000","name":"chris Name","type":"personal","status":"active","restricted":false,"review":null,"allowed_time_periods":null,"allowed_locations":null,"primary_user_id":"019582d8-9dec-7bb0-a40c-c658c9c92e37","tier_id":null,"primary_user":{"id":"019582d8-9dec-7bb0-a40c-c658c9c92e37","meta":null,"created_on":"2025-03-11T01:36:29.164Z","created_by_id":null,"modified_on":"2025-03-13T23:39:55.991Z","modified_by_id":"019582d8-9dec-7bb0-a40c-c658c9c92e37","deleted_on":null,"deleted_by_id":null,"tenant_id":"00000000-0000-0000-0000-000000000000","email":"christopher@mailinator.com","status":"active","first_name":"chris","last_name":"Name","twofa_enabled":false,"last_active":"2025-03-13T23:39:55.991Z","last_ip":"172.71.182.157","allowed_ips":null,"last_timezone":"Europe/Amsterdam","last_location":"Amsterdam","phone":"+2348101259872","review":null,"gender":null,"date_of_birth":null,"cba_id":null,"photo_id":null,"referral_code":"UV6XXQ","referred_by":null,"has_pin":false,"has_password":false},"tier":null},{"id":"019582bd-5973-7bb0-a40c-78f2e6b74281","meta":null,"created_on":"2025-03-11T01:06:42.163Z","created_by_id":"019582bb-4517-7bb0-a40c-208200812396","modified_on":"2025-03-11T01:06:42.163Z","modified_by_id":null,"deleted_on":null,"deleted_by_id":null,"tenant_id":"00000000-0000-0000-0000-000000000000","name":"Kris Name","type":"personal","status":"active","restricted":false,"review":null,"allowed_time_periods":null,"allowed_locations":null,"primary_user_id":"019582bb-4517-7bb0-a40c-208200812396","tier_id":null,"primary_user":{"id":"019582bb-4517-7bb0-a40c-208200812396","meta":null,"created_on":"2025-03-11T01:04:25.879Z","created_by_id":null,"modified_on":"2025-03-11T01:31:32.650Z","modified_by_id":"019582bb-4517-7bb0-a40c-208200812396","deleted_on":null,"deleted_by_id":null,"tenant_id":"00000000-0000-0000-0000-000000000000","email":"kris@mailinator.com","status":"active","first_name":"Kris","last_name":"Name","twofa_enabled":false,"last_active":"2025-03-11T01:31:32.650Z","last_ip":"172.70.160.253","allowed_ips":null,"last_timezone":"Europe/London","last_location":"London","phone":"+2349057362451","review":null,"gender":null,"date_of_birth":null,"cba_id":null,"photo_id":null,"referral_code":"ZDNTPK","referred_by":null,"has_pin":false,"has_password":false},"tier":null},{"id":"0195814c-b403-7bb0-a409-e5fade76434a","meta":null,"created_on":"2025-03-10T18:24:02.562Z","created_by_id":"01941cf0-e95f-7995-8ecc-8e6a5c981df4","modified_on":"2025-03-10T18:24:02.562Z","modified_by_id":null,"deleted_on":null,"deleted_by_id":null,"tenant_id":"00000000-0000-0000-0000-000000000000","name":"Testing BizManual","type":"personal","status":"active","restricted":false,"review":null,"allowed_time_periods":null,"allowed_locations":null,"primary_user_id":"01941cf0-e95f-7995-8ecc-8e6a5c981df4","tier_id":null,"primary_user":{"id":"01941cf0-e95f-7995-8ecc-8e6a5c981df4","meta":null,"created_on":"2024-12-31T13:38:58.018Z","created_by_id":null,"modified_on":"2025-03-11T09:23:11.648Z","modified_by_id":"01941cf0-e95f-7995-8ecc-8e6a5c981df4","deleted_on":null,"deleted_by_id":null,"tenant_id":"00000000-0000-0000-0000-000000000000","email":"cashdrive+devbizmanual@assurdly.com","status":"active","first_name":"Testing","last_name":"BizManual","twofa_enabled":false,"last_active":"2025-03-11T09:23:11.647Z","last_ip":"172.68.42.159","allowed_ips":null,"last_timezone":"Africa/Johannesburg","last_location":"Johannesburg","phone":"+2348036114425","review":null,"gender":null,"date_of_birth":null,"cba_id":null,"photo_id":null,"referral_code":"F8X6OH","referred_by":null,"has_pin":false,"has_password":false},"tier":null}],"meta":{"page":1,"total_pages":24,"total_items":240}}