{"status":"success","data":[{"id":"019518e4-c48c-788d-b54b-64deb36d7837","meta":null,"created_on":"2025-03-11T10:37:01.389Z","created_by_id":"01927265-4ed2-79cc-a0e6-e11339a359f3","modified_on":"2025-03-11T10:37:01.389Z","modified_by_id":null,"deleted_on":null,"deleted_by_id":"01927265-4ed2-79cc-a0e6-e11339a359f3","tenant_id":"00000000-0000-0000-0000-000000000000","profile_type":null,"slug":"random","name":"random","description":"random definitions","version":1},{"id":"019558b5-9bc6-7dd1-9970-e5a0048cb1a4","meta":null,"created_on":"2025-03-02T21:14:11.782Z","created_by_id":"0193d109-a926-7446-abe5-7dafe8b742bd","modified_on":"2025-03-02T21:14:11.782Z","modified_by_id":null,"deleted_on":null,"deleted_by_id":null,"tenant_id":"00000000-0000-0000-0000-000000000000","profile_type":"personal","slug":"new","name":"new","description":"form","version":1},{"id":"019558b4-2076-7dd1-9970-d7a1cf9e2df5","meta":null,"created_on":"2025-03-02T21:12:34.678Z","created_by_id":"0193d109-a926-7446-abe5-7dafe8b742bd","modified_on":"2025-03-02T21:12:34.678Z","modified_by_id":null,"deleted_on":null,"deleted_by_id":null,"tenant_id":"00000000-0000-0000-0000-000000000000","profile_type":"personal","slug":"hey","name":"hey","description":"eeeee","version":1},{"id":"01955733-413c-7dd1-9966-07348826884d","meta":null,"created_on":"2025-03-02T14:12:11.708Z","created_by_id":"0193d109-a926-7446-abe5-7dafe8b742bd","modified_on":"2025-03-02T19:57:53.177Z","modified_by_id":"0193d109-a926-7446-abe5-7dafe8b742bd","deleted_on":null,"deleted_by_id":null,"tenant_id":"00000000-0000-0000-0000-000000000000","profile_type":"personal","slug":"tesr-form","name":"tesr form","description":"sume","version":1},{"id":"01953843-dcb4-7771-99b0-358bab54e521","meta":null,"created_on":"2025-02-24T14:02:06.388Z","created_by_id":"01927265-4ed2-79cc-a0e6-e11339a359f3","modified_on":"2025-02-24T14:02:06.388Z","modified_by_id":null,"deleted_on":null,"deleted_by_id":null,"tenant_id":"00000000-0000-0000-0000-000000000000","profile_type":null,"slug":"pep-relationship-status","name":"PEP Status","description":"Kindly confirm the statements below","version":1},{"id":"019528d0-b981-7330-84a8-913c99e59599","meta":null,"created_on":"2025-02-21T14:02:02.497Z","created_by_id":"01927265-4ed2-79cc-a0e6-e11339a359f3","modified_on":"2025-03-05T04:59:08.738Z","modified_by_id":"01927265-4ed2-79cc-a0e6-e11339a359f3","deleted_on":null,"deleted_by_id":null,"tenant_id":"00000000-0000-0000-0000-000000000000","profile_type":"personal","slug":"security-questions","name":"Security Questions","description":"Security Questions","version":1},{"id":"0194b8d1-526e-7bb8-88ef-c83e8c21e149","meta":null,"created_on":"2025-01-30T20:05:13.455Z","created_by_id":"01927265-4ed2-79cc-a0e6-e11339a359f3","modified_on":"2025-01-30T20:05:13.455Z","modified_by_id":null,"deleted_on":null,"deleted_by_id":null,"tenant_id":"00000000-0000-0000-0000-000000000000","profile_type":"business","slug":"onboarding","name":"Onboarding","description":"Adding new user","version":1},{"id":"0194b8d0-975e-7bb8-88ef-baff769d8be5","meta":null,"created_on":"2025-01-30T20:04:25.567Z","created_by_id":"01927265-4ed2-79cc-a0e6-e11339a359f3","modified_on":"2025-01-30T20:04:25.567Z","modified_by_id":null,"deleted_on":null,"deleted_by_id":null,"tenant_id":"00000000-0000-0000-0000-000000000000","profile_type":"business","slug":"cashier","name":"Cashier","description":"test","version":1},{"id":"01948ca4-0621-7bb0-a716-583bce54dc93","meta":null,"created_on":"2025-01-22T06:12:27.296Z","created_by_id":"0192ee9f-7504-7bb3-919d-9fba49ba9e27","modified_on":"2025-01-23T13:02:25.473Z","modified_by_id":"0192ee9f-7504-7bb3-919d-9fba49ba9e27","deleted_on":null,"deleted_by_id":null,"tenant_id":"00000000-0000-0000-0000-000000000000","profile_type":"business","slug":"vat","name":"Test","description":"Form","version":1},{"id":"0193731a-59fe-788a-9877-8bef6d0c2cfc","meta":null,"created_on":"2024-11-28T14:08:47.102Z","created_by_id":null,"modified_on":"2025-01-21T12:44:54.987Z","modified_by_id":"0192ee9f-7504-7bb3-919d-9fba49ba9e27","deleted_on":null,"deleted_by_id":null,"tenant_id":"00000000-0000-0000-0000-000000000000","profile_type":"personal","slug":"personal-information","name":"Personal Information","description":"Provide other personal information (gender, country) and verify your phone number and email address.","version":1}],"meta":{"page":1,"total_pages":2,"total_items":17}}