{"status":"success","data":[{"id":"01957109-b4ae-7111-9252-b69253fc01ee","meta":null,"created_on":"2025-03-07T14:36:56.366Z","created_by_id":"01957108-0c30-7111-9252-3ae7d32cb95a","modified_on":"2025-03-07T14:36:56.366Z","modified_by_id":null,"deleted_on":null,"deleted_by_id":null,"tenant_id":"00000000-0000-0000-0000-000000000000","profile_id":"01957108-3ccc-7111-9252-57600ebaeec1","identifier":"4b997e9d-1166-4d1b-aff5-d44ae4487fac","status":"approved","type_id":"019318f9-c895-744d-8f65-4636cc26dd1f","type":{"id":"019318f9-c895-744d-8f65-4636cc26dd1f","meta":null,"created_on":"2024-11-11T02:07:23.286Z","created_by_id":null,"modified_on":"2024-12-03T13:44:13.683Z","modified_by_id":null,"deleted_on":null,"deleted_by_id":null,"tenant_id":"00000000-0000-0000-0000-000000000000","profile_type":"personal","name":"Image liveness check","slug":"liveness","description":"This step helps us verify your identity by matching your image with the credentials you’ve provided.","maximum":1,"minimum":0,"enabled":true}},{"id":"01957108-d657-7111-9252-9c11ac3b3dc0","meta":null,"created_on":"2025-03-07T14:35:59.446Z","created_by_id":"01957108-0c30-7111-9252-3ae7d32cb95a","modified_on":"2025-03-07T14:35:59.446Z","modified_by_id":null,"deleted_on":null,"deleted_by_id":null,"tenant_id":"00000000-0000-0000-0000-000000000000","profile_id":"01957108-3ccc-7111-9252-57600ebaeec1","identifier":"22297282873","status":"approved","type_id":"01933d40-03e5-777c-a6e6-bf72eb1c8968","type":{"id":"01933d40-03e5-777c-a6e6-bf72eb1c8968","meta":null,"created_on":"2024-11-18T03:10:25.836Z","created_by_id":null,"modified_on":"2025-01-10T18:37:37.482Z","modified_by_id":null,"deleted_on":null,"deleted_by_id":null,"tenant_id":"00000000-0000-0000-0000-000000000000","profile_type":"personal","name":"BVN","slug":"bvn","description":"BVN","maximum":1,"minimum":0,"enabled":true}},{"id":"01957108-3d75-7111-9252-76f9661e372a","meta":null,"created_on":"2025-03-07T14:35:20.309Z","created_by_id":"01957108-0c30-7111-9252-3ae7d32cb95a","modified_on":"2025-03-07T14:35:20.309Z","modified_by_id":null,"deleted_on":null,"deleted_by_id":null,"tenant_id":"00000000-0000-0000-0000-000000000000","profile_id":"01957108-3ccc-7111-9252-57600ebaeec1","identifier":"Masha@mailinator.com","status":"approved","type_id":"019318f9-c895-744d-8f65-4636cc26dd1d","type":{"id":"019318f9-c895-744d-8f65-4636cc26dd1d","meta":null,"created_on":"2024-11-12T12:29:02.517Z","created_by_id":null,"modified_on":"2024-12-03T13:46:54.449Z","modified_by_id":null,"deleted_on":null,"deleted_by_id":null,"tenant_id":"00000000-0000-0000-0000-000000000000","profile_type":"personal","name":"Email","slug":"email","description":"Verify your email","maximum":1,"minimum":0,"enabled":true}},{"id":"01957108-3d72-7111-9252-6ad68ae125c1","meta":null,"created_on":"2025-03-07T14:35:20.304Z","created_by_id":"01957108-0c30-7111-9252-3ae7d32cb95a","modified_on":"2025-03-07T14:35:20.304Z","modified_by_id":null,"deleted_on":null,"deleted_by_id":null,"tenant_id":"00000000-0000-0000-0000-000000000000","profile_id":"01957108-3ccc-7111-9252-57600ebaeec1","identifier":"+2348138096890","status":"approved","type_id":"019318f9-c895-744d-8f65-4636cc26dd1c","type":{"id":"019318f9-c895-744d-8f65-4636cc26dd1c","meta":null,"created_on":"2024-11-12T12:29:02.517Z","created_by_id":null,"modified_on":"2024-12-03T13:45:43.084Z","modified_by_id":null,"deleted_on":null,"deleted_by_id":null,"tenant_id":"00000000-0000-0000-0000-000000000000","profile_type":"personal","name":"Phone","slug":"phone","description":"Verify yor number","maximum":1,"minimum":0,"enabled":true}},{"id":"01956cc0-ee06-7bb2-80b6-31cf78d51ede","meta":null,"created_on":"2025-03-06T18:38:58.054Z","created_by_id":"0195684d-7725-7993-b679-2a5a1d1d42ef","modified_on":"2025-03-06T18:38:58.054Z","modified_by_id":null,"deleted_on":null,"deleted_by_id":null,"tenant_id":"00000000-0000-0000-0000-000000000000","profile_id":"01944e1f-91aa-7776-8452-938dda303f65","identifier":"22360494093","status":"approved","type_id":"01933d40-03e5-777c-a6e6-bf72eb1c8968","type":{"id":"01933d40-03e5-777c-a6e6-bf72eb1c8968","meta":null,"created_on":"2024-11-18T03:10:25.836Z","created_by_id":null,"modified_on":"2025-01-10T18:37:37.482Z","modified_by_id":null,"deleted_on":null,"deleted_by_id":null,"tenant_id":"00000000-0000-0000-0000-000000000000","profile_type":"personal","name":"BVN","slug":"bvn","description":"BVN","maximum":1,"minimum":0,"enabled":true}},{"id":"01956ca8-842f-7bb2-80b3-e8c8335984a0","meta":null,"created_on":"2025-03-06T18:12:18.095Z","created_by_id":"01956c98-1b41-7bb2-80b2-3fd04de70f26","modified_on":"2025-03-06T18:13:29.129Z","modified_by_id":"0192cc0f-bd83-700c-a5b9-691965d489a3","deleted_on":null,"deleted_by_id":null,"tenant_id":"00000000-0000-0000-0000-000000000000","profile_id":"01956c98-2d3e-7bb2-80b2-54155774ec20","identifier":"70123456789","status":"approved","type_id":"01933a66-8850-7335-a997-758238b72bd4","type":{"id":"01933a66-8850-7335-a997-758238b72bd4","meta":null,"created_on":"2024-11-17T13:53:38.382Z","created_by_id":null,"modified_on":"2025-02-04T18:38:35.977Z","modified_by_id":"01927265-4ed2-79cc-a0e6-e11339a359f3","deleted_on":null,"deleted_by_id":null,"tenant_id":"00000000-0000-0000-0000-000000000000","profile_type":"personal","name":"NIN Verification","slug":"nin","description":"In compliance with CBN regulations, we need to verify your NIN to identify you and prevent fraud.","maximum":1,"minimum":0,"enabled":true}},{"id":"01956c9c-f21b-7bb2-80b2-f006e4301636","meta":null,"created_on":"2025-03-06T17:59:39.802Z","created_by_id":"01956c98-1b41-7bb2-80b2-3fd04de70f26","modified_on":"2025-03-06T17:59:39.802Z","modified_by_id":null,"deleted_on":null,"deleted_by_id":null,"tenant_id":"00000000-0000-0000-0000-000000000000","profile_id":"01956c98-2d3e-7bb2-80b2-54155774ec20","identifier":"79fa6790-9b8a-4dc2-99a5-c9d7ae271402","status":"approved","type_id":"019318f9-c895-744d-8f65-4636cc26dd1f","type":{"id":"019318f9-c895-744d-8f65-4636cc26dd1f","meta":null,"created_on":"2024-11-11T02:07:23.286Z","created_by_id":null,"modified_on":"2024-12-03T13:44:13.683Z","modified_by_id":null,"deleted_on":null,"deleted_by_id":null,"tenant_id":"00000000-0000-0000-0000-000000000000","profile_type":"personal","name":"Image liveness check","slug":"liveness","description":"This step helps us verify your identity by matching your image with the credentials you’ve provided.","maximum":1,"minimum":0,"enabled":true}},{"id":"01956c9c-07f9-7bb2-80b2-d8a6f04d9449","meta":null,"created_on":"2025-03-06T17:58:39.864Z","created_by_id":"01956c98-1b41-7bb2-80b2-3fd04de70f26","modified_on":"2025-03-06T17:58:39.864Z","modified_by_id":null,"deleted_on":null,"deleted_by_id":null,"tenant_id":"00000000-0000-0000-0000-000000000000","profile_id":"01956c98-2d3e-7bb2-80b2-54155774ec20","identifier":"22190438735","status":"approved","type_id":"01933d40-03e5-777c-a6e6-bf72eb1c8968","type":{"id":"01933d40-03e5-777c-a6e6-bf72eb1c8968","meta":null,"created_on":"2024-11-18T03:10:25.836Z","created_by_id":null,"modified_on":"2025-01-10T18:37:37.482Z","modified_by_id":null,"deleted_on":null,"deleted_by_id":null,"tenant_id":"00000000-0000-0000-0000-000000000000","profile_type":"personal","name":"BVN","slug":"bvn","description":"BVN","maximum":1,"minimum":0,"enabled":true}},{"id":"01956c98-2d9c-7bb2-80b2-754b9f1819e6","meta":null,"created_on":"2025-03-06T17:54:27.355Z","created_by_id":"01956c98-1b41-7bb2-80b2-3fd04de70f26","modified_on":"2025-03-06T17:54:27.355Z","modified_by_id":null,"deleted_on":null,"deleted_by_id":null,"tenant_id":"00000000-0000-0000-0000-000000000000","profile_id":"01956c98-2d3e-7bb2-80b2-54155774ec20","identifier":"+2348034801380","status":"approved","type_id":"019318f9-c895-744d-8f65-4636cc26dd1c","type":{"id":"019318f9-c895-744d-8f65-4636cc26dd1c","meta":null,"created_on":"2024-11-12T12:29:02.517Z","created_by_id":null,"modified_on":"2024-12-03T13:45:43.084Z","modified_by_id":null,"deleted_on":null,"deleted_by_id":null,"tenant_id":"00000000-0000-0000-0000-000000000000","profile_type":"personal","name":"Phone","slug":"phone","description":"Verify yor number","maximum":1,"minimum":0,"enabled":true}},{"id":"01956c98-2d96-7bb2-80b2-681dabe430a4","meta":null,"created_on":"2025-03-06T17:54:27.349Z","created_by_id":"01956c98-1b41-7bb2-80b2-3fd04de70f26","modified_on":"2025-03-06T17:54:27.349Z","modified_by_id":null,"deleted_on":null,"deleted_by_id":null,"tenant_id":"00000000-0000-0000-0000-000000000000","profile_id":"01956c98-2d3e-7bb2-80b2-54155774ec20","identifier":"victor.ikpe@cashdrive.co","status":"approved","type_id":"019318f9-c895-744d-8f65-4636cc26dd1d","type":{"id":"019318f9-c895-744d-8f65-4636cc26dd1d","meta":null,"created_on":"2024-11-12T12:29:02.517Z","created_by_id":null,"modified_on":"2024-12-03T13:46:54.449Z","modified_by_id":null,"deleted_on":null,"deleted_by_id":null,"tenant_id":"00000000-0000-0000-0000-000000000000","profile_type":"personal","name":"Email","slug":"email","description":"Verify your email","maximum":1,"minimum":0,"enabled":true}}],"meta":{"page":1,"total_pages":89,"total_items":890}}