{"status":"success","data":[{"id":"019566e0-333c-722f-a14b-6ac41d35eb5e","meta":{"rc-number":"0000000","business-name":"Neem","business-email":"hi@neem.co","business-phone":"+2349055955905","business-types":"Corporation","business-address":"LAGOS, NIGERIA, LAGOS, Ibeju-Lekki, LAGOS"},"created_on":"2025-03-05T15:15:24.092Z","created_by_id":"019566df-c9cd-722f-a14b-49cefa13a091","modified_on":"2025-03-05T15:18:20.194Z","modified_by_id":"0192cc0f-bd83-700c-a5b9-691965d489a3","deleted_on":null,"deleted_by_id":null,"tenant_id":"00000000-0000-0000-0000-000000000000","name":"Profile","type":"business","status":"active","restricted":false,"review":null,"allowed_time_periods":null,"allowed_locations":null,"primary_user_id":"019566df-c9cd-722f-a14b-49cefa13a091","tier_id":"01948d63-7196-7227-973e-3d2e8302d503","primary_user":{"id":"019566df-c9cd-722f-a14b-49cefa13a091","meta":null,"created_on":"2025-03-05T15:14:57.101Z","created_by_id":null,"modified_on":"2025-03-06T14:32:12.679Z","modified_by_id":"019566df-c9cd-722f-a14b-49cefa13a091","deleted_on":null,"deleted_by_id":null,"tenant_id":"00000000-0000-0000-0000-000000000000","email":"beno@yopmail.com","status":"active","first_name":"Ibrahim","last_name":"Ibrahim","twofa_enabled":false,"last_active":"2025-03-06T14:32:12.678Z","last_ip":"172.68.42.183","allowed_ips":null,"last_timezone":"Africa/Johannesburg","last_location":"Johannesburg","phone":"+2349055755449","review":null,"gender":null,"date_of_birth":null,"cba_id":"112","photo_id":null,"referral_code":"W59QDM","referred_by":null},"tier":{"id":"01948d63-7196-7227-973e-3d2e8302d503","meta":null,"created_on":"2025-01-22T09:41:32.182Z","created_by_id":"01927265-4ed2-79cc-a0e6-e11339a359f3","modified_on":"2025-02-07T11:01:48.510Z","modified_by_id":"01927265-4ed2-79cc-a0e6-e11339a359f3","deleted_on":null,"deleted_by_id":null,"tenant_id":"00000000-0000-0000-0000-000000000000","profile_type":"business","name":"Tier 1","description":"Tier 1","level":1,"enabled":true,"balance_limit":2000000,"single_sending_limit":500000,"single_receiving_limit":500000,"period_sending_limit":500000,"period_sending_limit_time_unit":"day","period_receiving_limit":500000,"period_receiving_limit_time_unit":"day","requirements":[{"id":"01923359-cd8b-755b-862f-22b00cdce2e8","type_id":"01923359-cd8b-755b-862f-22b00cdce2e8","type":"kyc","slug":"profiles","name":"Business Information","description":"Verify your business phone number and email address."}]}},{"id":"019563fc-5692-7bb6-afe3-b50a00d4465e","meta":{"rc-number":"0000000","business-name":"Neem","business-email":"hi@neem.co","business-phone":"+2349088388479","business-types":"Corporation","business-address":"LAGOS, NIGERIA, LAGOS, Ibeju-Lekki, LAGOS"},"created_on":"2025-03-05T01:47:16.497Z","created_by_id":"019563f9-df5d-7bb6-afe3-9893b3e35259","modified_on":"2025-03-05T01:47:26.201Z","modified_by_id":"019563f9-df5d-7bb6-afe3-9893b3e35259","deleted_on":null,"deleted_by_id":null,"tenant_id":"00000000-0000-0000-0000-000000000000","name":"Profile","type":"business","status":"active","restricted":false,"review":null,"allowed_time_periods":null,"allowed_locations":null,"primary_user_id":"019563f9-df5d-7bb6-afe3-9893b3e35259","tier_id":"0193b49c-a302-711f-a668-d685d243452a","primary_user":{"id":"019563f9-df5d-7bb6-afe3-9893b3e35259","meta":null,"created_on":"2025-03-05T01:44:34.908Z","created_by_id":null,"modified_on":"2025-03-05T02:27:03.653Z","modified_by_id":"019563f9-df5d-7bb6-afe3-9893b3e35259","deleted_on":null,"deleted_by_id":null,"tenant_id":"00000000-0000-0000-0000-000000000000","email":"low@mailinator.com","status":"active","first_name":"Adewunmi","last_name":"Sub","twofa_enabled":false,"last_active":"2025-03-05T02:27:03.653Z","last_ip":"172.70.85.100","allowed_ips":null,"last_timezone":"Europe/London","last_location":"London","phone":"+2348056099834","review":null,"gender":null,"date_of_birth":null,"cba_id":"107","photo_id":null,"referral_code":"KNCC0N","referred_by":null},"tier":null},{"id":"0195613a-bf4b-7bb6-afdf-0da85fd6e26f","meta":{"rc-number":"0000000","business-name":"Neem","business-email":"hi@neem.co","business-phone":"+2349055755671","business-types":"Corporation","business-address":"LAGOS, NIGERIA, LAGOS, Ibeju-Lekki, LAGOS"},"created_on":"2025-03-04T12:56:34.846Z","created_by_id":"0195613a-4bc2-7bb6-afde-f33836859ba3","modified_on":"2025-03-04T12:56:48.411Z","modified_by_id":"0195613a-4bc2-7bb6-afde-f33836859ba3","deleted_on":null,"deleted_by_id":null,"tenant_id":"00000000-0000-0000-0000-000000000000","name":"Profile","type":"business","status":"active","restricted":false,"review":null,"allowed_time_periods":null,"allowed_locations":null,"primary_user_id":"0195613a-4bc2-7bb6-afde-f33836859ba3","tier_id":"0193b49c-a302-711f-a668-d685d243452a","primary_user":{"id":"0195613a-4bc2-7bb6-afde-f33836859ba3","meta":null,"created_on":"2025-03-04T12:56:05.307Z","created_by_id":null,"modified_on":"2025-03-04T13:47:18.203Z","modified_by_id":"0195613a-4bc2-7bb6-afde-f33836859ba3","deleted_on":null,"deleted_by_id":null,"tenant_id":"00000000-0000-0000-0000-000000000000","email":"com@mailinator.com","status":"active","first_name":"Ibrahim","last_name":"Akinsanya","twofa_enabled":false,"last_active":"2025-03-04T13:47:18.205Z","last_ip":"104.23.170.118","allowed_ips":null,"last_timezone":"","last_location":"","phone":"+2348055748671","review":null,"gender":null,"date_of_birth":null,"cba_id":"106","photo_id":null,"referral_code":"2FA3C6","referred_by":null},"tier":null},{"id":"01955b08-099e-7dd1-9973-4bcd98afe14d","meta":{"rc-number":"0000000","business-name":"Neem","business-email":"hi@neem.co","business-types":"Corporation","business-address":"LAGOS, NIGERIA, LAGOS, Ibeju-Lekki, LAGOS"},"created_on":"2025-03-03T08:03:28.286Z","created_by_id":"01955b07-4132-7dd1-9973-3292df9b2ee8","modified_on":"2025-03-03T08:04:35.603Z","modified_by_id":"01955b07-4132-7dd1-9973-3292df9b2ee8","deleted_on":null,"deleted_by_id":null,"tenant_id":"00000000-0000-0000-0000-000000000000","name":"Profile","type":"business","status":"active","restricted":false,"review":null,"allowed_time_periods":null,"allowed_locations":null,"primary_user_id":"01955b07-4132-7dd1-9973-3292df9b2ee8","tier_id":"0193b49c-a302-711f-a668-d685d243452a","primary_user":{"id":"01955b07-4132-7dd1-9973-3292df9b2ee8","meta":null,"created_on":"2025-03-03T08:02:36.979Z","created_by_id":null,"modified_on":"2025-03-03T08:06:18.905Z","modified_by_id":"01955b07-4132-7dd1-9973-3292df9b2ee8","deleted_on":null,"deleted_by_id":null,"tenant_id":"00000000-0000-0000-0000-000000000000","email":"kolau@mailinator.com","status":"active","first_name":"Azeez","last_name":"Ibrahim","twofa_enabled":false,"last_active":"2025-03-03T08:06:18.904Z","last_ip":"104.23.172.14","allowed_ips":null,"last_timezone":"","last_location":"","phone":"+2349055755884","review":null,"gender":null,"date_of_birth":null,"cba_id":"105","photo_id":null,"referral_code":"2B8OIW","referred_by":null},"tier":null},{"id":"019546c1-6640-7cce-b24e-a053ce19b954","meta":{"rc-number":"4567876","business-name":"leep","business-email":"frrl@yopmail.com","business-phone":"+23408135678765","business-types":"Partnership","business-address":"2 kene street lagos"},"created_on":"2025-02-27T09:33:54.625Z","created_by_id":"019546c0-92c2-7cce-b24e-49f22e4cb79a","modified_on":"2025-03-02T15:50:19.508Z","modified_by_id":"019546c0-92c2-7cce-b24e-49f22e4cb79a","deleted_on":null,"deleted_by_id":null,"tenant_id":"00000000-0000-0000-0000-000000000000","name":"Profile","type":"business","status":"active","restricted":false,"review":null,"allowed_time_periods":null,"allowed_locations":null,"primary_user_id":"019546c0-92c2-7cce-b24e-49f22e4cb79a","tier_id":"0193b49c-a302-711f-a668-d685d243452a","primary_user":{"id":"019546c0-92c2-7cce-b24e-49f22e4cb79a","meta":null,"created_on":"2025-02-27T09:33:00.483Z","created_by_id":null,"modified_on":"2025-03-06T11:12:27.718Z","modified_by_id":"019546c0-92c2-7cce-b24e-49f22e4cb79a","deleted_on":null,"deleted_by_id":null,"tenant_id":"00000000-0000-0000-0000-000000000000","email":"Tran@yopmail.com","status":"active","first_name":"Slate","last_name":"Frett","twofa_enabled":false,"last_active":"2025-03-03T16:30:02.825Z","last_ip":"172.71.122.184","allowed_ips":null,"last_timezone":"Europe/London","last_location":"Paris","phone":"+2348138126566","review":null,"gender":null,"date_of_birth":null,"cba_id":"97","photo_id":null,"referral_code":"9N5PAV","referred_by":"019372de-17ef-7cc2-8fc0-43fe11ba042f"},"tier":null},{"id":"01953d6a-590a-7776-974d-07791b974d9d","meta":{"rc-number":"Neem","business-name":"Test Ltd","business-email":"Hello@mailinator.com","business-phone":"+2349137494363","business-types":"Sole Proprietorship","business-address":"Lagos"},"created_on":"2025-02-25T14:02:14.665Z","created_by_id":"01953d69-065f-7776-974c-d771ea496950","modified_on":"2025-02-25T14:11:50.574Z","modified_by_id":"01927265-4ed2-79cc-a0e6-e11339a359f3","deleted_on":null,"deleted_by_id":null,"tenant_id":"00000000-0000-0000-0000-000000000000","name":"Profile","type":"business","status":"active","restricted":false,"review":null,"allowed_time_periods":null,"allowed_locations":null,"primary_user_id":"01953d69-065f-7776-974c-d771ea496950","tier_id":"0193b131-7257-7cc9-bc92-a7663c2f4536","primary_user":{"id":"01953d69-065f-7776-974c-d771ea496950","meta":null,"created_on":"2025-02-25T14:00:47.967Z","created_by_id":null,"modified_on":"2025-02-25T14:20:06.563Z","modified_by_id":"01953d69-065f-7776-974c-d771ea496950","deleted_on":null,"deleted_by_id":null,"tenant_id":"00000000-0000-0000-0000-000000000000","email":"Ayomidelias@yopmail.com","status":"active","first_name":"Ayomide","last_name":"Liasu","twofa_enabled":false,"last_active":"2025-02-25T14:20:06.562Z","last_ip":"172.71.102.144","allowed_ips":null,"last_timezone":"Europe/Amsterdam","last_location":"Amsterdam","phone":"+2347080507367","review":null,"gender":null,"date_of_birth":null,"cba_id":"94","photo_id":null,"referral_code":"LC1XND","referred_by":null},"tier":{"id":"0193b131-7257-7cc9-bc92-a7663c2f4536","meta":null,"created_on":"2024-12-10T15:30:28.056Z","created_by_id":null,"modified_on":"2025-01-22T10:13:37.959Z","modified_by_id":"01927265-4ed2-79cc-a0e6-e11339a359f3","deleted_on":null,"deleted_by_id":null,"tenant_id":"00000000-0000-0000-0000-000000000000","profile_type":"business","name":"Tier 2","description":"Tier 2","level":2,"enabled":true,"balance_limit":0,"single_sending_limit":500000,"single_receiving_limit":500000,"period_sending_limit":500000,"period_sending_limit_time_unit":"day","period_receiving_limit":500000,"period_receiving_limit_time_unit":"day","requirements":[{"id":"019367a8-5cbc-7115-b8f1-b95501201701","type_id":"019367a8-5cbc-7115-b8f1-b95501201701","type":"document","slug":"Identification Document","name":"Identification Document","description":"Identification Document."},{"id":"0192d2f7-468a-7aac-8d59-19fe3f1dad7b","type_id":"0192d2f7-468a-7aac-8d59-19fe3f1dad7b","type":"document","slug":"Business document","name":"Business document","description":"document type"},{"id":"0194ad23-702e-7eea-ad68-865332aa788c","type_id":"0194ad23-702e-7eea-ad68-865332aa788c","type":"third-party","slug":"director","name":"Board of Directors","description":"Board of Directors"}]}},{"id":"01953d57-13f1-7776-9749-4c7e70e4cb6f","meta":{"rc-number":"0000000","business-name":"Neem","business-email":"hi@neem.co","business-phone":"+2348100000001","business-types":"Sole Proprietorship","business-address":"LAGOS, NIGERIA, LAGOS, Ibeju-Lekki, LAGOS"},"created_on":"2025-02-25T13:41:11.793Z","created_by_id":"01953d56-25ee-7776-9748-fdab6cae4406","modified_on":"2025-02-25T13:57:05.283Z","modified_by_id":"01953d56-25ee-7776-9748-fdab6cae4406","deleted_on":null,"deleted_by_id":null,"tenant_id":"00000000-0000-0000-0000-000000000000","name":"Profile","type":"business","status":"active","restricted":false,"review":null,"allowed_time_periods":null,"allowed_locations":null,"primary_user_id":"01953d56-25ee-7776-9748-fdab6cae4406","tier_id":"0193b49c-a302-711f-a668-d685d243452a","primary_user":{"id":"01953d56-25ee-7776-9748-fdab6cae4406","meta":null,"created_on":"2025-02-25T13:40:10.861Z","created_by_id":null,"modified_on":"2025-02-25T13:57:05.882Z","modified_by_id":"01953d56-25ee-7776-9748-fdab6cae4406","deleted_on":null,"deleted_by_id":null,"tenant_id":"00000000-0000-0000-0000-000000000000","email":"abisola+1@assurdly.com","status":"active","first_name":"Oye","last_name":"Abisola","twofa_enabled":false,"last_active":"2025-02-25T13:57:05.185Z","last_ip":"172.71.130.178","allowed_ips":null,"last_timezone":"Europe/Paris","last_location":"Paris","phone":"+2348100000000","review":null,"gender":null,"date_of_birth":null,"cba_id":"93","photo_id":null,"referral_code":"72IGAA","referred_by":null},"tier":null},{"id":"01953d48-d815-7776-9740-e414debcb832","meta":{"rc-number":"0000000","business-name":"Neem","business-email":"hi@neem.co","business-types":"Corporation","business-address":"LAGOS, NIGERIA, LAGOS, Ibeju-Lekki, LAGOS"},"created_on":"2025-02-25T13:25:38.962Z","created_by_id":"01953d48-032d-7776-9740-5fa95d57e9aa","modified_on":"2025-02-25T13:25:38.962Z","modified_by_id":null,"deleted_on":null,"deleted_by_id":null,"tenant_id":"00000000-0000-0000-0000-000000000000","name":"Profile","type":"business","status":"active","restricted":false,"review":null,"allowed_time_periods":null,"allowed_locations":null,"primary_user_id":"01953d48-032d-7776-9740-5fa95d57e9aa","tier_id":null,"primary_user":{"id":"01953d48-032d-7776-9740-5fa95d57e9aa","meta":null,"created_on":"2025-02-25T13:24:44.461Z","created_by_id":null,"modified_on":"2025-02-25T13:37:31.959Z","modified_by_id":"01953d48-032d-7776-9740-5fa95d57e9aa","deleted_on":null,"deleted_by_id":null,"tenant_id":"00000000-0000-0000-0000-000000000000","email":"milo@yopmail.com","status":"active","first_name":"Ola","last_name":"Milekan","twofa_enabled":false,"last_active":"2025-02-25T13:37:31.909Z","last_ip":"172.71.130.186","allowed_ips":null,"last_timezone":"Europe/Paris","last_location":"Paris","phone":"+2349044316597","review":null,"gender":null,"date_of_birth":null,"cba_id":null,"photo_id":null,"referral_code":"ZYNEXM","referred_by":null},"tier":null},{"id":"01953d46-beff-7776-973f-f58467bef888","meta":{"rc-number":"0000000","business-name":"Neem","business-email":"hi@neem.co","business-types":"Sole Proprietorship","business-address":"LAGOS, NIGERIA, LAGOS, Ibeju-Lekki, LAGOS"},"created_on":"2025-02-25T13:23:21.471Z","created_by_id":"01953d45-6de3-7776-973f-680b7a475255","modified_on":"2025-02-25T13:30:50.366Z","modified_by_id":"01953d45-6de3-7776-973f-680b7a475255","deleted_on":null,"deleted_by_id":null,"tenant_id":"00000000-0000-0000-0000-000000000000","name":"Profile","type":"business","status":"active","restricted":false,"review":null,"allowed_time_periods":null,"allowed_locations":null,"primary_user_id":"01953d45-6de3-7776-973f-680b7a475255","tier_id":"0193b49c-a302-711f-a668-d685d243452a","primary_user":{"id":"01953d45-6de3-7776-973f-680b7a475255","meta":null,"created_on":"2025-02-25T13:21:55.171Z","created_by_id":null,"modified_on":"2025-02-25T15:19:40.464Z","modified_by_id":"01953d45-6de3-7776-973f-680b7a475255","deleted_on":null,"deleted_by_id":null,"tenant_id":"00000000-0000-0000-0000-000000000000","email":"faith@assurdly.com","status":"active","first_name":"faith","last_name":"olaniran","twofa_enabled":false,"last_active":"2025-02-25T15:19:40.464Z","last_ip":"172.69.43.189","allowed_ips":null,"last_timezone":"Europe/London","last_location":"London","phone":"+2348169798608","review":null,"gender":null,"date_of_birth":null,"cba_id":"90","photo_id":null,"referral_code":"0R90C1","referred_by":null},"tier":null},{"id":"01953d44-6f22-7776-973e-e677fb010adf","meta":{"rc-number":"Neem","business-name":"Test","business-email":"Ttesting@mailinator.com","business-phone":"+23407069375622","business-types":"Sole Proprietorship","business-address":"27, Ayodeji Otegbola street, Gbagada Phase 2"},"created_on":"2025-02-25T13:20:49.954Z","created_by_id":"01953d43-83fe-7776-973e-6a87f239b1c5","modified_on":"2025-02-25T13:35:55.587Z","modified_by_id":"01953d43-83fe-7776-973e-6a87f239b1c5","deleted_on":null,"deleted_by_id":null,"tenant_id":"00000000-0000-0000-0000-000000000000","name":"Profile","type":"business","status":"active","restricted":false,"review":null,"allowed_time_periods":null,"allowed_locations":null,"primary_user_id":"01953d43-83fe-7776-973e-6a87f239b1c5","tier_id":"0193b49c-a302-711f-a668-d685d243452a","primary_user":{"id":"01953d43-83fe-7776-973e-6a87f239b1c5","meta":null,"created_on":"2025-02-25T13:19:49.758Z","created_by_id":null,"modified_on":"2025-02-25T15:54:53.421Z","modified_by_id":"01953d43-83fe-7776-973e-6a87f239b1c5","deleted_on":null,"deleted_by_id":null,"tenant_id":"00000000-0000-0000-0000-000000000000","email":"Ttesting@mailinator.com","status":"active","first_name":"Hikmat","last_name":"IbrahimBuruji","twofa_enabled":false,"last_active":"2025-02-25T15:54:53.420Z","last_ip":"172.68.186.155","allowed_ips":null,"last_timezone":"Africa/Johannesburg","last_location":"Cape Town","phone":"+2347069375622","review":null,"gender":null,"date_of_birth":null,"cba_id":"91","photo_id":null,"referral_code":"8QS0U1","referred_by":null},"tier":null}],"meta":{"page":1,"total_pages":15,"total_items":150}}