{"status":"success","data":[{"id":"01957108-3ccc-7111-9252-57600ebaeec1","meta":null,"created_on":"2025-03-07T14:35:20.140Z","created_by_id":"01957108-0c30-7111-9252-3ae7d32cb95a","modified_on":"2025-03-07T14:36:57.415Z","modified_by_id":"01957108-0c30-7111-9252-3ae7d32cb95a","deleted_on":null,"deleted_by_id":null,"tenant_id":"00000000-0000-0000-0000-000000000000","name":"Masha Brown","type":"personal","status":"active","restricted":false,"review":null,"allowed_time_periods":null,"allowed_locations":null,"primary_user_id":"01957108-0c30-7111-9252-3ae7d32cb95a","tier_id":"01928f2d-6756-755b-8a9d-c8094db2af27","primary_user":{"id":"01957108-0c30-7111-9252-3ae7d32cb95a","meta":null,"created_on":"2025-03-07T14:35:07.619Z","created_by_id":null,"modified_on":"2025-03-07T14:36:59.297Z","modified_by_id":"01957108-0c30-7111-9252-3ae7d32cb95a","deleted_on":null,"deleted_by_id":null,"tenant_id":"00000000-0000-0000-0000-000000000000","email":"Masha@mailinator.com","status":"active","first_name":"Masha","last_name":"Brown","twofa_enabled":false,"last_active":"2025-03-07T14:36:59.296Z","last_ip":"172.70.90.117","allowed_ips":null,"last_timezone":"Europe/London","last_location":"London","phone":"+2348138096890","review":null,"gender":null,"date_of_birth":null,"cba_id":"118","photo_id":null,"referral_code":"L1FL3V","referred_by":null},"tier":{"id":"01928f2d-6756-755b-8a9d-c8094db2af27","meta":null,"created_on":"2024-10-15T07:56:10.789Z","created_by_id":null,"modified_on":"2025-01-23T15:14:24.513Z","modified_by_id":"01927265-4ed2-79cc-a0e6-e11339a359f3","deleted_on":null,"deleted_by_id":null,"tenant_id":"00000000-0000-0000-0000-000000000000","profile_type":"personal","name":"Tier 1","description":"Tier 1","level":1,"enabled":true,"balance_limit":2000000,"single_sending_limit":500000,"single_receiving_limit":500000,"period_sending_limit":500000,"period_sending_limit_time_unit":"day","period_receiving_limit":500000,"period_receiving_limit_time_unit":"day","requirements":[{"id":"01933d40-03e5-777c-a6e6-bf72eb1c8968","type_id":"01933d40-03e5-777c-a6e6-bf72eb1c8968","type":"verification","slug":"bvn","name":"BVN","description":"BVN"},{"id":"019318f9-c895-744d-8f65-4636cc26dd1f","type_id":"019318f9-c895-744d-8f65-4636cc26dd1f","type":"verification","slug":"liveness","name":"Image liveness check","description":"This step helps us verify your identity by matching your image with the credentials you’ve provided."},{"id":"019318f9-c895-744d-8f65-4636cc26dd1d","type_id":"019318f9-c895-744d-8f65-4636cc26dd1d","type":"verification","slug":"email","name":"Email","description":"Verify your email"},{"id":"019318f9-c895-744d-8f65-4636cc26dd1c","type_id":"019318f9-c895-744d-8f65-4636cc26dd1c","type":"verification","slug":"phone","name":"Phone","description":"Verify yor number"}]}},{"id":"01956c98-2d3e-7bb2-80b2-54155774ec20","meta":null,"created_on":"2025-03-06T17:54:27.261Z","created_by_id":"01956c98-1b41-7bb2-80b2-3fd04de70f26","modified_on":"2025-03-06T18:17:42.255Z","modified_by_id":"01927265-4ed2-79cc-a0e6-e11339a359f3","deleted_on":null,"deleted_by_id":null,"tenant_id":"00000000-0000-0000-0000-000000000000","name":"Victor Ikpe","type":"personal","status":"active","restricted":false,"review":null,"allowed_time_periods":null,"allowed_locations":null,"primary_user_id":"01956c98-1b41-7bb2-80b2-3fd04de70f26","tier_id":"019367c1-ab3c-7115-b8f2-680b07e61445","primary_user":{"id":"01956c98-1b41-7bb2-80b2-3fd04de70f26","meta":null,"created_on":"2025-03-06T17:54:22.656Z","created_by_id":null,"modified_on":"2025-03-06T18:36:03.452Z","modified_by_id":"01956c98-1b41-7bb2-80b2-3fd04de70f26","deleted_on":null,"deleted_by_id":null,"tenant_id":"00000000-0000-0000-0000-000000000000","email":"victor.ikpe@cashdrive.co","status":"active","first_name":"Victor","last_name":"Ikpe","twofa_enabled":false,"last_active":"2025-03-06T18:36:03.452Z","last_ip":"172.71.102.232","allowed_ips":null,"last_timezone":"Europe/Amsterdam","last_location":"Amsterdam","phone":"+2348034801380","review":null,"gender":null,"date_of_birth":null,"cba_id":"117","photo_id":null,"referral_code":"IZI0Q8","referred_by":null},"tier":{"id":"019367c1-ab3c-7115-b8f2-680b07e61445","meta":null,"created_on":"2024-11-26T09:16:05.741Z","created_by_id":null,"modified_on":"2025-01-21T10:57:30.804Z","modified_by_id":"01927265-4ed2-79cc-a0e6-e11339a359f3","deleted_on":null,"deleted_by_id":null,"tenant_id":"00000000-0000-0000-0000-000000000000","profile_type":"personal","name":"Tier 3","description":"Tier 3","level":3,"enabled":true,"balance_limit":5000000,"single_sending_limit":5000000,"single_receiving_limit":5000000,"period_sending_limit":5000000,"period_sending_limit_time_unit":"day","period_receiving_limit":5000000,"period_receiving_limit_time_unit":"day","requirements":[{"id":"01952904-45ef-7330-84ab-f51b9eb1cd81","type_id":"01952904-45ef-7330-84ab-f51b9eb1cd81","type":"document","slug":"Utility Bill","name":"Utility Bill","description":"Utility bill"},{"id":"01933d2f-aa30-7ddd-a344-aa4e37d9f705","type_id":"01933d2f-aa30-7ddd-a344-aa4e37d9f705","type":"kyc","slug":"employment-information","name":"Employment information","description":"Provide your employment information as part of requirements to ensure your account accuracy."}]}},{"id":"01956c8e-7f46-7ffb-b630-1c31af913965","meta":null,"created_on":"2025-03-06T17:43:52.900Z","created_by_id":"01956c8e-43e9-7ffb-b630-01fbc9687a03","modified_on":"2025-03-06T18:15:46.655Z","modified_by_id":"01927265-4ed2-79cc-a0e6-e11339a359f3","deleted_on":null,"deleted_by_id":null,"tenant_id":"00000000-0000-0000-0000-000000000000","name":"Enoma Agbonifo","type":"personal","status":"active","restricted":false,"review":null,"allowed_time_periods":null,"allowed_locations":null,"primary_user_id":"01956c8e-43e9-7ffb-b630-01fbc9687a03","tier_id":"019367c1-ab3c-7115-b8f2-680b07e61445","primary_user":{"id":"01956c8e-43e9-7ffb-b630-01fbc9687a03","meta":null,"created_on":"2025-03-06T17:43:37.705Z","created_by_id":null,"modified_on":"2025-03-07T10:11:27.652Z","modified_by_id":"01956c8e-43e9-7ffb-b630-01fbc9687a03","deleted_on":null,"deleted_by_id":null,"tenant_id":"00000000-0000-0000-0000-000000000000","email":"enomaagbonifo@gmail.com","status":"active","first_name":"Enoma","last_name":"Agbonifo","twofa_enabled":false,"last_active":"2025-03-07T10:11:27.652Z","last_ip":"172.70.85.92","allowed_ips":null,"last_timezone":"Europe/London","last_location":"London","phone":"+2349060005189","review":null,"gender":null,"date_of_birth":null,"cba_id":"116","photo_id":null,"referral_code":"TDMGYJ","referred_by":null},"tier":{"id":"019367c1-ab3c-7115-b8f2-680b07e61445","meta":null,"created_on":"2024-11-26T09:16:05.741Z","created_by_id":null,"modified_on":"2025-01-21T10:57:30.804Z","modified_by_id":"01927265-4ed2-79cc-a0e6-e11339a359f3","deleted_on":null,"deleted_by_id":null,"tenant_id":"00000000-0000-0000-0000-000000000000","profile_type":"personal","name":"Tier 3","description":"Tier 3","level":3,"enabled":true,"balance_limit":5000000,"single_sending_limit":5000000,"single_receiving_limit":5000000,"period_sending_limit":5000000,"period_sending_limit_time_unit":"day","period_receiving_limit":5000000,"period_receiving_limit_time_unit":"day","requirements":[{"id":"01933d2f-aa30-7ddd-a344-aa4e37d9f705","type_id":"01933d2f-aa30-7ddd-a344-aa4e37d9f705","type":"kyc","slug":"employment-information","name":"Employment information","description":"Provide your employment information as part of requirements to ensure your account accuracy."},{"id":"01952904-45ef-7330-84ab-f51b9eb1cd81","type_id":"01952904-45ef-7330-84ab-f51b9eb1cd81","type":"document","slug":"Utility Bill","name":"Utility Bill","description":"Utility bill"}]}},{"id":"01956c64-5f59-7886-9f22-3ec916efc19a","meta":null,"created_on":"2025-03-06T16:57:52.216Z","created_by_id":"01956c63-08c8-7886-9f21-74c16c9642dc","modified_on":"2025-03-06T16:59:20.045Z","modified_by_id":"01956c63-08c8-7886-9f21-74c16c9642dc","deleted_on":null,"deleted_by_id":null,"tenant_id":"00000000-0000-0000-0000-000000000000","name":"mercy boku","type":"personal","status":"active","restricted":false,"review":null,"allowed_time_periods":null,"allowed_locations":null,"primary_user_id":"01956c63-08c8-7886-9f21-74c16c9642dc","tier_id":"01928f2d-6756-755b-8a9d-c8094db2af27","primary_user":{"id":"01956c63-08c8-7886-9f21-74c16c9642dc","meta":null,"created_on":"2025-03-06T16:56:24.519Z","created_by_id":null,"modified_on":"2025-03-06T17:43:03.247Z","modified_by_id":"01956c63-08c8-7886-9f21-74c16c9642dc","deleted_on":null,"deleted_by_id":null,"tenant_id":"00000000-0000-0000-0000-000000000000","email":"mercy@mailinator.com","status":"active","first_name":"mercy","last_name":"boku","twofa_enabled":false,"last_active":"2025-03-06T17:43:03.246Z","last_ip":"172.71.102.235","allowed_ips":null,"last_timezone":"Europe/Amsterdam","last_location":"Amsterdam","phone":"+2348134044000","review":null,"gender":null,"date_of_birth":null,"cba_id":"115","photo_id":null,"referral_code":"EOJWG8","referred_by":"019372de-17ef-7cc2-8fc0-43fe11ba042f"},"tier":{"id":"01928f2d-6756-755b-8a9d-c8094db2af27","meta":null,"created_on":"2024-10-15T07:56:10.789Z","created_by_id":null,"modified_on":"2025-01-23T15:14:24.513Z","modified_by_id":"01927265-4ed2-79cc-a0e6-e11339a359f3","deleted_on":null,"deleted_by_id":null,"tenant_id":"00000000-0000-0000-0000-000000000000","profile_type":"personal","name":"Tier 1","description":"Tier 1","level":1,"enabled":true,"balance_limit":2000000,"single_sending_limit":500000,"single_receiving_limit":500000,"period_sending_limit":500000,"period_sending_limit_time_unit":"day","period_receiving_limit":500000,"period_receiving_limit_time_unit":"day","requirements":[{"id":"019318f9-c895-744d-8f65-4636cc26dd1d","type_id":"019318f9-c895-744d-8f65-4636cc26dd1d","type":"verification","slug":"email","name":"Email","description":"Verify your email"},{"id":"01933d40-03e5-777c-a6e6-bf72eb1c8968","type_id":"01933d40-03e5-777c-a6e6-bf72eb1c8968","type":"verification","slug":"bvn","name":"BVN","description":"BVN"},{"id":"019318f9-c895-744d-8f65-4636cc26dd1f","type_id":"019318f9-c895-744d-8f65-4636cc26dd1f","type":"verification","slug":"liveness","name":"Image liveness check","description":"This step helps us verify your identity by matching your image with the credentials you’ve provided."},{"id":"019318f9-c895-744d-8f65-4636cc26dd1c","type_id":"019318f9-c895-744d-8f65-4636cc26dd1c","type":"verification","slug":"phone","name":"Phone","description":"Verify yor number"}]}},{"id":"01956c45-d027-7ddb-9bba-7cc8a1f4a40f","meta":null,"created_on":"2025-03-06T16:24:29.478Z","created_by_id":"01956c45-a32b-7ddb-9bba-61c1d291096a","modified_on":"2025-03-06T16:24:29.478Z","modified_by_id":null,"deleted_on":null,"deleted_by_id":null,"tenant_id":"00000000-0000-0000-0000-000000000000","name":"Fred Brownn","type":"personal","status":"active","restricted":false,"review":null,"allowed_time_periods":null,"allowed_locations":null,"primary_user_id":"01956c45-a32b-7ddb-9bba-61c1d291096a","tier_id":null,"primary_user":{"id":"01956c45-a32b-7ddb-9bba-61c1d291096a","meta":null,"created_on":"2025-03-06T16:24:17.961Z","created_by_id":null,"modified_on":"2025-03-06T17:35:33.227Z","modified_by_id":"01956c45-a32b-7ddb-9bba-61c1d291096a","deleted_on":null,"deleted_by_id":null,"tenant_id":"00000000-0000-0000-0000-000000000000","email":"brownn@yopmail.com","status":"active","first_name":"Fred","last_name":"Brownn","twofa_enabled":false,"last_active":"2025-03-06T17:35:33.227Z","last_ip":"172.71.123.90","allowed_ips":null,"last_timezone":"Europe/Paris","last_location":"Paris","phone":"+2348138092323","review":null,"gender":null,"date_of_birth":null,"cba_id":null,"photo_id":null,"referral_code":"PHGQVJ","referred_by":null},"tier":null},{"id":"01956c35-a7ea-7229-a170-5b5c94ba46e3","meta":null,"created_on":"2025-03-06T16:06:50.600Z","created_by_id":"01956c35-85dd-7229-a170-43e1c6f5cb9c","modified_on":"2025-03-06T16:06:50.600Z","modified_by_id":null,"deleted_on":null,"deleted_by_id":null,"tenant_id":"00000000-0000-0000-0000-000000000000","name":"Azeez Olamilekan","type":"personal","status":"active","restricted":false,"review":null,"allowed_time_periods":null,"allowed_locations":null,"primary_user_id":"01956c35-85dd-7229-a170-43e1c6f5cb9c","tier_id":null,"primary_user":{"id":"01956c35-85dd-7229-a170-43e1c6f5cb9c","meta":null,"created_on":"2025-03-06T16:06:41.884Z","created_by_id":null,"modified_on":"2025-03-06T16:13:49.211Z","modified_by_id":"01956c35-85dd-7229-a170-43e1c6f5cb9c","deleted_on":null,"deleted_by_id":null,"tenant_id":"00000000-0000-0000-0000-000000000000","email":"yup@mailinator.com","status":"active","first_name":"Azeez","last_name":"Olamilekan","twofa_enabled":false,"last_active":"2025-03-06T16:13:49.208Z","last_ip":"172.68.42.183","allowed_ips":null,"last_timezone":"Africa/Johannesburg","last_location":"Johannesburg","phone":"+2349055466312","review":null,"gender":null,"date_of_birth":null,"cba_id":null,"photo_id":null,"referral_code":"V7U6DN","referred_by":null},"tier":null},{"id":"019566df-963a-722f-a14a-fcded6624333","meta":null,"created_on":"2025-03-05T15:14:43.898Z","created_by_id":"019566df-7f82-722f-a14a-9eb1a59909b3","modified_on":"2025-03-05T15:16:01.883Z","modified_by_id":"019566df-7f82-722f-a14a-9eb1a59909b3","deleted_on":null,"deleted_by_id":null,"tenant_id":"00000000-0000-0000-0000-000000000000","name":"Oladimeji Oladimeji","type":"personal","status":"active","restricted":false,"review":null,"allowed_time_periods":null,"allowed_locations":null,"primary_user_id":"019566df-7f82-722f-a14a-9eb1a59909b3","tier_id":"01928f2d-6756-755b-8a9d-c8094db2af27","primary_user":{"id":"019566df-7f82-722f-a14a-9eb1a59909b3","meta":null,"created_on":"2025-03-05T15:14:38.011Z","created_by_id":null,"modified_on":"2025-03-05T18:19:42.981Z","modified_by_id":"019566df-7f82-722f-a14a-9eb1a59909b3","deleted_on":null,"deleted_by_id":null,"tenant_id":"00000000-0000-0000-0000-000000000000","email":"oladimeji@mailinator.com","status":"active","first_name":"Oladimeji","last_name":"Oladimeji","twofa_enabled":false,"last_active":"2025-03-05T18:19:42.980Z","last_ip":"172.71.178.169","allowed_ips":null,"last_timezone":"Europe/London","last_location":"London","phone":"+2348134044022","review":null,"gender":"female","date_of_birth":"1995-07-31","cba_id":"111","photo_id":null,"referral_code":"YYRN4A","referred_by":"019372de-17ef-7cc2-8fc0-43fe11ba042f"},"tier":{"id":"01928f2d-6756-755b-8a9d-c8094db2af27","meta":null,"created_on":"2024-10-15T07:56:10.789Z","created_by_id":null,"modified_on":"2025-01-23T15:14:24.513Z","modified_by_id":"01927265-4ed2-79cc-a0e6-e11339a359f3","deleted_on":null,"deleted_by_id":null,"tenant_id":"00000000-0000-0000-0000-000000000000","profile_type":"personal","name":"Tier 1","description":"Tier 1","level":1,"enabled":true,"balance_limit":2000000,"single_sending_limit":500000,"single_receiving_limit":500000,"period_sending_limit":500000,"period_sending_limit_time_unit":"day","period_receiving_limit":500000,"period_receiving_limit_time_unit":"day","requirements":[{"id":"01933d40-03e5-777c-a6e6-bf72eb1c8968","type_id":"01933d40-03e5-777c-a6e6-bf72eb1c8968","type":"verification","slug":"bvn","name":"BVN","description":"BVN"},{"id":"019318f9-c895-744d-8f65-4636cc26dd1c","type_id":"019318f9-c895-744d-8f65-4636cc26dd1c","type":"verification","slug":"phone","name":"Phone","description":"Verify yor number"},{"id":"019318f9-c895-744d-8f65-4636cc26dd1d","type_id":"019318f9-c895-744d-8f65-4636cc26dd1d","type":"verification","slug":"email","name":"Email","description":"Verify your email"},{"id":"019318f9-c895-744d-8f65-4636cc26dd1f","type_id":"019318f9-c895-744d-8f65-4636cc26dd1f","type":"verification","slug":"liveness","name":"Image liveness check","description":"This step helps us verify your identity by matching your image with the credentials you’ve provided."}]}},{"id":"01956699-972e-722f-a147-69e07a824f3e","meta":null,"created_on":"2025-03-05T13:58:16.621Z","created_by_id":"01956699-8660-722f-a147-563f08c28779","modified_on":"2025-03-05T14:02:56.815Z","modified_by_id":"01956699-8660-722f-a147-563f08c28779","deleted_on":null,"deleted_by_id":null,"tenant_id":"00000000-0000-0000-0000-000000000000","name":"Fred Teslim","type":"personal","status":"active","restricted":false,"review":null,"allowed_time_periods":null,"allowed_locations":null,"primary_user_id":"01956699-8660-722f-a147-563f08c28779","tier_id":"01928f2d-6756-755b-8a9d-c8094db2af27","primary_user":{"id":"01956699-8660-722f-a147-563f08c28779","meta":null,"created_on":"2025-03-05T13:58:12.319Z","created_by_id":null,"modified_on":"2025-03-05T14:11:36.696Z","modified_by_id":"01956699-8660-722f-a147-563f08c28779","deleted_on":null,"deleted_by_id":null,"tenant_id":"00000000-0000-0000-0000-000000000000","email":"braail@yopmail.com","status":"active","first_name":"Fred","last_name":"Teslim","twofa_enabled":false,"last_active":"2025-03-05T14:11:36.696Z","last_ip":"172.71.182.5","allowed_ips":null,"last_timezone":"Europe/Amsterdam","last_location":"Amsterdam","phone":"+2348138094111","review":null,"gender":"female","date_of_birth":"1994-06-20","cba_id":"110","photo_id":null,"referral_code":"MYJ0CQ","referred_by":null},"tier":{"id":"01928f2d-6756-755b-8a9d-c8094db2af27","meta":null,"created_on":"2024-10-15T07:56:10.789Z","created_by_id":null,"modified_on":"2025-01-23T15:14:24.513Z","modified_by_id":"01927265-4ed2-79cc-a0e6-e11339a359f3","deleted_on":null,"deleted_by_id":null,"tenant_id":"00000000-0000-0000-0000-000000000000","profile_type":"personal","name":"Tier 1","description":"Tier 1","level":1,"enabled":true,"balance_limit":2000000,"single_sending_limit":500000,"single_receiving_limit":500000,"period_sending_limit":500000,"period_sending_limit_time_unit":"day","period_receiving_limit":500000,"period_receiving_limit_time_unit":"day","requirements":[{"id":"019318f9-c895-744d-8f65-4636cc26dd1f","type_id":"019318f9-c895-744d-8f65-4636cc26dd1f","type":"verification","slug":"liveness","name":"Image liveness check","description":"This step helps us verify your identity by matching your image with the credentials you’ve provided."},{"id":"019318f9-c895-744d-8f65-4636cc26dd1c","type_id":"019318f9-c895-744d-8f65-4636cc26dd1c","type":"verification","slug":"phone","name":"Phone","description":"Verify yor number"},{"id":"019318f9-c895-744d-8f65-4636cc26dd1d","type_id":"019318f9-c895-744d-8f65-4636cc26dd1d","type":"verification","slug":"email","name":"Email","description":"Verify your email"},{"id":"01933d40-03e5-777c-a6e6-bf72eb1c8968","type_id":"01933d40-03e5-777c-a6e6-bf72eb1c8968","type":"verification","slug":"bvn","name":"BVN","description":"BVN"}]}},{"id":"01956693-65e6-722f-a146-b9a77734e1d4","meta":null,"created_on":"2025-03-05T13:51:30.790Z","created_by_id":"01956693-5196-722f-a146-a0ffabe29aca","modified_on":"2025-03-05T13:51:30.790Z","modified_by_id":null,"deleted_on":null,"deleted_by_id":null,"tenant_id":"00000000-0000-0000-0000-000000000000","name":"lighter Brown","type":"personal","status":"active","restricted":false,"review":null,"allowed_time_periods":null,"allowed_locations":null,"primary_user_id":"01956693-5196-722f-a146-a0ffabe29aca","tier_id":null,"primary_user":{"id":"01956693-5196-722f-a146-a0ffabe29aca","meta":null,"created_on":"2025-03-05T13:51:25.589Z","created_by_id":null,"modified_on":"2025-03-05T13:58:26.298Z","modified_by_id":"01956693-5196-722f-a146-a0ffabe29aca","deleted_on":null,"deleted_by_id":null,"tenant_id":"00000000-0000-0000-0000-000000000000","email":"lighter@yopmail.com","status":"active","first_name":"lighter","last_name":"Brown","twofa_enabled":false,"last_active":"2025-03-05T13:58:26.298Z","last_ip":"104.23.166.37","allowed_ips":null,"last_timezone":"","last_location":"","phone":"+2348138094321","review":null,"gender":"female","date_of_birth":"1994-06-20","cba_id":null,"photo_id":null,"referral_code":"UJRODI","referred_by":null},"tier":null},{"id":"0195668a-7684-722f-a145-87f1b92afa64","meta":null,"created_on":"2025-03-05T13:41:45.219Z","created_by_id":"0195668a-58b9-722f-a145-2f190129f41a","modified_on":"2025-03-05T13:41:45.219Z","modified_by_id":null,"deleted_on":null,"deleted_by_id":null,"tenant_id":"00000000-0000-0000-0000-000000000000","name":"light out","type":"personal","status":"active","restricted":false,"review":null,"allowed_time_periods":null,"allowed_locations":null,"primary_user_id":"0195668a-58b9-722f-a145-2f190129f41a","tier_id":null,"primary_user":{"id":"0195668a-58b9-722f-a145-2f190129f41a","meta":null,"created_on":"2025-03-05T13:41:37.592Z","created_by_id":null,"modified_on":"2025-03-06T15:56:38.908Z","modified_by_id":"0195668a-58b9-722f-a145-2f190129f41a","deleted_on":null,"deleted_by_id":null,"tenant_id":"00000000-0000-0000-0000-000000000000","email":"light@yopmail.com","status":"active","first_name":"light","last_name":"out","twofa_enabled":false,"last_active":"2025-03-06T15:56:38.908Z","last_ip":"172.69.222.126","allowed_ips":null,"last_timezone":"Europe/Paris","last_location":"Paris","phone":"+2348138090900","review":null,"gender":"female","date_of_birth":"1994-06-20","cba_id":null,"photo_id":null,"referral_code":"XWYMCX","referred_by":"019372de-17ef-7cc2-8fc0-43fe11ba042f"},"tier":null}],"meta":{"page":1,"total_pages":23,"total_items":224}}