{"status":"success","data":[{"id":"01948f3a-6fe3-7cc6-93d8-b054ab64efe8","meta":null,"created_on":"2025-01-22T18:15:59.202Z","created_by_id":"019372de-17ef-7cc2-8fc0-43fe11ba042f","modified_on":"2025-01-22T18:16:19.787Z","modified_by_id":"019372de-17ef-7cc2-8fc0-43fe11ba042f","deleted_on":null,"deleted_by_id":null,"tenant_id":"00000000-0000-0000-0000-000000000000","profile_id":"0193a649-e3d0-7881-8b7f-2ef1d89a9aff","status":"approved","command":"ScheduleBillPaymentCommand","command_data":{"data":{"start_date":"2025-01-22T19:15:56.839Z","end_date":"2025-01-30T23:59:59.999Z","amount":50,"account_number":"8123478878","type":"bill-payment","frequency":"daily","category_id":"databundle","option_id":"49.99","account_id":"0193a699-2f15-7881-8b7f-ae50980bcfad","pin":"1234","biller_id":"airtel"}},"maker_id":"019372de-17ef-7cc2-8fc0-43fe11ba042f","made_on":"2025-01-22T18:15:59.202Z","checker_id":"019372de-17ef-7cc2-8fc0-43fe11ba042f","checked_on":null,"maker_checker_id":"0193df18-702c-7ddc-9298-482c857161b9","reason":null},{"id":"01948f37-7871-7cc6-93d8-984c77d488f5","meta":null,"created_on":"2025-01-22T18:12:44.784Z","created_by_id":"019372de-17ef-7cc2-8fc0-43fe11ba042f","modified_on":"2025-01-22T18:12:44.784Z","modified_by_id":null,"deleted_on":null,"deleted_by_id":null,"tenant_id":"00000000-0000-0000-0000-000000000000","profile_id":"0193a649-e3d0-7881-8b7f-2ef1d89a9aff","status":"pending","command":"ScheduleBillPaymentCommand","command_data":{"data":{"start_date":"2025-01-23T00:00:00.000Z","end_date":"2025-01-30T23:59:59.999Z","amount":100,"account_number":"08138096566","type":"bill-payment","frequency":"daily","category_id":"airtime","option_id":"","account_id":"0193a699-2f15-7881-8b7f-ae50980bcfad","pin":"1234","biller_id":"9mobile"}},"maker_id":"019372de-17ef-7cc2-8fc0-43fe11ba042f","made_on":"2025-01-22T18:12:44.785Z","checker_id":null,"checked_on":null,"maker_checker_id":"0193df18-702c-7ddc-9298-482c857161b9","reason":null},{"id":"01948f35-9b82-7cc6-93d8-8796389235f2","meta":null,"created_on":"2025-01-22T18:10:42.688Z","created_by_id":"019372de-17ef-7cc2-8fc0-43fe11ba042f","modified_on":"2025-01-22T18:10:42.688Z","modified_by_id":null,"deleted_on":null,"deleted_by_id":null,"tenant_id":"00000000-0000-0000-0000-000000000000","profile_id":"0193a649-e3d0-7881-8b7f-2ef1d89a9aff","status":"pending","command":"BulkTransferCommand","command_data":{"account_id":"0193a699-2f15-7881-8b7f-ae50980bcfad","data":[{"account_name":"John Doe","bank_name":"NORTHQUEST","amount":1000,"account_number":"0000000108","bank_code":"050030","narration":"bulk transfer"},{"account_name":"John Doe","bank_name":"NORTHQUEST","amount":1000,"account_number":"0000000108","bank_code":"050030","narration":"bulk transfer"}]},"maker_id":"019372de-17ef-7cc2-8fc0-43fe11ba042f","made_on":"2025-01-22T18:10:42.682Z","checker_id":null,"checked_on":null,"maker_checker_id":"0193df18-702c-7ddc-9298-482c857161b9","reason":null},{"id":"01948f34-0fc1-7cc6-93d8-7bedc928f58a","meta":null,"created_on":"2025-01-22T18:09:01.376Z","created_by_id":"019372de-17ef-7cc2-8fc0-43fe11ba042f","modified_on":"2025-01-22T18:09:01.376Z","modified_by_id":null,"deleted_on":null,"deleted_by_id":null,"tenant_id":"00000000-0000-0000-0000-000000000000","profile_id":"0193a649-e3d0-7881-8b7f-2ef1d89a9aff","status":"pending","command":"BulkTransferCommand","command_data":{"account_id":"0193a699-2f15-7881-8b7f-ae50980bcfad","data":[{"amount":10,"account_name":"John Doe","bank_name":"NORTHQUEST FINANCE COMPANY LIMITED ","account_number":"0000000104","bank_code":"050030","narration":""}]},"maker_id":"019372de-17ef-7cc2-8fc0-43fe11ba042f","made_on":"2025-01-22T18:09:01.374Z","checker_id":null,"checked_on":null,"maker_checker_id":"0193df18-702c-7ddc-9298-482c857161b9","reason":null},{"id":"01948f31-feda-7cc6-93d8-74f9cf7a6a9a","meta":null,"created_on":"2025-01-22T18:06:45.977Z","created_by_id":"019372de-17ef-7cc2-8fc0-43fe11ba042f","modified_on":"2025-01-22T18:06:45.977Z","modified_by_id":null,"deleted_on":null,"deleted_by_id":null,"tenant_id":"00000000-0000-0000-0000-000000000000","profile_id":"0193a649-e3d0-7881-8b7f-2ef1d89a9aff","status":"pending","command":"PayBillPaymentCommand","command_data":{"categoryId":"electricity","billerId":"kedco_electric_postpaid","data":{"account_number":"8123478879","amount":10,"option_id":null,"pin":"1234","account_id":"0193a699-2f15-7881-8b7f-ae50980bcfad","account_name":"expenses"}},"maker_id":"019372de-17ef-7cc2-8fc0-43fe11ba042f","made_on":"2025-01-22T18:06:45.977Z","checker_id":null,"checked_on":null,"maker_checker_id":"0193df18-702c-7ddc-9298-482c857161b9","reason":null},{"id":"01948ee4-6b30-7cc6-93d7-0c150df618f9","meta":null,"created_on":"2025-01-22T16:42:01.897Z","created_by_id":"019372de-17ef-7cc2-8fc0-43fe11ba042f","modified_on":"2025-01-22T16:42:01.897Z","modified_by_id":null,"deleted_on":null,"deleted_by_id":null,"tenant_id":"00000000-0000-0000-0000-000000000000","profile_id":"0193a649-e3d0-7881-8b7f-2ef1d89a9aff","status":"pending","command":"TransferCommand","command_data":{"account_id":"0193a699-2f15-7881-8b7f-ae50980bcfad","data":{"account_number":"0000000108","bank_code":"050030","amount":10,"pin":"1234","narration":"","account_name":"Profile","bank_name":"NORTHQUEST"}},"maker_id":"019372de-17ef-7cc2-8fc0-43fe11ba042f","made_on":"2025-01-22T16:42:01.896Z","checker_id":null,"checked_on":null,"maker_checker_id":"0193df18-702c-7ddc-9298-482c857161b9","reason":null},{"id":"01948ee2-a540-7cc6-93d6-f4ed114f0e2f","meta":null,"created_on":"2025-01-22T16:40:05.695Z","created_by_id":"019372de-17ef-7cc2-8fc0-43fe11ba042f","modified_on":"2025-01-22T16:40:05.695Z","modified_by_id":null,"deleted_on":null,"deleted_by_id":null,"tenant_id":"00000000-0000-0000-0000-000000000000","profile_id":"0193a649-e3d0-7881-8b7f-2ef1d89a9aff","status":"pending","command":"BulkTransferCommand","command_data":{"account_id":"0193a699-2f15-7881-8b7f-ae50980bcfad","data":[{"account_name":"John Doe","bank_name":"NORTHQUEST","amount":1000,"account_number":"0000000108","bank_code":"050030","narration":"bulk transfer"},{"account_name":"John Doe","bank_name":"NORTHQUEST","amount":1000,"account_number":"0000000106","bank_code":"050030","narration":"bulk transfer"}]},"maker_id":"019372de-17ef-7cc2-8fc0-43fe11ba042f","made_on":"2025-01-22T16:40:05.693Z","checker_id":null,"checked_on":null,"maker_checker_id":"0193df18-702c-7ddc-9298-482c857161b9","reason":null},{"id":"01948ee1-6d84-7cc6-93d6-daf3fea2500d","meta":null,"created_on":"2025-01-22T16:38:45.892Z","created_by_id":"019372de-17ef-7cc2-8fc0-43fe11ba042f","modified_on":"2025-01-22T16:38:45.892Z","modified_by_id":null,"deleted_on":null,"deleted_by_id":null,"tenant_id":"00000000-0000-0000-0000-000000000000","profile_id":"0193a649-e3d0-7881-8b7f-2ef1d89a9aff","status":"pending","command":"BulkTransferCommand","command_data":{"account_id":"0193a699-2f15-7881-8b7f-ae50980bcfad","data":[{"amount":100,"account_name":"Profile","bank_name":"NORTHQUEST FINANCE COMPANY LIMITED ","account_number":"0000000106","bank_code":"050030","narration":""},{"amount":100,"account_name":"Profile","bank_name":"NORTHQUEST FINANCE COMPANY LIMITED ","account_number":"0000000108","bank_code":"050030","narration":""}]},"maker_id":"019372de-17ef-7cc2-8fc0-43fe11ba042f","made_on":"2025-01-22T16:38:45.892Z","checker_id":null,"checked_on":null,"maker_checker_id":"0193df18-702c-7ddc-9298-482c857161b9","reason":null},{"id":"01948ec8-a115-7cc6-93d6-60a23334da79","meta":null,"created_on":"2025-01-22T16:11:40.692Z","created_by_id":"019372de-17ef-7cc2-8fc0-43fe11ba042f","modified_on":"2025-01-22T16:11:40.692Z","modified_by_id":null,"deleted_on":null,"deleted_by_id":null,"tenant_id":"00000000-0000-0000-0000-000000000000","profile_id":"0193a649-e3d0-7881-8b7f-2ef1d89a9aff","status":"pending","command":"ScheduleTransferCommand","command_data":{"data":{"start_date":"2025-01-24T00:00:00.000Z","end_date":"2025-01-30T23:59:59.999Z","type":"transfer","frequency":"weekly","account_id":"0193a699-2f15-7881-8b7f-ae50980bcfad","pin":"1234","recipients":[{"narration":"","amount":5000,"account_number":"0000000108","account_name":"Profile","bank_name":"NORTHQUEST FINANCE COMPANY LIMITED ","bank_code":"050030"}]}},"maker_id":"019372de-17ef-7cc2-8fc0-43fe11ba042f","made_on":"2025-01-22T16:11:40.692Z","checker_id":null,"checked_on":null,"maker_checker_id":"0193df18-702c-7ddc-9298-482c857161b9","reason":null},{"id":"01948ec7-f980-7cc6-93d6-5ed0fb4a537d","meta":null,"created_on":"2025-01-22T16:10:57.791Z","created_by_id":"019372de-17ef-7cc2-8fc0-43fe11ba042f","modified_on":"2025-01-22T16:10:57.791Z","modified_by_id":null,"deleted_on":null,"deleted_by_id":null,"tenant_id":"00000000-0000-0000-0000-000000000000","profile_id":"0193a649-e3d0-7881-8b7f-2ef1d89a9aff","status":"pending","command":"ScheduleTransferCommand","command_data":{"data":{"start_date":"2025-01-22T17:10:55.635Z","end_date":"2025-01-30T23:59:59.999Z","type":"transfer","frequency":"weekly","account_id":"0193a699-2f15-7881-8b7f-ae50980bcfad","pin":"1234","recipients":[{"narration":"","amount":3000,"account_number":"0000000108","account_name":"Profile","bank_name":"NORTHQUEST FINANCE COMPANY LIMITED ","bank_code":"050030"}]}},"maker_id":"019372de-17ef-7cc2-8fc0-43fe11ba042f","made_on":"2025-01-22T16:10:57.790Z","checker_id":null,"checked_on":null,"maker_checker_id":"0193df18-702c-7ddc-9298-482c857161b9","reason":null}],"meta":{"page":1,"total_pages":14,"total_items":139}}