{"status":"success","data":[{"id":"01926788-704b-7336-86de-a5f24f6e9083","meta":null,"created_on":"2024-10-07T15:10:47.882Z","created_by_id":null,"modified_on":"2024-10-07T15:10:47.882Z","modified_by_id":null,"deleted_on":null,"deleted_by_id":null,"name":"Owner","slug":"owner","description":"Owner","status":"active","profile_id":null,"tenant_id":null,"userCount":3,"user_count":3},{"id":"01926788-56f8-7336-86de-98a2678c8611","meta":null,"created_on":"2024-10-07T15:10:41.400Z","created_by_id":null,"modified_on":"2024-10-07T15:10:41.400Z","modified_by_id":null,"deleted_on":null,"deleted_by_id":null,"name":"Authorizer","slug":"authorizer","description":"Authorizer","status":"active","profile_id":null,"tenant_id":null,"userCount":2,"user_count":2},{"id":"01926788-3c4b-7336-86de-90ae20285abb","meta":null,"created_on":"2024-10-07T15:10:34.474Z","created_by_id":null,"modified_on":"2024-10-07T15:10:34.474Z","modified_by_id":null,"deleted_on":null,"deleted_by_id":null,"name":"Viewer","slug":"viewer","description":"Viewer","status":"active","profile_id":null,"tenant_id":null,"userCount":0,"user_count":0},{"id":"01926788-1eaf-7336-86de-89316b9797d9","meta":null,"created_on":"2024-10-07T15:10:26.980Z","created_by_id":null,"modified_on":"2024-10-07T15:10:26.980Z","modified_by_id":null,"deleted_on":null,"deleted_by_id":null,"name":"Initiator","slug":"initiator","description":"Initiator","status":"active","profile_id":null,"tenant_id":null,"userCount":5,"user_count":5},{"id":"019485a0-e971-7886-8c7b-57eec9197a22","meta":null,"created_on":"2025-01-20T21:31:42.832Z","created_by_id":"019372de-17ef-7cc2-8fc0-43fe11ba042f","modified_on":"2025-01-20T22:46:31.979Z","modified_by_id":"019372de-17ef-7cc2-8fc0-43fe11ba042f","deleted_on":null,"deleted_by_id":null,"name":"caesarsage","slug":"caesarsage","description":"testing from uix","status":"active","profile_id":"0193a649-e3d0-7881-8b7f-2ef1d89a9aff","tenant_id":"00000000-0000-0000-0000-000000000000","userCount":0,"user_count":0},{"id":"019435d1-02dd-7aa1-b635-ce8df84783c8","meta":null,"created_on":"2025-01-05T09:34:37.788Z","created_by_id":null,"modified_on":"2025-01-20T02:44:09.839Z","modified_by_id":"019372de-17ef-7cc2-8fc0-43fe11ba042f","deleted_on":null,"deleted_by_id":null,"name":"Sleek Soft Pizza","slug":"sleek-soft-pizza","description":"Senior","status":"inactive","profile_id":"0193a649-e3d0-7881-8b7f-2ef1d89a9aff","tenant_id":"00000000-0000-0000-0000-000000000000","userCount":2,"user_count":2},{"id":"0193db10-15de-7443-b5ef-dd5c807480a8","meta":null,"created_on":"2024-12-18T18:38:04.653Z","created_by_id":null,"modified_on":"2025-01-20T02:42:22.922Z","modified_by_id":"019372de-17ef-7cc2-8fc0-43fe11ba042f","deleted_on":null,"deleted_by_id":null,"name":"Intern tester","slug":"intern-tester","description":"","status":"inactive","profile_id":"0193a649-e3d0-7881-8b7f-2ef1d89a9aff","tenant_id":"00000000-0000-0000-0000-000000000000","userCount":0,"user_count":0},{"id":"0194641a-d80e-7447-abf5-d6d785fb13b3","meta":null,"created_on":"2025-01-14T09:17:48.429Z","created_by_id":null,"modified_on":"2025-01-20T02:42:45.654Z","modified_by_id":"019372de-17ef-7cc2-8fc0-43fe11ba042f","deleted_on":null,"deleted_by_id":null,"name":"Demo test","slug":"demo-test","description":"Testing this feature ","status":"inactive","profile_id":"0193a649-e3d0-7881-8b7f-2ef1d89a9aff","tenant_id":"00000000-0000-0000-0000-000000000000","userCount":0,"user_count":0},{"id":"019435cb-8e7d-7aa1-b635-ad7f79da04bf","meta":null,"created_on":"2025-01-05T09:28:40.316Z","created_by_id":null,"modified_on":"2025-01-20T02:43:19.371Z","modified_by_id":"019372de-17ef-7cc2-8fc0-43fe11ba042f","deleted_on":null,"deleted_by_id":null,"name":"Intelligent Rubber Computer","slug":"intelligent-rubber-computer","description":"Regional","status":"inactive","profile_id":"0193a649-e3d0-7881-8b7f-2ef1d89a9aff","tenant_id":"00000000-0000-0000-0000-000000000000","userCount":3,"user_count":3},{"id":"01946928-8dfe-777b-9e0d-a26ee1339fab","meta":null,"created_on":"2025-01-15T08:50:53.055Z","created_by_id":null,"modified_on":"2025-01-20T02:44:31.221Z","modified_by_id":"019372de-17ef-7cc2-8fc0-43fe11ba042f","deleted_on":null,"deleted_by_id":null,"name":"Test","slug":"test","description":"Testing","status":"inactive","profile_id":"0193a649-e3d0-7881-8b7f-2ef1d89a9aff","tenant_id":"00000000-0000-0000-0000-000000000000","userCount":0,"user_count":0}],"meta":{"page":1,"total_pages":3,"total_items":28}}