{"status":"success","data":[{"id":"0193b658-71c7-7880-8112-cbc755ef85fc","meta":null,"created_on":"2024-12-11T15:31:09.895Z","created_by":"019317a0-b7e5-7eeb-a7eb-bd18cf39a633","modified_on":"2024-12-11T15:31:09.895Z","modified_by":null,"deleted_on":null,"deleted_by":null,"tenant_id":"00000000-0000-0000-0000-000000000000","account_id":"0193912b-6f5e-7335-b5bc-3302dcc08103","profile_id":"01931947-9fea-744d-8f66-118c138292e3","currency":"NGN","amount":"10.00","reference":"Tloyblnorea","processor_reference":null,"processor_status":null,"processor_message":null,"status":"processing","entry_type":"debit","narration":"Sodiq","transaction_date":"2024-12-11T15:31:09.894Z","transaction_type":"fee","processor":"cba","reviewed_on":null,"reviewed_by":null,"batch_id":null,"schedule_id":null,"transfer":null,"transfer_beneficiary":null,"bill_payment_beneficiary":null,"disputes":[],"batch":null,"account":{"id":"0193912b-6f5e-7335-b5bc-3302dcc08103","meta":null,"created_on":"2024-12-04T10:16:03.166Z","created_by":null,"modified_on":"2024-12-11T15:31:09.374Z","modified_by":null,"deleted_on":null,"deleted_by":null,"tenant_id":"00000000-0000-0000-0000-000000000000","name":"Education","cba_id":"0000000041","profile_id":"01931947-9fea-744d-8f66-118c138292e3","account_number":"0000000041","ledger_balance":"4340.84","hold_balance":"0.00","available_balance":"4340.84","currency":"NGN","restricted":false}},{"id":"0193b658-71bd-7880-8112-ba7364eacdc3","meta":null,"created_on":"2024-12-11T15:31:09.885Z","created_by":"019317a0-b7e5-7eeb-a7eb-bd18cf39a633","modified_on":"2024-12-11T15:31:10.395Z","modified_by":null,"deleted_on":null,"deleted_by":null,"tenant_id":"00000000-0000-0000-0000-000000000000","account_id":"0193912b-6f5e-7335-b5bc-3302dcc08103","profile_id":"01931947-9fea-744d-8f66-118c138292e3","currency":"NGN","amount":"100.00","reference":"Tloyblnorea","processor_reference":null,"processor_status":null,"processor_message":null,"status":"success","entry_type":"debit","narration":"Sodiq","transaction_date":"2024-12-11T15:31:09.876Z","transaction_type":"transfer","processor":"cba","reviewed_on":null,"reviewed_by":null,"batch_id":null,"schedule_id":null,"transfer":{"id":"0193b658-71c0-7880-8112-c027ff1c7ca2","meta":null,"created_on":"2024-12-11T15:31:09.885Z","created_by":"019317a0-b7e5-7eeb-a7eb-bd18cf39a633","modified_on":"2024-12-11T15:31:09.885Z","modified_by":null,"deleted_on":null,"deleted_by":null,"tenant_id":"00000000-0000-0000-0000-000000000000","bank_code":"050030","bank_name":"NORTHQUEST FINANCE COMPANY LIMITED ","account_name":"Eazi Wallet","account_number":"0000000074","profile_id":"01931947-9fea-744d-8f66-118c138292e3","transaction_id":"0193b658-71bd-7880-8112-ba7364eacdc3","account_id":"0193912b-6f5e-7335-b5bc-3302dcc08103"},"transfer_beneficiary":null,"bill_payment_beneficiary":null,"disputes":[],"batch":null,"account":{"id":"0193912b-6f5e-7335-b5bc-3302dcc08103","meta":null,"created_on":"2024-12-04T10:16:03.166Z","created_by":null,"modified_on":"2024-12-11T15:31:09.374Z","modified_by":null,"deleted_on":null,"deleted_by":null,"tenant_id":"00000000-0000-0000-0000-000000000000","name":"Education","cba_id":"0000000041","profile_id":"01931947-9fea-744d-8f66-118c138292e3","account_number":"0000000041","ledger_balance":"4340.84","hold_balance":"0.00","available_balance":"4340.84","currency":"NGN","restricted":false}},{"id":"0193b644-647f-7880-8112-3229f8f58f08","meta":null,"created_on":"2024-12-11T15:09:15.776Z","created_by":"019317a0-b7e5-7eeb-a7eb-bd18cf39a633","modified_on":"2024-12-11T15:09:15.776Z","modified_by":null,"deleted_on":null,"deleted_by":null,"tenant_id":"00000000-0000-0000-0000-000000000000","account_id":"0193912b-6f5e-7335-b5bc-3302dcc08103","profile_id":"01931947-9fea-744d-8f66-118c138292e3","currency":"NGN","amount":"10.00","reference":"Tlavyokzhyy","processor_reference":null,"processor_status":null,"processor_message":null,"status":"processing","entry_type":"debit","narration":"Sodiq","transaction_date":"2024-12-11T15:09:15.775Z","transaction_type":"fee","processor":"cba","reviewed_on":null,"reviewed_by":null,"batch_id":null,"schedule_id":null,"transfer":null,"transfer_beneficiary":null,"bill_payment_beneficiary":null,"disputes":[],"batch":null,"account":{"id":"0193912b-6f5e-7335-b5bc-3302dcc08103","meta":null,"created_on":"2024-12-04T10:16:03.166Z","created_by":null,"modified_on":"2024-12-11T15:31:09.374Z","modified_by":null,"deleted_on":null,"deleted_by":null,"tenant_id":"00000000-0000-0000-0000-000000000000","name":"Education","cba_id":"0000000041","profile_id":"01931947-9fea-744d-8f66-118c138292e3","account_number":"0000000041","ledger_balance":"4340.84","hold_balance":"0.00","available_balance":"4340.84","currency":"NGN","restricted":false}},{"id":"0193b644-6475-7880-8112-22f078f61d7b","meta":null,"created_on":"2024-12-11T15:09:15.765Z","created_by":"019317a0-b7e5-7eeb-a7eb-bd18cf39a633","modified_on":"2024-12-11T15:09:16.415Z","modified_by":null,"deleted_on":null,"deleted_by":null,"tenant_id":"00000000-0000-0000-0000-000000000000","account_id":"0193912b-6f5e-7335-b5bc-3302dcc08103","profile_id":"01931947-9fea-744d-8f66-118c138292e3","currency":"NGN","amount":"100.00","reference":"Tlavyokzhyy","processor_reference":null,"processor_status":null,"processor_message":null,"status":"success","entry_type":"debit","narration":"Sodiq","transaction_date":"2024-12-11T15:09:15.757Z","transaction_type":"transfer","processor":"cba","reviewed_on":null,"reviewed_by":null,"batch_id":null,"schedule_id":null,"transfer":{"id":"0193b644-6479-7880-8112-2c88d05437a2","meta":null,"created_on":"2024-12-11T15:09:15.765Z","created_by":"019317a0-b7e5-7eeb-a7eb-bd18cf39a633","modified_on":"2024-12-11T15:09:15.765Z","modified_by":null,"deleted_on":null,"deleted_by":null,"tenant_id":"00000000-0000-0000-0000-000000000000","bank_code":"050030","bank_name":"NORTHQUEST FINANCE COMPANY LIMITED ","account_name":"Eazi Wallet","account_number":"0000000074","profile_id":"01931947-9fea-744d-8f66-118c138292e3","transaction_id":"0193b644-6475-7880-8112-22f078f61d7b","account_id":"0193912b-6f5e-7335-b5bc-3302dcc08103"},"transfer_beneficiary":null,"bill_payment_beneficiary":null,"disputes":[],"batch":null,"account":{"id":"0193912b-6f5e-7335-b5bc-3302dcc08103","meta":null,"created_on":"2024-12-04T10:16:03.166Z","created_by":null,"modified_on":"2024-12-11T15:31:09.374Z","modified_by":null,"deleted_on":null,"deleted_by":null,"tenant_id":"00000000-0000-0000-0000-000000000000","name":"Education","cba_id":"0000000041","profile_id":"01931947-9fea-744d-8f66-118c138292e3","account_number":"0000000041","ledger_balance":"4340.84","hold_balance":"0.00","available_balance":"4340.84","currency":"NGN","restricted":false}},{"id":"0193b5f3-435c-7880-8111-652a315a13d3","meta":null,"created_on":"2024-12-11T13:40:38.877Z","created_by":"019317a0-b7e5-7eeb-a7eb-bd18cf39a633","modified_on":"2024-12-11T13:40:38.877Z","modified_by":null,"deleted_on":null,"deleted_by":null,"tenant_id":"00000000-0000-0000-0000-000000000000","account_id":"0193912b-6f5e-7335-b5bc-3302dcc08103","profile_id":"01931947-9fea-744d-8f66-118c138292e3","currency":"NGN","amount":"10.00","reference":"Tkbgtpddofd","processor_reference":null,"processor_status":null,"processor_message":null,"status":"processing","entry_type":"debit","narration":"Sodiq","transaction_date":"2024-12-11T13:40:38.876Z","transaction_type":"fee","processor":"cba","reviewed_on":null,"reviewed_by":null,"batch_id":null,"schedule_id":null,"transfer":null,"transfer_beneficiary":null,"bill_payment_beneficiary":null,"disputes":[],"batch":null,"account":{"id":"0193912b-6f5e-7335-b5bc-3302dcc08103","meta":null,"created_on":"2024-12-04T10:16:03.166Z","created_by":null,"modified_on":"2024-12-11T15:31:09.374Z","modified_by":null,"deleted_on":null,"deleted_by":null,"tenant_id":"00000000-0000-0000-0000-000000000000","name":"Education","cba_id":"0000000041","profile_id":"01931947-9fea-744d-8f66-118c138292e3","account_number":"0000000041","ledger_balance":"4340.84","hold_balance":"0.00","available_balance":"4340.84","currency":"NGN","restricted":false}},{"id":"0193b5f3-4350-7880-8111-547905f78ebd","meta":null,"created_on":"2024-12-11T13:40:38.865Z","created_by":"019317a0-b7e5-7eeb-a7eb-bd18cf39a633","modified_on":"2024-12-11T13:40:39.438Z","modified_by":null,"deleted_on":null,"deleted_by":null,"tenant_id":"00000000-0000-0000-0000-000000000000","account_id":"0193912b-6f5e-7335-b5bc-3302dcc08103","profile_id":"01931947-9fea-744d-8f66-118c138292e3","currency":"NGN","amount":"100.00","reference":"Tkbgtpddofd","processor_reference":null,"processor_status":null,"processor_message":null,"status":"success","entry_type":"debit","narration":"Sodiq","transaction_date":"2024-12-11T13:40:38.857Z","transaction_type":"transfer","processor":"cba","reviewed_on":null,"reviewed_by":null,"batch_id":null,"schedule_id":null,"transfer":{"id":"0193b5f3-4354-7880-8111-5a7d7914432e","meta":null,"created_on":"2024-12-11T13:40:38.865Z","created_by":"019317a0-b7e5-7eeb-a7eb-bd18cf39a633","modified_on":"2024-12-11T13:40:38.865Z","modified_by":null,"deleted_on":null,"deleted_by":null,"tenant_id":"00000000-0000-0000-0000-000000000000","bank_code":"050030","bank_name":"NORTHQUEST FINANCE COMPANY LIMITED ","account_name":"Eazi Wallet","account_number":"0000000074","profile_id":"01931947-9fea-744d-8f66-118c138292e3","transaction_id":"0193b5f3-4350-7880-8111-547905f78ebd","account_id":"0193912b-6f5e-7335-b5bc-3302dcc08103"},"transfer_beneficiary":null,"bill_payment_beneficiary":null,"disputes":[],"batch":null,"account":{"id":"0193912b-6f5e-7335-b5bc-3302dcc08103","meta":null,"created_on":"2024-12-04T10:16:03.166Z","created_by":null,"modified_on":"2024-12-11T15:31:09.374Z","modified_by":null,"deleted_on":null,"deleted_by":null,"tenant_id":"00000000-0000-0000-0000-000000000000","name":"Education","cba_id":"0000000041","profile_id":"01931947-9fea-744d-8f66-118c138292e3","account_number":"0000000041","ledger_balance":"4340.84","hold_balance":"0.00","available_balance":"4340.84","currency":"NGN","restricted":false}},{"id":"0193b5df-f6ac-7880-8110-cfffdab818a2","meta":null,"created_on":"2024-12-11T13:19:34.061Z","created_by":"019317a0-b7e5-7eeb-a7eb-bd18cf39a633","modified_on":"2024-12-11T13:19:34.061Z","modified_by":null,"deleted_on":null,"deleted_by":null,"tenant_id":"00000000-0000-0000-0000-000000000000","account_id":"0193912b-6f5e-7335-b5bc-3302dcc08103","profile_id":"01931947-9fea-744d-8f66-118c138292e3","currency":"NGN","amount":"10.00","reference":"Tesncxhvqsz","processor_reference":null,"processor_status":null,"processor_message":null,"status":"processing","entry_type":"debit","narration":"Sodiq","transaction_date":"2024-12-11T13:19:34.059Z","transaction_type":"fee","processor":"cba","reviewed_on":null,"reviewed_by":null,"batch_id":null,"schedule_id":null,"transfer":null,"transfer_beneficiary":null,"bill_payment_beneficiary":null,"disputes":[],"batch":null,"account":{"id":"0193912b-6f5e-7335-b5bc-3302dcc08103","meta":null,"created_on":"2024-12-04T10:16:03.166Z","created_by":null,"modified_on":"2024-12-11T15:31:09.374Z","modified_by":null,"deleted_on":null,"deleted_by":null,"tenant_id":"00000000-0000-0000-0000-000000000000","name":"Education","cba_id":"0000000041","profile_id":"01931947-9fea-744d-8f66-118c138292e3","account_number":"0000000041","ledger_balance":"4340.84","hold_balance":"0.00","available_balance":"4340.84","currency":"NGN","restricted":false}},{"id":"0193b5df-f6a2-7880-8110-bf017031797b","meta":null,"created_on":"2024-12-11T13:19:34.049Z","created_by":"019317a0-b7e5-7eeb-a7eb-bd18cf39a633","modified_on":"2024-12-11T13:19:34.689Z","modified_by":null,"deleted_on":null,"deleted_by":null,"tenant_id":"00000000-0000-0000-0000-000000000000","account_id":"0193912b-6f5e-7335-b5bc-3302dcc08103","profile_id":"01931947-9fea-744d-8f66-118c138292e3","currency":"NGN","amount":"100.00","reference":"Tesncxhvqsz","processor_reference":null,"processor_status":null,"processor_message":null,"status":"success","entry_type":"debit","narration":"Sodiq","transaction_date":"2024-12-11T13:19:33.963Z","transaction_type":"transfer","processor":"cba","reviewed_on":null,"reviewed_by":null,"batch_id":null,"schedule_id":null,"transfer":{"id":"0193b5df-f6a5-7880-8110-c301edee63df","meta":null,"created_on":"2024-12-11T13:19:34.049Z","created_by":"019317a0-b7e5-7eeb-a7eb-bd18cf39a633","modified_on":"2024-12-11T13:19:34.049Z","modified_by":null,"deleted_on":null,"deleted_by":null,"tenant_id":"00000000-0000-0000-0000-000000000000","bank_code":"050030","bank_name":"NORTHQUEST FINANCE COMPANY LIMITED ","account_name":"Eazi Wallet","account_number":"0000000074","profile_id":"01931947-9fea-744d-8f66-118c138292e3","transaction_id":"0193b5df-f6a2-7880-8110-bf017031797b","account_id":"0193912b-6f5e-7335-b5bc-3302dcc08103"},"transfer_beneficiary":null,"bill_payment_beneficiary":null,"disputes":[],"batch":null,"account":{"id":"0193912b-6f5e-7335-b5bc-3302dcc08103","meta":null,"created_on":"2024-12-04T10:16:03.166Z","created_by":null,"modified_on":"2024-12-11T15:31:09.374Z","modified_by":null,"deleted_on":null,"deleted_by":null,"tenant_id":"00000000-0000-0000-0000-000000000000","name":"Education","cba_id":"0000000041","profile_id":"01931947-9fea-744d-8f66-118c138292e3","account_number":"0000000041","ledger_balance":"4340.84","hold_balance":"0.00","available_balance":"4340.84","currency":"NGN","restricted":false}},{"id":"0193b148-9670-711f-a667-31271ba4cb84","meta":null,"created_on":"2024-12-10T15:55:44.622Z","created_by":"019317a0-b7e5-7eeb-a7eb-bd18cf39a633","modified_on":"2024-12-10T15:55:44.622Z","modified_by":null,"deleted_on":null,"deleted_by":null,"tenant_id":"00000000-0000-0000-0000-000000000000","account_id":"019390f5-db96-7335-b5bb-74eac1376a9c","profile_id":"01931947-9fea-744d-8f66-118c138292e3","currency":"NGN","amount":"10.00","reference":"Tfgzgqjurmw","processor_reference":null,"processor_status":null,"processor_message":null,"status":"processing","entry_type":"debit","narration":"Sodiq","transaction_date":"2024-12-10T15:55:44.618Z","transaction_type":"fee","processor":"cba","reviewed_on":null,"reviewed_by":null,"batch_id":null,"schedule_id":null,"transfer":null,"transfer_beneficiary":null,"bill_payment_beneficiary":null,"disputes":[],"batch":null,"account":{"id":"019390f5-db96-7335-b5bb-74eac1376a9c","meta":null,"created_on":"2024-12-04T09:17:31.925Z","created_by":null,"modified_on":"2024-12-11T02:33:47.390Z","modified_by":null,"deleted_on":null,"deleted_by":null,"tenant_id":"00000000-0000-0000-0000-000000000000","name":"Travel","cba_id":"0000000040","profile_id":"01931947-9fea-744d-8f66-118c138292e3","account_number":"0000000040","ledger_balance":"984010.09","hold_balance":"0.00","available_balance":"984010.09","currency":"NGN","restricted":false}},{"id":"0193b148-9669-711f-a667-24df794b755c","meta":null,"created_on":"2024-12-10T15:55:44.616Z","created_by":"019317a0-b7e5-7eeb-a7eb-bd18cf39a633","modified_on":"2024-12-10T15:55:44.616Z","modified_by":null,"deleted_on":null,"deleted_by":null,"tenant_id":"00000000-0000-0000-0000-000000000000","account_id":"019390f5-db96-7335-b5bb-74eac1376a9c","profile_id":"01931947-9fea-744d-8f66-118c138292e3","currency":"NGN","amount":"10.00","reference":"Tiizwbyrokl","processor_reference":null,"processor_status":null,"processor_message":null,"status":"processing","entry_type":"debit","narration":"Sodiq","transaction_date":"2024-12-10T15:55:44.614Z","transaction_type":"fee","processor":"cba","reviewed_on":null,"reviewed_by":null,"batch_id":null,"schedule_id":null,"transfer":null,"transfer_beneficiary":null,"bill_payment_beneficiary":null,"disputes":[],"batch":null,"account":{"id":"019390f5-db96-7335-b5bb-74eac1376a9c","meta":null,"created_on":"2024-12-04T09:17:31.925Z","created_by":null,"modified_on":"2024-12-11T02:33:47.390Z","modified_by":null,"deleted_on":null,"deleted_by":null,"tenant_id":"00000000-0000-0000-0000-000000000000","name":"Travel","cba_id":"0000000040","profile_id":"01931947-9fea-744d-8f66-118c138292e3","account_number":"0000000040","ledger_balance":"984010.09","hold_balance":"0.00","available_balance":"984010.09","currency":"NGN","restricted":false}}],"meta":{"page":1,"total_pages":126,"total_items":1258}}