{"status":"success","data":[{"id":"0195f7d3-0af6-7887-ab28-45230d8d5c14","meta":null,"created_on":"2025-04-02T18:45:58.130Z","created_by_id":"019372de-17ef-7cc2-8fc0-43fe11ba042f","modified_on":"2025-04-02T18:45:58.130Z","modified_by_id":null,"deleted_on":null,"deleted_by_id":null,"tenant_id":"00000000-0000-0000-0000-000000000000","user_id":"019372de-17ef-7cc2-8fc0-43fe11ba042f","body":"Your beneficiary John Doe has been successfully added to your account.","title":"Add beneficiary","type":"push","status":"sent"},{"id":"0195f7d2-b2b3-7887-ab27-bead7b47dba1","meta":null,"created_on":"2025-04-02T18:45:35.535Z","created_by_id":"019372de-17ef-7cc2-8fc0-43fe11ba042f","modified_on":"2025-04-02T18:45:35.535Z","modified_by_id":null,"deleted_on":null,"deleted_by_id":null,"tenant_id":"00000000-0000-0000-0000-000000000000","user_id":"019372de-17ef-7cc2-8fc0-43fe11ba042f","body":"The Maker-Checker feature has been enabled. Actions created by one user will require approval by a different user to be processed","title":"Maker-checker Enabled","type":"push","status":"sent"},{"id":"0195f51d-a678-7887-ab17-deab827a5563","meta":null,"created_on":"2025-04-02T06:08:35.961Z","created_by_id":"019372de-17ef-7cc2-8fc0-43fe11ba042f","modified_on":"2025-04-02T06:08:35.961Z","modified_by_id":null,"deleted_on":null,"deleted_by_id":null,"tenant_id":"00000000-0000-0000-0000-000000000000","user_id":"019372de-17ef-7cc2-8fc0-43fe11ba042f","body":"Your beneficiary John Doe has been successfully added to your account.","title":"Add beneficiary","type":"push","status":"sent"},{"id":"0195f51d-6b06-7887-ab17-59732d89809d","meta":null,"created_on":"2025-04-02T06:08:20.741Z","created_by_id":"019372de-17ef-7cc2-8fc0-43fe11ba042f","modified_on":"2025-04-02T06:08:20.741Z","modified_by_id":null,"deleted_on":null,"deleted_by_id":null,"tenant_id":"00000000-0000-0000-0000-000000000000","user_id":"019372de-17ef-7cc2-8fc0-43fe11ba042f","body":"The Maker-Checker feature has been enabled. Actions created by one user will require approval by a different user to be processed","title":"Maker-checker Enabled","type":"push","status":"sent"},{"id":"0195f50e-586d-7887-ab14-9ac270f51ae5","meta":null,"created_on":"2025-04-02T05:51:52.938Z","created_by_id":"019372de-17ef-7cc2-8fc0-43fe11ba042f","modified_on":"2025-04-02T05:51:52.938Z","modified_by_id":null,"deleted_on":null,"deleted_by_id":null,"tenant_id":"00000000-0000-0000-0000-000000000000","user_id":"019372de-17ef-7cc2-8fc0-43fe11ba042f","body":"Your beneficiary John Doe has been successfully added to your account.","title":"Add beneficiary","type":"push","status":"sent"},{"id":"0195f50e-5811-7887-ab14-9623cbeba6ed","meta":null,"created_on":"2025-04-02T05:51:52.844Z","created_by_id":"019372de-17ef-7cc2-8fc0-43fe11ba042f","modified_on":"2025-04-02T05:51:52.844Z","modified_by_id":null,"deleted_on":null,"deleted_by_id":null,"tenant_id":"00000000-0000-0000-0000-000000000000","user_id":"019372de-17ef-7cc2-8fc0-43fe11ba042f","body":"Your beneficiary John Doe has been successfully added to your account.","title":"Add beneficiary","type":"push","status":"sent"},{"id":"0195f50d-f3a4-7887-ab13-cc3e813d6ac0","meta":null,"created_on":"2025-04-02T05:51:27.139Z","created_by_id":"019372de-17ef-7cc2-8fc0-43fe11ba042f","modified_on":"2025-04-02T05:51:27.139Z","modified_by_id":null,"deleted_on":null,"deleted_by_id":null,"tenant_id":"00000000-0000-0000-0000-000000000000","user_id":"019372de-17ef-7cc2-8fc0-43fe11ba042f","body":"The Maker-Checker feature has been enabled. Actions created by one user will require approval by a different user to be processed","title":"Maker-checker Enabled","type":"push","status":"sent"},{"id":"0195f4c0-502b-7553-b03b-754eebe8d5db","meta":null,"created_on":"2025-04-02T04:26:39.020Z","created_by_id":"019372de-17ef-7cc2-8fc0-43fe11ba042f","modified_on":"2025-04-02T04:26:39.020Z","modified_by_id":null,"deleted_on":null,"deleted_by_id":null,"tenant_id":"00000000-0000-0000-0000-000000000000","user_id":"019372de-17ef-7cc2-8fc0-43fe11ba042f","body":"Your beneficiary John Doe has been removed successfully from your account.","title":"Remove beneficiary","type":"push","status":"sent"},{"id":"0195f4be-6575-7553-b03b-66d09ff555a1","meta":null,"created_on":"2025-04-02T04:24:33.397Z","created_by_id":"019372de-17ef-7cc2-8fc0-43fe11ba042f","modified_on":"2025-04-02T04:24:33.397Z","modified_by_id":null,"deleted_on":null,"deleted_by_id":null,"tenant_id":"00000000-0000-0000-0000-000000000000","user_id":"019372de-17ef-7cc2-8fc0-43fe11ba042f","body":"Your beneficiary John Doe has been successfully added to your account.","title":"Add beneficiary","type":"push","status":"sent"},{"id":"0195f4bd-22bf-7553-b03b-44d7891c9635","meta":null,"created_on":"2025-04-02T04:23:10.779Z","created_by_id":"019372de-17ef-7cc2-8fc0-43fe11ba042f","modified_on":"2025-04-02T04:23:10.779Z","modified_by_id":null,"deleted_on":null,"deleted_by_id":null,"tenant_id":"00000000-0000-0000-0000-000000000000","user_id":"019372de-17ef-7cc2-8fc0-43fe11ba042f","body":"Your beneficiary John Doe has been successfully added to your account.","title":"Add beneficiary","type":"push","status":"sent"}],"meta":{"page":1,"total_pages":14,"total_items":138}}