{"status":"success","data":[{"id":"0195c46b-c42e-7449-b824-fc4584beb84f","meta":null,"created_on":"2025-03-23T19:12:31.890Z","created_by_id":"019372de-17ef-7cc2-8fc0-43fe11ba042f","modified_on":"2025-03-23T19:12:31.890Z","modified_by_id":null,"deleted_on":null,"deleted_by_id":null,"tenant_id":"00000000-0000-0000-0000-000000000000","profile_id":"0193a649-e3d0-7881-8b7f-2ef1d89a9aff","status":"pending","command":"PayBillPaymentCommand","command_data":{"categoryId":"cabletv","billerId":"dstv","data":{"account_id":"0193a699-2f15-7881-8b7f-ae50980bcfad","account_number":"7030935900","option_id":"ng_dstv_asiae36","amount":14900,"liveness_session_id":"","pin":"1234"}},"maker_id":"019372de-17ef-7cc2-8fc0-43fe11ba042f","made_on":"2025-03-23T19:12:31.569Z","checker_id":null,"checked_on":null,"maker_checker_id":"0193df18-702c-7ddc-9298-482c857161b9","reason":null},{"id":"0195afc9-81c5-788b-a91d-b9e3056af0ac","meta":null,"created_on":"2025-03-19T19:02:53.636Z","created_by_id":"019372de-17ef-7cc2-8fc0-43fe11ba042f","modified_on":"2025-03-21T18:43:38.703Z","modified_by_id":"019372de-17ef-7cc2-8fc0-43fe11ba042f","deleted_on":null,"deleted_by_id":null,"tenant_id":"00000000-0000-0000-0000-000000000000","profile_id":"0193a649-e3d0-7881-8b7f-2ef1d89a9aff","status":"rejected","command":"PayBillPaymentCommand","command_data":{"categoryId":"airtime","billerId":"mtn","data":{"account_number":"09055755671","amount":100,"pin":"1234","account_id":"0193a699-2f15-7881-8b7f-ae50980bcfad"}},"maker_id":"019372de-17ef-7cc2-8fc0-43fe11ba042f","made_on":"2025-03-19T19:02:53.635Z","checker_id":"019372de-17ef-7cc2-8fc0-43fe11ba042f","checked_on":null,"maker_checker_id":"0193df18-702c-7ddc-9298-482c857161b9","reason":"Test"},{"id":"0195afbc-1f34-788b-a91c-fa26371ff498","meta":null,"created_on":"2025-03-19T18:48:16.435Z","created_by_id":"019372de-17ef-7cc2-8fc0-43fe11ba042f","modified_on":"2025-03-19T18:48:16.435Z","modified_by_id":null,"deleted_on":null,"deleted_by_id":null,"tenant_id":"00000000-0000-0000-0000-000000000000","profile_id":"0193a649-e3d0-7881-8b7f-2ef1d89a9aff","status":"pending","command":"PayBillPaymentCommand","command_data":{"categoryId":"cabletv","billerId":"dstv","data":{"account_number":"1102003467","amount":29300,"option_id":"PRWFRNSE36","pin":"1234","account_id":"0193a699-2f15-7881-8b7f-ae50980bcfad"}},"maker_id":"019372de-17ef-7cc2-8fc0-43fe11ba042f","made_on":"2025-03-19T18:48:16.435Z","checker_id":null,"checked_on":null,"maker_checker_id":"0193df18-702c-7ddc-9298-482c857161b9","reason":null},{"id":"0195afbc-0f40-788b-a91c-eaf398b1382e","meta":null,"created_on":"2025-03-19T18:48:12.351Z","created_by_id":"019372de-17ef-7cc2-8fc0-43fe11ba042f","modified_on":"2025-03-19T18:48:12.351Z","modified_by_id":null,"deleted_on":null,"deleted_by_id":null,"tenant_id":"00000000-0000-0000-0000-000000000000","profile_id":"0193a649-e3d0-7881-8b7f-2ef1d89a9aff","status":"pending","command":"PayBillPaymentCommand","command_data":{"categoryId":"epin","billerId":"waec","data":{"account_number":"1102003467","amount":1800,"option_id":"1800","pin":"1234","account_id":"0193a699-2f15-7881-8b7f-ae50980bcfad"}},"maker_id":"019372de-17ef-7cc2-8fc0-43fe11ba042f","made_on":"2025-03-19T18:48:12.348Z","checker_id":null,"checked_on":null,"maker_checker_id":"0193df18-702c-7ddc-9298-482c857161b9","reason":null},{"id":"0195afbc-0c0e-788b-a91c-dfe4996d8651","meta":null,"created_on":"2025-03-19T18:48:11.533Z","created_by_id":"019372de-17ef-7cc2-8fc0-43fe11ba042f","modified_on":"2025-03-19T18:48:11.533Z","modified_by_id":null,"deleted_on":null,"deleted_by_id":null,"tenant_id":"00000000-0000-0000-0000-000000000000","profile_id":"0193a649-e3d0-7881-8b7f-2ef1d89a9aff","status":"pending","command":"PayBillPaymentCommand","command_data":{"categoryId":"electricity","billerId":"abuja_electric_postpaid","data":{"account_number":"07034953306","amount":2300,"pin":"1234","account_id":"0193a699-2f15-7881-8b7f-ae50980bcfad"}},"maker_id":"019372de-17ef-7cc2-8fc0-43fe11ba042f","made_on":"2025-03-19T18:48:11.533Z","checker_id":null,"checked_on":null,"maker_checker_id":"0193df18-702c-7ddc-9298-482c857161b9","reason":null},{"id":"0195afbb-fe78-788b-a91c-c850d3d97f99","meta":null,"created_on":"2025-03-19T18:48:08.056Z","created_by_id":"019372de-17ef-7cc2-8fc0-43fe11ba042f","modified_on":"2025-03-19T18:48:08.056Z","modified_by_id":null,"deleted_on":null,"deleted_by_id":null,"tenant_id":"00000000-0000-0000-0000-000000000000","profile_id":"0193a649-e3d0-7881-8b7f-2ef1d89a9aff","status":"pending","command":"PayBillPaymentCommand","command_data":{"categoryId":"cabletv","billerId":"startimes","data":{"account_number":"1102003467","amount":90,"option_id":"novaday","pin":"1234","account_id":"019390f5-db96-7335-b5bb-74eac1376a9c"}},"maker_id":"019372de-17ef-7cc2-8fc0-43fe11ba042f","made_on":"2025-03-19T18:48:08.055Z","checker_id":null,"checked_on":null,"maker_checker_id":"0193df18-702c-7ddc-9298-482c857161b9","reason":null},{"id":"0195afbb-f17d-788b-a91c-985a84b58710","meta":null,"created_on":"2025-03-19T18:48:04.732Z","created_by_id":"019372de-17ef-7cc2-8fc0-43fe11ba042f","modified_on":"2025-03-19T18:48:04.732Z","modified_by_id":null,"deleted_on":null,"deleted_by_id":null,"tenant_id":"00000000-0000-0000-0000-000000000000","profile_id":"0193a649-e3d0-7881-8b7f-2ef1d89a9aff","status":"pending","command":"PayBillPaymentCommand","command_data":{"categoryId":"cabletv","billerId":"gotv","data":{"account_number":"1102003467","amount":900,"option_id":"GOHAN","pin":"1234","account_id":"0193a699-2f15-7881-8b7f-ae50980bcfad"}},"maker_id":"019372de-17ef-7cc2-8fc0-43fe11ba042f","made_on":"2025-03-19T18:48:04.732Z","checker_id":null,"checked_on":null,"maker_checker_id":"0193df18-702c-7ddc-9298-482c857161b9","reason":null},{"id":"0195afbb-e36e-788b-a91c-70df7b61d966","meta":null,"created_on":"2025-03-19T18:48:01.130Z","created_by_id":"019372de-17ef-7cc2-8fc0-43fe11ba042f","modified_on":"2025-03-19T18:48:01.130Z","modified_by_id":null,"deleted_on":null,"deleted_by_id":null,"tenant_id":"00000000-0000-0000-0000-000000000000","profile_id":"0193a649-e3d0-7881-8b7f-2ef1d89a9aff","status":"pending","command":"PayBillPaymentCommand","command_data":{"categoryId":"cabletv","billerId":"dstv","data":{"account_number":"1102003467","amount":5300,"option_id":"NNJ2E36","pin":"1234","account_id":"0193a699-2f15-7881-8b7f-ae50980bcfad"}},"maker_id":"019372de-17ef-7cc2-8fc0-43fe11ba042f","made_on":"2025-03-19T18:48:01.129Z","checker_id":null,"checked_on":null,"maker_checker_id":"0193df18-702c-7ddc-9298-482c857161b9","reason":null},{"id":"0195afbb-decc-788b-a91c-66395382b6f6","meta":null,"created_on":"2025-03-19T18:47:59.947Z","created_by_id":"019372de-17ef-7cc2-8fc0-43fe11ba042f","modified_on":"2025-03-19T18:47:59.947Z","modified_by_id":null,"deleted_on":null,"deleted_by_id":null,"tenant_id":"00000000-0000-0000-0000-000000000000","profile_id":"0193a649-e3d0-7881-8b7f-2ef1d89a9aff","status":"pending","command":"PayBillPaymentCommand","command_data":{"categoryId":"databundle","billerId":"smile","data":{"account_number":"11020034671","amount":1800,"option_id":"101","pin":"1234","account_id":"0193a699-2f15-7881-8b7f-ae50980bcfad"}},"maker_id":"019372de-17ef-7cc2-8fc0-43fe11ba042f","made_on":"2025-03-19T18:47:59.947Z","checker_id":null,"checked_on":null,"maker_checker_id":"0193df18-702c-7ddc-9298-482c857161b9","reason":null},{"id":"0195afbb-dbfb-788b-a91c-563b42065f6f","meta":null,"created_on":"2025-03-19T18:47:59.226Z","created_by_id":"019372de-17ef-7cc2-8fc0-43fe11ba042f","modified_on":"2025-03-19T18:47:59.226Z","modified_by_id":null,"deleted_on":null,"deleted_by_id":null,"tenant_id":"00000000-0000-0000-0000-000000000000","profile_id":"0193a649-e3d0-7881-8b7f-2ef1d89a9aff","status":"pending","command":"PayBillPaymentCommand","command_data":{"categoryId":"databundle","billerId":"9mobile","data":{"account_number":"11020034671","amount":200,"option_id":"200","pin":"1234","account_id":"0193a699-2f15-7881-8b7f-ae50980bcfad"}},"maker_id":"019372de-17ef-7cc2-8fc0-43fe11ba042f","made_on":"2025-03-19T18:47:59.226Z","checker_id":null,"checked_on":null,"maker_checker_id":"0193df18-702c-7ddc-9298-482c857161b9","reason":null}],"meta":{"page":1,"total_pages":64,"total_items":632}}