{"status":"success","data":[{"id":"0194b1b3-c213-7666-8d22-f535b7ea725b","meta":null,"created_on":"2025-01-29T10:55:35.444Z","created_by_id":"01927265-4ed2-79cc-a0e6-e11339a359f3","modified_on":"2025-01-29T10:58:09.966Z","modified_by_id":null,"deleted_on":null,"deleted_by_id":null,"tenant_id":"00000000-0000-0000-0000-000000000000","email":"slake@yopmail.com","status":"active","first_name":"Say","last_name":"less","twofa_enabled":false,"last_active":"2025-01-29T10:58:09.960Z","last_ip":"172.70.90.32","allowed_ips":null,"last_timezone":"Europe/London","last_location":null,"role_id":"01945e2b-41cc-7554-9591-f3f3a36d09bb","role":{"id":"01945e2b-41cc-7554-9591-f3f3a36d09bb","meta":null,"created_on":"2025-01-13T05:38:00.770Z","created_by_id":null,"modified_on":"2025-01-13T05:38:00.770Z","modified_by_id":null,"deleted_on":null,"deleted_by_id":null,"name":"China","slug":"china","description":"Mauritius","status":"active","tenant_id":"00000000-0000-0000-0000-000000000000"}},{"id":"0194b1b1-704a-7666-8d22-ef45db762afd","meta":null,"created_on":"2025-01-29T10:53:03.434Z","created_by_id":"01927265-4ed2-79cc-a0e6-e11339a359f3","modified_on":"2025-01-29T10:53:03.434Z","modified_by_id":null,"deleted_on":null,"deleted_by_id":null,"tenant_id":"00000000-0000-0000-0000-000000000000","email":"Slay@yopmail.com","status":"pending","first_name":null,"last_name":null,"twofa_enabled":false,"last_active":"2025-01-29T10:53:03.434Z","last_ip":null,"allowed_ips":null,"last_timezone":null,"last_location":null,"role_id":"019489a3-563f-7cc8-abea-5077e5cfb91a","role":{"id":"019489a3-563f-7cc8-abea-5077e5cfb91a","meta":null,"created_on":"2025-01-21T16:12:50.623Z","created_by_id":"01927265-4ed2-79cc-a0e6-e11339a359f3","modified_on":"2025-01-29T11:22:42.543Z","modified_by_id":"01927265-4ed2-79cc-a0e6-e11339a359f3","deleted_on":null,"deleted_by_id":null,"name":"Cashier","slug":"cashier","description":"test","status":"active","tenant_id":"00000000-0000-0000-0000-000000000000"}},{"id":"0194a673-66a4-7dd7-aac8-3c86d76c75d2","meta":null,"created_on":"2025-01-27T06:29:28.356Z","created_by_id":"01927265-4ed2-79cc-a0e6-e11339a359f3","modified_on":"2025-01-27T06:29:29.918Z","modified_by_id":null,"deleted_on":null,"deleted_by_id":null,"tenant_id":"00000000-0000-0000-0000-000000000000","email":"Hope_Towne@hotmail.com","status":"active","first_name":"Meggie","last_name":"Reinger","twofa_enabled":false,"last_active":"2025-01-27T06:29:28.356Z","last_ip":null,"allowed_ips":null,"last_timezone":null,"last_location":null,"role_id":"019295e4-b39f-7dd9-892d-46959f7d679d","role":{"id":"019295e4-b39f-7dd9-892d-46959f7d679d","meta":null,"created_on":"2024-10-16T15:14:06.278Z","created_by_id":null,"modified_on":"2024-11-10T16:10:00.176Z","modified_by_id":null,"deleted_on":null,"deleted_by_id":null,"name":"Manager","slug":"manager","description":"Manager","status":"active","tenant_id":"00000000-0000-0000-0000-000000000000"}},{"id":"0194980a-90b5-7dd2-b9a1-71efcb0b72f6","meta":null,"created_on":"2025-01-24T11:20:16.821Z","created_by_id":"01927265-4ed2-79cc-a0e6-e11339a359f3","modified_on":"2025-01-27T06:29:27.848Z","modified_by_id":"01927265-4ed2-79cc-a0e6-e11339a359f3","deleted_on":null,"deleted_by_id":null,"tenant_id":"00000000-0000-0000-0000-000000000000","email":"Yan@yopmail.com","status":"inactive","first_name":"Feee","last_name":"bala","twofa_enabled":false,"last_active":"2025-01-24T11:20:16.821Z","last_ip":null,"allowed_ips":null,"last_timezone":null,"last_location":null,"role_id":"019489a3-563f-7cc8-abea-5077e5cfb91a","role":{"id":"019489a3-563f-7cc8-abea-5077e5cfb91a","meta":null,"created_on":"2025-01-21T16:12:50.623Z","created_by_id":"01927265-4ed2-79cc-a0e6-e11339a359f3","modified_on":"2025-01-29T11:22:42.543Z","modified_by_id":"01927265-4ed2-79cc-a0e6-e11339a359f3","deleted_on":null,"deleted_by_id":null,"name":"Cashier","slug":"cashier","description":"test","status":"active","tenant_id":"00000000-0000-0000-0000-000000000000"}},{"id":"019464f8-9f47-777b-9e06-dc054d12b5af","meta":null,"created_on":"2025-01-14T13:20:02.887Z","created_by_id":null,"modified_on":"2025-01-14T13:20:02.887Z","modified_by_id":null,"deleted_on":null,"deleted_by_id":null,"tenant_id":"00000000-0000-0000-0000-000000000000","email":"ekemenaj@gmail.com","status":"pending","first_name":null,"last_name":null,"twofa_enabled":false,"last_active":"2025-01-14T13:20:02.887Z","last_ip":null,"allowed_ips":null,"last_timezone":null,"last_location":null,"role_id":"01927265-d8bc-7195-996f-e131d5e13339","role":{"id":"01927265-d8bc-7195-996f-e131d5e13339","meta":null,"created_on":"2024-12-02T20:59:05.761Z","created_by_id":null,"modified_on":"2024-12-02T20:59:05.761Z","modified_by_id":null,"deleted_on":null,"deleted_by_id":null,"name":"Admin","slug":"admin","description":"","status":"active","tenant_id":null}},{"id":"019464eb-fe65-777b-9e06-96fe20bc8c06","meta":null,"created_on":"2025-01-14T13:06:15.269Z","created_by_id":null,"modified_on":"2025-01-20T11:21:30.156Z","modified_by_id":"01927265-4ed2-79cc-a0e6-e11339a359f3","deleted_on":null,"deleted_by_id":null,"tenant_id":"00000000-0000-0000-0000-000000000000","email":"sling@yopmail.com","status":"active","first_name":"Adere","last_name":"brain","twofa_enabled":false,"last_active":"2025-01-14T13:06:15.269Z","last_ip":null,"allowed_ips":null,"last_timezone":null,"last_location":null,"role_id":"01945e2a-92c9-7554-9591-68196fe6209f","role":{"id":"01945e2a-92c9-7554-9591-68196fe6209f","meta":null,"created_on":"2025-01-13T05:37:15.977Z","created_by_id":null,"modified_on":"2025-01-13T05:37:15.977Z","modified_by_id":null,"deleted_on":null,"deleted_by_id":null,"name":"implement","slug":"implement","description":"Tunnel","status":"active","tenant_id":"00000000-0000-0000-0000-000000000000"}},{"id":"01945ed1-2370-7ee7-9fcc-07fcd81826e6","meta":null,"created_on":"2025-01-13T08:39:11.984Z","created_by_id":null,"modified_on":"2025-01-17T13:49:34.800Z","modified_by_id":null,"deleted_on":null,"deleted_by_id":null,"tenant_id":"00000000-0000-0000-0000-000000000000","email":"janet@assurdly.com","status":"active","first_name":"Jayne","last_name":"Mena","twofa_enabled":false,"last_active":"2025-01-13T14:34:49.482Z","last_ip":"172.68.186.155","allowed_ips":null,"last_timezone":"Africa/Johannesburg","last_location":null,"role_id":"01927265-d8bc-7195-996f-e131d5e13339","role":{"id":"01927265-d8bc-7195-996f-e131d5e13339","meta":null,"created_on":"2024-12-02T20:59:05.761Z","created_by_id":null,"modified_on":"2024-12-02T20:59:05.761Z","modified_by_id":null,"deleted_on":null,"deleted_by_id":null,"name":"Admin","slug":"admin","description":"","status":"active","tenant_id":null}},{"id":"01945ece-eeff-788f-b9ec-705e5199b59f","meta":null,"created_on":"2025-01-13T08:36:47.487Z","created_by_id":null,"modified_on":"2025-01-13T08:37:04.292Z","modified_by_id":null,"deleted_on":null,"deleted_by_id":null,"tenant_id":"00000000-0000-0000-0000-000000000000","email":"test@gmail.com","status":"active","first_name":null,"last_name":null,"twofa_enabled":false,"last_active":"2025-01-13T08:36:47.487Z","last_ip":null,"allowed_ips":null,"last_timezone":null,"last_location":null,"role_id":"01927265-d8bc-7195-996f-e131d5e13339","role":{"id":"01927265-d8bc-7195-996f-e131d5e13339","meta":null,"created_on":"2024-12-02T20:59:05.761Z","created_by_id":null,"modified_on":"2024-12-02T20:59:05.761Z","modified_by_id":null,"deleted_on":null,"deleted_by_id":null,"name":"Admin","slug":"admin","description":"","status":"active","tenant_id":null}},{"id":"01945e47-8cee-7554-9595-317d48fd063d","meta":null,"created_on":"2025-01-13T06:08:55.022Z","created_by_id":null,"modified_on":"2025-01-13T06:08:56.092Z","modified_by_id":null,"deleted_on":null,"deleted_by_id":null,"tenant_id":"00000000-0000-0000-0000-000000000000","email":"Claudine_Bartell49@gmail.com","status":"active","first_name":"Eldon","last_name":"Kassulke","twofa_enabled":false,"last_active":"2025-01-13T06:08:55.022Z","last_ip":null,"allowed_ips":null,"last_timezone":null,"last_location":null,"role_id":"019295e4-b39f-7dd9-892d-46959f7d679d","role":{"id":"019295e4-b39f-7dd9-892d-46959f7d679d","meta":null,"created_on":"2024-10-16T15:14:06.278Z","created_by_id":null,"modified_on":"2024-11-10T16:10:00.176Z","modified_by_id":null,"deleted_on":null,"deleted_by_id":null,"name":"Manager","slug":"manager","description":"Manager","status":"active","tenant_id":"00000000-0000-0000-0000-000000000000"}},{"id":"01945e32-ac49-7554-9592-a9ff72f7f968","meta":null,"created_on":"2025-01-13T05:46:06.794Z","created_by_id":null,"modified_on":"2025-01-13T05:48:19.133Z","modified_by_id":null,"deleted_on":null,"deleted_by_id":null,"tenant_id":"00000000-0000-0000-0000-000000000000","email":"Scottie97@hotmail.com","status":"inactive","first_name":"Pamela","last_name":"Kilback","twofa_enabled":false,"last_active":"2025-01-13T05:46:06.794Z","last_ip":null,"allowed_ips":null,"last_timezone":null,"last_location":null,"role_id":"019295e4-b39f-7dd9-892d-46959f7d679d","role":{"id":"019295e4-b39f-7dd9-892d-46959f7d679d","meta":null,"created_on":"2024-10-16T15:14:06.278Z","created_by_id":null,"modified_on":"2024-11-10T16:10:00.176Z","modified_by_id":null,"deleted_on":null,"deleted_by_id":null,"name":"Manager","slug":"manager","description":"Manager","status":"active","tenant_id":"00000000-0000-0000-0000-000000000000"}}],"meta":{"page":1,"total_pages":6,"total_items":53}}