{"status":"success","data":[{"id":"0192d2f7-468a-7aac-8d59-19fe3f1dad7b","meta":null,"created_on":"2024-10-28T11:51:13.800Z","created_by_id":null,"modified_on":"2024-10-28T11:51:13.800Z","modified_by_id":null,"deleted_on":null,"deleted_by_id":null,"tenant_id":"00000000-0000-0000-0000-000000000000","profile_type":null,"name":"Business document","description":"document type","enabled":true,"required":true},{"id":"01933d1d-cfbc-7ddd-a344-7ab060497945","meta":null,"created_on":"2024-11-18T02:33:04.187Z","created_by_id":null,"modified_on":"2024-11-18T02:33:04.187Z","modified_by_id":null,"deleted_on":null,"deleted_by_id":null,"tenant_id":"00000000-0000-0000-0000-000000000000","profile_type":"personal","name":"National ID card","description":"Upload a photo of your national ID card.","enabled":true,"required":false},{"id":"01933d1e-507d-7ddd-a344-85601bd113ca","meta":null,"created_on":"2024-11-18T02:33:37.144Z","created_by_id":null,"modified_on":"2024-11-18T02:33:37.144Z","modified_by_id":null,"deleted_on":null,"deleted_by_id":null,"tenant_id":"00000000-0000-0000-0000-000000000000","profile_type":"personal","name":"Driver’s License","description":"Upload a photo of your driver’s license.","enabled":true,"required":false},{"id":"01936d3d-abaf-755c-bc30-d3f9a6d73656","meta":null,"created_on":"2024-11-27T10:49:38.479Z","created_by_id":null,"modified_on":"2024-11-27T10:49:38.479Z","modified_by_id":null,"deleted_on":null,"deleted_by_id":null,"tenant_id":"00000000-0000-0000-0000-000000000000","profile_type":"personal","name":"Test Document","description":"Upload a photo of your driver’s license.","enabled":true,"required":false},{"id":"019391e3-bc7b-7661-a660-b05f29e3992a","meta":null,"created_on":"2024-12-04T13:37:21.530Z","created_by_id":null,"modified_on":"2024-12-04T13:37:21.530Z","modified_by_id":null,"deleted_on":null,"deleted_by_id":null,"tenant_id":"00000000-0000-0000-0000-000000000000","profile_type":"personal","name":"Service Licence","description":"Upload a photo of your service license.","enabled":true,"required":false},{"id":"019391e4-b8d9-7661-a660-bdb0b3c73088","meta":null,"created_on":"2024-12-04T13:38:26.136Z","created_by_id":null,"modified_on":"2024-12-04T13:38:26.136Z","modified_by_id":null,"deleted_on":null,"deleted_by_id":null,"tenant_id":"00000000-0000-0000-0000-000000000000","profile_type":"personal","name":"Service Licence","description":"Upload a photo of your service license.","enabled":false,"required":false},{"id":"01939267-f073-7661-a662-e46d4cef8dea","meta":null,"created_on":"2024-12-04T16:01:45.587Z","created_by_id":null,"modified_on":"2024-12-04T16:01:45.587Z","modified_by_id":null,"deleted_on":null,"deleted_by_id":null,"tenant_id":"00000000-0000-0000-0000-000000000000","profile_type":"business","name":"Frontend Test","description":"Frontend Test","enabled":true,"required":true},{"id":"0193926b-140e-7661-a662-ea0d86090bc5","meta":null,"created_on":"2024-12-04T16:05:11.311Z","created_by_id":null,"modified_on":"2024-12-04T16:05:11.311Z","modified_by_id":null,"deleted_on":null,"deleted_by_id":null,"tenant_id":"00000000-0000-0000-0000-000000000000","profile_type":"business","name":"Frontend Test 2","description":"Frontend Test 2","enabled":true,"required":true},{"id":"0193927b-23ca-7661-a663-067d0d1065bb","meta":null,"created_on":"2024-12-04T16:22:43.914Z","created_by_id":null,"modified_on":"2024-12-04T16:22:43.914Z","modified_by_id":null,"deleted_on":null,"deleted_by_id":null,"tenant_id":"00000000-0000-0000-0000-000000000000","profile_type":"personal","name":"New frontend test","description":"New frontend test","enabled":true,"required":true},{"id":"019392f9-3f75-7cc0-9d17-c01043185404","meta":null,"created_on":"2024-12-04T18:40:28.530Z","created_by_id":null,"modified_on":"2024-12-04T18:40:28.530Z","modified_by_id":null,"deleted_on":null,"deleted_by_id":null,"tenant_id":"00000000-0000-0000-0000-000000000000","profile_type":"business","name":"Proof of address","description":"Proof of address","enabled":true,"required":true}],"meta":{"page":1,"total_pages":4,"total_items":38}}