{"status":"success","data":[{"id":"0195f55a-ea5a-7887-ab1c-217fefe89f0d","meta":null,"created_on":"2025-04-02T07:15:31.035Z","created_by_id":"019372de-17ef-7cc2-8fc0-43fe11ba042f","modified_on":"2025-04-02T07:15:34.619Z","modified_by_id":"019372de-17ef-7cc2-8fc0-43fe11ba042f","deleted_on":null,"deleted_by_id":null,"tenant_id":"00000000-0000-0000-0000-000000000000","account_id":"0193a699-2f15-7881-8b7f-ae50980bcfad","profile_id":"0193a649-e3d0-7881-8b7f-2ef1d89a9aff","cba_id":"4148","currency":"NGN","amount":"10.00","balance_after":null,"reference":"TPOW3ZZNZAAG","processor_reference":null,"processor_status":null,"processor_message":null,"status":"success","entry_type":"debit","narration":"Narrate","transaction_date":"2025-04-02T07:15:31.033Z","transaction_type":"fee","processor":"cba","reviewed_on":null,"reviewed_by":null,"batch_id":null,"schedule_id":null,"account":{"id":"0193a699-2f15-7881-8b7f-ae50980bcfad","meta":null,"created_on":"2024-12-08T14:07:57.204Z","created_by_id":null,"modified_on":"2025-04-02T18:45:31.132Z","modified_by_id":"019372de-17ef-7cc2-8fc0-43fe11ba042f","deleted_on":null,"deleted_by_id":null,"tenant_id":"00000000-0000-0000-0000-000000000000","name":"expenses","type":"account","cba_id":"0000000074","status":"active","profile_id":"0193a649-e3d0-7881-8b7f-2ef1d89a9aff","account_number":"0000000074","bank_id":"0193324f-cad0-7f86-923b-43fb21ac5b29","ledger_balance":706398098.77,"hold_balance":0,"available_balance":706398098.77,"currency":"NGN","restricted":false},"transfer":null,"disputes":[],"batch":null,"transfer_beneficiary":null,"bill_payment_beneficiary":null},{"id":"0195f55a-ea47-7887-ab1c-1395f6b567dc","meta":null,"created_on":"2025-04-02T07:15:31.016Z","created_by_id":"019372de-17ef-7cc2-8fc0-43fe11ba042f","modified_on":"2025-04-02T07:15:34.619Z","modified_by_id":"019372de-17ef-7cc2-8fc0-43fe11ba042f","deleted_on":null,"deleted_by_id":null,"tenant_id":"00000000-0000-0000-0000-000000000000","account_id":"0193a699-2f15-7881-8b7f-ae50980bcfad","profile_id":"0193a649-e3d0-7881-8b7f-2ef1d89a9aff","cba_id":"502","currency":"NGN","amount":"1000000.00","balance_after":null,"reference":"TPOW3ZZNZAAG","processor_reference":null,"processor_status":null,"processor_message":null,"status":"success","entry_type":"debit","narration":"Narrate","transaction_date":"2025-04-02T07:15:31.014Z","transaction_type":"transfer","processor":"cba","reviewed_on":null,"reviewed_by":null,"batch_id":null,"schedule_id":null,"account":{"id":"0193a699-2f15-7881-8b7f-ae50980bcfad","meta":null,"created_on":"2024-12-08T14:07:57.204Z","created_by_id":null,"modified_on":"2025-04-02T18:45:31.633Z","modified_by_id":"019372de-17ef-7cc2-8fc0-43fe11ba042f","deleted_on":null,"deleted_by_id":null,"tenant_id":"00000000-0000-0000-0000-000000000000","name":"expenses","type":"account","cba_id":"0000000074","status":"active","profile_id":"0193a649-e3d0-7881-8b7f-2ef1d89a9aff","account_number":"0000000074","bank_id":"0193324f-cad0-7f86-923b-43fb21ac5b29","ledger_balance":706398098.77,"hold_balance":0,"available_balance":706398098.77,"currency":"NGN","restricted":false},"transfer":{"id":"0195f55a-ea4e-7887-ab1c-18ec3b3ab8a8","meta":null,"created_on":"2025-04-02T07:15:31.016Z","created_by_id":"019372de-17ef-7cc2-8fc0-43fe11ba042f","modified_on":"2025-04-02T07:15:31.016Z","modified_by_id":null,"deleted_on":null,"deleted_by_id":null,"tenant_id":"00000000-0000-0000-0000-000000000000","bank_code":"050030","bank_name":"NORTHQUEST FINANCE COMPANY LIMITED ","bank_logo":"https://cdn.prod.website-files.com/67342b6ac3243e10a48bee9d/673b02614b7fc0a77c0172b2_NorthQuest%20Finance%20%20Logo-p-500.png","account_name":"Profile","account_number":"0000000465","profile_id":"0193a649-e3d0-7881-8b7f-2ef1d89a9aff","transaction_id":"0195f55a-ea47-7887-ab1c-1395f6b567dc","account_id":"0193a699-2f15-7881-8b7f-ae50980bcfad"},"disputes":[],"batch":null,"transfer_beneficiary":null,"bill_payment_beneficiary":null},{"id":"0195f51d-71a2-7887-ab17-6916a9f16692","meta":null,"created_on":"2025-04-02T06:08:22.434Z","created_by_id":"019372de-17ef-7cc2-8fc0-43fe11ba042f","modified_on":"2025-04-02T06:08:58.167Z","modified_by_id":"019372de-17ef-7cc2-8fc0-43fe11ba042f","deleted_on":null,"deleted_by_id":null,"tenant_id":"00000000-0000-0000-0000-000000000000","account_id":"0193a699-2f15-7881-8b7f-ae50980bcfad","profile_id":"0193a649-e3d0-7881-8b7f-2ef1d89a9aff","cba_id":"4141","currency":"NGN","amount":"2300.00","balance_after":"0.00","reference":"TTLTJHFR32WV","processor_reference":null,"processor_status":null,"processor_message":"Request failed with status code 400","status":"failed","entry_type":"debit","narration":"Bill payment to abuja_electric_postpaid for 2345678903","transaction_date":"2025-04-02T06:08:22.343Z","transaction_type":"bill-payment","processor":"baxipay","reviewed_on":null,"reviewed_by":null,"batch_id":null,"schedule_id":null,"account":{"id":"0193a699-2f15-7881-8b7f-ae50980bcfad","meta":null,"created_on":"2024-12-08T14:07:57.204Z","created_by_id":null,"modified_on":"2025-04-02T18:45:31.740Z","modified_by_id":"019372de-17ef-7cc2-8fc0-43fe11ba042f","deleted_on":null,"deleted_by_id":null,"tenant_id":"00000000-0000-0000-0000-000000000000","name":"expenses","type":"account","cba_id":"0000000074","status":"active","profile_id":"0193a649-e3d0-7881-8b7f-2ef1d89a9aff","account_number":"0000000074","bank_id":"0193324f-cad0-7f86-923b-43fb21ac5b29","ledger_balance":706398098.77,"hold_balance":0,"available_balance":706398098.77,"currency":"NGN","restricted":false},"transfer":null,"disputes":[{"id":"0195f51d-fd41-7887-ab18-ebcf5414145d","meta":null,"created_on":"2025-04-02T06:08:58.178Z","created_by_id":"019372de-17ef-7cc2-8fc0-43fe11ba042f","modified_on":"2025-04-02T06:08:58.178Z","modified_by_id":null,"deleted_on":null,"deleted_by_id":null,"tenant_id":"00000000-0000-0000-0000-000000000000","file_id":"0194462d-2cbc-788e-b49e-8f0163251b62","transaction_id":"0195f51d-71a2-7887-ab17-6916a9f16692","status":"pending","note":"egbami, e no dey work","comment":null,"reviewed_on":null,"reviewed_by":null,"profile_id":"0193a649-e3d0-7881-8b7f-2ef1d89a9aff"}],"batch":null,"transfer_beneficiary":null,"bill_payment_beneficiary":null},{"id":"0195f4b9-aed2-7553-b03b-14388e6a8ece","meta":null,"created_on":"2025-04-02T04:19:24.498Z","created_by_id":"019372de-17ef-7cc2-8fc0-43fe11ba042f","modified_on":"2025-04-02T05:52:26.179Z","modified_by_id":"019372de-17ef-7cc2-8fc0-43fe11ba042f","deleted_on":null,"deleted_by_id":null,"tenant_id":"00000000-0000-0000-0000-000000000000","account_id":"0193a699-2f15-7881-8b7f-ae50980bcfad","profile_id":"0193a649-e3d0-7881-8b7f-2ef1d89a9aff","cba_id":"4132","currency":"NGN","amount":"10.00","balance_after":"707398108.77","reference":"TMZM5GN7KUQX","processor_reference":null,"processor_status":null,"processor_message":null,"status":"success","entry_type":"debit","narration":"Sodiq","transaction_date":"2025-04-02T04:19:24.497Z","transaction_type":"fee","processor":"cba","reviewed_on":null,"reviewed_by":null,"batch_id":null,"schedule_id":null,"account":{"id":"0193a699-2f15-7881-8b7f-ae50980bcfad","meta":null,"created_on":"2024-12-08T14:07:57.204Z","created_by_id":null,"modified_on":"2025-04-02T18:45:31.741Z","modified_by_id":"019372de-17ef-7cc2-8fc0-43fe11ba042f","deleted_on":null,"deleted_by_id":null,"tenant_id":"00000000-0000-0000-0000-000000000000","name":"expenses","type":"account","cba_id":"0000000074","status":"active","profile_id":"0193a649-e3d0-7881-8b7f-2ef1d89a9aff","account_number":"0000000074","bank_id":"0193324f-cad0-7f86-923b-43fb21ac5b29","ledger_balance":706398098.77,"hold_balance":0,"available_balance":706398098.77,"currency":"NGN","restricted":false},"transfer":null,"disputes":[{"id":"0195f50e-da48-7887-ab15-b2ef75f7381b","meta":null,"created_on":"2025-04-02T05:52:26.185Z","created_by_id":"019372de-17ef-7cc2-8fc0-43fe11ba042f","modified_on":"2025-04-02T05:52:26.185Z","modified_by_id":null,"deleted_on":null,"deleted_by_id":null,"tenant_id":"00000000-0000-0000-0000-000000000000","file_id":"0194462d-2cbc-788e-b49e-8f0163251b62","transaction_id":"0195f4b9-aed2-7553-b03b-14388e6a8ece","status":"pending","note":"egbami, e no dey work","comment":null,"reviewed_on":null,"reviewed_by":null,"profile_id":"0193a649-e3d0-7881-8b7f-2ef1d89a9aff"}],"batch":null,"transfer_beneficiary":null,"bill_payment_beneficiary":null},{"id":"0195f4b9-aed0-7553-b03b-0c080ffc6f01","meta":null,"created_on":"2025-04-02T04:19:24.496Z","created_by_id":"019372de-17ef-7cc2-8fc0-43fe11ba042f","modified_on":"2025-04-02T04:19:28.614Z","modified_by_id":"019372de-17ef-7cc2-8fc0-43fe11ba042f","deleted_on":null,"deleted_by_id":null,"tenant_id":"00000000-0000-0000-0000-000000000000","account_id":"0193a699-2f15-7881-8b7f-ae50980bcfad","profile_id":"0193a649-e3d0-7881-8b7f-2ef1d89a9aff","cba_id":"4130","currency":"NGN","amount":"10.00","balance_after":null,"reference":"TU30GQJ68B7N","processor_reference":null,"processor_status":null,"processor_message":null,"status":"success","entry_type":"debit","narration":"Sodiq","transaction_date":"2025-04-02T04:19:24.495Z","transaction_type":"fee","processor":"cba","reviewed_on":null,"reviewed_by":null,"batch_id":null,"schedule_id":null,"account":{"id":"0193a699-2f15-7881-8b7f-ae50980bcfad","meta":null,"created_on":"2024-12-08T14:07:57.204Z","created_by_id":null,"modified_on":"2025-04-02T18:45:31.786Z","modified_by_id":"019372de-17ef-7cc2-8fc0-43fe11ba042f","deleted_on":null,"deleted_by_id":null,"tenant_id":"00000000-0000-0000-0000-000000000000","name":"expenses","type":"account","cba_id":"0000000074","status":"active","profile_id":"0193a649-e3d0-7881-8b7f-2ef1d89a9aff","account_number":"0000000074","bank_id":"0193324f-cad0-7f86-923b-43fb21ac5b29","ledger_balance":706398098.77,"hold_balance":0,"available_balance":706398098.77,"currency":"NGN","restricted":false},"transfer":null,"disputes":[],"batch":null,"transfer_beneficiary":null,"bill_payment_beneficiary":null},{"id":"0195f4b9-adb4-7553-b03a-ed746cdf8569","meta":null,"created_on":"2025-04-02T04:19:24.091Z","created_by_id":"019372de-17ef-7cc2-8fc0-43fe11ba042f","modified_on":"2025-04-02T04:19:34.903Z","modified_by_id":"019372de-17ef-7cc2-8fc0-43fe11ba042f","deleted_on":null,"deleted_by_id":null,"tenant_id":"00000000-0000-0000-0000-000000000000","account_id":"0193a699-2f15-7881-8b7f-ae50980bcfad","profile_id":"0193a649-e3d0-7881-8b7f-2ef1d89a9aff","cba_id":"4131","currency":"NGN","amount":"10.00","balance_after":null,"reference":"TMZM5GN7KUQX","processor_reference":"MOCK_SESSION_ID_67890","processor_status":"success","processor_message":"Transfer Successful","status":"success","entry_type":"debit","narration":"Sodiq","transaction_date":"2025-04-02T04:19:24.212Z","transaction_type":"transfer","processor":"nip","reviewed_on":null,"reviewed_by":null,"batch_id":"0195f4b9-ad3c-7553-b03a-d92ea4683101","schedule_id":null,"account":{"id":"0193a699-2f15-7881-8b7f-ae50980bcfad","meta":null,"created_on":"2024-12-08T14:07:57.204Z","created_by_id":null,"modified_on":"2025-04-02T18:45:31.741Z","modified_by_id":"019372de-17ef-7cc2-8fc0-43fe11ba042f","deleted_on":null,"deleted_by_id":null,"tenant_id":"00000000-0000-0000-0000-000000000000","name":"expenses","type":"account","cba_id":"0000000074","status":"active","profile_id":"0193a649-e3d0-7881-8b7f-2ef1d89a9aff","account_number":"0000000074","bank_id":"0193324f-cad0-7f86-923b-43fb21ac5b29","ledger_balance":706398098.77,"hold_balance":0,"available_balance":706398098.77,"currency":"NGN","restricted":false},"transfer":{"id":"0195f4b9-adf0-7553-b03a-fde3fc7ea7e2","meta":null,"created_on":"2025-04-02T04:19:24.091Z","created_by_id":"019372de-17ef-7cc2-8fc0-43fe11ba042f","modified_on":"2025-04-02T04:19:24.091Z","modified_by_id":null,"deleted_on":null,"deleted_by_id":null,"tenant_id":"00000000-0000-0000-0000-000000000000","bank_code":"999998","bank_name":"vee test","bank_logo":"https://lendstack-s3.s3.us-east-2.amazonaws.com/bank_logos/035.png","account_name":"John Doe","account_number":"1780004070","profile_id":"0193a649-e3d0-7881-8b7f-2ef1d89a9aff","transaction_id":"0195f4b9-adb4-7553-b03a-ed746cdf8569","account_id":"0193a699-2f15-7881-8b7f-ae50980bcfad"},"disputes":[],"batch":{"id":"0195f4b9-ad3c-7553-b03a-d92ea4683101","meta":null,"created_on":"2025-04-02T04:19:24.091Z","created_by_id":"019372de-17ef-7cc2-8fc0-43fe11ba042f","modified_on":"2025-04-02T04:19:24.091Z","modified_by_id":null,"deleted_on":null,"deleted_by_id":null,"tenant_id":"00000000-0000-0000-0000-000000000000","status":"approved","name":null},"transfer_beneficiary":null,"bill_payment_beneficiary":null},{"id":"0195f4b9-ada5-7553-b03a-e7cdb272cd27","meta":null,"created_on":"2025-04-02T04:19:24.091Z","created_by_id":"019372de-17ef-7cc2-8fc0-43fe11ba042f","modified_on":"2025-04-02T04:19:28.608Z","modified_by_id":"019372de-17ef-7cc2-8fc0-43fe11ba042f","deleted_on":null,"deleted_by_id":null,"tenant_id":"00000000-0000-0000-0000-000000000000","account_id":"0193a699-2f15-7881-8b7f-ae50980bcfad","profile_id":"0193a649-e3d0-7881-8b7f-2ef1d89a9aff","cba_id":"4129","currency":"NGN","amount":"10.00","balance_after":null,"reference":"TU30GQJ68B7N","processor_reference":"MOCK_SESSION_ID_67890","processor_status":"success","processor_message":"Transfer Successful","status":"success","entry_type":"debit","narration":"Sodiq","transaction_date":"2025-04-02T04:19:24.197Z","transaction_type":"transfer","processor":"nip","reviewed_on":null,"reviewed_by":null,"batch_id":"0195f4b9-ad3c-7553-b03a-d92ea4683101","schedule_id":null,"account":{"id":"0193a699-2f15-7881-8b7f-ae50980bcfad","meta":null,"created_on":"2024-12-08T14:07:57.204Z","created_by_id":null,"modified_on":"2025-04-02T18:45:31.785Z","modified_by_id":"019372de-17ef-7cc2-8fc0-43fe11ba042f","deleted_on":null,"deleted_by_id":null,"tenant_id":"00000000-0000-0000-0000-000000000000","name":"expenses","type":"account","cba_id":"0000000074","status":"active","profile_id":"0193a649-e3d0-7881-8b7f-2ef1d89a9aff","account_number":"0000000074","bank_id":"0193324f-cad0-7f86-923b-43fb21ac5b29","ledger_balance":706398098.77,"hold_balance":0,"available_balance":706398098.77,"currency":"NGN","restricted":false},"transfer":{"id":"0195f4b9-adf0-7553-b03a-f4adf2c9b3ff","meta":null,"created_on":"2025-04-02T04:19:24.091Z","created_by_id":"019372de-17ef-7cc2-8fc0-43fe11ba042f","modified_on":"2025-04-02T04:19:24.091Z","modified_by_id":null,"deleted_on":null,"deleted_by_id":null,"tenant_id":"00000000-0000-0000-0000-000000000000","bank_code":"999998","bank_name":"vee test","bank_logo":"https://lendstack-s3.s3.us-east-2.amazonaws.com/bank_logos/035.png","account_name":"John Doe","account_number":"1780004070","profile_id":"0193a649-e3d0-7881-8b7f-2ef1d89a9aff","transaction_id":"0195f4b9-ada5-7553-b03a-e7cdb272cd27","account_id":"0193a699-2f15-7881-8b7f-ae50980bcfad"},"disputes":[],"batch":{"id":"0195f4b9-ad3c-7553-b03a-d92ea4683101","meta":null,"created_on":"2025-04-02T04:19:24.091Z","created_by_id":"019372de-17ef-7cc2-8fc0-43fe11ba042f","modified_on":"2025-04-02T04:19:24.091Z","modified_by_id":null,"deleted_on":null,"deleted_by_id":null,"tenant_id":"00000000-0000-0000-0000-000000000000","status":"approved","name":null},"transfer_beneficiary":null,"bill_payment_beneficiary":null},{"id":"0195f4b8-cdc0-7553-b03a-cb8d1ffe569a","meta":null,"created_on":"2025-04-02T04:18:26.880Z","created_by_id":"019372de-17ef-7cc2-8fc0-43fe11ba042f","modified_on":"2025-04-02T04:18:30.477Z","modified_by_id":"019372de-17ef-7cc2-8fc0-43fe11ba042f","deleted_on":null,"deleted_by_id":null,"tenant_id":"00000000-0000-0000-0000-000000000000","account_id":"0193a699-2f15-7881-8b7f-ae50980bcfad","profile_id":"0193a649-e3d0-7881-8b7f-2ef1d89a9aff","cba_id":"4128","currency":"NGN","amount":"10.00","balance_after":null,"reference":"TYUNT76L1JMC","processor_reference":null,"processor_status":null,"processor_message":null,"status":"success","entry_type":"debit","narration":"Sodiq","transaction_date":"2025-04-02T04:18:26.879Z","transaction_type":"fee","processor":"cba","reviewed_on":null,"reviewed_by":null,"batch_id":null,"schedule_id":null,"account":{"id":"0193a699-2f15-7881-8b7f-ae50980bcfad","meta":null,"created_on":"2024-12-08T14:07:57.204Z","created_by_id":null,"modified_on":"2025-04-02T18:45:31.784Z","modified_by_id":"019372de-17ef-7cc2-8fc0-43fe11ba042f","deleted_on":null,"deleted_by_id":null,"tenant_id":"00000000-0000-0000-0000-000000000000","name":"expenses","type":"account","cba_id":"0000000074","status":"active","profile_id":"0193a649-e3d0-7881-8b7f-2ef1d89a9aff","account_number":"0000000074","bank_id":"0193324f-cad0-7f86-923b-43fb21ac5b29","ledger_balance":706398098.77,"hold_balance":0,"available_balance":706398098.77,"currency":"NGN","restricted":false},"transfer":null,"disputes":[],"batch":null,"transfer_beneficiary":null,"bill_payment_beneficiary":null},{"id":"0195f4b8-cd6b-7553-b03a-bd978b087e2a","meta":null,"created_on":"2025-04-02T04:18:26.795Z","created_by_id":"019372de-17ef-7cc2-8fc0-43fe11ba042f","modified_on":"2025-04-02T04:18:30.472Z","modified_by_id":"019372de-17ef-7cc2-8fc0-43fe11ba042f","deleted_on":null,"deleted_by_id":null,"tenant_id":"00000000-0000-0000-0000-000000000000","account_id":"0193a699-2f15-7881-8b7f-ae50980bcfad","profile_id":"0193a649-e3d0-7881-8b7f-2ef1d89a9aff","cba_id":"4127","currency":"NGN","amount":"100.23","balance_after":null,"reference":"TYUNT76L1JMC","processor_reference":"MOCK_SESSION_ID_67890","processor_status":"success","processor_message":"Transfer Successful","status":"success","entry_type":"debit","narration":"Sodiq","transaction_date":"2025-04-02T04:18:26.794Z","transaction_type":"transfer","processor":"nip","reviewed_on":null,"reviewed_by":null,"batch_id":null,"schedule_id":null,"account":{"id":"0193a699-2f15-7881-8b7f-ae50980bcfad","meta":null,"created_on":"2024-12-08T14:07:57.204Z","created_by_id":null,"modified_on":"2025-04-02T18:45:31.739Z","modified_by_id":"019372de-17ef-7cc2-8fc0-43fe11ba042f","deleted_on":null,"deleted_by_id":null,"tenant_id":"00000000-0000-0000-0000-000000000000","name":"expenses","type":"account","cba_id":"0000000074","status":"active","profile_id":"0193a649-e3d0-7881-8b7f-2ef1d89a9aff","account_number":"0000000074","bank_id":"0193324f-cad0-7f86-923b-43fb21ac5b29","ledger_balance":706398098.77,"hold_balance":0,"available_balance":706398098.77,"currency":"NGN","restricted":false},"transfer":{"id":"0195f4b8-cdb8-7553-b03a-c6a406c6fa7b","meta":null,"created_on":"2025-04-02T04:18:26.795Z","created_by_id":"019372de-17ef-7cc2-8fc0-43fe11ba042f","modified_on":"2025-04-02T04:18:26.795Z","modified_by_id":null,"deleted_on":null,"deleted_by_id":null,"tenant_id":"00000000-0000-0000-0000-000000000000","bank_code":"000014","bank_name":"Access Bank","bank_logo":"https://lendstack-s3.s3.us-east-2.amazonaws.com/bank_logos/044.png","account_name":"John Doe","account_number":"1780004070","profile_id":"0193a649-e3d0-7881-8b7f-2ef1d89a9aff","transaction_id":"0195f4b8-cd6b-7553-b03a-bd978b087e2a","account_id":"0193a699-2f15-7881-8b7f-ae50980bcfad"},"disputes":[],"batch":null,"transfer_beneficiary":null,"bill_payment_beneficiary":null},{"id":"0195f180-b5d2-7ffc-a572-6a7cfe67fc56","meta":null,"created_on":"2025-04-01T13:18:19.090Z","created_by_id":"019372de-17ef-7cc2-8fc0-43fe11ba042f","modified_on":"2025-04-01T13:18:21.494Z","modified_by_id":"019372de-17ef-7cc2-8fc0-43fe11ba042f","deleted_on":null,"deleted_by_id":null,"tenant_id":"00000000-0000-0000-0000-000000000000","account_id":"0193a699-2f15-7881-8b7f-ae50980bcfad","profile_id":"0193a649-e3d0-7881-8b7f-2ef1d89a9aff","cba_id":"4126","currency":"NGN","amount":"1800.00","balance_after":null,"reference":"TDC1C5QEHT63","processor_reference":null,"processor_status":null,"processor_message":"Request failed with status code 500","status":"failed","entry_type":"debit","narration":"Bill payment to waec for 1102003467","transaction_date":"2025-04-01T13:18:19.089Z","transaction_type":"bill-payment","processor":"baxipay","reviewed_on":null,"reviewed_by":null,"batch_id":null,"schedule_id":null,"account":{"id":"0193a699-2f15-7881-8b7f-ae50980bcfad","meta":null,"created_on":"2024-12-08T14:07:57.204Z","created_by_id":null,"modified_on":"2025-04-02T18:45:31.541Z","modified_by_id":"019372de-17ef-7cc2-8fc0-43fe11ba042f","deleted_on":null,"deleted_by_id":null,"tenant_id":"00000000-0000-0000-0000-000000000000","name":"expenses","type":"account","cba_id":"0000000074","status":"active","profile_id":"0193a649-e3d0-7881-8b7f-2ef1d89a9aff","account_number":"0000000074","bank_id":"0193324f-cad0-7f86-923b-43fb21ac5b29","ledger_balance":706398098.77,"hold_balance":0,"available_balance":706398098.77,"currency":"NGN","restricted":false},"transfer":null,"disputes":[],"batch":null,"transfer_beneficiary":null,"bill_payment_beneficiary":null}],"meta":{"page":1,"total_pages":113,"total_items":1122}}