{"status":"success","data":[{"id":"0194a3f4-488e-7551-90b8-ab5fd3ff9bc3","created_on":"2025-01-26T18:51:23.151Z","email":"Fra@yopmail.com","first_name":null,"last_name":null,"last_active":"2025-01-26T18:51:23.151Z","phone":null,"userProfile":{"id":"0194a3f4-4892-7551-90b8-b67791bf2cb4","status":"pending","role_id":"0194390f-3451-7aa1-9609-b7bb23e65f18","role":{"name":"Licensed Steel Glove","slug":"licensed-steel-glove"}}},{"id":"0194a3f3-be48-7551-90b8-9a38f062672e","created_on":"2025-01-26T18:50:47.752Z","email":"Soft@yopmail.com","first_name":null,"last_name":null,"last_active":"2025-01-26T18:50:47.752Z","phone":null,"userProfile":{"id":"0194a3f3-be4e-7551-90b8-a008734331de","status":"pending","role_id":"019485a0-e971-7886-8c7b-57eec9197a22","role":{"name":"caesarsage","slug":"caesarsage"}}},{"id":"01949806-dd37-7dd2-b9a1-6239ad89477f","created_on":"2025-01-24T11:16:14.264Z","email":"Shanahan@mailinator.com","first_name":"Eveline","last_name":"Bins","last_active":"2025-01-24T11:16:14.264Z","phone":null,"userProfile":{"id":"01949806-dd3e-7dd2-b9a1-6fc7979125a6","status":"active","role_id":"0194390f-3451-7aa1-9609-b7bb23e65f18","role":{"name":"Licensed Steel Glove","slug":"licensed-steel-glove"}}},{"id":"019497f5-fce5-7dd2-b9a0-f89181c802ff","created_on":"2025-01-24T10:57:48.261Z","email":"Yan@yopmail.com","first_name":"Feee","last_name":"yes","last_active":"2025-01-24T11:05:29.718Z","phone":null,"userProfile":{"id":"019497f5-fceb-7dd2-b9a1-045cac259aad","status":"active","role_id":"019485a0-e971-7886-8c7b-57eec9197a22","role":{"name":"caesarsage","slug":"caesarsage"}}},{"id":"019497f4-a00e-7dd2-b9a0-eb070385514b","created_on":"2025-01-24T10:56:18.958Z","email":"yang@yopmail.com","first_name":"Jane","last_name":"stay","last_active":"2025-01-24T10:56:18.958Z","phone":null,"userProfile":{"id":"019497f4-a011-7dd2-b9a0-f129ef25b0da","status":"active","role_id":"01926788-1eaf-7336-86de-89316b9797d9","role":{"name":"Initiator","slug":"initiator"}}},{"id":"0194975f-334a-7ccf-a602-eed2ef8095d3","created_on":"2025-01-24T08:13:06.250Z","email":"destinyerhabor6+ZE@gmail.com","first_name":null,"last_name":null,"last_active":"2025-01-24T08:13:06.250Z","phone":null,"userProfile":{"id":"0194975f-3351-7ccf-a602-f10fc9a55bcc","status":"pending","role_id":"019485a0-e971-7886-8c7b-57eec9197a22","role":{"name":"caesarsage","slug":"caesarsage"}}},{"id":"01949742-bc1c-7ccf-a602-4e9981872839","created_on":"2025-01-24T07:42:00.732Z","email":"caesar.de.hero@gmail.com","first_name":null,"last_name":null,"last_active":"2025-01-24T07:42:00.732Z","phone":null,"userProfile":{"id":"01949742-bc26-7ccf-a602-51b54ea8b6fb","status":"active","role_id":"01949420-128c-7228-a8d2-e340e02367eb","role":{"name":"All roles ","slug":"all-roles"}}},{"id":"01949444-2364-7228-a8d5-2849410f4d26","created_on":"2025-01-23T17:44:41.060Z","email":"random@yopmail.com","first_name":"Feee","last_name":"stay","last_active":"2025-01-23T17:50:46.007Z","phone":null,"userProfile":{"id":"01949444-2369-7228-a8d5-31c9b2b7271c","status":"active","role_id":"01926788-56f8-7336-86de-98a2678c8611","role":{"name":"Authorizer","slug":"authorizer"}}},{"id":"019493cc-a96a-7aa1-bdcd-f28ebe86524e","created_on":"2025-01-23T15:34:11.050Z","email":"ran@yopmail.com","first_name":"Feee","last_name":"flee","last_active":"2025-01-23T15:38:00.919Z","phone":null,"userProfile":{"id":"019493cc-a970-7aa1-bdcd-fadcbf0ffe30","status":"active","role_id":"01926788-56f8-7336-86de-98a2678c8611","role":{"name":"Authorizer","slug":"authorizer"}}},{"id":"019493c9-e445-7aa1-bdcc-10e248fce7a1","created_on":"2025-01-23T15:31:09.510Z","email":"too@yopmail.com","first_name":null,"last_name":null,"last_active":"2025-01-23T15:31:09.510Z","phone":null,"userProfile":{"id":"019493c9-e44b-7aa1-bdcc-1ca61e5b541d","status":"pending","role_id":"019485a0-e971-7886-8c7b-57eec9197a22","role":{"name":"caesarsage","slug":"caesarsage"}}},{"id":"019493a2-88f5-7cc6-93e5-ce1349d553c7","created_on":"2025-01-23T14:48:10.229Z","email":"rander@yopmail.com","first_name":"Adey","last_name":"Train","last_active":"2025-01-23T14:48:10.229Z","phone":null,"userProfile":{"id":"019493a2-88fc-7cc6-93e5-d4e96a8b8692","status":"active","role_id":"01926788-1eaf-7336-86de-89316b9797d9","role":{"name":"Initiator","slug":"initiator"}}},{"id":"0194939a-406b-7cc6-93e5-88de51673c0f","created_on":"2025-01-23T14:39:07.370Z","email":"rand@yopmail.com","first_name":"Adere","last_name":"Rant","last_active":"2025-01-23T14:39:07.370Z","phone":null,"userProfile":{"id":"0194939a-4072-7cc6-93e5-96e30ae527fc","status":"active","role_id":"01926788-1eaf-7336-86de-89316b9797d9","role":{"name":"Initiator","slug":"initiator"}}},{"id":"0194779e-0699-722d-b130-8816d366e2fc","created_on":"2025-01-18T04:13:52.665Z","email":"destinyerhabor6@gmail.com","first_name":"Destiny","last_name":"Erhabor","last_active":"2025-01-24T16:58:18.769Z","phone":null,"userProfile":{"id":"0194799f-14dc-722d-b131-aca193c9e35a","status":"active","role_id":"01926788-56f8-7336-86de-98a2678c8611","role":{"name":"Authorizer","slug":"authorizer"}}},{"id":"0194690a-702b-777b-9e0c-d15a3b7d010b","created_on":"2025-01-15T08:17:59.339Z","email":"ekemenaj@gmail.com","first_name":"Janet","last_name":"Adefeyisan","last_active":"2025-01-15T08:17:59.339Z","phone":null,"userProfile":{"id":"01948190-d3f4-7ff1-8d55-4deab9bb4f0b","status":"pending","role_id":"0194390f-3451-7aa1-9609-b7bb23e65f18","role":{"name":"Licensed Steel Glove","slug":"licensed-steel-glove"}}},{"id":"01946808-7023-777b-9e0c-2de1732fd3a5","created_on":"2025-01-15T03:36:11.043Z","email":"Klein@mailinator.com","first_name":"Cornelius","last_name":"Ferry","last_active":"2025-01-23T16:27:44.343Z","phone":null,"userProfile":{"id":"01946808-702b-777b-9e0c-36d7e3825b42","status":"active","role_id":"019435d3-5e27-7aa1-b636-0e6113f9564e","role":{"name":"Handmade Rubber Mouse","slug":"handmade-rubber-mouse"}}},{"id":"019464e3-2002-777b-9e06-612144a03c1d","created_on":"2025-01-14T12:56:34.050Z","email":"test@gmail.com","first_name":null,"last_name":null,"last_active":"2025-01-14T12:56:34.050Z","phone":null,"userProfile":{"id":"019464e3-2008-777b-9e06-6917fe285cd9","status":"pending","role_id":"019435d4-2106-7aa1-b636-29de80b54443","role":{"name":"Rustic Soft Glovesss","slug":"rustic-soft-glovesss"}}},{"id":"01944c40-1132-777f-a935-bb601297864f","created_on":"2025-01-09T18:07:34.707Z","email":"jothn@gmail.com","first_name":null,"last_name":null,"last_active":"2025-01-09T18:07:34.707Z","phone":null,"userProfile":{"id":"01944c40-1137-777f-a935-c693302fa239","status":"pending","role_id":"019435d1-53b8-7aa1-b635-dec5a3f048ff","role":{"name":"Generic Wooden Ball","slug":"generic-wooden-ball"}}},{"id":"01944bbd-b959-777f-a932-3f9b08b0197f","created_on":"2025-01-09T15:45:12.537Z","email":"mike@mailinator.com","first_name":null,"last_name":null,"last_active":"2025-01-09T15:45:12.537Z","phone":null,"userProfile":{"id":"01944bbd-b961-777f-a932-44593139b25b","status":"pending","role_id":"019435d1-02dd-7aa1-b635-ce8df84783c8","role":{"name":"Sleek Soft Pizza","slug":"sleek-soft-pizza"}}},{"id":"01944bbd-1bfe-777f-a932-2b036ebda4a6","created_on":"2025-01-09T15:44:32.254Z","email":"azeez@mailinator.com","first_name":null,"last_name":null,"last_active":"2025-01-09T15:44:32.254Z","phone":null,"userProfile":{"id":"01944bbd-1c03-777f-a932-356ceb3eb15f","status":"pending","role_id":"019435d1-02dd-7aa1-b635-ce8df84783c8","role":{"name":"Sleek Soft Pizza","slug":"sleek-soft-pizza"}}},{"id":"01944a80-f3cb-7881-990d-98798437f1f3","created_on":"2025-01-09T09:59:12.588Z","email":"calista@mailinator.com","first_name":"Haven","last_name":"Mitchell","last_active":"2025-01-22T14:29:37.380Z","phone":null,"userProfile":{"id":"01944a80-f3d1-7881-990d-a4d23f1656fe","status":"active","role_id":"01926788-1eaf-7336-86de-89316b9797d9","role":{"name":"Initiator","slug":"initiator"}}}],"meta":{"page":1,"total_pages":2,"total_items":32}}