{"status":"success","data":[{"id":"0194a3f3-be48-7551-90b8-9a38f062672e","created_on":"2025-01-26T18:50:47.752Z","email":"Soft@yopmail.com","first_name":null,"last_name":null,"last_active":"2025-01-26T18:50:47.752Z","phone":null,"userProfile":{"id":"0194a3f3-be4e-7551-90b8-a008734331de","status":"pending","role_id":"019485a0-e971-7886-8c7b-57eec9197a22","role":{"name":"caesarsage","slug":"caesarsage"}}},{"id":"01949806-dd37-7dd2-b9a1-6239ad89477f","created_on":"2025-01-24T11:16:14.264Z","email":"Shanahan@mailinator.com","first_name":"Eveline","last_name":"Bins","last_active":"2025-01-24T11:16:14.264Z","phone":null,"userProfile":{"id":"01949806-dd3e-7dd2-b9a1-6fc7979125a6","status":"active","role_id":"0194390f-3451-7aa1-9609-b7bb23e65f18","role":{"name":"Licensed Steel Glove","slug":"licensed-steel-glove"}}},{"id":"019497f5-fce5-7dd2-b9a0-f89181c802ff","created_on":"2025-01-24T10:57:48.261Z","email":"Yan@yopmail.com","first_name":"Feee","last_name":"yes","last_active":"2025-01-24T11:05:29.718Z","phone":null,"userProfile":{"id":"019497f5-fceb-7dd2-b9a1-045cac259aad","status":"active","role_id":"019485a0-e971-7886-8c7b-57eec9197a22","role":{"name":"caesarsage","slug":"caesarsage"}}},{"id":"019497f4-a00e-7dd2-b9a0-eb070385514b","created_on":"2025-01-24T10:56:18.958Z","email":"yang@yopmail.com","first_name":"Jane","last_name":"stay","last_active":"2025-01-24T10:56:18.958Z","phone":null,"userProfile":{"id":"019497f4-a011-7dd2-b9a0-f129ef25b0da","status":"active","role_id":"01926788-1eaf-7336-86de-89316b9797d9","role":{"name":"Initiator","slug":"initiator"}}},{"id":"0194975f-334a-7ccf-a602-eed2ef8095d3","created_on":"2025-01-24T08:13:06.250Z","email":"destinyerhabor6+ZE@gmail.com","first_name":null,"last_name":null,"last_active":"2025-01-24T08:13:06.250Z","phone":null,"userProfile":{"id":"0194975f-3351-7ccf-a602-f10fc9a55bcc","status":"pending","role_id":"019485a0-e971-7886-8c7b-57eec9197a22","role":{"name":"caesarsage","slug":"caesarsage"}}},{"id":"01949742-bc1c-7ccf-a602-4e9981872839","created_on":"2025-01-24T07:42:00.732Z","email":"caesar.de.hero@gmail.com","first_name":null,"last_name":null,"last_active":"2025-01-24T07:42:00.732Z","phone":null,"userProfile":{"id":"01949742-bc26-7ccf-a602-51b54ea8b6fb","status":"active","role_id":"01949420-128c-7228-a8d2-e340e02367eb","role":{"name":"All roles ","slug":"all-roles"}}},{"id":"01949444-2364-7228-a8d5-2849410f4d26","created_on":"2025-01-23T17:44:41.060Z","email":"random@yopmail.com","first_name":"Feee","last_name":"stay","last_active":"2025-01-23T17:50:46.007Z","phone":null,"userProfile":{"id":"01949444-2369-7228-a8d5-31c9b2b7271c","status":"active","role_id":"01926788-56f8-7336-86de-98a2678c8611","role":{"name":"Authorizer","slug":"authorizer"}}},{"id":"019493cc-a96a-7aa1-bdcd-f28ebe86524e","created_on":"2025-01-23T15:34:11.050Z","email":"ran@yopmail.com","first_name":"Feee","last_name":"flee","last_active":"2025-01-23T15:38:00.919Z","phone":null,"userProfile":{"id":"019493cc-a970-7aa1-bdcd-fadcbf0ffe30","status":"active","role_id":"01926788-56f8-7336-86de-98a2678c8611","role":{"name":"Authorizer","slug":"authorizer"}}},{"id":"019493c9-e445-7aa1-bdcc-10e248fce7a1","created_on":"2025-01-23T15:31:09.510Z","email":"too@yopmail.com","first_name":null,"last_name":null,"last_active":"2025-01-23T15:31:09.510Z","phone":null,"userProfile":{"id":"019493c9-e44b-7aa1-bdcc-1ca61e5b541d","status":"pending","role_id":"019485a0-e971-7886-8c7b-57eec9197a22","role":{"name":"caesarsage","slug":"caesarsage"}}},{"id":"019493a2-88f5-7cc6-93e5-ce1349d553c7","created_on":"2025-01-23T14:48:10.229Z","email":"rander@yopmail.com","first_name":"Adey","last_name":"Train","last_active":"2025-01-23T14:48:10.229Z","phone":null,"userProfile":{"id":"019493a2-88fc-7cc6-93e5-d4e96a8b8692","status":"active","role_id":"01926788-1eaf-7336-86de-89316b9797d9","role":{"name":"Initiator","slug":"initiator"}}}],"meta":{"page":1,"total_pages":4,"total_items":31}}