{"status":"success","data":[{"id":"01949806-dd37-7dd2-b9a1-6239ad89477f","created_on":"2025-01-24T11:16:14.264Z","email":"Shanahan@mailinator.com","first_name":"Eveline","last_name":"Bins","last_active":"2025-01-24T11:16:14.264Z","phone":null,"userProfile":{"id":"01949806-dd3e-7dd2-b9a1-6fc7979125a6","status":"active","role_id":"0194390f-3451-7aa1-9609-b7bb23e65f18","role":{"name":"Licensed Steel Glove","slug":"licensed-steel-glove"}}},{"id":"019497f5-fce5-7dd2-b9a0-f89181c802ff","created_on":"2025-01-24T10:57:48.261Z","email":"Yan@yopmail.com","first_name":"Feee","last_name":"yes","last_active":"2025-01-24T11:05:29.718Z","phone":null,"userProfile":{"id":"019497f5-fceb-7dd2-b9a1-045cac259aad","status":"active","role_id":"019485a0-e971-7886-8c7b-57eec9197a22","role":{"name":"caesarsage","slug":"caesarsage"}}},{"id":"019497f4-a00e-7dd2-b9a0-eb070385514b","created_on":"2025-01-24T10:56:18.958Z","email":"yang@yopmail.com","first_name":"Jane","last_name":"stay","last_active":"2025-01-24T10:56:18.958Z","phone":null,"userProfile":{"id":"019497f4-a011-7dd2-b9a0-f129ef25b0da","status":"active","role_id":"01926788-1eaf-7336-86de-89316b9797d9","role":{"name":"Initiator","slug":"initiator"}}},{"id":"01949742-bc1c-7ccf-a602-4e9981872839","created_on":"2025-01-24T07:42:00.732Z","email":"caesar.de.hero@gmail.com","first_name":null,"last_name":null,"last_active":"2025-01-24T07:42:00.732Z","phone":null,"userProfile":{"id":"01949742-bc26-7ccf-a602-51b54ea8b6fb","status":"active","role_id":"01949420-128c-7228-a8d2-e340e02367eb","role":{"name":"All roles ","slug":"all-roles"}}},{"id":"01949444-2364-7228-a8d5-2849410f4d26","created_on":"2025-01-23T17:44:41.060Z","email":"random@yopmail.com","first_name":"Feee","last_name":"stay","last_active":"2025-01-23T17:50:46.007Z","phone":null,"userProfile":{"id":"01949444-2369-7228-a8d5-31c9b2b7271c","status":"active","role_id":"01926788-56f8-7336-86de-98a2678c8611","role":{"name":"Authorizer","slug":"authorizer"}}},{"id":"019493cc-a96a-7aa1-bdcd-f28ebe86524e","created_on":"2025-01-23T15:34:11.050Z","email":"ran@yopmail.com","first_name":"Feee","last_name":"flee","last_active":"2025-01-23T15:38:00.919Z","phone":null,"userProfile":{"id":"019493cc-a970-7aa1-bdcd-fadcbf0ffe30","status":"active","role_id":"01926788-56f8-7336-86de-98a2678c8611","role":{"name":"Authorizer","slug":"authorizer"}}},{"id":"019493a2-88f5-7cc6-93e5-ce1349d553c7","created_on":"2025-01-23T14:48:10.229Z","email":"rander@yopmail.com","first_name":"Adey","last_name":"Train","last_active":"2025-01-23T14:48:10.229Z","phone":null,"userProfile":{"id":"019493a2-88fc-7cc6-93e5-d4e96a8b8692","status":"active","role_id":"01926788-1eaf-7336-86de-89316b9797d9","role":{"name":"Initiator","slug":"initiator"}}},{"id":"0194939a-406b-7cc6-93e5-88de51673c0f","created_on":"2025-01-23T14:39:07.370Z","email":"rand@yopmail.com","first_name":"Adere","last_name":"Rant","last_active":"2025-01-23T14:39:07.370Z","phone":null,"userProfile":{"id":"0194939a-4072-7cc6-93e5-96e30ae527fc","status":"active","role_id":"01926788-1eaf-7336-86de-89316b9797d9","role":{"name":"Initiator","slug":"initiator"}}},{"id":"0194779e-0699-722d-b130-8816d366e2fc","created_on":"2025-01-18T04:13:52.665Z","email":"destinyerhabor6@gmail.com","first_name":"Destiny","last_name":"Erhabor","last_active":"2025-01-24T16:58:18.769Z","phone":null,"userProfile":{"id":"0194799f-14dc-722d-b131-aca193c9e35a","status":"active","role_id":"01926788-56f8-7336-86de-98a2678c8611","role":{"name":"Authorizer","slug":"authorizer"}}},{"id":"01946808-7023-777b-9e0c-2de1732fd3a5","created_on":"2025-01-15T03:36:11.043Z","email":"Klein@mailinator.com","first_name":"Cornelius","last_name":"Ferry","last_active":"2025-01-23T16:27:44.343Z","phone":null,"userProfile":{"id":"01946808-702b-777b-9e0c-36d7e3825b42","status":"active","role_id":"019435d3-5e27-7aa1-b636-0e6113f9564e","role":{"name":"Handmade Rubber Mouse","slug":"handmade-rubber-mouse"}}}],"meta":{"page":1,"total_pages":2,"total_items":15}}