{"status":"success","data":[{"id":"01948f99-d53e-7cc6-93df-3aee2f089709","meta":{"pin":"1234","amount":2150,"biller_id":"dstv","option_id":"NLTESE36","category_id":"cabletv","account_number":"568976543"},"created_on":"2025-01-22T20:00:11.069Z","created_by_id":"019372de-17ef-7cc2-8fc0-43fe11ba042f","modified_on":"2025-01-22T20:00:11.069Z","modified_by_id":null,"deleted_on":null,"deleted_by_id":null,"tenant_id":"00000000-0000-0000-0000-000000000000","frequency":"monthly","type":"bill-payment","start_date":"2025-01-23T00:00:00.000Z","next_run_date":"2025-01-23T00:00:00.000Z","end_date":"2025-01-31T23:59:59.999Z","status":"active","amount":"0.00","profile_id":"0193a649-e3d0-7881-8b7f-2ef1d89a9aff","account_id":"0193a699-2f15-7881-8b7f-ae50980bcfad","user":{"id":"019372de-17ef-7cc2-8fc0-43fe11ba042f","meta":null,"created_on":"2024-11-28T13:02:58.029Z","created_by_id":null,"modified_on":"2025-01-26T20:13:39.994Z","modified_by_id":"019372de-17ef-7cc2-8fc0-43fe11ba042f","deleted_on":null,"deleted_by_id":null,"tenant_id":"00000000-0000-0000-0000-000000000000","email":"Ismael@mailinator.com","status":"active","first_name":"Sunday","last_name":"Testing","twofa_enabled":false,"last_active":"2025-01-26T20:13:39.975Z","last_ip":"172.69.7.78","allowed_ips":null,"last_timezone":"America/Chicago","last_location":"Chicago","phone":"+2349055755671","review":null,"gender":"male","date_of_birth":null,"cba_id":"31","photo_id":null,"referral_code":"7LD1QN","allowed_locations":null,"referred_by":null}},{"id":"01948f98-0416-7cc6-93df-30e862e5c3b1","meta":{"pin":"1234","amount":100,"biller_id":"kedco_electric_postpaid","option_id":null,"category_id":"electricity","account_number":"7876"},"created_on":"2025-01-22T19:58:11.988Z","created_by_id":"019372de-17ef-7cc2-8fc0-43fe11ba042f","modified_on":"2025-01-22T19:58:11.988Z","modified_by_id":null,"deleted_on":null,"deleted_by_id":null,"tenant_id":"00000000-0000-0000-0000-000000000000","frequency":"weekly","type":"bill-payment","start_date":"2025-01-23T00:00:00.000Z","next_run_date":"2025-01-23T00:00:00.000Z","end_date":"2025-01-31T23:59:59.999Z","status":"active","amount":"0.00","profile_id":"0193a649-e3d0-7881-8b7f-2ef1d89a9aff","account_id":"0193a699-2f15-7881-8b7f-ae50980bcfad","user":{"id":"019372de-17ef-7cc2-8fc0-43fe11ba042f","meta":null,"created_on":"2024-11-28T13:02:58.029Z","created_by_id":null,"modified_on":"2025-01-26T20:13:39.994Z","modified_by_id":"019372de-17ef-7cc2-8fc0-43fe11ba042f","deleted_on":null,"deleted_by_id":null,"tenant_id":"00000000-0000-0000-0000-000000000000","email":"Ismael@mailinator.com","status":"active","first_name":"Sunday","last_name":"Testing","twofa_enabled":false,"last_active":"2025-01-26T20:13:39.975Z","last_ip":"172.69.7.78","allowed_ips":null,"last_timezone":"America/Chicago","last_location":"Chicago","phone":"+2349055755671","review":null,"gender":"male","date_of_birth":null,"cba_id":"31","photo_id":null,"referral_code":"7LD1QN","allowed_locations":null,"referred_by":null}},{"id":"01948f55-aee3-7cc6-93db-7389bcf8da53","meta":{"pin":"1234","amount":100,"biller_id":"9mobile","option_id":"","category_id":"airtime","account_number":"08138096566"},"created_on":"2025-01-22T18:45:44.802Z","created_by_id":"019372de-17ef-7cc2-8fc0-43fe11ba042f","modified_on":"2025-01-22T18:45:44.802Z","modified_by_id":null,"deleted_on":null,"deleted_by_id":null,"tenant_id":"00000000-0000-0000-0000-000000000000","frequency":"daily","type":"bill-payment","start_date":"2025-01-23T00:00:00.000Z","next_run_date":"2025-01-23T00:00:00.000Z","end_date":"2025-01-30T23:59:59.999Z","status":"active","amount":"0.00","profile_id":"0193a649-e3d0-7881-8b7f-2ef1d89a9aff","account_id":"0193a699-2f15-7881-8b7f-ae50980bcfad","user":{"id":"019372de-17ef-7cc2-8fc0-43fe11ba042f","meta":null,"created_on":"2024-11-28T13:02:58.029Z","created_by_id":null,"modified_on":"2025-01-26T20:13:39.994Z","modified_by_id":"019372de-17ef-7cc2-8fc0-43fe11ba042f","deleted_on":null,"deleted_by_id":null,"tenant_id":"00000000-0000-0000-0000-000000000000","email":"Ismael@mailinator.com","status":"active","first_name":"Sunday","last_name":"Testing","twofa_enabled":false,"last_active":"2025-01-26T20:13:39.975Z","last_ip":"172.69.7.78","allowed_ips":null,"last_timezone":"America/Chicago","last_location":"Chicago","phone":"+2349055755671","review":null,"gender":"male","date_of_birth":null,"cba_id":"31","photo_id":null,"referral_code":"7LD1QN","allowed_locations":null,"referred_by":null}},{"id":"01948f3a-c16d-7cc6-93d8-bd46dfe11b73","meta":{"pin":"1234","amount":50,"biller_id":"airtel","option_id":"49.99","category_id":"databundle","account_number":"8123478878"},"created_on":"2025-01-22T18:16:20.076Z","created_by_id":"019372de-17ef-7cc2-8fc0-43fe11ba042f","modified_on":"2025-01-22T18:16:20.076Z","modified_by_id":null,"deleted_on":null,"deleted_by_id":null,"tenant_id":"00000000-0000-0000-0000-000000000000","frequency":"daily","type":"bill-payment","start_date":"2025-01-22T19:15:56.839Z","next_run_date":"2025-01-22T19:15:56.839Z","end_date":"2025-01-30T23:59:59.999Z","status":"active","amount":"0.00","profile_id":"0193a649-e3d0-7881-8b7f-2ef1d89a9aff","account_id":"0193a699-2f15-7881-8b7f-ae50980bcfad","user":{"id":"019372de-17ef-7cc2-8fc0-43fe11ba042f","meta":null,"created_on":"2024-11-28T13:02:58.029Z","created_by_id":null,"modified_on":"2025-01-26T20:13:39.994Z","modified_by_id":"019372de-17ef-7cc2-8fc0-43fe11ba042f","deleted_on":null,"deleted_by_id":null,"tenant_id":"00000000-0000-0000-0000-000000000000","email":"Ismael@mailinator.com","status":"active","first_name":"Sunday","last_name":"Testing","twofa_enabled":false,"last_active":"2025-01-26T20:13:39.975Z","last_ip":"172.69.7.78","allowed_ips":null,"last_timezone":"America/Chicago","last_location":"Chicago","phone":"+2349055755671","review":null,"gender":"male","date_of_birth":null,"cba_id":"31","photo_id":null,"referral_code":"7LD1QN","allowed_locations":null,"referred_by":null}},{"id":"01948eaf-8eab-7cc6-93d5-617c764ae3ff","meta":{"recipients":[{"amount":100,"bank_code":"050030","bank_name":"NORTHQUEST FINANCE COMPANY LIMITED ","narration":"","account_name":"Profile","account_number":"0000000108"}]},"created_on":"2025-01-22T15:44:17.578Z","created_by_id":"019372de-17ef-7cc2-8fc0-43fe11ba042f","modified_on":"2025-01-22T15:44:17.578Z","modified_by_id":null,"deleted_on":null,"deleted_by_id":null,"tenant_id":"00000000-0000-0000-0000-000000000000","frequency":"daily","type":"transfer","start_date":"2025-01-23T00:00:00.000Z","next_run_date":"2025-01-23T00:00:00.000Z","end_date":"2025-01-31T23:59:59.999Z","status":"active","amount":"0.00","profile_id":"0193a649-e3d0-7881-8b7f-2ef1d89a9aff","account_id":"0193a699-2f15-7881-8b7f-ae50980bcfad","user":{"id":"019372de-17ef-7cc2-8fc0-43fe11ba042f","meta":null,"created_on":"2024-11-28T13:02:58.029Z","created_by_id":null,"modified_on":"2025-01-26T20:13:39.994Z","modified_by_id":"019372de-17ef-7cc2-8fc0-43fe11ba042f","deleted_on":null,"deleted_by_id":null,"tenant_id":"00000000-0000-0000-0000-000000000000","email":"Ismael@mailinator.com","status":"active","first_name":"Sunday","last_name":"Testing","twofa_enabled":false,"last_active":"2025-01-26T20:13:39.975Z","last_ip":"172.69.7.78","allowed_ips":null,"last_timezone":"America/Chicago","last_location":"Chicago","phone":"+2349055755671","review":null,"gender":"male","date_of_birth":null,"cba_id":"31","photo_id":null,"referral_code":"7LD1QN","allowed_locations":null,"referred_by":null}},{"id":"01948eaf-4dd0-7cc6-93d5-5bfac3d9b98a","meta":{"pin":"1234","amount":100,"biller_id":"mtn","option_id":"","category_id":"airtime","account_number":"+2348138096556"},"created_on":"2025-01-22T15:44:00.974Z","created_by_id":"019372de-17ef-7cc2-8fc0-43fe11ba042f","modified_on":"2025-01-22T15:44:00.974Z","modified_by_id":null,"deleted_on":null,"deleted_by_id":null,"tenant_id":"00000000-0000-0000-0000-000000000000","frequency":"daily","type":"bill-payment","start_date":"2025-01-23T00:00:00.000Z","next_run_date":"2025-01-23T00:00:00.000Z","end_date":"2025-01-31T23:59:59.999Z","status":"active","amount":"0.00","profile_id":"0193a649-e3d0-7881-8b7f-2ef1d89a9aff","account_id":"0193a699-2f15-7881-8b7f-ae50980bcfad","user":{"id":"019372de-17ef-7cc2-8fc0-43fe11ba042f","meta":null,"created_on":"2024-11-28T13:02:58.029Z","created_by_id":null,"modified_on":"2025-01-26T20:13:39.994Z","modified_by_id":"019372de-17ef-7cc2-8fc0-43fe11ba042f","deleted_on":null,"deleted_by_id":null,"tenant_id":"00000000-0000-0000-0000-000000000000","email":"Ismael@mailinator.com","status":"active","first_name":"Sunday","last_name":"Testing","twofa_enabled":false,"last_active":"2025-01-26T20:13:39.975Z","last_ip":"172.69.7.78","allowed_ips":null,"last_timezone":"America/Chicago","last_location":"Chicago","phone":"+2349055755671","review":null,"gender":"male","date_of_birth":null,"cba_id":"31","photo_id":null,"referral_code":"7LD1QN","allowed_locations":null,"referred_by":null}},{"id":"01948e58-8064-7cc6-93d1-c68b80be7f81","meta":{"pin":"1234","amount":3000,"biller_id":"airtel","option_id":"","category_id":"airtime","account_number":"08141370086"},"created_on":"2025-01-22T14:09:12.291Z","created_by_id":"019372de-17ef-7cc2-8fc0-43fe11ba042f","modified_on":"2025-01-22T14:09:12.291Z","modified_by_id":null,"deleted_on":null,"deleted_by_id":null,"tenant_id":"00000000-0000-0000-0000-000000000000","frequency":"daily","type":"bill-payment","start_date":"2025-01-23T00:00:00.000Z","next_run_date":"2025-01-23T00:00:00.000Z","end_date":"2025-01-30T23:59:59.999Z","status":"active","amount":"0.00","profile_id":"0193a649-e3d0-7881-8b7f-2ef1d89a9aff","account_id":"0193a699-2f15-7881-8b7f-ae50980bcfad","user":{"id":"019372de-17ef-7cc2-8fc0-43fe11ba042f","meta":null,"created_on":"2024-11-28T13:02:58.029Z","created_by_id":null,"modified_on":"2025-01-26T20:13:39.994Z","modified_by_id":"019372de-17ef-7cc2-8fc0-43fe11ba042f","deleted_on":null,"deleted_by_id":null,"tenant_id":"00000000-0000-0000-0000-000000000000","email":"Ismael@mailinator.com","status":"active","first_name":"Sunday","last_name":"Testing","twofa_enabled":false,"last_active":"2025-01-26T20:13:39.975Z","last_ip":"172.69.7.78","allowed_ips":null,"last_timezone":"America/Chicago","last_location":"Chicago","phone":"+2349055755671","review":null,"gender":"male","date_of_birth":null,"cba_id":"31","photo_id":null,"referral_code":"7LD1QN","allowed_locations":null,"referred_by":null}},{"id":"01948e53-8755-7cc6-93d1-970e45e77225","meta":{"pin":"1234","amount":900,"biller_id":"gotv","option_id":"GOHAN","category_id":"cabletv","account_number":"08101259872"},"created_on":"2025-01-22T14:03:46.388Z","created_by_id":"019372de-17ef-7cc2-8fc0-43fe11ba042f","modified_on":"2025-01-22T14:03:46.388Z","modified_by_id":null,"deleted_on":null,"deleted_by_id":null,"tenant_id":"00000000-0000-0000-0000-000000000000","frequency":"weekly","type":"bill-payment","start_date":"2025-01-23T00:00:00.000Z","next_run_date":"2025-01-23T00:00:00.000Z","end_date":"2025-01-30T23:59:59.999Z","status":"active","amount":"0.00","profile_id":"0193a649-e3d0-7881-8b7f-2ef1d89a9aff","account_id":"0193a699-2f15-7881-8b7f-ae50980bcfad","user":{"id":"019372de-17ef-7cc2-8fc0-43fe11ba042f","meta":null,"created_on":"2024-11-28T13:02:58.029Z","created_by_id":null,"modified_on":"2025-01-26T20:13:39.994Z","modified_by_id":"019372de-17ef-7cc2-8fc0-43fe11ba042f","deleted_on":null,"deleted_by_id":null,"tenant_id":"00000000-0000-0000-0000-000000000000","email":"Ismael@mailinator.com","status":"active","first_name":"Sunday","last_name":"Testing","twofa_enabled":false,"last_active":"2025-01-26T20:13:39.975Z","last_ip":"172.69.7.78","allowed_ips":null,"last_timezone":"America/Chicago","last_location":"Chicago","phone":"+2349055755671","review":null,"gender":"male","date_of_birth":null,"cba_id":"31","photo_id":null,"referral_code":"7LD1QN","allowed_locations":null,"referred_by":null}},{"id":"01948e22-87ea-7cc6-93cf-a23d49048dca","meta":{"recipients":[{"amount":3000,"bank_code":"000017","bank_name":"Wema Bank","narration":"","account_name":"John Doe","account_number":"0112345678"}]},"created_on":"2025-01-22T13:10:15.274Z","created_by_id":"019372de-17ef-7cc2-8fc0-43fe11ba042f","modified_on":"2025-01-22T13:10:15.274Z","modified_by_id":null,"deleted_on":null,"deleted_by_id":null,"tenant_id":"00000000-0000-0000-0000-000000000000","frequency":"weekly","type":"transfer","start_date":"2025-01-23T00:00:00.000Z","next_run_date":"2025-01-23T00:00:00.000Z","end_date":"2025-01-30T23:59:59.999Z","status":"active","amount":"0.00","profile_id":"0193a649-e3d0-7881-8b7f-2ef1d89a9aff","account_id":"0193a699-2f15-7881-8b7f-ae50980bcfad","user":{"id":"019372de-17ef-7cc2-8fc0-43fe11ba042f","meta":null,"created_on":"2024-11-28T13:02:58.029Z","created_by_id":null,"modified_on":"2025-01-26T20:13:39.994Z","modified_by_id":"019372de-17ef-7cc2-8fc0-43fe11ba042f","deleted_on":null,"deleted_by_id":null,"tenant_id":"00000000-0000-0000-0000-000000000000","email":"Ismael@mailinator.com","status":"active","first_name":"Sunday","last_name":"Testing","twofa_enabled":false,"last_active":"2025-01-26T20:13:39.975Z","last_ip":"172.69.7.78","allowed_ips":null,"last_timezone":"America/Chicago","last_location":"Chicago","phone":"+2349055755671","review":null,"gender":"male","date_of_birth":null,"cba_id":"31","photo_id":null,"referral_code":"7LD1QN","allowed_locations":null,"referred_by":null}},{"id":"01948df5-a29f-7227-9742-adde1bd37a8c","meta":{"recipients":[{"bank_code":"000017","bank_name":"Wema Bank","narration":"hello","account_name":"John Doe","account_number":"8585963258"}]},"created_on":"2025-01-22T12:21:12.990Z","created_by_id":"019372de-17ef-7cc2-8fc0-43fe11ba042f","modified_on":"2025-01-22T12:21:12.990Z","modified_by_id":null,"deleted_on":null,"deleted_by_id":null,"tenant_id":"00000000-0000-0000-0000-000000000000","frequency":"weekly","type":"transfer","start_date":"2025-01-29T23:00:00.000Z","next_run_date":"2025-01-29T23:00:00.000Z","end_date":"2025-01-31T22:59:59.999Z","status":"active","amount":"3000.00","profile_id":"0193a649-e3d0-7881-8b7f-2ef1d89a9aff","account_id":"0193a699-2f15-7881-8b7f-ae50980bcfad","user":{"id":"019372de-17ef-7cc2-8fc0-43fe11ba042f","meta":null,"created_on":"2024-11-28T13:02:58.029Z","created_by_id":null,"modified_on":"2025-01-26T20:13:39.994Z","modified_by_id":"019372de-17ef-7cc2-8fc0-43fe11ba042f","deleted_on":null,"deleted_by_id":null,"tenant_id":"00000000-0000-0000-0000-000000000000","email":"Ismael@mailinator.com","status":"active","first_name":"Sunday","last_name":"Testing","twofa_enabled":false,"last_active":"2025-01-26T20:13:39.975Z","last_ip":"172.69.7.78","allowed_ips":null,"last_timezone":"America/Chicago","last_location":"Chicago","phone":"+2349055755671","review":null,"gender":"male","date_of_birth":null,"cba_id":"31","photo_id":null,"referral_code":"7LD1QN","allowed_locations":null,"referred_by":null}}],"meta":{"page":1,"total_pages":8,"total_items":75}}