{"status":"success","data":[{"id":"0194a37d-35d8-766d-8c56-cf77d2d315d4","meta":null,"created_on":"2025-01-26T16:41:19.659Z","created_by_id":"019317a0-b7e5-7eeb-a7eb-bd18cf39a633","modified_on":"2025-01-26T16:41:25.687Z","modified_by_id":"019317a0-b7e5-7eeb-a7eb-bd18cf39a633","deleted_on":null,"deleted_by_id":null,"tenant_id":"00000000-0000-0000-0000-000000000000","account_id":"0193a699-2f15-7881-8b7f-ae50980bcfad","profile_id":"0193a649-e3d0-7881-8b7f-2ef1d89a9aff","cba_id":"2103","currency":"NGN","amount":"100.00","balance_after":null,"reference":"Thefnutywya","processor_reference":null,"processor_status":null,"processor_message":null,"status":"success","entry_type":"debit","narration":"Bill payment to betway for 34382","transaction_date":"2025-01-26T16:41:19.369Z","transaction_type":"bill-payment","processor":"baxipay","reviewed_on":null,"reviewed_by":null,"batch_id":null,"schedule_id":null,"account":{"id":"0193a699-2f15-7881-8b7f-ae50980bcfad","meta":null,"created_on":"2024-12-08T14:07:57.204Z","created_by_id":null,"modified_on":"2025-01-26T20:13:53.084Z","modified_by_id":"019372de-17ef-7cc2-8fc0-43fe11ba042f","deleted_on":null,"deleted_by_id":null,"tenant_id":"00000000-0000-0000-0000-000000000000","name":"expenses","cba_id":"0000000074","status":"active","profile_id":"0193a649-e3d0-7881-8b7f-2ef1d89a9aff","account_number":"0000000074","bank_id":"0193324f-cad0-7f86-923b-43fb21ac5b29","ledger_balance":"374991.02","hold_balance":"0.00","available_balance":"374991.02","currency":"NGN","restricted":false},"transfer":null,"disputes":[],"batch":null,"transfer_beneficiary":null,"bill_payment_beneficiary":null},{"id":"0194a37a-ee5b-7775-89e6-979a7328a3d7","meta":null,"created_on":"2025-01-26T16:38:50.287Z","created_by_id":"019317a0-b7e5-7eeb-a7eb-bd18cf39a633","modified_on":"2025-01-26T16:38:56.327Z","modified_by_id":"019317a0-b7e5-7eeb-a7eb-bd18cf39a633","deleted_on":null,"deleted_by_id":null,"tenant_id":"00000000-0000-0000-0000-000000000000","account_id":"0193a699-2f15-7881-8b7f-ae50980bcfad","profile_id":"0193a649-e3d0-7881-8b7f-2ef1d89a9aff","cba_id":"2102","currency":"NGN","amount":"100.00","balance_after":null,"reference":"Tjqtttjzktv","processor_reference":null,"processor_status":null,"processor_message":null,"status":"success","entry_type":"debit","narration":"Bill payment to betway for 34382","transaction_date":"2025-01-26T16:38:50.007Z","transaction_type":"bill-payment","processor":"baxipay","reviewed_on":null,"reviewed_by":null,"batch_id":null,"schedule_id":null,"account":{"id":"0193a699-2f15-7881-8b7f-ae50980bcfad","meta":null,"created_on":"2024-12-08T14:07:57.204Z","created_by_id":null,"modified_on":"2025-01-26T20:13:53.084Z","modified_by_id":"019372de-17ef-7cc2-8fc0-43fe11ba042f","deleted_on":null,"deleted_by_id":null,"tenant_id":"00000000-0000-0000-0000-000000000000","name":"expenses","cba_id":"0000000074","status":"active","profile_id":"0193a649-e3d0-7881-8b7f-2ef1d89a9aff","account_number":"0000000074","bank_id":"0193324f-cad0-7f86-923b-43fb21ac5b29","ledger_balance":"374991.02","hold_balance":"0.00","available_balance":"374991.02","currency":"NGN","restricted":false},"transfer":null,"disputes":[],"batch":null,"transfer_beneficiary":null,"bill_payment_beneficiary":null},{"id":"0194a378-6048-7885-9f10-60baee9f9c63","meta":null,"created_on":"2025-01-26T16:36:02.842Z","created_by_id":"019317a0-b7e5-7eeb-a7eb-bd18cf39a633","modified_on":"2025-01-26T16:36:09.652Z","modified_by_id":"019317a0-b7e5-7eeb-a7eb-bd18cf39a633","deleted_on":null,"deleted_by_id":null,"tenant_id":"00000000-0000-0000-0000-000000000000","account_id":"0193a699-2f15-7881-8b7f-ae50980bcfad","profile_id":"0193a649-e3d0-7881-8b7f-2ef1d89a9aff","cba_id":"2101","currency":"NGN","amount":"100.00","balance_after":null,"reference":"Twvjrbpxmct","processor_reference":null,"processor_status":null,"processor_message":null,"status":"success","entry_type":"debit","narration":"Bill payment to betway for 34382","transaction_date":"2025-01-26T16:36:02.562Z","transaction_type":"bill-payment","processor":"baxipay","reviewed_on":null,"reviewed_by":null,"batch_id":null,"schedule_id":null,"account":{"id":"0193a699-2f15-7881-8b7f-ae50980bcfad","meta":null,"created_on":"2024-12-08T14:07:57.204Z","created_by_id":null,"modified_on":"2025-01-26T20:13:53.084Z","modified_by_id":"019372de-17ef-7cc2-8fc0-43fe11ba042f","deleted_on":null,"deleted_by_id":null,"tenant_id":"00000000-0000-0000-0000-000000000000","name":"expenses","cba_id":"0000000074","status":"active","profile_id":"0193a649-e3d0-7881-8b7f-2ef1d89a9aff","account_number":"0000000074","bank_id":"0193324f-cad0-7f86-923b-43fb21ac5b29","ledger_balance":"374991.02","hold_balance":"0.00","available_balance":"374991.02","currency":"NGN","restricted":false},"transfer":null,"disputes":[],"batch":null,"transfer_beneficiary":null,"bill_payment_beneficiary":null},{"id":"0194a376-e7a3-799b-affd-0911bb27ea52","meta":null,"created_on":"2025-01-26T16:34:26.423Z","created_by_id":"019317a0-b7e5-7eeb-a7eb-bd18cf39a633","modified_on":"2025-01-26T16:34:32.382Z","modified_by_id":"019317a0-b7e5-7eeb-a7eb-bd18cf39a633","deleted_on":null,"deleted_by_id":null,"tenant_id":"00000000-0000-0000-0000-000000000000","account_id":"0193a699-2f15-7881-8b7f-ae50980bcfad","profile_id":"0193a649-e3d0-7881-8b7f-2ef1d89a9aff","cba_id":"2100","currency":"NGN","amount":"100.00","balance_after":null,"reference":"Tlcxybpdqit","processor_reference":null,"processor_status":null,"processor_message":null,"status":"success","entry_type":"debit","narration":"Bill payment to betway for 34382","transaction_date":"2025-01-26T16:34:26.142Z","transaction_type":"bill-payment","processor":"baxipay","reviewed_on":null,"reviewed_by":null,"batch_id":null,"schedule_id":null,"account":{"id":"0193a699-2f15-7881-8b7f-ae50980bcfad","meta":null,"created_on":"2024-12-08T14:07:57.204Z","created_by_id":null,"modified_on":"2025-01-26T20:13:53.084Z","modified_by_id":"019372de-17ef-7cc2-8fc0-43fe11ba042f","deleted_on":null,"deleted_by_id":null,"tenant_id":"00000000-0000-0000-0000-000000000000","name":"expenses","cba_id":"0000000074","status":"active","profile_id":"0193a649-e3d0-7881-8b7f-2ef1d89a9aff","account_number":"0000000074","bank_id":"0193324f-cad0-7f86-923b-43fb21ac5b29","ledger_balance":"374991.02","hold_balance":"0.00","available_balance":"374991.02","currency":"NGN","restricted":false},"transfer":null,"disputes":[],"batch":null,"transfer_beneficiary":null,"bill_payment_beneficiary":null},{"id":"0194a374-ceef-7ee9-8b6b-49d9b08555d5","meta":null,"created_on":"2025-01-26T16:32:09.028Z","created_by_id":"019317a0-b7e5-7eeb-a7eb-bd18cf39a633","modified_on":"2025-01-26T16:32:15.053Z","modified_by_id":"019317a0-b7e5-7eeb-a7eb-bd18cf39a633","deleted_on":null,"deleted_by_id":null,"tenant_id":"00000000-0000-0000-0000-000000000000","account_id":"0193a699-2f15-7881-8b7f-ae50980bcfad","profile_id":"0193a649-e3d0-7881-8b7f-2ef1d89a9aff","cba_id":"2099","currency":"NGN","amount":"100.00","balance_after":null,"reference":"Tbcaropvfcr","processor_reference":null,"processor_status":null,"processor_message":null,"status":"success","entry_type":"debit","narration":"Bill payment to betway for 34382","transaction_date":"2025-01-26T16:32:08.736Z","transaction_type":"bill-payment","processor":"baxipay","reviewed_on":null,"reviewed_by":null,"batch_id":null,"schedule_id":null,"account":{"id":"0193a699-2f15-7881-8b7f-ae50980bcfad","meta":null,"created_on":"2024-12-08T14:07:57.204Z","created_by_id":null,"modified_on":"2025-01-26T20:13:53.084Z","modified_by_id":"019372de-17ef-7cc2-8fc0-43fe11ba042f","deleted_on":null,"deleted_by_id":null,"tenant_id":"00000000-0000-0000-0000-000000000000","name":"expenses","cba_id":"0000000074","status":"active","profile_id":"0193a649-e3d0-7881-8b7f-2ef1d89a9aff","account_number":"0000000074","bank_id":"0193324f-cad0-7f86-923b-43fb21ac5b29","ledger_balance":"374991.02","hold_balance":"0.00","available_balance":"374991.02","currency":"NGN","restricted":false},"transfer":null,"disputes":[],"batch":null,"transfer_beneficiary":null,"bill_payment_beneficiary":null},{"id":"0194a373-342e-7ff1-ae4f-f34142e1e439","meta":null,"created_on":"2025-01-26T16:30:23.887Z","created_by_id":"019317a0-b7e5-7eeb-a7eb-bd18cf39a633","modified_on":"2025-01-26T16:30:30.620Z","modified_by_id":"019317a0-b7e5-7eeb-a7eb-bd18cf39a633","deleted_on":null,"deleted_by_id":null,"tenant_id":"00000000-0000-0000-0000-000000000000","account_id":"0193a699-2f15-7881-8b7f-ae50980bcfad","profile_id":"0193a649-e3d0-7881-8b7f-2ef1d89a9aff","cba_id":"2098","currency":"NGN","amount":"100.00","balance_after":null,"reference":"Thutxaxgfak","processor_reference":null,"processor_status":null,"processor_message":null,"status":"success","entry_type":"debit","narration":"Bill payment to betway for 34382","transaction_date":"2025-01-26T16:30:23.595Z","transaction_type":"bill-payment","processor":"baxipay","reviewed_on":null,"reviewed_by":null,"batch_id":null,"schedule_id":null,"account":{"id":"0193a699-2f15-7881-8b7f-ae50980bcfad","meta":null,"created_on":"2024-12-08T14:07:57.204Z","created_by_id":null,"modified_on":"2025-01-26T20:13:53.084Z","modified_by_id":"019372de-17ef-7cc2-8fc0-43fe11ba042f","deleted_on":null,"deleted_by_id":null,"tenant_id":"00000000-0000-0000-0000-000000000000","name":"expenses","cba_id":"0000000074","status":"active","profile_id":"0193a649-e3d0-7881-8b7f-2ef1d89a9aff","account_number":"0000000074","bank_id":"0193324f-cad0-7f86-923b-43fb21ac5b29","ledger_balance":"374991.02","hold_balance":"0.00","available_balance":"374991.02","currency":"NGN","restricted":false},"transfer":null,"disputes":[],"batch":null,"transfer_beneficiary":null,"bill_payment_beneficiary":null},{"id":"0194a36e-97a4-7bbc-93c6-6abf8e278cd4","meta":null,"created_on":"2025-01-26T16:25:21.649Z","created_by_id":"019317a0-b7e5-7eeb-a7eb-bd18cf39a633","modified_on":"2025-01-26T16:25:27.327Z","modified_by_id":"019317a0-b7e5-7eeb-a7eb-bd18cf39a633","deleted_on":null,"deleted_by_id":null,"tenant_id":"00000000-0000-0000-0000-000000000000","account_id":"0193a699-2f15-7881-8b7f-ae50980bcfad","profile_id":"0193a649-e3d0-7881-8b7f-2ef1d89a9aff","cba_id":"2097","currency":"NGN","amount":"100.00","balance_after":null,"reference":"Tsqldwoygkz","processor_reference":null,"processor_status":null,"processor_message":null,"status":"success","entry_type":"debit","narration":"Bill payment to betway for 34382","transaction_date":"2025-01-26T16:25:21.356Z","transaction_type":"bill-payment","processor":"baxipay","reviewed_on":null,"reviewed_by":null,"batch_id":null,"schedule_id":null,"account":{"id":"0193a699-2f15-7881-8b7f-ae50980bcfad","meta":null,"created_on":"2024-12-08T14:07:57.204Z","created_by_id":null,"modified_on":"2025-01-26T20:13:53.084Z","modified_by_id":"019372de-17ef-7cc2-8fc0-43fe11ba042f","deleted_on":null,"deleted_by_id":null,"tenant_id":"00000000-0000-0000-0000-000000000000","name":"expenses","cba_id":"0000000074","status":"active","profile_id":"0193a649-e3d0-7881-8b7f-2ef1d89a9aff","account_number":"0000000074","bank_id":"0193324f-cad0-7f86-923b-43fb21ac5b29","ledger_balance":"374991.02","hold_balance":"0.00","available_balance":"374991.02","currency":"NGN","restricted":false},"transfer":null,"disputes":[],"batch":null,"transfer_beneficiary":null,"bill_payment_beneficiary":null},{"id":"0194a36d-8c0a-7ff3-8abc-2f8e076dc941","meta":null,"created_on":"2025-01-26T16:24:13.162Z","created_by_id":"019317a0-b7e5-7eeb-a7eb-bd18cf39a633","modified_on":"2025-01-26T16:24:18.304Z","modified_by_id":"019317a0-b7e5-7eeb-a7eb-bd18cf39a633","deleted_on":null,"deleted_by_id":null,"tenant_id":"00000000-0000-0000-0000-000000000000","account_id":"0193a699-2f15-7881-8b7f-ae50980bcfad","profile_id":"0193a649-e3d0-7881-8b7f-2ef1d89a9aff","cba_id":"2096","currency":"NGN","amount":"100.00","balance_after":null,"reference":"Tsuwryfncih","processor_reference":null,"processor_status":null,"processor_message":"action is a required field","status":"failed","entry_type":"debit","narration":"Bill payment to betway for 34382","transaction_date":"2025-01-26T16:24:12.868Z","transaction_type":"bill-payment","processor":"baxipay","reviewed_on":null,"reviewed_by":null,"batch_id":null,"schedule_id":null,"account":{"id":"0193a699-2f15-7881-8b7f-ae50980bcfad","meta":null,"created_on":"2024-12-08T14:07:57.204Z","created_by_id":null,"modified_on":"2025-01-26T20:13:53.084Z","modified_by_id":"019372de-17ef-7cc2-8fc0-43fe11ba042f","deleted_on":null,"deleted_by_id":null,"tenant_id":"00000000-0000-0000-0000-000000000000","name":"expenses","cba_id":"0000000074","status":"active","profile_id":"0193a649-e3d0-7881-8b7f-2ef1d89a9aff","account_number":"0000000074","bank_id":"0193324f-cad0-7f86-923b-43fb21ac5b29","ledger_balance":"374991.02","hold_balance":"0.00","available_balance":"374991.02","currency":"NGN","restricted":false},"transfer":null,"disputes":[],"batch":null,"transfer_beneficiary":null,"bill_payment_beneficiary":null},{"id":"0194a36c-9200-733b-b323-f985720f79a8","meta":null,"created_on":"2025-01-26T16:23:09.153Z","created_by_id":"019317a0-b7e5-7eeb-a7eb-bd18cf39a633","modified_on":"2025-01-26T16:23:14.752Z","modified_by_id":"019317a0-b7e5-7eeb-a7eb-bd18cf39a633","deleted_on":null,"deleted_by_id":null,"tenant_id":"00000000-0000-0000-0000-000000000000","account_id":"0193a699-2f15-7881-8b7f-ae50980bcfad","profile_id":"0193a649-e3d0-7881-8b7f-2ef1d89a9aff","cba_id":"2095","currency":"NGN","amount":"100.00","balance_after":null,"reference":"Timywemvlhl","processor_reference":null,"processor_status":null,"processor_message":null,"status":"success","entry_type":"debit","narration":"Bill payment to betway for 34382","transaction_date":"2025-01-26T16:23:08.860Z","transaction_type":"bill-payment","processor":"baxipay","reviewed_on":null,"reviewed_by":null,"batch_id":null,"schedule_id":null,"account":{"id":"0193a699-2f15-7881-8b7f-ae50980bcfad","meta":null,"created_on":"2024-12-08T14:07:57.204Z","created_by_id":null,"modified_on":"2025-01-26T20:13:53.084Z","modified_by_id":"019372de-17ef-7cc2-8fc0-43fe11ba042f","deleted_on":null,"deleted_by_id":null,"tenant_id":"00000000-0000-0000-0000-000000000000","name":"expenses","cba_id":"0000000074","status":"active","profile_id":"0193a649-e3d0-7881-8b7f-2ef1d89a9aff","account_number":"0000000074","bank_id":"0193324f-cad0-7f86-923b-43fb21ac5b29","ledger_balance":"374991.02","hold_balance":"0.00","available_balance":"374991.02","currency":"NGN","restricted":false},"transfer":null,"disputes":[],"batch":null,"transfer_beneficiary":null,"bill_payment_beneficiary":null},{"id":"0194a36c-4eea-733b-b323-f0e3c7cc8492","meta":null,"created_on":"2025-01-26T16:22:51.979Z","created_by_id":"019317a0-b7e5-7eeb-a7eb-bd18cf39a633","modified_on":"2025-01-26T16:22:57.153Z","modified_by_id":"019317a0-b7e5-7eeb-a7eb-bd18cf39a633","deleted_on":null,"deleted_by_id":null,"tenant_id":"00000000-0000-0000-0000-000000000000","account_id":"0193a699-2f15-7881-8b7f-ae50980bcfad","profile_id":"0193a649-e3d0-7881-8b7f-2ef1d89a9aff","cba_id":"2094","currency":"NGN","amount":"26.00","balance_after":null,"reference":"Toxkuzjucev","processor_reference":null,"processor_status":null,"processor_message":"stake amount should not be less than 50","status":"failed","entry_type":"debit","narration":"Bill payment to betway for 34382","transaction_date":"2025-01-26T16:22:51.682Z","transaction_type":"bill-payment","processor":"baxipay","reviewed_on":null,"reviewed_by":null,"batch_id":null,"schedule_id":null,"account":{"id":"0193a699-2f15-7881-8b7f-ae50980bcfad","meta":null,"created_on":"2024-12-08T14:07:57.204Z","created_by_id":null,"modified_on":"2025-01-26T20:13:53.084Z","modified_by_id":"019372de-17ef-7cc2-8fc0-43fe11ba042f","deleted_on":null,"deleted_by_id":null,"tenant_id":"00000000-0000-0000-0000-000000000000","name":"expenses","cba_id":"0000000074","status":"active","profile_id":"0193a649-e3d0-7881-8b7f-2ef1d89a9aff","account_number":"0000000074","bank_id":"0193324f-cad0-7f86-923b-43fb21ac5b29","ledger_balance":"374991.02","hold_balance":"0.00","available_balance":"374991.02","currency":"NGN","restricted":false},"transfer":null,"disputes":[],"batch":null,"transfer_beneficiary":null,"bill_payment_beneficiary":null}],"meta":{"page":1,"total_pages":72,"total_items":711}}