{"status":"success","data":[{"id":"0194d6c7-243c-700a-9303-71bd562c3427","meta":{"recipients":[{"amount":10,"bank_code":"999998","bank_name":"vee test","narration":"","account_name":"vee Test","account_number":"0112345678"}]},"created_on":"2025-02-05T15:42:42.748Z","created_by_id":"019317a0-b7e5-7eeb-a7eb-bd18cf39a633","modified_on":"2025-02-05T15:42:42.748Z","modified_by_id":null,"deleted_on":null,"deleted_by_id":null,"tenant_id":"00000000-0000-0000-0000-000000000000","frequency":"weekly","type":"transfer","start_date":"2025-02-06T00:00:00.000Z","next_run_date":"2025-02-06T00:00:00.000Z","end_date":"2025-02-21T00:00:00.000Z","status":"active","amount":"0.00","profile_id":"01931947-9fea-744d-8f66-118c138292e3","account_id":"0193f0e2-ab16-799a-85ae-fa4fbe2990a7","user":{"id":"019317a0-b7e5-7eeb-a7eb-bd18cf39a633","meta":{},"created_on":"2024-11-10T19:50:29.093Z","created_by_id":null,"modified_on":"2025-02-05T18:44:45.966Z","modified_by_id":"019317a0-b7e5-7eeb-a7eb-bd18cf39a633","deleted_on":null,"deleted_by_id":null,"tenant_id":"00000000-0000-0000-0000-000000000000","email":"mikeangel@mailinator.com","status":"active","first_name":"Mike","last_name":"Angelo","twofa_enabled":false,"last_active":"2025-02-05T18:44:45.962Z","last_ip":"172.68.245.76","allowed_ips":null,"last_timezone":"Europe/Moscow","last_location":"Moscow","phone":"09055755671","review":null,"gender":"male","date_of_birth":null,"cba_id":"19","photo_id":null,"referral_code":"AZVBZI","allowed_locations":[],"referred_by":null}},{"id":"0194d6c6-2aac-700a-9303-69d8fff2d758","meta":{"recipients":[{"amount":100,"bank_code":"000013","bank_name":"Guaranty Trust Bank","narration":"","account_name":"John Doe","account_number":"1234564532"}]},"created_on":"2025-02-05T15:41:38.861Z","created_by_id":"019317a0-b7e5-7eeb-a7eb-bd18cf39a633","modified_on":"2025-02-05T15:41:38.861Z","modified_by_id":null,"deleted_on":null,"deleted_by_id":null,"tenant_id":"00000000-0000-0000-0000-000000000000","frequency":"weekly","type":"transfer","start_date":"2025-02-06T00:00:00.000Z","next_run_date":"2025-02-06T00:00:00.000Z","end_date":"2025-02-14T00:00:00.000Z","status":"active","amount":"0.00","profile_id":"01931947-9fea-744d-8f66-118c138292e3","account_id":"0193f0e2-ab16-799a-85ae-fa4fbe2990a7","user":{"id":"019317a0-b7e5-7eeb-a7eb-bd18cf39a633","meta":{},"created_on":"2024-11-10T19:50:29.093Z","created_by_id":null,"modified_on":"2025-02-05T18:44:45.966Z","modified_by_id":"019317a0-b7e5-7eeb-a7eb-bd18cf39a633","deleted_on":null,"deleted_by_id":null,"tenant_id":"00000000-0000-0000-0000-000000000000","email":"mikeangel@mailinator.com","status":"active","first_name":"Mike","last_name":"Angelo","twofa_enabled":false,"last_active":"2025-02-05T18:44:45.962Z","last_ip":"172.68.245.76","allowed_ips":null,"last_timezone":"Europe/Moscow","last_location":"Moscow","phone":"09055755671","review":null,"gender":"male","date_of_birth":null,"cba_id":"19","photo_id":null,"referral_code":"AZVBZI","allowed_locations":[],"referred_by":null}},{"id":"0194d6ae-8389-700a-9303-1d479b40baf3","meta":{"recipients":[{"amount":100,"bank_code":"000013","bank_name":"Guaranty Trust Bank","narration":"","account_name":"John Doe","account_number":"1234564532"}]},"created_on":"2025-02-05T15:15:48.746Z","created_by_id":"019317a0-b7e5-7eeb-a7eb-bd18cf39a633","modified_on":"2025-02-05T15:15:48.746Z","modified_by_id":null,"deleted_on":null,"deleted_by_id":null,"tenant_id":"00000000-0000-0000-0000-000000000000","frequency":"monthly","type":"transfer","start_date":"2025-02-06T00:00:00.000Z","next_run_date":"2025-02-06T00:00:00.000Z","end_date":"2025-02-14T00:00:00.000Z","status":"active","amount":"0.00","profile_id":"01931947-9fea-744d-8f66-118c138292e3","account_id":"0193f0e2-ab16-799a-85ae-fa4fbe2990a7","user":{"id":"019317a0-b7e5-7eeb-a7eb-bd18cf39a633","meta":{},"created_on":"2024-11-10T19:50:29.093Z","created_by_id":null,"modified_on":"2025-02-05T18:44:45.966Z","modified_by_id":"019317a0-b7e5-7eeb-a7eb-bd18cf39a633","deleted_on":null,"deleted_by_id":null,"tenant_id":"00000000-0000-0000-0000-000000000000","email":"mikeangel@mailinator.com","status":"active","first_name":"Mike","last_name":"Angelo","twofa_enabled":false,"last_active":"2025-02-05T18:44:45.962Z","last_ip":"172.68.245.76","allowed_ips":null,"last_timezone":"Europe/Moscow","last_location":"Moscow","phone":"09055755671","review":null,"gender":"male","date_of_birth":null,"cba_id":"19","photo_id":null,"referral_code":"AZVBZI","allowed_locations":[],"referred_by":null}},{"id":"0194d09f-cd28-755c-a9f4-36d20e371b06","meta":{"recipients":[{"amount":10,"bank_code":"000016","bank_name":"First Bank of Nigeria","narration":"","account_name":"John Doe","account_number":"1919191919"}]},"created_on":"2025-02-04T11:02:01.256Z","created_by_id":"019317a0-b7e5-7eeb-a7eb-bd18cf39a633","modified_on":"2025-02-04T11:02:01.256Z","modified_by_id":null,"deleted_on":null,"deleted_by_id":null,"tenant_id":"00000000-0000-0000-0000-000000000000","frequency":"once","type":"transfer","start_date":"2025-02-08T00:00:00.000Z","next_run_date":"2025-02-08T00:00:00.000Z","end_date":"2025-02-08T00:00:00.000Z","status":"active","amount":"0.00","profile_id":"01931947-9fea-744d-8f66-118c138292e3","account_id":"0193f0e2-ab16-799a-85ae-fa4fbe2990a7","user":{"id":"019317a0-b7e5-7eeb-a7eb-bd18cf39a633","meta":{},"created_on":"2024-11-10T19:50:29.093Z","created_by_id":null,"modified_on":"2025-02-05T18:44:45.966Z","modified_by_id":"019317a0-b7e5-7eeb-a7eb-bd18cf39a633","deleted_on":null,"deleted_by_id":null,"tenant_id":"00000000-0000-0000-0000-000000000000","email":"mikeangel@mailinator.com","status":"active","first_name":"Mike","last_name":"Angelo","twofa_enabled":false,"last_active":"2025-02-05T18:44:45.962Z","last_ip":"172.68.245.76","allowed_ips":null,"last_timezone":"Europe/Moscow","last_location":"Moscow","phone":"09055755671","review":null,"gender":"male","date_of_birth":null,"cba_id":"19","photo_id":null,"referral_code":"AZVBZI","allowed_locations":[],"referred_by":null}},{"id":"0194d09e-2874-755c-a9f4-2b1780af7fc6","meta":{"recipients":[{"amount":10,"bank_code":"000016","bank_name":"First Bank of Nigeria","narration":"","account_name":"John Doe","account_number":"1919191919"}]},"created_on":"2025-02-04T11:00:13.556Z","created_by_id":"019317a0-b7e5-7eeb-a7eb-bd18cf39a633","modified_on":"2025-02-04T11:00:13.556Z","modified_by_id":null,"deleted_on":null,"deleted_by_id":null,"tenant_id":"00000000-0000-0000-0000-000000000000","frequency":"weekly","type":"transfer","start_date":"2025-02-13T00:00:00.000Z","next_run_date":"2025-02-13T00:00:00.000Z","end_date":"2025-02-28T00:00:00.000Z","status":"active","amount":"0.00","profile_id":"01931947-9fea-744d-8f66-118c138292e3","account_id":"0193f0e2-ab16-799a-85ae-fa4fbe2990a7","user":{"id":"019317a0-b7e5-7eeb-a7eb-bd18cf39a633","meta":{},"created_on":"2024-11-10T19:50:29.093Z","created_by_id":null,"modified_on":"2025-02-05T18:44:45.966Z","modified_by_id":"019317a0-b7e5-7eeb-a7eb-bd18cf39a633","deleted_on":null,"deleted_by_id":null,"tenant_id":"00000000-0000-0000-0000-000000000000","email":"mikeangel@mailinator.com","status":"active","first_name":"Mike","last_name":"Angelo","twofa_enabled":false,"last_active":"2025-02-05T18:44:45.962Z","last_ip":"172.68.245.76","allowed_ips":null,"last_timezone":"Europe/Moscow","last_location":"Moscow","phone":"09055755671","review":null,"gender":"male","date_of_birth":null,"cba_id":"19","photo_id":null,"referral_code":"AZVBZI","allowed_locations":[],"referred_by":null}},{"id":"0194d09d-63d7-755c-a9f4-09b100158791","meta":{"recipients":[{"amount":10,"bank_code":"000016","bank_name":"First Bank of Nigeria","narration":"","account_name":"John Doe","account_number":"1919191919"}]},"created_on":"2025-02-04T10:59:23.223Z","created_by_id":"019317a0-b7e5-7eeb-a7eb-bd18cf39a633","modified_on":"2025-02-04T10:59:23.223Z","modified_by_id":null,"deleted_on":null,"deleted_by_id":null,"tenant_id":"00000000-0000-0000-0000-000000000000","frequency":"once","type":"transfer","start_date":"2025-02-06T00:00:00.000Z","next_run_date":"2025-02-06T00:00:00.000Z","end_date":"2025-02-06T00:00:00.000Z","status":"active","amount":"0.00","profile_id":"01931947-9fea-744d-8f66-118c138292e3","account_id":"0193f0e2-ab16-799a-85ae-fa4fbe2990a7","user":{"id":"019317a0-b7e5-7eeb-a7eb-bd18cf39a633","meta":{},"created_on":"2024-11-10T19:50:29.093Z","created_by_id":null,"modified_on":"2025-02-05T18:44:45.966Z","modified_by_id":"019317a0-b7e5-7eeb-a7eb-bd18cf39a633","deleted_on":null,"deleted_by_id":null,"tenant_id":"00000000-0000-0000-0000-000000000000","email":"mikeangel@mailinator.com","status":"active","first_name":"Mike","last_name":"Angelo","twofa_enabled":false,"last_active":"2025-02-05T18:44:45.962Z","last_ip":"172.68.245.76","allowed_ips":null,"last_timezone":"Europe/Moscow","last_location":"Moscow","phone":"09055755671","review":null,"gender":"male","date_of_birth":null,"cba_id":"19","photo_id":null,"referral_code":"AZVBZI","allowed_locations":[],"referred_by":null}},{"id":"0194cdee-70d7-7aa6-acd4-fadbb82e6fe9","meta":{"recipients":[{"amount":100,"bank_code":"000021","bank_name":"Standard Chartered Bank","narration":"","account_name":"John Doe","account_number":"3241414111"}]},"created_on":"2025-02-03T22:29:03.319Z","created_by_id":"019317a0-b7e5-7eeb-a7eb-bd18cf39a633","modified_on":"2025-02-03T22:29:03.319Z","modified_by_id":null,"deleted_on":null,"deleted_by_id":null,"tenant_id":"00000000-0000-0000-0000-000000000000","frequency":"once","type":"transfer","start_date":"2025-03-27T23:28:00.000Z","next_run_date":"2025-03-27T23:28:00.000Z","end_date":"2025-03-27T23:28:00.000Z","status":"active","amount":"0.00","profile_id":"01931947-9fea-744d-8f66-118c138292e3","account_id":"0193912b-6f5e-7335-b5bc-3302dcc08103","user":{"id":"019317a0-b7e5-7eeb-a7eb-bd18cf39a633","meta":{},"created_on":"2024-11-10T19:50:29.093Z","created_by_id":null,"modified_on":"2025-02-05T18:44:45.966Z","modified_by_id":"019317a0-b7e5-7eeb-a7eb-bd18cf39a633","deleted_on":null,"deleted_by_id":null,"tenant_id":"00000000-0000-0000-0000-000000000000","email":"mikeangel@mailinator.com","status":"active","first_name":"Mike","last_name":"Angelo","twofa_enabled":false,"last_active":"2025-02-05T18:44:45.962Z","last_ip":"172.68.245.76","allowed_ips":null,"last_timezone":"Europe/Moscow","last_location":"Moscow","phone":"09055755671","review":null,"gender":"male","date_of_birth":null,"cba_id":"19","photo_id":null,"referral_code":"AZVBZI","allowed_locations":[],"referred_by":null}},{"id":"0194cdec-e544-7aa6-acd4-d1b2785ba708","meta":{"recipients":[{"amount":100,"bank_code":"000010","bank_name":"Ecobank Nigeria","narration":"","account_name":"John Doe","account_number":"3241414111"}]},"created_on":"2025-02-03T22:27:22.052Z","created_by_id":"019317a0-b7e5-7eeb-a7eb-bd18cf39a633","modified_on":"2025-02-03T22:27:22.052Z","modified_by_id":null,"deleted_on":null,"deleted_by_id":null,"tenant_id":"00000000-0000-0000-0000-000000000000","frequency":"once","type":"transfer","start_date":"2025-02-19T23:26:00.000Z","next_run_date":"2025-02-19T23:26:00.000Z","end_date":"2025-02-19T23:26:00.000Z","status":"active","amount":"0.00","profile_id":"01931947-9fea-744d-8f66-118c138292e3","account_id":"0193912b-6f5e-7335-b5bc-3302dcc08103","user":{"id":"019317a0-b7e5-7eeb-a7eb-bd18cf39a633","meta":{},"created_on":"2024-11-10T19:50:29.093Z","created_by_id":null,"modified_on":"2025-02-05T18:44:45.966Z","modified_by_id":"019317a0-b7e5-7eeb-a7eb-bd18cf39a633","deleted_on":null,"deleted_by_id":null,"tenant_id":"00000000-0000-0000-0000-000000000000","email":"mikeangel@mailinator.com","status":"active","first_name":"Mike","last_name":"Angelo","twofa_enabled":false,"last_active":"2025-02-05T18:44:45.962Z","last_ip":"172.68.245.76","allowed_ips":null,"last_timezone":"Europe/Moscow","last_location":"Moscow","phone":"09055755671","review":null,"gender":"male","date_of_birth":null,"cba_id":"19","photo_id":null,"referral_code":"AZVBZI","allowed_locations":[],"referred_by":null}},{"id":"0194c85c-de50-7000-ba63-dfd57bf60edf","meta":{"pin":"1234","amount":500,"biller_id":"mtn","option_id":"","category_id":"airtime","account_number":"09066866781"},"created_on":"2025-02-02T20:31:57.007Z","created_by_id":"019317a0-b7e5-7eeb-a7eb-bd18cf39a633","modified_on":"2025-02-02T20:31:57.007Z","modified_by_id":null,"deleted_on":null,"deleted_by_id":null,"tenant_id":"00000000-0000-0000-0000-000000000000","frequency":"once","type":"bill-payment","start_date":"2025-02-09T21:31:00.000Z","next_run_date":"2025-02-09T21:31:00.000Z","end_date":"2025-02-09T21:31:00.000Z","status":"active","amount":"0.00","profile_id":"01931947-9fea-744d-8f66-118c138292e3","account_id":"0193f0e2-ab16-799a-85ae-fa4fbe2990a7","user":{"id":"019317a0-b7e5-7eeb-a7eb-bd18cf39a633","meta":{},"created_on":"2024-11-10T19:50:29.093Z","created_by_id":null,"modified_on":"2025-02-05T18:44:45.966Z","modified_by_id":"019317a0-b7e5-7eeb-a7eb-bd18cf39a633","deleted_on":null,"deleted_by_id":null,"tenant_id":"00000000-0000-0000-0000-000000000000","email":"mikeangel@mailinator.com","status":"active","first_name":"Mike","last_name":"Angelo","twofa_enabled":false,"last_active":"2025-02-05T18:44:45.962Z","last_ip":"172.68.245.76","allowed_ips":null,"last_timezone":"Europe/Moscow","last_location":"Moscow","phone":"09055755671","review":null,"gender":"male","date_of_birth":null,"cba_id":"19","photo_id":null,"referral_code":"AZVBZI","allowed_locations":[],"referred_by":null}},{"id":"0194c834-7a91-7000-ba5f-361cab220f7b","meta":{"recipients":[{"amount":1000,"bank_code":"000010","bank_name":"Ecobank Nigeria","narration":"","account_name":"John Doe","account_number":"3333333324"}]},"created_on":"2025-02-02T19:47:50.033Z","created_by_id":"019317a0-b7e5-7eeb-a7eb-bd18cf39a633","modified_on":"2025-02-02T19:47:50.033Z","modified_by_id":null,"deleted_on":null,"deleted_by_id":null,"tenant_id":"00000000-0000-0000-0000-000000000000","frequency":"once","type":"transfer","start_date":"2025-02-09T20:47:00.000Z","next_run_date":"2025-02-09T20:47:00.000Z","end_date":"2025-02-09T20:47:00.000Z","status":"active","amount":"0.00","profile_id":"01931947-9fea-744d-8f66-118c138292e3","account_id":"0193912b-6f5e-7335-b5bc-3302dcc08103","user":{"id":"019317a0-b7e5-7eeb-a7eb-bd18cf39a633","meta":{},"created_on":"2024-11-10T19:50:29.093Z","created_by_id":null,"modified_on":"2025-02-05T18:44:45.966Z","modified_by_id":"019317a0-b7e5-7eeb-a7eb-bd18cf39a633","deleted_on":null,"deleted_by_id":null,"tenant_id":"00000000-0000-0000-0000-000000000000","email":"mikeangel@mailinator.com","status":"active","first_name":"Mike","last_name":"Angelo","twofa_enabled":false,"last_active":"2025-02-05T18:44:45.962Z","last_ip":"172.68.245.76","allowed_ips":null,"last_timezone":"Europe/Moscow","last_location":"Moscow","phone":"09055755671","review":null,"gender":"male","date_of_birth":null,"cba_id":"19","photo_id":null,"referral_code":"AZVBZI","allowed_locations":[],"referred_by":null}}],"meta":{"page":1,"total_pages":8,"total_items":72}}