{"status":"success","data":[{"id":"01948f77-37f1-7cc6-93de-631d3ba7bcdf","meta":null,"created_on":"2025-01-22T19:22:22.576Z","created_by_id":"019372de-17ef-7cc2-8fc0-43fe11ba042f","modified_on":"2025-01-22T19:22:22.576Z","modified_by_id":null,"deleted_on":null,"deleted_by_id":null,"tenant_id":"00000000-0000-0000-0000-000000000000","profile_id":"0193a649-e3d0-7881-8b7f-2ef1d89a9aff","status":"pending","command":"ScheduleBillPaymentCommand","command_data":{"data":{"start_date":"2025-01-23T00:00:00.000Z","end_date":"2025-01-31T23:59:59.999Z","amount":100,"account_number":"098887","type":"bill-payment","frequency":"weekly","category_id":"electricity","option_id":null,"account_id":"0193a699-2f15-7881-8b7f-ae50980bcfad","pin":"1234","biller_id":"portharcourt_electric_postpaid"}},"maker_id":"019372de-17ef-7cc2-8fc0-43fe11ba042f","made_on":"2025-01-22T19:22:22.576Z","checker_id":null,"checked_on":null,"maker_checker_id":"0193df18-702c-7ddc-9298-482c857161b9","reason":null},{"id":"01948f6f-cd95-7cc6-93dd-b2e9b33cf00c","meta":null,"created_on":"2025-01-22T19:14:16.596Z","created_by_id":"019372de-17ef-7cc2-8fc0-43fe11ba042f","modified_on":"2025-01-22T19:14:33.785Z","modified_by_id":"019372de-17ef-7cc2-8fc0-43fe11ba042f","deleted_on":null,"deleted_by_id":null,"tenant_id":"00000000-0000-0000-0000-000000000000","profile_id":"0193a649-e3d0-7881-8b7f-2ef1d89a9aff","status":"approved","command":"BulkTransferCommand","command_data":{"account_id":"0193a699-2f15-7881-8b7f-ae50980bcfad","data":[{"account_name":"John Doe","bank_name":"NORTHQUEST","amount":1000,"account_number":"0000000108","bank_code":"050030","narration":"bulk transfer"},{"account_name":"John Doe","bank_name":"NORTHQUEST","amount":1000,"account_number":"0000000107","bank_code":"050030","narration":"bulk transfer"},{"account_name":"John Doe","bank_name":"NORTHQUEST","amount":100,"account_number":"0000000108","bank_code":"050030","narration":"bulk transfer"}]},"maker_id":"019372de-17ef-7cc2-8fc0-43fe11ba042f","made_on":"2025-01-22T19:14:16.596Z","checker_id":"019372de-17ef-7cc2-8fc0-43fe11ba042f","checked_on":null,"maker_checker_id":"0193df18-702c-7ddc-9298-482c857161b9","reason":null},{"id":"01948f6e-542e-7cc6-93dd-abb5fd41af88","meta":null,"created_on":"2025-01-22T19:12:39.981Z","created_by_id":"019372de-17ef-7cc2-8fc0-43fe11ba042f","modified_on":"2025-01-22T19:14:46.372Z","modified_by_id":"019372de-17ef-7cc2-8fc0-43fe11ba042f","deleted_on":null,"deleted_by_id":null,"tenant_id":"00000000-0000-0000-0000-000000000000","profile_id":"0193a649-e3d0-7881-8b7f-2ef1d89a9aff","status":"approved","command":"BulkTransferCommand","command_data":{"account_id":"0193a699-2f15-7881-8b7f-ae50980bcfad","data":[{"amount":10,"account_name":"Profile","bank_name":"NORTHQUEST FINANCE COMPANY LIMITED ","account_number":"0000000107","bank_code":"050030","narration":""},{"amount":100,"account_name":"Profile","bank_name":"NORTHQUEST FINANCE COMPANY LIMITED ","account_number":"0000000108","bank_code":"050030","narration":""}]},"maker_id":"019372de-17ef-7cc2-8fc0-43fe11ba042f","made_on":"2025-01-22T19:12:39.981Z","checker_id":"019372de-17ef-7cc2-8fc0-43fe11ba042f","checked_on":null,"maker_checker_id":"0193df18-702c-7ddc-9298-482c857161b9","reason":null},{"id":"01948f68-c96b-7cc6-93dd-53acaca08dcd","meta":null,"created_on":"2025-01-22T19:06:36.778Z","created_by_id":"019372de-17ef-7cc2-8fc0-43fe11ba042f","modified_on":"2025-01-22T19:09:23.281Z","modified_by_id":"019372de-17ef-7cc2-8fc0-43fe11ba042f","deleted_on":null,"deleted_by_id":null,"tenant_id":"00000000-0000-0000-0000-000000000000","profile_id":"0193a649-e3d0-7881-8b7f-2ef1d89a9aff","status":"approved","command":"BulkTransferCommand","command_data":{"account_id":"0193a699-2f15-7881-8b7f-ae50980bcfad","data":[{"amount":100,"account_name":"Profile","bank_name":"NORTHQUEST FINANCE COMPANY LIMITED ","account_number":"0000000108","bank_code":"050030","narration":""},{"amount":100,"account_name":"Profile","bank_name":"NORTHQUEST FINANCE COMPANY LIMITED ","account_number":"0000000106","bank_code":"050030","narration":""}]},"maker_id":"019372de-17ef-7cc2-8fc0-43fe11ba042f","made_on":"2025-01-22T19:06:36.778Z","checker_id":"019372de-17ef-7cc2-8fc0-43fe11ba042f","checked_on":null,"maker_checker_id":"0193df18-702c-7ddc-9298-482c857161b9","reason":null},{"id":"01948f56-5fd4-7cc6-93dc-a8a5be6fefa0","meta":null,"created_on":"2025-01-22T18:46:30.098Z","created_by_id":"019372de-17ef-7cc2-8fc0-43fe11ba042f","modified_on":"2025-01-22T18:46:30.098Z","modified_by_id":null,"deleted_on":null,"deleted_by_id":null,"tenant_id":"00000000-0000-0000-0000-000000000000","profile_id":"0193a649-e3d0-7881-8b7f-2ef1d89a9aff","status":"pending","command":"PayBillPaymentCommand","command_data":{"categoryId":"cabletv","billerId":"dstv","data":{"account_number":"1102003467","amount":29300,"option_id":"PRWFRNSE36","pin":"1234","account_id":"0193a699-2f15-7881-8b7f-ae50980bcfad"}},"maker_id":"019372de-17ef-7cc2-8fc0-43fe11ba042f","made_on":"2025-01-22T18:46:30.098Z","checker_id":null,"checked_on":null,"maker_checker_id":"0193df18-702c-7ddc-9298-482c857161b9","reason":null},{"id":"01948f56-5d60-7cc6-93dc-9acbaa7d3aac","meta":null,"created_on":"2025-01-22T18:46:29.470Z","created_by_id":"019372de-17ef-7cc2-8fc0-43fe11ba042f","modified_on":"2025-01-22T18:46:29.470Z","modified_by_id":null,"deleted_on":null,"deleted_by_id":null,"tenant_id":"00000000-0000-0000-0000-000000000000","profile_id":"0193a649-e3d0-7881-8b7f-2ef1d89a9aff","status":"pending","command":"PayBillPaymentCommand","command_data":{"categoryId":"epin","billerId":"waec","data":{"account_number":"1102003467","amount":1800,"option_id":"1800","pin":"1234","account_id":"0193a699-2f15-7881-8b7f-ae50980bcfad"}},"maker_id":"019372de-17ef-7cc2-8fc0-43fe11ba042f","made_on":"2025-01-22T18:46:29.471Z","checker_id":null,"checked_on":null,"maker_checker_id":"0193df18-702c-7ddc-9298-482c857161b9","reason":null},{"id":"01948f56-5aca-7cc6-93dc-9320c622b09b","meta":null,"created_on":"2025-01-22T18:46:28.807Z","created_by_id":"019372de-17ef-7cc2-8fc0-43fe11ba042f","modified_on":"2025-01-22T18:46:28.807Z","modified_by_id":null,"deleted_on":null,"deleted_by_id":null,"tenant_id":"00000000-0000-0000-0000-000000000000","profile_id":"0193a649-e3d0-7881-8b7f-2ef1d89a9aff","status":"pending","command":"PayBillPaymentCommand","command_data":{"categoryId":"electricity","billerId":"abuja_electric_postpaid","data":{"account_number":"07034953306","amount":2300,"pin":"1234","account_id":"0193a699-2f15-7881-8b7f-ae50980bcfad"}},"maker_id":"019372de-17ef-7cc2-8fc0-43fe11ba042f","made_on":"2025-01-22T18:46:28.803Z","checker_id":null,"checked_on":null,"maker_checker_id":"0193df18-702c-7ddc-9298-482c857161b9","reason":null},{"id":"01948f56-47df-7cc6-93dc-85f893edafd6","meta":null,"created_on":"2025-01-22T18:46:23.890Z","created_by_id":"019372de-17ef-7cc2-8fc0-43fe11ba042f","modified_on":"2025-01-22T18:46:23.890Z","modified_by_id":null,"deleted_on":null,"deleted_by_id":null,"tenant_id":"00000000-0000-0000-0000-000000000000","profile_id":"0193a649-e3d0-7881-8b7f-2ef1d89a9aff","status":"pending","command":"PayBillPaymentCommand","command_data":{"categoryId":"cabletv","billerId":"startimes","data":{"account_number":"1102003467","amount":90,"option_id":"novaday","pin":"1234","account_id":"019390f5-db96-7335-b5bb-74eac1376a9c"}},"maker_id":"019372de-17ef-7cc2-8fc0-43fe11ba042f","made_on":"2025-01-22T18:46:23.890Z","checker_id":null,"checked_on":null,"maker_checker_id":"0193df18-702c-7ddc-9298-482c857161b9","reason":null},{"id":"01948f56-3aaa-7cc6-93dc-61c9ae8d5fd7","meta":null,"created_on":"2025-01-22T18:46:20.585Z","created_by_id":"019372de-17ef-7cc2-8fc0-43fe11ba042f","modified_on":"2025-01-22T18:46:20.585Z","modified_by_id":null,"deleted_on":null,"deleted_by_id":null,"tenant_id":"00000000-0000-0000-0000-000000000000","profile_id":"0193a649-e3d0-7881-8b7f-2ef1d89a9aff","status":"pending","command":"PayBillPaymentCommand","command_data":{"categoryId":"cabletv","billerId":"gotv","data":{"account_number":"1102003467","amount":900,"option_id":"GOHAN","pin":"1234","account_id":"0193a699-2f15-7881-8b7f-ae50980bcfad"}},"maker_id":"019372de-17ef-7cc2-8fc0-43fe11ba042f","made_on":"2025-01-22T18:46:20.585Z","checker_id":null,"checked_on":null,"maker_checker_id":"0193df18-702c-7ddc-9298-482c857161b9","reason":null},{"id":"01948f56-2bcb-7cc6-93dc-57930053dbbe","meta":null,"created_on":"2025-01-22T18:46:16.770Z","created_by_id":"019372de-17ef-7cc2-8fc0-43fe11ba042f","modified_on":"2025-01-22T18:46:16.770Z","modified_by_id":null,"deleted_on":null,"deleted_by_id":null,"tenant_id":"00000000-0000-0000-0000-000000000000","profile_id":"0193a649-e3d0-7881-8b7f-2ef1d89a9aff","status":"pending","command":"PayBillPaymentCommand","command_data":{"categoryId":"cabletv","billerId":"dstv","data":{"account_number":"1102003467","amount":5300,"option_id":"NNJ2E36","pin":"1234","account_id":"0193a699-2f15-7881-8b7f-ae50980bcfad"}},"maker_id":"019372de-17ef-7cc2-8fc0-43fe11ba042f","made_on":"2025-01-22T18:46:16.770Z","checker_id":null,"checked_on":null,"maker_checker_id":"0193df18-702c-7ddc-9298-482c857161b9","reason":null}],"meta":{"page":1,"total_pages":16,"total_items":160}}