{"status":"success","data":[{"id":"0194d76e-59cb-7881-916d-6dade068cc37","meta":null,"created_on":"2025-02-05T18:45:20.971Z","created_by_id":"019317a0-b7e5-7eeb-a7eb-bd18cf39a633","modified_on":"2025-02-05T18:45:21.463Z","modified_by_id":"019317a0-b7e5-7eeb-a7eb-bd18cf39a633","deleted_on":null,"deleted_by_id":null,"tenant_id":"00000000-0000-0000-0000-000000000000","account_id":"0193f0e2-ab16-799a-85ae-fa4fbe2990a7","profile_id":"01931947-9fea-744d-8f66-118c138292e3","cba_id":"2368","currency":"NGN","amount":"1800.00","balance_after":null,"reference":"Tlrbjvtkgqe","processor_reference":null,"processor_status":null,"processor_message":null,"status":"success","entry_type":"debit","narration":"Bill payment to waec for 1102003467","transaction_date":"2025-02-05T18:45:20.970Z","transaction_type":"bill-payment","processor":"baxipay","reviewed_on":null,"reviewed_by":null,"batch_id":null,"schedule_id":null,"account":{"id":"0193f0e2-ab16-799a-85ae-fa4fbe2990a7","meta":null,"created_on":"2024-12-23T00:20:07.063Z","created_by_id":null,"modified_on":"2025-02-05T18:44:38.963Z","modified_by_id":"019317a0-b7e5-7eeb-a7eb-bd18cf39a633","deleted_on":null,"deleted_by_id":null,"tenant_id":"00000000-0000-0000-0000-000000000000","name":"Eno","cba_id":"0000000115","status":"active","profile_id":"01931947-9fea-744d-8f66-118c138292e3","account_number":"0000000115","bank_id":"0193324f-cad0-7f86-923b-43fb21ac5b29","ledger_balance":"12437.64","hold_balance":"0.00","available_balance":"12437.64","currency":"NGN","restricted":false},"transfer":null,"disputes":[],"batch":null,"transfer_beneficiary":null,"bill_payment_beneficiary":null},{"id":"0194d76e-55e8-7881-916d-61541d7e1852","meta":null,"created_on":"2025-02-05T18:45:19.976Z","created_by_id":"019317a0-b7e5-7eeb-a7eb-bd18cf39a633","modified_on":"2025-02-05T18:45:20.366Z","modified_by_id":"019317a0-b7e5-7eeb-a7eb-bd18cf39a633","deleted_on":null,"deleted_by_id":null,"tenant_id":"00000000-0000-0000-0000-000000000000","account_id":"0193f0e2-ab16-799a-85ae-fa4fbe2990a7","profile_id":"01931947-9fea-744d-8f66-118c138292e3","cba_id":"2367","currency":"NGN","amount":"2300.00","balance_after":null,"reference":"Tjxsyqoaiml","processor_reference":null,"processor_status":null,"processor_message":"Prepaid customer not allowed to process Postpaid transaction","status":"failed","entry_type":"debit","narration":"Bill payment to abuja_electric_postpaid for 07034953306","transaction_date":"2025-02-05T18:45:19.974Z","transaction_type":"bill-payment","processor":"baxipay","reviewed_on":null,"reviewed_by":null,"batch_id":null,"schedule_id":null,"account":{"id":"0193f0e2-ab16-799a-85ae-fa4fbe2990a7","meta":null,"created_on":"2024-12-23T00:20:07.063Z","created_by_id":null,"modified_on":"2025-02-05T18:44:38.963Z","modified_by_id":"019317a0-b7e5-7eeb-a7eb-bd18cf39a633","deleted_on":null,"deleted_by_id":null,"tenant_id":"00000000-0000-0000-0000-000000000000","name":"Eno","cba_id":"0000000115","status":"active","profile_id":"01931947-9fea-744d-8f66-118c138292e3","account_number":"0000000115","bank_id":"0193324f-cad0-7f86-923b-43fb21ac5b29","ledger_balance":"12437.64","hold_balance":"0.00","available_balance":"12437.64","currency":"NGN","restricted":false},"transfer":null,"disputes":[],"batch":null,"transfer_beneficiary":null,"bill_payment_beneficiary":null},{"id":"0194d76e-4709-7881-916d-5e173d7684ed","meta":null,"created_on":"2025-02-05T18:45:16.169Z","created_by_id":"019317a0-b7e5-7eeb-a7eb-bd18cf39a633","modified_on":"2025-02-05T18:45:16.638Z","modified_by_id":"019317a0-b7e5-7eeb-a7eb-bd18cf39a633","deleted_on":null,"deleted_by_id":null,"tenant_id":"00000000-0000-0000-0000-000000000000","account_id":"0193f0e2-ab16-799a-85ae-fa4fbe2990a7","profile_id":"01931947-9fea-744d-8f66-118c138292e3","cba_id":"2366","currency":"NGN","amount":"900.00","balance_after":null,"reference":"Tnblxapafkl","processor_reference":null,"processor_status":null,"processor_message":"Transaction not found","status":"failed","entry_type":"debit","narration":"Bill payment to gotv for 1102003467","transaction_date":"2025-02-05T18:45:16.168Z","transaction_type":"bill-payment","processor":"baxipay","reviewed_on":null,"reviewed_by":null,"batch_id":null,"schedule_id":null,"account":{"id":"0193f0e2-ab16-799a-85ae-fa4fbe2990a7","meta":null,"created_on":"2024-12-23T00:20:07.063Z","created_by_id":null,"modified_on":"2025-02-05T18:44:38.963Z","modified_by_id":"019317a0-b7e5-7eeb-a7eb-bd18cf39a633","deleted_on":null,"deleted_by_id":null,"tenant_id":"00000000-0000-0000-0000-000000000000","name":"Eno","cba_id":"0000000115","status":"active","profile_id":"01931947-9fea-744d-8f66-118c138292e3","account_number":"0000000115","bank_id":"0193324f-cad0-7f86-923b-43fb21ac5b29","ledger_balance":"12437.64","hold_balance":"0.00","available_balance":"12437.64","currency":"NGN","restricted":false},"transfer":null,"disputes":[],"batch":null,"transfer_beneficiary":null,"bill_payment_beneficiary":null},{"id":"0194d76e-3c67-7881-916d-563a7a87c875","meta":null,"created_on":"2025-02-05T18:45:13.448Z","created_by_id":"019317a0-b7e5-7eeb-a7eb-bd18cf39a633","modified_on":"2025-02-05T18:45:13.932Z","modified_by_id":"019317a0-b7e5-7eeb-a7eb-bd18cf39a633","deleted_on":null,"deleted_by_id":null,"tenant_id":"00000000-0000-0000-0000-000000000000","account_id":"0193f0e2-ab16-799a-85ae-fa4fbe2990a7","profile_id":"01931947-9fea-744d-8f66-118c138292e3","cba_id":"2365","currency":"NGN","amount":"5300.00","balance_after":null,"reference":"Tocmwktikzw","processor_reference":null,"processor_status":null,"processor_message":"Transaction not found","status":"failed","entry_type":"debit","narration":"Bill payment to dstv for 1102003467","transaction_date":"2025-02-05T18:45:13.447Z","transaction_type":"bill-payment","processor":"baxipay","reviewed_on":null,"reviewed_by":null,"batch_id":null,"schedule_id":null,"account":{"id":"0193f0e2-ab16-799a-85ae-fa4fbe2990a7","meta":null,"created_on":"2024-12-23T00:20:07.063Z","created_by_id":null,"modified_on":"2025-02-05T18:44:38.963Z","modified_by_id":"019317a0-b7e5-7eeb-a7eb-bd18cf39a633","deleted_on":null,"deleted_by_id":null,"tenant_id":"00000000-0000-0000-0000-000000000000","name":"Eno","cba_id":"0000000115","status":"active","profile_id":"01931947-9fea-744d-8f66-118c138292e3","account_number":"0000000115","bank_id":"0193324f-cad0-7f86-923b-43fb21ac5b29","ledger_balance":"12437.64","hold_balance":"0.00","available_balance":"12437.64","currency":"NGN","restricted":false},"transfer":null,"disputes":[],"batch":null,"transfer_beneficiary":null,"bill_payment_beneficiary":null},{"id":"0194d76e-38e5-7881-916d-4a9144c7b98e","meta":null,"created_on":"2025-02-05T18:45:12.550Z","created_by_id":"019317a0-b7e5-7eeb-a7eb-bd18cf39a633","modified_on":"2025-02-05T18:45:12.869Z","modified_by_id":"019317a0-b7e5-7eeb-a7eb-bd18cf39a633","deleted_on":null,"deleted_by_id":null,"tenant_id":"00000000-0000-0000-0000-000000000000","account_id":"0193f0e2-ab16-799a-85ae-fa4fbe2990a7","profile_id":"01931947-9fea-744d-8f66-118c138292e3","cba_id":"2364","currency":"NGN","amount":"1800.00","balance_after":null,"reference":"Tyjctbfbxum","processor_reference":null,"processor_status":null,"processor_message":"ensure you supply a valid accountId","status":"failed","entry_type":"debit","narration":"Bill payment to smile for 11020034671","transaction_date":"2025-02-05T18:45:12.548Z","transaction_type":"bill-payment","processor":"baxipay","reviewed_on":null,"reviewed_by":null,"batch_id":null,"schedule_id":null,"account":{"id":"0193f0e2-ab16-799a-85ae-fa4fbe2990a7","meta":null,"created_on":"2024-12-23T00:20:07.063Z","created_by_id":null,"modified_on":"2025-02-05T18:44:38.963Z","modified_by_id":"019317a0-b7e5-7eeb-a7eb-bd18cf39a633","deleted_on":null,"deleted_by_id":null,"tenant_id":"00000000-0000-0000-0000-000000000000","name":"Eno","cba_id":"0000000115","status":"active","profile_id":"01931947-9fea-744d-8f66-118c138292e3","account_number":"0000000115","bank_id":"0193324f-cad0-7f86-923b-43fb21ac5b29","ledger_balance":"12437.64","hold_balance":"0.00","available_balance":"12437.64","currency":"NGN","restricted":false},"transfer":null,"disputes":[],"batch":null,"transfer_beneficiary":null,"bill_payment_beneficiary":null},{"id":"0194d76e-343c-7881-916d-47d417ca4468","meta":null,"created_on":"2025-02-05T18:45:11.357Z","created_by_id":"019317a0-b7e5-7eeb-a7eb-bd18cf39a633","modified_on":"2025-02-05T18:45:11.753Z","modified_by_id":"019317a0-b7e5-7eeb-a7eb-bd18cf39a633","deleted_on":null,"deleted_by_id":null,"tenant_id":"00000000-0000-0000-0000-000000000000","account_id":"0193f0e2-ab16-799a-85ae-fa4fbe2990a7","profile_id":"01931947-9fea-744d-8f66-118c138292e3","cba_id":"2363","currency":"NGN","amount":"200.00","balance_after":null,"reference":"Tsmwktyldqs","processor_reference":null,"processor_status":null,"processor_message":"11020034671 is not a valid phone number","status":"failed","entry_type":"debit","narration":"Bill payment to 9mobile for 11020034671","transaction_date":"2025-02-05T18:45:11.356Z","transaction_type":"bill-payment","processor":"baxipay","reviewed_on":null,"reviewed_by":null,"batch_id":null,"schedule_id":null,"account":{"id":"0193f0e2-ab16-799a-85ae-fa4fbe2990a7","meta":null,"created_on":"2024-12-23T00:20:07.063Z","created_by_id":null,"modified_on":"2025-02-05T18:44:38.963Z","modified_by_id":"019317a0-b7e5-7eeb-a7eb-bd18cf39a633","deleted_on":null,"deleted_by_id":null,"tenant_id":"00000000-0000-0000-0000-000000000000","name":"Eno","cba_id":"0000000115","status":"active","profile_id":"01931947-9fea-744d-8f66-118c138292e3","account_number":"0000000115","bank_id":"0193324f-cad0-7f86-923b-43fb21ac5b29","ledger_balance":"12437.64","hold_balance":"0.00","available_balance":"12437.64","currency":"NGN","restricted":false},"transfer":null,"disputes":[],"batch":null,"transfer_beneficiary":null,"bill_payment_beneficiary":null},{"id":"0194d76e-305b-7881-916d-3bb895d23f9a","meta":null,"created_on":"2025-02-05T18:45:10.364Z","created_by_id":"019317a0-b7e5-7eeb-a7eb-bd18cf39a633","modified_on":"2025-02-05T18:45:10.775Z","modified_by_id":"019317a0-b7e5-7eeb-a7eb-bd18cf39a633","deleted_on":null,"deleted_by_id":null,"tenant_id":"00000000-0000-0000-0000-000000000000","account_id":"0193f0e2-ab16-799a-85ae-fa4fbe2990a7","profile_id":"01931947-9fea-744d-8f66-118c138292e3","cba_id":"2362","currency":"NGN","amount":"50.00","balance_after":null,"reference":"Tkgwdikqlyn","processor_reference":null,"processor_status":null,"processor_message":"11020034671 is not a valid phone number","status":"failed","entry_type":"debit","narration":"Bill payment to airtel for 11020034671","transaction_date":"2025-02-05T18:45:10.363Z","transaction_type":"bill-payment","processor":"baxipay","reviewed_on":null,"reviewed_by":null,"batch_id":null,"schedule_id":null,"account":{"id":"0193f0e2-ab16-799a-85ae-fa4fbe2990a7","meta":null,"created_on":"2024-12-23T00:20:07.063Z","created_by_id":null,"modified_on":"2025-02-05T18:44:38.963Z","modified_by_id":"019317a0-b7e5-7eeb-a7eb-bd18cf39a633","deleted_on":null,"deleted_by_id":null,"tenant_id":"00000000-0000-0000-0000-000000000000","name":"Eno","cba_id":"0000000115","status":"active","profile_id":"01931947-9fea-744d-8f66-118c138292e3","account_number":"0000000115","bank_id":"0193324f-cad0-7f86-923b-43fb21ac5b29","ledger_balance":"12437.64","hold_balance":"0.00","available_balance":"12437.64","currency":"NGN","restricted":false},"transfer":null,"disputes":[],"batch":null,"transfer_beneficiary":null,"bill_payment_beneficiary":null},{"id":"0194d76e-29c3-7881-916d-3408213d236f","meta":null,"created_on":"2025-02-05T18:45:08.675Z","created_by_id":"019317a0-b7e5-7eeb-a7eb-bd18cf39a633","modified_on":"2025-02-05T18:45:09.025Z","modified_by_id":"019317a0-b7e5-7eeb-a7eb-bd18cf39a633","deleted_on":null,"deleted_by_id":null,"tenant_id":"00000000-0000-0000-0000-000000000000","account_id":"0193f0e2-ab16-799a-85ae-fa4fbe2990a7","profile_id":"01931947-9fea-744d-8f66-118c138292e3","cba_id":"2361","currency":"NGN","amount":"100.00","balance_after":null,"reference":"Tvqawdezljs","processor_reference":null,"processor_status":null,"processor_message":"11020034671 is not a valid phone number","status":"failed","entry_type":"debit","narration":"Bill payment to mtn for 11020034671","transaction_date":"2025-02-05T18:45:08.673Z","transaction_type":"bill-payment","processor":"baxipay","reviewed_on":null,"reviewed_by":null,"batch_id":null,"schedule_id":null,"account":{"id":"0193f0e2-ab16-799a-85ae-fa4fbe2990a7","meta":null,"created_on":"2024-12-23T00:20:07.063Z","created_by_id":null,"modified_on":"2025-02-05T18:44:38.963Z","modified_by_id":"019317a0-b7e5-7eeb-a7eb-bd18cf39a633","deleted_on":null,"deleted_by_id":null,"tenant_id":"00000000-0000-0000-0000-000000000000","name":"Eno","cba_id":"0000000115","status":"active","profile_id":"01931947-9fea-744d-8f66-118c138292e3","account_number":"0000000115","bank_id":"0193324f-cad0-7f86-923b-43fb21ac5b29","ledger_balance":"12437.64","hold_balance":"0.00","available_balance":"12437.64","currency":"NGN","restricted":false},"transfer":null,"disputes":[],"batch":null,"transfer_beneficiary":null,"bill_payment_beneficiary":null},{"id":"0194d76e-2639-7881-916d-2fcf535cb103","meta":null,"created_on":"2025-02-05T18:45:07.769Z","created_by_id":"019317a0-b7e5-7eeb-a7eb-bd18cf39a633","modified_on":"2025-02-05T18:45:08.100Z","modified_by_id":"019317a0-b7e5-7eeb-a7eb-bd18cf39a633","deleted_on":null,"deleted_by_id":null,"tenant_id":"00000000-0000-0000-0000-000000000000","account_id":"0193f0e2-ab16-799a-85ae-fa4fbe2990a7","profile_id":"01931947-9fea-744d-8f66-118c138292e3","cba_id":"2360","currency":"NGN","amount":"100.00","balance_after":null,"reference":"Tgjljqhbhyr","processor_reference":null,"processor_status":null,"processor_message":"ensure you supply a valid accountId","status":"failed","entry_type":"debit","narration":"Bill payment to smile for 1102003467","transaction_date":"2025-02-05T18:45:07.769Z","transaction_type":"bill-payment","processor":"baxipay","reviewed_on":null,"reviewed_by":null,"batch_id":null,"schedule_id":null,"account":{"id":"0193f0e2-ab16-799a-85ae-fa4fbe2990a7","meta":null,"created_on":"2024-12-23T00:20:07.063Z","created_by_id":null,"modified_on":"2025-02-05T18:44:38.963Z","modified_by_id":"019317a0-b7e5-7eeb-a7eb-bd18cf39a633","deleted_on":null,"deleted_by_id":null,"tenant_id":"00000000-0000-0000-0000-000000000000","name":"Eno","cba_id":"0000000115","status":"active","profile_id":"01931947-9fea-744d-8f66-118c138292e3","account_number":"0000000115","bank_id":"0193324f-cad0-7f86-923b-43fb21ac5b29","ledger_balance":"12437.64","hold_balance":"0.00","available_balance":"12437.64","currency":"NGN","restricted":false},"transfer":null,"disputes":[],"batch":null,"transfer_beneficiary":null,"bill_payment_beneficiary":null},{"id":"0194d76e-22b4-7881-916d-26d4767abd2b","meta":null,"created_on":"2025-02-05T18:45:06.869Z","created_by_id":"019317a0-b7e5-7eeb-a7eb-bd18cf39a633","modified_on":"2025-02-05T18:45:07.235Z","modified_by_id":"019317a0-b7e5-7eeb-a7eb-bd18cf39a633","deleted_on":null,"deleted_by_id":null,"tenant_id":"00000000-0000-0000-0000-000000000000","account_id":"0193f0e2-ab16-799a-85ae-fa4fbe2990a7","profile_id":"01931947-9fea-744d-8f66-118c138292e3","cba_id":"2359","currency":"NGN","amount":"100.00","balance_after":null,"reference":"Tnlfyyshjss","processor_reference":null,"processor_status":null,"processor_message":"01102003467 is not a valid phone number","status":"failed","entry_type":"debit","narration":"Bill payment to 9mobile for 1102003467","transaction_date":"2025-02-05T18:45:06.867Z","transaction_type":"bill-payment","processor":"baxipay","reviewed_on":null,"reviewed_by":null,"batch_id":null,"schedule_id":null,"account":{"id":"0193f0e2-ab16-799a-85ae-fa4fbe2990a7","meta":null,"created_on":"2024-12-23T00:20:07.063Z","created_by_id":null,"modified_on":"2025-02-05T18:44:38.963Z","modified_by_id":"019317a0-b7e5-7eeb-a7eb-bd18cf39a633","deleted_on":null,"deleted_by_id":null,"tenant_id":"00000000-0000-0000-0000-000000000000","name":"Eno","cba_id":"0000000115","status":"active","profile_id":"01931947-9fea-744d-8f66-118c138292e3","account_number":"0000000115","bank_id":"0193324f-cad0-7f86-923b-43fb21ac5b29","ledger_balance":"12437.64","hold_balance":"0.00","available_balance":"12437.64","currency":"NGN","restricted":false},"transfer":null,"disputes":[],"batch":null,"transfer_beneficiary":null,"bill_payment_beneficiary":null}],"meta":{"page":1,"total_pages":162,"total_items":1620}}