{"status":"success","data":[{"id":"01960220-cd52-7eeb-9128-a0c1a5c965ef","meta":null,"created_on":"2025-04-04T18:47:06.137Z","created_by_id":"0195d26a-2323-711c-8833-9e3f99ed4f85","modified_on":"2025-04-04T18:47:06.826Z","modified_by_id":"0195d26a-2323-711c-8833-9e3f99ed4f85","deleted_on":null,"deleted_by_id":null,"tenant_id":"00000000-0000-0000-0000-000000000000","account_id":"0195d26b-5331-711c-8834-39e9ecc3f5c1","profile_id":"0195d26a-45cb-711c-8833-b628ce71be8a","cba_id":null,"currency":"NGN","amount":"10.00","balance_after":null,"reference":"TILSB5BV6IHV","processor_reference":null,"processor_status":null,"processor_message":"Cannot read properties of undefined (reading 'has')","status":"failed","entry_type":"debit","narration":"Sodiq","transaction_date":"2025-04-04T18:47:06.321Z","transaction_type":"transfer","processor":"nip","reviewed_on":null,"reviewed_by":null,"batch_id":"01960220-cca4-7eeb-9128-949128d6f9b5","schedule_id":null,"account":{"id":"0195d26b-5331-711c-8834-39e9ecc3f5c1","meta":null,"created_on":"2025-03-26T12:26:43.889Z","created_by_id":"0195d26a-2323-711c-8833-9e3f99ed4f85","modified_on":"2025-04-04T18:47:09.358Z","modified_by_id":"0195d26a-2323-711c-8833-9e3f99ed4f85","deleted_on":null,"deleted_by_id":null,"tenant_id":"00000000-0000-0000-0000-000000000000","name":"IBRAHIM AZEEZ","type":"account","cba_id":"9058893837","status":"active","profile_id":"0195d26a-45cb-711c-8833-b628ce71be8a","account_number":"9058893837","bank_id":"0193324f-cad0-7f86-923b-43fb21ac5b29","ledger_balance":"999238.85","hold_balance":"0.00","available_balance":"999238.85","currency":"NGN","restricted":false},"transfer":{"id":"01960220-cd53-7eeb-9128-b7c6ff8dbf76","meta":null,"created_on":"2025-04-04T18:47:06.137Z","created_by_id":"0195d26a-2323-711c-8833-9e3f99ed4f85","modified_on":"2025-04-04T18:47:06.137Z","modified_by_id":null,"deleted_on":null,"deleted_by_id":null,"tenant_id":"00000000-0000-0000-0000-000000000000","bank_code":"999998","bank_name":"vee test","bank_logo":"https://lendstack-s3.s3.us-east-2.amazonaws.com/bank_logos/035.png","account_name":"John Doe","account_number":"1780004070","profile_id":"0195d26a-45cb-711c-8833-b628ce71be8a","transaction_id":"01960220-cd52-7eeb-9128-a0c1a5c965ef","account_id":"0195d26b-5331-711c-8834-39e9ecc3f5c1"},"disputes":[],"batch":{"id":"01960220-cca4-7eeb-9128-949128d6f9b5","meta":null,"created_on":"2025-04-04T18:47:06.137Z","created_by_id":"0195d26a-2323-711c-8833-9e3f99ed4f85","modified_on":"2025-04-04T18:47:06.137Z","modified_by_id":null,"deleted_on":null,"deleted_by_id":null,"tenant_id":"00000000-0000-0000-0000-000000000000","status":"approved","name":null},"transfer_beneficiary":null,"bill_payment_beneficiary":null},{"id":"01960220-cd02-7eeb-9128-9903ae437c35","meta":null,"created_on":"2025-04-04T18:47:06.137Z","created_by_id":"0195d26a-2323-711c-8833-9e3f99ed4f85","modified_on":"2025-04-04T18:47:06.636Z","modified_by_id":"0195d26a-2323-711c-8833-9e3f99ed4f85","deleted_on":null,"deleted_by_id":null,"tenant_id":"00000000-0000-0000-0000-000000000000","account_id":"0195d26b-5331-711c-8834-39e9ecc3f5c1","profile_id":"0195d26a-45cb-711c-8833-b628ce71be8a","cba_id":null,"currency":"NGN","amount":"10.00","balance_after":null,"reference":"TXXS5AJC46D2","processor_reference":null,"processor_status":null,"processor_message":"Cannot read properties of undefined (reading 'has')","status":"failed","entry_type":"debit","narration":"Sodiq","transaction_date":"2025-04-04T18:47:06.242Z","transaction_type":"transfer","processor":"nip","reviewed_on":null,"reviewed_by":null,"batch_id":"01960220-cca4-7eeb-9128-949128d6f9b5","schedule_id":null,"account":{"id":"0195d26b-5331-711c-8834-39e9ecc3f5c1","meta":null,"created_on":"2025-03-26T12:26:43.889Z","created_by_id":"0195d26a-2323-711c-8833-9e3f99ed4f85","modified_on":"2025-04-04T18:47:09.358Z","modified_by_id":"0195d26a-2323-711c-8833-9e3f99ed4f85","deleted_on":null,"deleted_by_id":null,"tenant_id":"00000000-0000-0000-0000-000000000000","name":"IBRAHIM AZEEZ","type":"account","cba_id":"9058893837","status":"active","profile_id":"0195d26a-45cb-711c-8833-b628ce71be8a","account_number":"9058893837","bank_id":"0193324f-cad0-7f86-923b-43fb21ac5b29","ledger_balance":"999238.85","hold_balance":"0.00","available_balance":"999238.85","currency":"NGN","restricted":false},"transfer":{"id":"01960220-cd53-7eeb-9128-ab7930f3874f","meta":null,"created_on":"2025-04-04T18:47:06.137Z","created_by_id":"0195d26a-2323-711c-8833-9e3f99ed4f85","modified_on":"2025-04-04T18:47:06.137Z","modified_by_id":null,"deleted_on":null,"deleted_by_id":null,"tenant_id":"00000000-0000-0000-0000-000000000000","bank_code":"999998","bank_name":"vee test","bank_logo":"https://lendstack-s3.s3.us-east-2.amazonaws.com/bank_logos/035.png","account_name":"John Doe","account_number":"1780004070","profile_id":"0195d26a-45cb-711c-8833-b628ce71be8a","transaction_id":"01960220-cd02-7eeb-9128-9903ae437c35","account_id":"0195d26b-5331-711c-8834-39e9ecc3f5c1"},"disputes":[],"batch":{"id":"01960220-cca4-7eeb-9128-949128d6f9b5","meta":null,"created_on":"2025-04-04T18:47:06.137Z","created_by_id":"0195d26a-2323-711c-8833-9e3f99ed4f85","modified_on":"2025-04-04T18:47:06.137Z","modified_by_id":null,"deleted_on":null,"deleted_by_id":null,"tenant_id":"00000000-0000-0000-0000-000000000000","status":"approved","name":null},"transfer_beneficiary":null,"bill_payment_beneficiary":null},{"id":"01960220-c194-7eeb-9128-7588583764dd","meta":null,"created_on":"2025-04-04T18:47:03.315Z","created_by_id":"0195d26a-2323-711c-8833-9e3f99ed4f85","modified_on":"2025-04-04T18:47:04.064Z","modified_by_id":"0195d26a-2323-711c-8833-9e3f99ed4f85","deleted_on":null,"deleted_by_id":null,"tenant_id":"00000000-0000-0000-0000-000000000000","account_id":"0195d26b-5331-711c-8834-39e9ecc3f5c1","profile_id":"0195d26a-45cb-711c-8833-b628ce71be8a","cba_id":"4196","currency":"NGN","amount":"10.00","balance_after":null,"reference":"T69YPXV0L6BL","processor_reference":null,"processor_status":null,"processor_message":null,"status":"success","entry_type":"debit","narration":"Sodiq","transaction_date":"2025-04-04T18:47:03.315Z","transaction_type":"fee","processor":"cba","reviewed_on":null,"reviewed_by":null,"batch_id":null,"schedule_id":null,"account":{"id":"0195d26b-5331-711c-8834-39e9ecc3f5c1","meta":null,"created_on":"2025-03-26T12:26:43.889Z","created_by_id":"0195d26a-2323-711c-8833-9e3f99ed4f85","modified_on":"2025-04-04T18:47:09.358Z","modified_by_id":"0195d26a-2323-711c-8833-9e3f99ed4f85","deleted_on":null,"deleted_by_id":null,"tenant_id":"00000000-0000-0000-0000-000000000000","name":"IBRAHIM AZEEZ","type":"account","cba_id":"9058893837","status":"active","profile_id":"0195d26a-45cb-711c-8833-b628ce71be8a","account_number":"9058893837","bank_id":"0193324f-cad0-7f86-923b-43fb21ac5b29","ledger_balance":"999238.85","hold_balance":"0.00","available_balance":"999238.85","currency":"NGN","restricted":false},"transfer":null,"disputes":[],"batch":null,"transfer_beneficiary":null,"bill_payment_beneficiary":null},{"id":"01960220-c142-7eeb-9128-622860e62f14","meta":null,"created_on":"2025-04-04T18:47:03.234Z","created_by_id":"0195d26a-2323-711c-8833-9e3f99ed4f85","modified_on":"2025-04-04T18:47:04.059Z","modified_by_id":"0195d26a-2323-711c-8833-9e3f99ed4f85","deleted_on":null,"deleted_by_id":null,"tenant_id":"00000000-0000-0000-0000-000000000000","account_id":"0195d26b-5331-711c-8834-39e9ecc3f5c1","profile_id":"0195d26a-45cb-711c-8833-b628ce71be8a","cba_id":"4195","currency":"NGN","amount":"100.23","balance_after":null,"reference":"T69YPXV0L6BL","processor_reference":"MOCK_SESSION_ID_67890","processor_status":"success","processor_message":"Transfer Successful","status":"success","entry_type":"debit","narration":"Sodiq","transaction_date":"2025-04-04T18:47:03.234Z","transaction_type":"transfer","processor":"nip","reviewed_on":null,"reviewed_by":null,"batch_id":null,"schedule_id":null,"account":{"id":"0195d26b-5331-711c-8834-39e9ecc3f5c1","meta":null,"created_on":"2025-03-26T12:26:43.889Z","created_by_id":"0195d26a-2323-711c-8833-9e3f99ed4f85","modified_on":"2025-04-04T18:47:09.358Z","modified_by_id":"0195d26a-2323-711c-8833-9e3f99ed4f85","deleted_on":null,"deleted_by_id":null,"tenant_id":"00000000-0000-0000-0000-000000000000","name":"IBRAHIM AZEEZ","type":"account","cba_id":"9058893837","status":"active","profile_id":"0195d26a-45cb-711c-8833-b628ce71be8a","account_number":"9058893837","bank_id":"0193324f-cad0-7f86-923b-43fb21ac5b29","ledger_balance":"999238.85","hold_balance":"0.00","available_balance":"999238.85","currency":"NGN","restricted":false},"transfer":{"id":"01960220-c145-7eeb-9128-6b66856c020b","meta":null,"created_on":"2025-04-04T18:47:03.234Z","created_by_id":"0195d26a-2323-711c-8833-9e3f99ed4f85","modified_on":"2025-04-04T18:47:03.234Z","modified_by_id":null,"deleted_on":null,"deleted_by_id":null,"tenant_id":"00000000-0000-0000-0000-000000000000","bank_code":"000014","bank_name":"Access Bank","bank_logo":"https://lendstack-s3.s3.us-east-2.amazonaws.com/bank_logos/044.png","account_name":"John Doe","account_number":"1780004070","profile_id":"0195d26a-45cb-711c-8833-b628ce71be8a","transaction_id":"01960220-c142-7eeb-9128-622860e62f14","account_id":"0195d26b-5331-711c-8834-39e9ecc3f5c1"},"disputes":[],"batch":null,"transfer_beneficiary":null,"bill_payment_beneficiary":null},{"id":"0195f7d5-373a-7887-ab2b-c7676f51e0d9","meta":null,"created_on":"2025-04-02T18:48:20.535Z","created_by_id":"0195d26a-2323-711c-8833-9e3f99ed4f85","modified_on":"2025-04-02T18:48:56.547Z","modified_by_id":"0195d26a-2323-711c-8833-9e3f99ed4f85","deleted_on":null,"deleted_by_id":null,"tenant_id":"00000000-0000-0000-0000-000000000000","account_id":"0195d26b-5331-711c-8834-39e9ecc3f5c1","profile_id":"0195d26a-45cb-711c-8833-b628ce71be8a","cba_id":"4165","currency":"NGN","amount":"10.00","balance_after":"999349.08","reference":"T57NZH5SW4EH","processor_reference":null,"processor_status":null,"processor_message":null,"status":"success","entry_type":"debit","narration":"Sodiq","transaction_date":"2025-04-02T18:48:20.537Z","transaction_type":"fee","processor":"cba","reviewed_on":null,"reviewed_by":null,"batch_id":null,"schedule_id":null,"account":{"id":"0195d26b-5331-711c-8834-39e9ecc3f5c1","meta":null,"created_on":"2025-03-26T12:26:43.889Z","created_by_id":"0195d26a-2323-711c-8833-9e3f99ed4f85","modified_on":"2025-04-04T18:47:09.358Z","modified_by_id":"0195d26a-2323-711c-8833-9e3f99ed4f85","deleted_on":null,"deleted_by_id":null,"tenant_id":"00000000-0000-0000-0000-000000000000","name":"IBRAHIM AZEEZ","type":"account","cba_id":"9058893837","status":"active","profile_id":"0195d26a-45cb-711c-8833-b628ce71be8a","account_number":"9058893837","bank_id":"0193324f-cad0-7f86-923b-43fb21ac5b29","ledger_balance":"999238.85","hold_balance":"0.00","available_balance":"999238.85","currency":"NGN","restricted":false},"transfer":null,"disputes":[{"id":"0195f7d5-c3eb-7887-ab2c-2fc80eeef49e","meta":null,"created_on":"2025-04-02T18:48:56.552Z","created_by_id":"0195d26a-2323-711c-8833-9e3f99ed4f85","modified_on":"2025-04-02T18:48:56.552Z","modified_by_id":null,"deleted_on":null,"deleted_by_id":null,"tenant_id":"00000000-0000-0000-0000-000000000000","file_id":"0194462d-2cbc-788e-b49e-8f0163251b62","transaction_id":"0195f7d5-373a-7887-ab2b-c7676f51e0d9","status":"pending","note":"egbami, e no dey work","comment":null,"reviewed_on":null,"reviewed_by":null,"profile_id":"0195d26a-45cb-711c-8833-b628ce71be8a"}],"batch":null,"transfer_beneficiary":null,"bill_payment_beneficiary":null},{"id":"0195f7d5-36fc-7887-ab2b-bc4bd0948193","meta":null,"created_on":"2025-04-02T18:48:20.472Z","created_by_id":"0195d26a-2323-711c-8833-9e3f99ed4f85","modified_on":"2025-04-02T18:48:21.047Z","modified_by_id":"0195d26a-2323-711c-8833-9e3f99ed4f85","deleted_on":null,"deleted_by_id":null,"tenant_id":"00000000-0000-0000-0000-000000000000","account_id":"0195d26b-5331-711c-8834-39e9ecc3f5c1","profile_id":"0195d26a-45cb-711c-8833-b628ce71be8a","cba_id":"4163","currency":"NGN","amount":"10.00","balance_after":null,"reference":"TGP7ZL0070KL","processor_reference":null,"processor_status":null,"processor_message":null,"status":"success","entry_type":"debit","narration":"Sodiq","transaction_date":"2025-04-02T18:48:20.474Z","transaction_type":"fee","processor":"cba","reviewed_on":null,"reviewed_by":null,"batch_id":null,"schedule_id":null,"account":{"id":"0195d26b-5331-711c-8834-39e9ecc3f5c1","meta":null,"created_on":"2025-03-26T12:26:43.889Z","created_by_id":"0195d26a-2323-711c-8833-9e3f99ed4f85","modified_on":"2025-04-04T18:47:09.358Z","modified_by_id":"0195d26a-2323-711c-8833-9e3f99ed4f85","deleted_on":null,"deleted_by_id":null,"tenant_id":"00000000-0000-0000-0000-000000000000","name":"IBRAHIM AZEEZ","type":"account","cba_id":"9058893837","status":"active","profile_id":"0195d26a-45cb-711c-8833-b628ce71be8a","account_number":"9058893837","bank_id":"0193324f-cad0-7f86-923b-43fb21ac5b29","ledger_balance":"999238.85","hold_balance":"0.00","available_balance":"999238.85","currency":"NGN","restricted":false},"transfer":null,"disputes":[],"batch":null,"transfer_beneficiary":null,"bill_payment_beneficiary":null},{"id":"0195f7d5-36a4-7887-ab2b-9ccfa1cbee7f","meta":null,"created_on":"2025-04-02T18:48:20.358Z","created_by_id":"0195d26a-2323-711c-8833-9e3f99ed4f85","modified_on":"2025-04-02T18:48:22.151Z","modified_by_id":"0195d26a-2323-711c-8833-9e3f99ed4f85","deleted_on":null,"deleted_by_id":null,"tenant_id":"00000000-0000-0000-0000-000000000000","account_id":"0195d26b-5331-711c-8834-39e9ecc3f5c1","profile_id":"0195d26a-45cb-711c-8833-b628ce71be8a","cba_id":"4164","currency":"NGN","amount":"10.00","balance_after":null,"reference":"T57NZH5SW4EH","processor_reference":"MOCK_SESSION_ID_67890","processor_status":"success","processor_message":"Transfer Successful","status":"success","entry_type":"debit","narration":"Sodiq","transaction_date":"2025-04-02T18:48:20.388Z","transaction_type":"transfer","processor":"nip","reviewed_on":null,"reviewed_by":null,"batch_id":"0195f7d5-3689-7887-ab2b-889f227baf6e","schedule_id":null,"account":{"id":"0195d26b-5331-711c-8834-39e9ecc3f5c1","meta":null,"created_on":"2025-03-26T12:26:43.889Z","created_by_id":"0195d26a-2323-711c-8833-9e3f99ed4f85","modified_on":"2025-04-04T18:47:09.358Z","modified_by_id":"0195d26a-2323-711c-8833-9e3f99ed4f85","deleted_on":null,"deleted_by_id":null,"tenant_id":"00000000-0000-0000-0000-000000000000","name":"IBRAHIM AZEEZ","type":"account","cba_id":"9058893837","status":"active","profile_id":"0195d26a-45cb-711c-8833-b628ce71be8a","account_number":"9058893837","bank_id":"0193324f-cad0-7f86-923b-43fb21ac5b29","ledger_balance":"999238.85","hold_balance":"0.00","available_balance":"999238.85","currency":"NGN","restricted":false},"transfer":{"id":"0195f7d5-36a6-7887-ab2b-ad6caf28aa26","meta":null,"created_on":"2025-04-02T18:48:20.358Z","created_by_id":"0195d26a-2323-711c-8833-9e3f99ed4f85","modified_on":"2025-04-02T18:48:20.358Z","modified_by_id":null,"deleted_on":null,"deleted_by_id":null,"tenant_id":"00000000-0000-0000-0000-000000000000","bank_code":"999998","bank_name":"vee test","bank_logo":"https://lendstack-s3.s3.us-east-2.amazonaws.com/bank_logos/035.png","account_name":"John Doe","account_number":"1780004070","profile_id":"0195d26a-45cb-711c-8833-b628ce71be8a","transaction_id":"0195f7d5-36a4-7887-ab2b-9ccfa1cbee7f","account_id":"0195d26b-5331-711c-8834-39e9ecc3f5c1"},"disputes":[],"batch":{"id":"0195f7d5-3689-7887-ab2b-889f227baf6e","meta":null,"created_on":"2025-04-02T18:48:20.358Z","created_by_id":"0195d26a-2323-711c-8833-9e3f99ed4f85","modified_on":"2025-04-02T18:48:20.358Z","modified_by_id":null,"deleted_on":null,"deleted_by_id":null,"tenant_id":"00000000-0000-0000-0000-000000000000","status":"approved","name":null},"transfer_beneficiary":null,"bill_payment_beneficiary":null},{"id":"0195f7d5-3695-7887-ab2b-929f64d70570","meta":null,"created_on":"2025-04-02T18:48:20.358Z","created_by_id":"0195d26a-2323-711c-8833-9e3f99ed4f85","modified_on":"2025-04-02T18:48:21.038Z","modified_by_id":"0195d26a-2323-711c-8833-9e3f99ed4f85","deleted_on":null,"deleted_by_id":null,"tenant_id":"00000000-0000-0000-0000-000000000000","account_id":"0195d26b-5331-711c-8834-39e9ecc3f5c1","profile_id":"0195d26a-45cb-711c-8833-b628ce71be8a","cba_id":"4162","currency":"NGN","amount":"10.00","balance_after":null,"reference":"TGP7ZL0070KL","processor_reference":"MOCK_SESSION_ID_67890","processor_status":"success","processor_message":"Transfer Successful","status":"success","entry_type":"debit","narration":"Sodiq","transaction_date":"2025-04-02T18:48:20.373Z","transaction_type":"transfer","processor":"nip","reviewed_on":null,"reviewed_by":null,"batch_id":"0195f7d5-3689-7887-ab2b-889f227baf6e","schedule_id":null,"account":{"id":"0195d26b-5331-711c-8834-39e9ecc3f5c1","meta":null,"created_on":"2025-03-26T12:26:43.889Z","created_by_id":"0195d26a-2323-711c-8833-9e3f99ed4f85","modified_on":"2025-04-04T18:47:09.358Z","modified_by_id":"0195d26a-2323-711c-8833-9e3f99ed4f85","deleted_on":null,"deleted_by_id":null,"tenant_id":"00000000-0000-0000-0000-000000000000","name":"IBRAHIM AZEEZ","type":"account","cba_id":"9058893837","status":"active","profile_id":"0195d26a-45cb-711c-8833-b628ce71be8a","account_number":"9058893837","bank_id":"0193324f-cad0-7f86-923b-43fb21ac5b29","ledger_balance":"999238.85","hold_balance":"0.00","available_balance":"999238.85","currency":"NGN","restricted":false},"transfer":{"id":"0195f7d5-36a6-7887-ab2b-a19297dc24b6","meta":null,"created_on":"2025-04-02T18:48:20.358Z","created_by_id":"0195d26a-2323-711c-8833-9e3f99ed4f85","modified_on":"2025-04-02T18:48:20.358Z","modified_by_id":null,"deleted_on":null,"deleted_by_id":null,"tenant_id":"00000000-0000-0000-0000-000000000000","bank_code":"999998","bank_name":"vee test","bank_logo":"https://lendstack-s3.s3.us-east-2.amazonaws.com/bank_logos/035.png","account_name":"John Doe","account_number":"1780004070","profile_id":"0195d26a-45cb-711c-8833-b628ce71be8a","transaction_id":"0195f7d5-3695-7887-ab2b-929f64d70570","account_id":"0195d26b-5331-711c-8834-39e9ecc3f5c1"},"disputes":[],"batch":{"id":"0195f7d5-3689-7887-ab2b-889f227baf6e","meta":null,"created_on":"2025-04-02T18:48:20.358Z","created_by_id":"0195d26a-2323-711c-8833-9e3f99ed4f85","modified_on":"2025-04-02T18:48:20.358Z","modified_by_id":null,"deleted_on":null,"deleted_by_id":null,"tenant_id":"00000000-0000-0000-0000-000000000000","status":"approved","name":null},"transfer_beneficiary":null,"bill_payment_beneficiary":null},{"id":"0195f7d5-30f6-7887-ab2b-78901927745b","meta":null,"created_on":"2025-04-02T18:48:18.930Z","created_by_id":"0195d26a-2323-711c-8833-9e3f99ed4f85","modified_on":"2025-04-02T18:48:19.249Z","modified_by_id":"0195d26a-2323-711c-8833-9e3f99ed4f85","deleted_on":null,"deleted_by_id":null,"tenant_id":"00000000-0000-0000-0000-000000000000","account_id":"0195d26b-5331-711c-8834-39e9ecc3f5c1","profile_id":"0195d26a-45cb-711c-8833-b628ce71be8a","cba_id":"4161","currency":"NGN","amount":"10.00","balance_after":null,"reference":"THBLPTAG25VO","processor_reference":null,"processor_status":null,"processor_message":null,"status":"success","entry_type":"debit","narration":"Sodiq","transaction_date":"2025-04-02T18:48:18.933Z","transaction_type":"fee","processor":"cba","reviewed_on":null,"reviewed_by":null,"batch_id":null,"schedule_id":null,"account":{"id":"0195d26b-5331-711c-8834-39e9ecc3f5c1","meta":null,"created_on":"2025-03-26T12:26:43.889Z","created_by_id":"0195d26a-2323-711c-8833-9e3f99ed4f85","modified_on":"2025-04-04T18:47:09.358Z","modified_by_id":"0195d26a-2323-711c-8833-9e3f99ed4f85","deleted_on":null,"deleted_by_id":null,"tenant_id":"00000000-0000-0000-0000-000000000000","name":"IBRAHIM AZEEZ","type":"account","cba_id":"9058893837","status":"active","profile_id":"0195d26a-45cb-711c-8833-b628ce71be8a","account_number":"9058893837","bank_id":"0193324f-cad0-7f86-923b-43fb21ac5b29","ledger_balance":"999238.85","hold_balance":"0.00","available_balance":"999238.85","currency":"NGN","restricted":false},"transfer":null,"disputes":[],"batch":null,"transfer_beneficiary":null,"bill_payment_beneficiary":null},{"id":"0195f7d5-30bc-7887-ab2b-6b5af16e5ad4","meta":null,"created_on":"2025-04-02T18:48:18.872Z","created_by_id":"0195d26a-2323-711c-8833-9e3f99ed4f85","modified_on":"2025-04-02T18:48:19.240Z","modified_by_id":"0195d26a-2323-711c-8833-9e3f99ed4f85","deleted_on":null,"deleted_by_id":null,"tenant_id":"00000000-0000-0000-0000-000000000000","account_id":"0195d26b-5331-711c-8834-39e9ecc3f5c1","profile_id":"0195d26a-45cb-711c-8833-b628ce71be8a","cba_id":"4160","currency":"NGN","amount":"100.23","balance_after":null,"reference":"THBLPTAG25VO","processor_reference":"MOCK_SESSION_ID_67890","processor_status":"success","processor_message":"Transfer Successful","status":"success","entry_type":"debit","narration":"Sodiq","transaction_date":"2025-04-02T18:48:18.875Z","transaction_type":"transfer","processor":"nip","reviewed_on":null,"reviewed_by":null,"batch_id":null,"schedule_id":null,"account":{"id":"0195d26b-5331-711c-8834-39e9ecc3f5c1","meta":null,"created_on":"2025-03-26T12:26:43.889Z","created_by_id":"0195d26a-2323-711c-8833-9e3f99ed4f85","modified_on":"2025-04-04T18:47:09.358Z","modified_by_id":"0195d26a-2323-711c-8833-9e3f99ed4f85","deleted_on":null,"deleted_by_id":null,"tenant_id":"00000000-0000-0000-0000-000000000000","name":"IBRAHIM AZEEZ","type":"account","cba_id":"9058893837","status":"active","profile_id":"0195d26a-45cb-711c-8833-b628ce71be8a","account_number":"9058893837","bank_id":"0193324f-cad0-7f86-923b-43fb21ac5b29","ledger_balance":"999238.85","hold_balance":"0.00","available_balance":"999238.85","currency":"NGN","restricted":false},"transfer":{"id":"0195f7d5-30c2-7887-ab2b-70d1fbc5acb9","meta":null,"created_on":"2025-04-02T18:48:18.872Z","created_by_id":"0195d26a-2323-711c-8833-9e3f99ed4f85","modified_on":"2025-04-02T18:48:18.872Z","modified_by_id":null,"deleted_on":null,"deleted_by_id":null,"tenant_id":"00000000-0000-0000-0000-000000000000","bank_code":"000014","bank_name":"Access Bank","bank_logo":"https://lendstack-s3.s3.us-east-2.amazonaws.com/bank_logos/044.png","account_name":"John Doe","account_number":"1780004070","profile_id":"0195d26a-45cb-711c-8833-b628ce71be8a","transaction_id":"0195f7d5-30bc-7887-ab2b-6b5af16e5ad4","account_id":"0195d26b-5331-711c-8834-39e9ecc3f5c1"},"disputes":[],"batch":null,"transfer_beneficiary":null,"bill_payment_beneficiary":null}],"meta":{"page":1,"total_pages":4,"total_items":38}}