{"status":"success","data":[{"id":"0193f006-9644-7118-b7e1-daa05f755832","meta":{"recipients":[{"narration":"Sodiq","account_number":"1780004070","bank_code":"999998"}]},"created_on":"2024-12-22T20:19:43.812Z","created_by":null,"modified_on":"2024-12-22T20:19:43.812Z","modified_by":null,"deleted_on":null,"deleted_by":null,"tenant_id":"00000000-0000-0000-0000-000000000000","frequency":"once","type":"transfer","start_date":"2024-12-23T00:00:00.000Z","next_run_date":"2024-12-23T00:00:00.000Z","end_date":"2024-12-31T12:00:00.000Z","status":"active","amount":"100.23","profile_id":"0193a649-e3d0-7881-8b7f-2ef1d89a9aff","account_id":"0193a699-2f15-7881-8b7f-ae50980bcfad"},{"id":"0193f006-b25d-7118-b7e1-e29c52f1e5b2","meta":{"recipients":[{"narration":"Sodiq","account_number":"1780004070","bank_code":"999998"}]},"created_on":"2024-12-22T20:19:51.005Z","created_by":null,"modified_on":"2024-12-22T20:19:51.005Z","modified_by":null,"deleted_on":null,"deleted_by":null,"tenant_id":"00000000-0000-0000-0000-000000000000","frequency":"daily","type":"transfer","start_date":"2024-12-23T00:00:00.000Z","next_run_date":"2024-12-23T00:00:00.000Z","end_date":"2024-12-31T12:00:00.000Z","status":"active","amount":"100.23","profile_id":"0193a649-e3d0-7881-8b7f-2ef1d89a9aff","account_id":"0193a699-2f15-7881-8b7f-ae50980bcfad"},{"id":"0193f819-b424-722a-8017-09989ecec354","meta":{"recipients":[{"account_number":"1780004070","bank_code":"999998","bank_name":"vee test","account_name":"Ake Mobolaji & Temabo","narration":"Sodiq"},{"account_number":"1780004070","bank_code":"999998","bank_name":"vee test","account_name":"Ake Mobolaji & Temabo","narration":"Sodiq"}]},"created_on":"2024-12-24T09:57:34.370Z","created_by":null,"modified_on":"2024-12-24T09:57:34.370Z","modified_by":null,"deleted_on":null,"deleted_by":null,"tenant_id":"00000000-0000-0000-0000-000000000000","frequency":"once","type":"transfer","start_date":"2024-12-31T00:00:00.000Z","next_run_date":"2024-12-31T00:00:00.000Z","end_date":"2024-12-31T12:00:00.000Z","status":"active","amount":"900.23","profile_id":"0193a649-e3d0-7881-8b7f-2ef1d89a9aff","account_id":"0193a699-2f15-7881-8b7f-ae50980bcfad"},{"id":"0193f89c-6aa1-7112-857b-8d48961ac1a9","meta":{"category_id":"airtime","option_id":"","biller_id":"mtn"},"created_on":"2024-12-24T12:20:20.767Z","created_by":null,"modified_on":"2024-12-24T12:20:20.767Z","modified_by":null,"deleted_on":null,"deleted_by":null,"tenant_id":"00000000-0000-0000-0000-000000000000","frequency":"once","type":"transfer","start_date":"2024-12-30T21:00:00.000Z","next_run_date":"2024-12-30T21:00:00.000Z","end_date":"2024-12-31T12:00:00.000Z","status":"active","amount":"100.23","profile_id":"0193a649-e3d0-7881-8b7f-2ef1d89a9aff","account_id":"0193a699-2f15-7881-8b7f-ae50980bcfad"},{"id":"0193f89f-a97b-7112-857b-b42891854623","meta":{"category_id":"airtime","option_id":"","biller_id":"mtn"},"created_on":"2024-12-24T12:23:53.467Z","created_by":null,"modified_on":"2024-12-24T12:23:53.467Z","modified_by":null,"deleted_on":null,"deleted_by":null,"tenant_id":"00000000-0000-0000-0000-000000000000","frequency":"once","type":"bill-payment","start_date":"2024-12-30T21:00:00.000Z","next_run_date":"2024-12-30T21:00:00.000Z","end_date":"2024-12-31T12:00:00.000Z","status":"active","amount":"100.23","profile_id":"0193a649-e3d0-7881-8b7f-2ef1d89a9aff","account_id":"0193a699-2f15-7881-8b7f-ae50980bcfad"},{"id":"0193f90e-2421-7666-8634-9dd5fcc5b7ec","meta":{"category_id":"airtime","option_id":"","biller_id":"mtn"},"created_on":"2024-12-24T14:24:33.825Z","created_by":null,"modified_on":"2024-12-24T14:24:33.825Z","modified_by":null,"deleted_on":null,"deleted_by":null,"tenant_id":"00000000-0000-0000-0000-000000000000","frequency":"once","type":"bill-payment","start_date":"2024-12-30T21:00:00.000Z","next_run_date":"2024-12-30T21:00:00.000Z","end_date":"2024-12-31T12:00:00.000Z","status":"active","amount":"100.23","profile_id":"0193a649-e3d0-7881-8b7f-2ef1d89a9aff","account_id":"0193a699-2f15-7881-8b7f-ae50980bcfad"},{"id":"0193fa10-7ec8-7666-8636-c1b208250fcd","meta":{"category_id":"cabletv","option_id":"0193a649-e3d0-7881-8b7f-2ef1d89a9aff","biller_id":"dstv"},"created_on":"2024-12-24T19:06:45.321Z","created_by":null,"modified_on":"2024-12-24T19:06:45.321Z","modified_by":null,"deleted_on":null,"deleted_by":null,"tenant_id":"00000000-0000-0000-0000-000000000000","frequency":"weekly","type":"bill-payment","start_date":"2024-12-26T00:00:00.000Z","next_run_date":"2024-12-26T00:00:00.000Z","end_date":"2025-02-28T00:00:00.000Z","status":"active","amount":"14250.00","profile_id":"0193a649-e3d0-7881-8b7f-2ef1d89a9aff","account_id":"0193a699-2f15-7881-8b7f-ae50980bcfad"},{"id":"0193fa13-5175-7666-8636-cc6565bd8983","meta":{"category_id":"cabletv","option_id":"0193a649-e3d0-7881-8b7f-2ef1d89a9aff","biller_id":"dstv"},"created_on":"2024-12-24T19:09:50.325Z","created_by":null,"modified_on":"2024-12-24T19:09:50.325Z","modified_by":null,"deleted_on":null,"deleted_by":null,"tenant_id":"00000000-0000-0000-0000-000000000000","frequency":"weekly","type":"bill-payment","start_date":"2024-12-26T00:00:00.000Z","next_run_date":"2024-12-26T00:00:00.000Z","end_date":"2025-02-28T00:00:00.000Z","status":"active","amount":"14250.00","profile_id":"0193a649-e3d0-7881-8b7f-2ef1d89a9aff","account_id":"0193a699-2f15-7881-8b7f-ae50980bcfad"},{"id":"0193f818-d203-722a-8017-02af9642c2e8","meta":{"recipients":[{"account_number":"1780004070","bank_code":"999998","bank_name":"vee test","account_name":"Ake Mobolaji & Temabo","narration":"Sodiq"}]},"created_on":"2024-12-24T09:56:36.482Z","created_by":null,"modified_on":"2024-12-30T08:54:45.605Z","modified_by":null,"deleted_on":null,"deleted_by":null,"tenant_id":"00000000-0000-0000-0000-000000000000","frequency":"once","type":"transfer","start_date":"2024-12-31T00:00:00.000Z","next_run_date":"2024-12-31T00:00:00.000Z","end_date":"2024-12-31T12:00:00.000Z","status":"inactive","amount":"900.23","profile_id":"0193a649-e3d0-7881-8b7f-2ef1d89a9aff","account_id":"0193a699-2f15-7881-8b7f-ae50980bcfad"},{"id":"019418f6-ef02-7ffd-abaa-69fedc3cf75c","meta":{"category_id":"airtime","option_id":"","biller_id":"mtn"},"created_on":"2024-12-30T19:07:03.810Z","created_by":"019372de-17ef-7cc2-8fc0-43fe11ba042f","modified_on":"2024-12-30T19:07:03.810Z","modified_by":null,"deleted_on":null,"deleted_by":null,"tenant_id":"00000000-0000-0000-0000-000000000000","frequency":"once","type":"bill-payment","start_date":"2024-12-30T21:00:00.000Z","next_run_date":"2024-12-30T21:00:00.000Z","end_date":"2024-12-31T12:00:00.000Z","status":"active","amount":"100.23","profile_id":"0193a649-e3d0-7881-8b7f-2ef1d89a9aff","account_id":"0193a699-2f15-7881-8b7f-ae50980bcfad"}],"meta":{"page":1,"total_pages":2,"total_items":12}}