{"status":"success","data":[{"id":"01941d83-89f4-7cc6-b2d7-753b20c4708e","meta":null,"created_on":"2024-12-31T16:19:07.382Z","created_by":"019372de-17ef-7cc2-8fc0-43fe11ba042f","modified_on":"2024-12-31T16:19:20.835Z","modified_by":null,"deleted_on":null,"deleted_by":null,"tenant_id":"00000000-0000-0000-0000-000000000000","account_id":"0193a699-2f15-7881-8b7f-ae50980bcfad","profile_id":"0193a649-e3d0-7881-8b7f-2ef1d89a9aff","cba_id":"1419","currency":"NGN","amount":"5300.00","reference":"Tfvqorvmctg","processor_reference":null,"processor_status":null,"processor_message":null,"status":"success","entry_type":"debit","narration":"Bill payment to dstv for 1102003467","transaction_date":"2024-12-31T16:19:07.377Z","transaction_type":"bill-payment","processor":"baxipay","reviewed_on":null,"reviewed_by":null,"batch_id":null,"schedule_id":null,"transfer":null,"transfer_beneficiary":null,"bill_payment_beneficiary":null,"disputes":[],"batch":null,"account":{"id":"0193a699-2f15-7881-8b7f-ae50980bcfad","meta":null,"created_on":"2024-12-08T14:07:57.204Z","created_by":null,"modified_on":"2025-01-01T18:36:01.715Z","modified_by":null,"deleted_on":null,"deleted_by":null,"tenant_id":"00000000-0000-0000-0000-000000000000","name":"expenses","cba_id":"0000000074","profile_id":"0193a649-e3d0-7881-8b7f-2ef1d89a9aff","account_number":"0000000074","bank_id":"0193324f-cad0-7f86-923b-43fb21ac5b29","ledger_balance":"1013737.47","hold_balance":"0.00","available_balance":"1013737.47","currency":"NGN","restricted":false}},{"id":"01941d37-c5a2-722d-b47a-e95f0415c67b","meta":null,"created_on":"2024-12-31T14:56:21.926Z","created_by":"019372de-17ef-7cc2-8fc0-43fe11ba042f","modified_on":"2024-12-31T14:56:22.966Z","modified_by":null,"deleted_on":null,"deleted_by":null,"tenant_id":"00000000-0000-0000-0000-000000000000","account_id":"0193a699-2f15-7881-8b7f-ae50980bcfad","profile_id":"0193a649-e3d0-7881-8b7f-2ef1d89a9aff","cba_id":"1418","currency":"NGN","amount":"10.00","reference":"Tyrrbupaqsg","processor_reference":null,"processor_status":null,"processor_message":null,"status":"success","entry_type":"debit","narration":"Sodiq","transaction_date":"2024-12-31T14:56:21.920Z","transaction_type":"fee","processor":"cba","reviewed_on":null,"reviewed_by":null,"batch_id":null,"schedule_id":null,"transfer":null,"transfer_beneficiary":null,"bill_payment_beneficiary":null,"disputes":[],"batch":null,"account":{"id":"0193a699-2f15-7881-8b7f-ae50980bcfad","meta":null,"created_on":"2024-12-08T14:07:57.204Z","created_by":null,"modified_on":"2025-01-01T18:36:01.715Z","modified_by":null,"deleted_on":null,"deleted_by":null,"tenant_id":"00000000-0000-0000-0000-000000000000","name":"expenses","cba_id":"0000000074","profile_id":"0193a649-e3d0-7881-8b7f-2ef1d89a9aff","account_number":"0000000074","bank_id":"0193324f-cad0-7f86-923b-43fb21ac5b29","ledger_balance":"1013737.47","hold_balance":"0.00","available_balance":"1013737.47","currency":"NGN","restricted":false}},{"id":"01941d37-c580-722d-b47a-d9812200c49d","meta":null,"created_on":"2024-12-31T14:56:21.892Z","created_by":"019372de-17ef-7cc2-8fc0-43fe11ba042f","modified_on":"2024-12-31T14:56:22.961Z","modified_by":null,"deleted_on":null,"deleted_by":null,"tenant_id":"00000000-0000-0000-0000-000000000000","account_id":"0193a699-2f15-7881-8b7f-ae50980bcfad","profile_id":"0193a649-e3d0-7881-8b7f-2ef1d89a9aff","cba_id":"1417","currency":"NGN","amount":"100.23","reference":"Tyrrbupaqsg","processor_reference":null,"processor_status":null,"processor_message":null,"status":"success","entry_type":"debit","narration":"Sodiq","transaction_date":"2024-12-31T14:56:21.831Z","transaction_type":"transfer","processor":"nip","reviewed_on":null,"reviewed_by":null,"batch_id":null,"schedule_id":null,"transfer":{"id":"01941d37-c584-722d-b47a-e63422cdf9cb","meta":null,"created_on":"2024-12-31T14:56:21.892Z","created_by":"019372de-17ef-7cc2-8fc0-43fe11ba042f","modified_on":"2024-12-31T14:56:21.892Z","modified_by":null,"deleted_on":null,"deleted_by":null,"tenant_id":"00000000-0000-0000-0000-000000000000","bank_code":"999998","bank_name":"vee test","account_name":"Ake Mobolaji & Temabo","account_number":"1780004070","profile_id":"0193a649-e3d0-7881-8b7f-2ef1d89a9aff","transaction_id":"01941d37-c580-722d-b47a-d9812200c49d","account_id":"0193a699-2f15-7881-8b7f-ae50980bcfad"},"transfer_beneficiary":null,"bill_payment_beneficiary":null,"disputes":[],"batch":null,"account":{"id":"0193a699-2f15-7881-8b7f-ae50980bcfad","meta":null,"created_on":"2024-12-08T14:07:57.204Z","created_by":null,"modified_on":"2025-01-01T18:36:01.715Z","modified_by":null,"deleted_on":null,"deleted_by":null,"tenant_id":"00000000-0000-0000-0000-000000000000","name":"expenses","cba_id":"0000000074","profile_id":"0193a649-e3d0-7881-8b7f-2ef1d89a9aff","account_number":"0000000074","bank_id":"0193324f-cad0-7f86-923b-43fb21ac5b29","ledger_balance":"1013737.47","hold_balance":"0.00","available_balance":"1013737.47","currency":"NGN","restricted":false}},{"id":"01941d36-a082-722d-b47a-c43a64f49cb9","meta":null,"created_on":"2024-12-31T14:55:06.887Z","created_by":"019372de-17ef-7cc2-8fc0-43fe11ba042f","modified_on":"2024-12-31T14:55:08.338Z","modified_by":null,"deleted_on":null,"deleted_by":null,"tenant_id":"00000000-0000-0000-0000-000000000000","account_id":"0193a699-2f15-7881-8b7f-ae50980bcfad","profile_id":"0193a649-e3d0-7881-8b7f-2ef1d89a9aff","cba_id":"1416","currency":"NGN","amount":"10.00","reference":"Txfrtpmfsxh","processor_reference":null,"processor_status":null,"processor_message":null,"status":"success","entry_type":"debit","narration":"Sodiq","transaction_date":"2024-12-31T14:55:06.881Z","transaction_type":"fee","processor":"cba","reviewed_on":null,"reviewed_by":null,"batch_id":null,"schedule_id":null,"transfer":null,"transfer_beneficiary":null,"bill_payment_beneficiary":null,"disputes":[],"batch":null,"account":{"id":"0193a699-2f15-7881-8b7f-ae50980bcfad","meta":null,"created_on":"2024-12-08T14:07:57.204Z","created_by":null,"modified_on":"2025-01-01T18:36:01.715Z","modified_by":null,"deleted_on":null,"deleted_by":null,"tenant_id":"00000000-0000-0000-0000-000000000000","name":"expenses","cba_id":"0000000074","profile_id":"0193a649-e3d0-7881-8b7f-2ef1d89a9aff","account_number":"0000000074","bank_id":"0193324f-cad0-7f86-923b-43fb21ac5b29","ledger_balance":"1013737.47","hold_balance":"0.00","available_balance":"1013737.47","currency":"NGN","restricted":false}},{"id":"01941d36-a020-722d-b47a-b488fe0340f1","meta":null,"created_on":"2024-12-31T14:55:06.788Z","created_by":"019372de-17ef-7cc2-8fc0-43fe11ba042f","modified_on":"2024-12-31T14:55:08.326Z","modified_by":null,"deleted_on":null,"deleted_by":null,"tenant_id":"00000000-0000-0000-0000-000000000000","account_id":"0193a699-2f15-7881-8b7f-ae50980bcfad","profile_id":"0193a649-e3d0-7881-8b7f-2ef1d89a9aff","cba_id":"1415","currency":"NGN","amount":"100.23","reference":"Txfrtpmfsxh","processor_reference":null,"processor_status":null,"processor_message":null,"status":"success","entry_type":"debit","narration":"Sodiq","transaction_date":"2024-12-31T14:55:06.683Z","transaction_type":"transfer","processor":"nip","reviewed_on":null,"reviewed_by":null,"batch_id":null,"schedule_id":null,"transfer":{"id":"01941d36-a027-722d-b47a-bbcf92d3a066","meta":null,"created_on":"2024-12-31T14:55:06.788Z","created_by":"019372de-17ef-7cc2-8fc0-43fe11ba042f","modified_on":"2024-12-31T14:55:06.788Z","modified_by":null,"deleted_on":null,"deleted_by":null,"tenant_id":"00000000-0000-0000-0000-000000000000","bank_code":"999998","bank_name":"vee test","account_name":"Ake Mobolaji & Temabo","account_number":"1780004070","profile_id":"0193a649-e3d0-7881-8b7f-2ef1d89a9aff","transaction_id":"01941d36-a020-722d-b47a-b488fe0340f1","account_id":"0193a699-2f15-7881-8b7f-ae50980bcfad"},"transfer_beneficiary":null,"bill_payment_beneficiary":null,"disputes":[],"batch":null,"account":{"id":"0193a699-2f15-7881-8b7f-ae50980bcfad","meta":null,"created_on":"2024-12-08T14:07:57.204Z","created_by":null,"modified_on":"2025-01-01T18:36:01.715Z","modified_by":null,"deleted_on":null,"deleted_by":null,"tenant_id":"00000000-0000-0000-0000-000000000000","name":"expenses","cba_id":"0000000074","profile_id":"0193a649-e3d0-7881-8b7f-2ef1d89a9aff","account_number":"0000000074","bank_id":"0193324f-cad0-7f86-923b-43fb21ac5b29","ledger_balance":"1013737.47","hold_balance":"0.00","available_balance":"1013737.47","currency":"NGN","restricted":false}},{"id":"01941cf8-a3e4-7995-8ecc-ea77ccb19638","meta":null,"created_on":"2024-12-31T13:47:24.519Z","created_by":"019372de-17ef-7cc2-8fc0-43fe11ba042f","modified_on":"2024-12-31T13:47:47.408Z","modified_by":null,"deleted_on":null,"deleted_by":null,"tenant_id":"00000000-0000-0000-0000-000000000000","account_id":"0193a699-2f15-7881-8b7f-ae50980bcfad","profile_id":"0193a649-e3d0-7881-8b7f-2ef1d89a9aff","cba_id":"1414","currency":"NGN","amount":"5500.00","reference":"Trvlcbhvvap","processor_reference":null,"processor_status":null,"processor_message":null,"status":"success","entry_type":"debit","narration":"Bill payment to gotv for 22822822828","transaction_date":"2024-12-31T13:47:24.515Z","transaction_type":"bill-payment","processor":"baxipay","reviewed_on":null,"reviewed_by":null,"batch_id":null,"schedule_id":null,"transfer":null,"transfer_beneficiary":null,"bill_payment_beneficiary":null,"disputes":[],"batch":null,"account":{"id":"0193a699-2f15-7881-8b7f-ae50980bcfad","meta":null,"created_on":"2024-12-08T14:07:57.204Z","created_by":null,"modified_on":"2025-01-01T18:36:01.715Z","modified_by":null,"deleted_on":null,"deleted_by":null,"tenant_id":"00000000-0000-0000-0000-000000000000","name":"expenses","cba_id":"0000000074","profile_id":"0193a649-e3d0-7881-8b7f-2ef1d89a9aff","account_number":"0000000074","bank_id":"0193324f-cad0-7f86-923b-43fb21ac5b29","ledger_balance":"1013737.47","hold_balance":"0.00","available_balance":"1013737.47","currency":"NGN","restricted":false}},{"id":"01941836-35a0-7440-abcd-8a8efe8009dd","meta":null,"created_on":"2024-12-30T15:36:33.439Z","created_by":"019372de-17ef-7cc2-8fc0-43fe11ba042f","modified_on":"2024-12-30T15:36:34.068Z","modified_by":null,"deleted_on":null,"deleted_by":null,"tenant_id":"00000000-0000-0000-0000-000000000000","account_id":"0193a699-2f15-7881-8b7f-ae50980bcfad","profile_id":"0193a649-e3d0-7881-8b7f-2ef1d89a9aff","cba_id":"1261","currency":"NGN","amount":"10.00","reference":"Targciqhviq","processor_reference":null,"processor_status":null,"processor_message":null,"status":"processing","entry_type":"debit","narration":"","transaction_date":"2024-12-30T15:36:33.434Z","transaction_type":"fee","processor":"cba","reviewed_on":null,"reviewed_by":null,"batch_id":null,"schedule_id":null,"transfer":null,"transfer_beneficiary":null,"bill_payment_beneficiary":null,"disputes":[],"batch":null,"account":{"id":"0193a699-2f15-7881-8b7f-ae50980bcfad","meta":null,"created_on":"2024-12-08T14:07:57.204Z","created_by":null,"modified_on":"2025-01-01T18:36:01.715Z","modified_by":null,"deleted_on":null,"deleted_by":null,"tenant_id":"00000000-0000-0000-0000-000000000000","name":"expenses","cba_id":"0000000074","profile_id":"0193a649-e3d0-7881-8b7f-2ef1d89a9aff","account_number":"0000000074","bank_id":"0193324f-cad0-7f86-923b-43fb21ac5b29","ledger_balance":"1013737.47","hold_balance":"0.00","available_balance":"1013737.47","currency":"NGN","restricted":false}},{"id":"01941836-359f-7440-abcd-8099e63ef447","meta":null,"created_on":"2024-12-30T15:36:33.434Z","created_by":"019372de-17ef-7cc2-8fc0-43fe11ba042f","modified_on":"2024-12-30T15:36:33.434Z","modified_by":null,"deleted_on":null,"deleted_by":null,"tenant_id":"00000000-0000-0000-0000-000000000000","account_id":"0193a699-2f15-7881-8b7f-ae50980bcfad","profile_id":"0193a649-e3d0-7881-8b7f-2ef1d89a9aff","cba_id":null,"currency":"NGN","amount":"10.00","reference":"Tfwjsoaiqtb","processor_reference":null,"processor_status":null,"processor_message":null,"status":"processing","entry_type":"debit","narration":"","transaction_date":"2024-12-30T15:36:33.433Z","transaction_type":"fee","processor":"cba","reviewed_on":null,"reviewed_by":null,"batch_id":null,"schedule_id":null,"transfer":null,"transfer_beneficiary":null,"bill_payment_beneficiary":null,"disputes":[],"batch":null,"account":{"id":"0193a699-2f15-7881-8b7f-ae50980bcfad","meta":null,"created_on":"2024-12-08T14:07:57.204Z","created_by":null,"modified_on":"2025-01-01T18:36:01.715Z","modified_by":null,"deleted_on":null,"deleted_by":null,"tenant_id":"00000000-0000-0000-0000-000000000000","name":"expenses","cba_id":"0000000074","profile_id":"0193a649-e3d0-7881-8b7f-2ef1d89a9aff","account_number":"0000000074","bank_id":"0193324f-cad0-7f86-923b-43fb21ac5b29","ledger_balance":"1013737.47","hold_balance":"0.00","available_balance":"1013737.47","currency":"NGN","restricted":false}},{"id":"01941836-34d4-7440-abcd-6fa3f0a224be","meta":null,"created_on":"2024-12-30T15:36:33.047Z","created_by":"019372de-17ef-7cc2-8fc0-43fe11ba042f","modified_on":"2024-12-30T15:36:34.321Z","modified_by":null,"deleted_on":null,"deleted_by":null,"tenant_id":"00000000-0000-0000-0000-000000000000","account_id":"0193a699-2f15-7881-8b7f-ae50980bcfad","profile_id":"0193a649-e3d0-7881-8b7f-2ef1d89a9aff","cba_id":null,"currency":"NGN","amount":"3000.00","reference":"Targciqhviq","processor_reference":null,"processor_status":null,"processor_message":null,"status":"failed","entry_type":"debit","narration":"","transaction_date":"2024-12-30T15:36:33.236Z","transaction_type":"transfer","processor":"nip","reviewed_on":null,"reviewed_by":null,"batch_id":"01941836-3417-7440-abcd-5c865578ded6","schedule_id":null,"transfer":{"id":"01941836-34db-7440-abcd-7ecf8678525b","meta":null,"created_on":"2024-12-30T15:36:33.047Z","created_by":"019372de-17ef-7cc2-8fc0-43fe11ba042f","modified_on":"2024-12-30T15:36:33.047Z","modified_by":null,"deleted_on":null,"deleted_by":null,"tenant_id":"00000000-0000-0000-0000-000000000000","bank_code":"050030","bank_name":"NORTHQUEST FINANCE COMPANY LIMITED ","account_name":"Profile","account_number":"0000000106","profile_id":"0193a649-e3d0-7881-8b7f-2ef1d89a9aff","transaction_id":"01941836-34d4-7440-abcd-6fa3f0a224be","account_id":"0193a699-2f15-7881-8b7f-ae50980bcfad"},"transfer_beneficiary":null,"bill_payment_beneficiary":null,"disputes":[],"batch":{"id":"01941836-3417-7440-abcd-5c865578ded6","meta":null,"created_on":"2024-12-30T15:36:33.047Z","created_by":"019372de-17ef-7cc2-8fc0-43fe11ba042f","modified_on":"2024-12-30T15:36:33.047Z","modified_by":null,"deleted_on":null,"deleted_by":null,"tenant_id":"00000000-0000-0000-0000-000000000000","status":"approved"},"account":{"id":"0193a699-2f15-7881-8b7f-ae50980bcfad","meta":null,"created_on":"2024-12-08T14:07:57.204Z","created_by":null,"modified_on":"2025-01-01T18:36:01.715Z","modified_by":null,"deleted_on":null,"deleted_by":null,"tenant_id":"00000000-0000-0000-0000-000000000000","name":"expenses","cba_id":"0000000074","profile_id":"0193a649-e3d0-7881-8b7f-2ef1d89a9aff","account_number":"0000000074","bank_id":"0193324f-cad0-7f86-923b-43fb21ac5b29","ledger_balance":"1013737.47","hold_balance":"0.00","available_balance":"1013737.47","currency":"NGN","restricted":false}},{"id":"01941836-3488-7440-abcd-62015d38ccd8","meta":null,"created_on":"2024-12-30T15:36:33.047Z","created_by":"019372de-17ef-7cc2-8fc0-43fe11ba042f","modified_on":"2024-12-30T15:36:33.530Z","modified_by":null,"deleted_on":null,"deleted_by":null,"tenant_id":"00000000-0000-0000-0000-000000000000","account_id":"0193a699-2f15-7881-8b7f-ae50980bcfad","profile_id":"0193a649-e3d0-7881-8b7f-2ef1d89a9aff","cba_id":null,"currency":"NGN","amount":"2000.00","reference":"Tfwjsoaiqtb","processor_reference":null,"processor_status":null,"processor_message":null,"status":"failed","entry_type":"debit","narration":"","transaction_date":"2024-12-30T15:36:33.159Z","transaction_type":"transfer","processor":"nip","reviewed_on":null,"reviewed_by":null,"batch_id":"01941836-3417-7440-abcd-5c865578ded6","schedule_id":null,"transfer":{"id":"01941836-34db-7440-abcd-7116413ec200","meta":null,"created_on":"2024-12-30T15:36:33.047Z","created_by":"019372de-17ef-7cc2-8fc0-43fe11ba042f","modified_on":"2024-12-30T15:36:33.047Z","modified_by":null,"deleted_on":null,"deleted_by":null,"tenant_id":"00000000-0000-0000-0000-000000000000","bank_code":"050030","bank_name":"NORTHQUEST FINANCE COMPANY LIMITED ","account_name":"Profile","account_number":"0000000108","profile_id":"0193a649-e3d0-7881-8b7f-2ef1d89a9aff","transaction_id":"01941836-3488-7440-abcd-62015d38ccd8","account_id":"0193a699-2f15-7881-8b7f-ae50980bcfad"},"transfer_beneficiary":null,"bill_payment_beneficiary":null,"disputes":[],"batch":{"id":"01941836-3417-7440-abcd-5c865578ded6","meta":null,"created_on":"2024-12-30T15:36:33.047Z","created_by":"019372de-17ef-7cc2-8fc0-43fe11ba042f","modified_on":"2024-12-30T15:36:33.047Z","modified_by":null,"deleted_on":null,"deleted_by":null,"tenant_id":"00000000-0000-0000-0000-000000000000","status":"approved"},"account":{"id":"0193a699-2f15-7881-8b7f-ae50980bcfad","meta":null,"created_on":"2024-12-08T14:07:57.204Z","created_by":null,"modified_on":"2025-01-01T18:36:01.715Z","modified_by":null,"deleted_on":null,"deleted_by":null,"tenant_id":"00000000-0000-0000-0000-000000000000","name":"expenses","cba_id":"0000000074","profile_id":"0193a649-e3d0-7881-8b7f-2ef1d89a9aff","account_number":"0000000074","bank_id":"0193324f-cad0-7f86-923b-43fb21ac5b29","ledger_balance":"1013737.47","hold_balance":"0.00","available_balance":"1013737.47","currency":"NGN","restricted":false}}],"meta":{"page":1,"total_pages":27,"total_items":265}}