{"status":"success","data":[{"id":"01940969-6152-7666-8644-2f6e2e6b12fb","meta":null,"created_on":"2024-12-27T18:38:08.654Z","created_by":"019317a0-b7e5-7eeb-a7eb-bd18cf39a633","modified_on":"2024-12-27T18:38:10.091Z","modified_by":null,"deleted_on":null,"deleted_by":null,"tenant_id":"00000000-0000-0000-0000-000000000000","account_id":"019390f5-db96-7335-b5bb-74eac1376a9c","profile_id":"01931947-9fea-744d-8f66-118c138292e3","cba_id":"1153","currency":"NGN","amount":"10.00","reference":"Thrnczfxsre","processor_reference":null,"processor_status":null,"processor_message":null,"status":"success","entry_type":"debit","narration":"Sodiq","transaction_date":"2024-12-27T18:38:08.653Z","transaction_type":"fee","processor":"cba","reviewed_on":null,"reviewed_by":null,"batch_id":null,"schedule_id":null,"transfer":null,"transfer_beneficiary":null,"bill_payment_beneficiary":null,"disputes":[],"batch":null,"account":{"id":"019390f5-db96-7335-b5bb-74eac1376a9c","meta":null,"created_on":"2024-12-04T09:17:31.925Z","created_by":null,"modified_on":"2024-12-27T18:38:08.091Z","modified_by":null,"deleted_on":null,"deleted_by":null,"tenant_id":"00000000-0000-0000-0000-000000000000","name":"Travel","cba_id":"0000000040","profile_id":"01931947-9fea-744d-8f66-118c138292e3","account_number":"0000000040","bank_id":"0193324f-cad0-7f86-923b-43fb21ac5b29","ledger_balance":"597535.09","hold_balance":"0.00","available_balance":"597535.09","currency":"NGN","restricted":false}},{"id":"01940969-6101-7666-8644-1d542ba85c2c","meta":null,"created_on":"2024-12-27T18:38:08.642Z","created_by":"019317a0-b7e5-7eeb-a7eb-bd18cf39a633","modified_on":"2024-12-27T18:38:10.091Z","modified_by":null,"deleted_on":null,"deleted_by":null,"tenant_id":"00000000-0000-0000-0000-000000000000","account_id":"019390f5-db96-7335-b5bb-74eac1376a9c","profile_id":"01931947-9fea-744d-8f66-118c138292e3","cba_id":"288","currency":"NGN","amount":"1000.00","reference":"Thrnczfxsre","processor_reference":null,"processor_status":null,"processor_message":null,"status":"success","entry_type":"debit","narration":"Sodiq","transaction_date":"2024-12-27T18:38:08.634Z","transaction_type":"transfer","processor":"cba","reviewed_on":null,"reviewed_by":null,"batch_id":null,"schedule_id":null,"transfer":{"id":"01940969-6105-7666-8644-228a22ee134f","meta":null,"created_on":"2024-12-27T18:38:08.642Z","created_by":"019317a0-b7e5-7eeb-a7eb-bd18cf39a633","modified_on":"2024-12-27T18:38:08.642Z","modified_by":null,"deleted_on":null,"deleted_by":null,"tenant_id":"00000000-0000-0000-0000-000000000000","bank_code":"050030","bank_name":"NORTHQUEST FINANCE COMPANY LIMITED ","account_name":"John Doe","account_number":"0000000041","profile_id":"01931947-9fea-744d-8f66-118c138292e3","transaction_id":"01940969-6101-7666-8644-1d542ba85c2c","account_id":"019390f5-db96-7335-b5bb-74eac1376a9c"},"transfer_beneficiary":null,"bill_payment_beneficiary":null,"disputes":[],"batch":null,"account":{"id":"019390f5-db96-7335-b5bb-74eac1376a9c","meta":null,"created_on":"2024-12-04T09:17:31.925Z","created_by":null,"modified_on":"2024-12-27T18:38:08.091Z","modified_by":null,"deleted_on":null,"deleted_by":null,"tenant_id":"00000000-0000-0000-0000-000000000000","name":"Travel","cba_id":"0000000040","profile_id":"01931947-9fea-744d-8f66-118c138292e3","account_number":"0000000040","bank_id":"0193324f-cad0-7f86-923b-43fb21ac5b29","ledger_balance":"597535.09","hold_balance":"0.00","available_balance":"597535.09","currency":"NGN","restricted":false}},{"id":"01940969-66ab-7666-8644-354a461c719d","meta":null,"created_on":"2024-12-27T18:38:10.091Z","created_by":null,"modified_on":"2024-12-27T18:38:10.091Z","modified_by":null,"deleted_on":null,"deleted_by":null,"tenant_id":"00000000-0000-0000-0000-000000000000","account_id":"0193912b-6f5e-7335-b5bc-3302dcc08103","profile_id":"01931947-9fea-744d-8f66-118c138292e3","cba_id":null,"currency":"NGN","amount":"1000.00","reference":"Thrnczfxsre","processor_reference":null,"processor_status":null,"processor_message":null,"status":"success","entry_type":"credit","narration":"Sodiq","transaction_date":"2024-12-27T18:38:08.634Z","transaction_type":"funding","processor":"cba","reviewed_on":null,"reviewed_by":null,"batch_id":null,"schedule_id":null,"transfer":null,"transfer_beneficiary":null,"bill_payment_beneficiary":null,"disputes":[],"batch":null,"account":{"id":"0193912b-6f5e-7335-b5bc-3302dcc08103","meta":null,"created_on":"2024-12-04T10:16:03.166Z","created_by":null,"modified_on":"2024-12-22T11:04:17.708Z","modified_by":null,"deleted_on":null,"deleted_by":null,"tenant_id":"00000000-0000-0000-0000-000000000000","name":"Education","cba_id":"0000000041","profile_id":"01931947-9fea-744d-8f66-118c138292e3","account_number":"0000000041","bank_id":"0193324f-cad0-7f86-923b-43fb21ac5b29","ledger_balance":"17.61","hold_balance":"0.00","available_balance":"17.61","currency":"NGN","restricted":false}},{"id":"019408aa-aadb-7666-8641-7324eb907dd2","meta":null,"created_on":"2024-12-27T15:09:50.171Z","created_by":"019317a0-b7e5-7eeb-a7eb-bd18cf39a633","modified_on":"2024-12-27T15:09:52.657Z","modified_by":null,"deleted_on":null,"deleted_by":null,"tenant_id":"00000000-0000-0000-0000-000000000000","account_id":"019390f5-db96-7335-b5bb-74eac1376a9c","profile_id":"01931947-9fea-744d-8f66-118c138292e3","cba_id":"1151","currency":"NGN","amount":"25.00","reference":"Tofzbsxubku","processor_reference":null,"processor_status":null,"processor_message":null,"status":"success","entry_type":"debit","narration":"Bill payment to glo for 07055390320","transaction_date":"2024-12-27T15:09:50.170Z","transaction_type":"bill-payment","processor":"baxipay","reviewed_on":null,"reviewed_by":null,"batch_id":null,"schedule_id":null,"transfer":null,"transfer_beneficiary":null,"bill_payment_beneficiary":null,"disputes":[],"batch":null,"account":{"id":"019390f5-db96-7335-b5bb-74eac1376a9c","meta":null,"created_on":"2024-12-04T09:17:31.925Z","created_by":null,"modified_on":"2024-12-27T18:38:08.091Z","modified_by":null,"deleted_on":null,"deleted_by":null,"tenant_id":"00000000-0000-0000-0000-000000000000","name":"Travel","cba_id":"0000000040","profile_id":"01931947-9fea-744d-8f66-118c138292e3","account_number":"0000000040","bank_id":"0193324f-cad0-7f86-923b-43fb21ac5b29","ledger_balance":"597535.09","hold_balance":"0.00","available_balance":"597535.09","currency":"NGN","restricted":false}},{"id":"019408a8-cb93-7666-8641-6f9affeabef7","meta":null,"created_on":"2024-12-27T15:07:47.475Z","created_by":"019317a0-b7e5-7eeb-a7eb-bd18cf39a633","modified_on":"2024-12-27T15:07:48.599Z","modified_by":null,"deleted_on":null,"deleted_by":null,"tenant_id":"00000000-0000-0000-0000-000000000000","account_id":"019390f5-db96-7335-b5bb-74eac1376a9c","profile_id":"01931947-9fea-744d-8f66-118c138292e3","cba_id":"1150","currency":"NGN","amount":"5000.00","reference":"Tqhvbqhkazb","processor_reference":null,"processor_status":null,"processor_message":null,"status":"success","entry_type":"debit","narration":"Bill payment to mtn for 09030253741","transaction_date":"2024-12-27T15:07:47.473Z","transaction_type":"bill-payment","processor":"baxipay","reviewed_on":null,"reviewed_by":null,"batch_id":null,"schedule_id":null,"transfer":null,"transfer_beneficiary":null,"bill_payment_beneficiary":null,"disputes":[],"batch":null,"account":{"id":"019390f5-db96-7335-b5bb-74eac1376a9c","meta":null,"created_on":"2024-12-04T09:17:31.925Z","created_by":null,"modified_on":"2024-12-27T18:38:08.091Z","modified_by":null,"deleted_on":null,"deleted_by":null,"tenant_id":"00000000-0000-0000-0000-000000000000","name":"Travel","cba_id":"0000000040","profile_id":"01931947-9fea-744d-8f66-118c138292e3","account_number":"0000000040","bank_id":"0193324f-cad0-7f86-923b-43fb21ac5b29","ledger_balance":"597535.09","hold_balance":"0.00","available_balance":"597535.09","currency":"NGN","restricted":false}},{"id":"019408a7-5910-7666-8641-666774172c97","meta":null,"created_on":"2024-12-27T15:06:12.624Z","created_by":"019317a0-b7e5-7eeb-a7eb-bd18cf39a633","modified_on":"2024-12-27T15:06:17.475Z","modified_by":null,"deleted_on":null,"deleted_by":null,"tenant_id":"00000000-0000-0000-0000-000000000000","account_id":"019390f5-db96-7335-b5bb-74eac1376a9c","profile_id":"01931947-9fea-744d-8f66-118c138292e3","cba_id":"1149","currency":"NGN","amount":"5000.00","reference":"Tsvevtfllol","processor_reference":null,"processor_status":null,"processor_message":null,"status":"success","entry_type":"debit","narration":"Bill payment to glo for 07055390320","transaction_date":"2024-12-27T15:06:12.623Z","transaction_type":"bill-payment","processor":"baxipay","reviewed_on":null,"reviewed_by":null,"batch_id":null,"schedule_id":null,"transfer":null,"transfer_beneficiary":null,"bill_payment_beneficiary":null,"disputes":[],"batch":null,"account":{"id":"019390f5-db96-7335-b5bb-74eac1376a9c","meta":null,"created_on":"2024-12-04T09:17:31.925Z","created_by":null,"modified_on":"2024-12-27T18:38:08.091Z","modified_by":null,"deleted_on":null,"deleted_by":null,"tenant_id":"00000000-0000-0000-0000-000000000000","name":"Travel","cba_id":"0000000040","profile_id":"01931947-9fea-744d-8f66-118c138292e3","account_number":"0000000040","bank_id":"0193324f-cad0-7f86-923b-43fb21ac5b29","ledger_balance":"597535.09","hold_balance":"0.00","available_balance":"597535.09","currency":"NGN","restricted":false}},{"id":"019408a6-55e5-7666-8641-5e743ac5551e","meta":null,"created_on":"2024-12-27T15:05:06.277Z","created_by":"019317a0-b7e5-7eeb-a7eb-bd18cf39a633","modified_on":"2024-12-27T15:05:10.510Z","modified_by":null,"deleted_on":null,"deleted_by":null,"tenant_id":"00000000-0000-0000-0000-000000000000","account_id":"019390f5-db96-7335-b5bb-74eac1376a9c","profile_id":"01931947-9fea-744d-8f66-118c138292e3","cba_id":"1148","currency":"NGN","amount":"2150.00","reference":"Tscnckjahio","processor_reference":null,"processor_status":null,"processor_message":null,"status":"success","entry_type":"debit","narration":"Bill payment to dstv for 22822822821","transaction_date":"2024-12-27T15:05:06.275Z","transaction_type":"bill-payment","processor":"baxipay","reviewed_on":null,"reviewed_by":null,"batch_id":null,"schedule_id":null,"transfer":null,"transfer_beneficiary":null,"bill_payment_beneficiary":null,"disputes":[],"batch":null,"account":{"id":"019390f5-db96-7335-b5bb-74eac1376a9c","meta":null,"created_on":"2024-12-04T09:17:31.925Z","created_by":null,"modified_on":"2024-12-27T18:38:08.091Z","modified_by":null,"deleted_on":null,"deleted_by":null,"tenant_id":"00000000-0000-0000-0000-000000000000","name":"Travel","cba_id":"0000000040","profile_id":"01931947-9fea-744d-8f66-118c138292e3","account_number":"0000000040","bank_id":"0193324f-cad0-7f86-923b-43fb21ac5b29","ledger_balance":"597535.09","hold_balance":"0.00","available_balance":"597535.09","currency":"NGN","restricted":false}},{"id":"01940883-2b9b-7666-8641-070e25592161","meta":null,"created_on":"2024-12-27T14:26:41.691Z","created_by":"019317a0-b7e5-7eeb-a7eb-bd18cf39a633","modified_on":"2024-12-27T14:26:45.871Z","modified_by":null,"deleted_on":null,"deleted_by":null,"tenant_id":"00000000-0000-0000-0000-000000000000","account_id":"019390f5-db96-7335-b5bb-74eac1376a9c","profile_id":"01931947-9fea-744d-8f66-118c138292e3","cba_id":"1147","currency":"NGN","amount":"2150.00","reference":"Tytaweteknm","processor_reference":null,"processor_status":null,"processor_message":null,"status":"success","entry_type":"debit","narration":"Bill payment to dstv for 09055755671","transaction_date":"2024-12-27T14:26:41.689Z","transaction_type":"bill-payment","processor":"baxipay","reviewed_on":null,"reviewed_by":null,"batch_id":null,"schedule_id":null,"transfer":null,"transfer_beneficiary":null,"bill_payment_beneficiary":null,"disputes":[],"batch":null,"account":{"id":"019390f5-db96-7335-b5bb-74eac1376a9c","meta":null,"created_on":"2024-12-04T09:17:31.925Z","created_by":null,"modified_on":"2024-12-27T18:38:08.091Z","modified_by":null,"deleted_on":null,"deleted_by":null,"tenant_id":"00000000-0000-0000-0000-000000000000","name":"Travel","cba_id":"0000000040","profile_id":"01931947-9fea-744d-8f66-118c138292e3","account_number":"0000000040","bank_id":"0193324f-cad0-7f86-923b-43fb21ac5b29","ledger_balance":"597535.09","hold_balance":"0.00","available_balance":"597535.09","currency":"NGN","restricted":false}},{"id":"0194086b-36a2-7666-8640-dc266b1c222f","meta":null,"created_on":"2024-12-27T14:00:31.648Z","created_by":"019317a0-b7e5-7eeb-a7eb-bd18cf39a633","modified_on":"2024-12-27T14:00:33.628Z","modified_by":null,"deleted_on":null,"deleted_by":null,"tenant_id":"00000000-0000-0000-0000-000000000000","account_id":"019390f5-db96-7335-b5bb-74eac1376a9c","profile_id":"01931947-9fea-744d-8f66-118c138292e3","cba_id":"1144","currency":"NGN","amount":"10.00","reference":"Tymlfxgrrqf","processor_reference":null,"processor_status":null,"processor_message":null,"status":"success","entry_type":"debit","narration":"Why not me","transaction_date":"2024-12-27T14:00:31.647Z","transaction_type":"fee","processor":"cba","reviewed_on":null,"reviewed_by":null,"batch_id":null,"schedule_id":null,"transfer":null,"transfer_beneficiary":null,"bill_payment_beneficiary":null,"disputes":[],"batch":null,"account":{"id":"019390f5-db96-7335-b5bb-74eac1376a9c","meta":null,"created_on":"2024-12-04T09:17:31.925Z","created_by":null,"modified_on":"2024-12-27T18:38:08.091Z","modified_by":null,"deleted_on":null,"deleted_by":null,"tenant_id":"00000000-0000-0000-0000-000000000000","name":"Travel","cba_id":"0000000040","profile_id":"01931947-9fea-744d-8f66-118c138292e3","account_number":"0000000040","bank_id":"0193324f-cad0-7f86-923b-43fb21ac5b29","ledger_balance":"597535.09","hold_balance":"0.00","available_balance":"597535.09","currency":"NGN","restricted":false}},{"id":"0194086b-369f-7666-8640-d3b2cd4d5099","meta":null,"created_on":"2024-12-27T14:00:31.647Z","created_by":"019317a0-b7e5-7eeb-a7eb-bd18cf39a633","modified_on":"2024-12-27T14:00:35.054Z","modified_by":null,"deleted_on":null,"deleted_by":null,"tenant_id":"00000000-0000-0000-0000-000000000000","account_id":"019390f5-db96-7335-b5bb-74eac1376a9c","profile_id":"01931947-9fea-744d-8f66-118c138292e3","cba_id":"1146","currency":"NGN","amount":"10.00","reference":"Tmuhopwbehz","processor_reference":null,"processor_status":null,"processor_message":null,"status":"success","entry_type":"debit","narration":"Why can't it be me","transaction_date":"2024-12-27T14:00:31.647Z","transaction_type":"fee","processor":"cba","reviewed_on":null,"reviewed_by":null,"batch_id":null,"schedule_id":null,"transfer":null,"transfer_beneficiary":null,"bill_payment_beneficiary":null,"disputes":[],"batch":null,"account":{"id":"019390f5-db96-7335-b5bb-74eac1376a9c","meta":null,"created_on":"2024-12-04T09:17:31.925Z","created_by":null,"modified_on":"2024-12-27T18:38:08.091Z","modified_by":null,"deleted_on":null,"deleted_by":null,"tenant_id":"00000000-0000-0000-0000-000000000000","name":"Travel","cba_id":"0000000040","profile_id":"01931947-9fea-744d-8f66-118c138292e3","account_number":"0000000040","bank_id":"0193324f-cad0-7f86-923b-43fb21ac5b29","ledger_balance":"597535.09","hold_balance":"0.00","available_balance":"597535.09","currency":"NGN","restricted":false}}],"meta":{"page":1,"total_pages":144,"total_items":1439}}