{"status":"success","data":[{"id":"01951eff-ccbb-7aa2-a9da-0a2562412f9a","meta":null,"created_on":"2025-02-19T16:17:15.451Z","created_by_id":"01951eff-b044-7aa2-a9d9-f012a11e4578","modified_on":"2025-02-19T16:17:15.451Z","modified_by_id":null,"deleted_on":null,"deleted_by_id":null,"tenant_id":"00000000-0000-0000-0000-000000000000","name":"Ibrahim Azeez","type":"personal","status":"active","review":null,"allowed_time_periods":null,"primary_user_id":"01951eff-b044-7aa2-a9d9-f012a11e4578","tier_id":null,"primary_user":{"id":"01951eff-b044-7aa2-a9d9-f012a11e4578","meta":null,"created_on":"2025-02-19T16:17:08.163Z","created_by_id":null,"modified_on":"2025-02-19T16:43:42.072Z","modified_by_id":"01951eff-b044-7aa2-a9d9-f012a11e4578","deleted_on":null,"deleted_by_id":null,"tenant_id":"00000000-0000-0000-0000-000000000000","email":"cat@mailinator.com","status":"active","first_name":"Ibrahim","last_name":"Azeez","twofa_enabled":false,"last_active":"2025-02-19T16:43:42.068Z","last_ip":"197.234.242.160","allowed_ips":null,"last_timezone":"Africa/Johannesburg","last_location":"Johannesburg","phone":"+23409055744871","review":null,"gender":null,"date_of_birth":null,"cba_id":null,"photo_id":null,"referral_code":"0FZSB4","allowed_locations":null,"referred_by":null},"tier":null},{"id":"01951b4d-eb77-7885-9dd3-63dac9bebc76","meta":null,"created_on":"2025-02-18T23:04:06.261Z","created_by_id":"01951b4d-d3fa-7885-9dd3-4a3db9ebd627","modified_on":"2025-02-18T23:04:06.261Z","modified_by_id":null,"deleted_on":null,"deleted_by_id":null,"tenant_id":"00000000-0000-0000-0000-000000000000","name":"Amidamaru Yisau","type":"personal","status":"active","review":null,"allowed_time_periods":null,"primary_user_id":"01951b4d-d3fa-7885-9dd3-4a3db9ebd627","tier_id":null,"primary_user":{"id":"01951b4d-d3fa-7885-9dd3-4a3db9ebd627","meta":null,"created_on":"2025-02-18T23:04:00.249Z","created_by_id":null,"modified_on":"2025-02-18T23:07:35.143Z","modified_by_id":"01951b4d-d3fa-7885-9dd3-4a3db9ebd627","deleted_on":null,"deleted_by_id":null,"tenant_id":"00000000-0000-0000-0000-000000000000","email":"sammieamidamaru@gmail.com","status":"active","first_name":"Amidamaru","last_name":"Yisau","twofa_enabled":false,"last_active":"2025-02-18T23:07:35.143Z","last_ip":"172.69.195.202","allowed_ips":null,"last_timezone":"Europe/London","last_location":"London","phone":"+2348123884092","review":null,"gender":null,"date_of_birth":null,"cba_id":null,"photo_id":null,"referral_code":"8IUHO4","allowed_locations":null,"referred_by":null},"tier":null},{"id":"01951ab0-40d0-7885-9dd0-9deab59fad20","meta":null,"created_on":"2025-02-18T20:11:53.423Z","created_by_id":"01951ab0-11ac-7885-9dd0-8469ec7404e3","modified_on":"2025-02-18T20:13:35.931Z","modified_by_id":"01951ab0-11ac-7885-9dd0-8469ec7404e3","deleted_on":null,"deleted_by_id":null,"tenant_id":"00000000-0000-0000-0000-000000000000","name":"Abdussamad Yisau","type":"personal","status":"active","review":null,"allowed_time_periods":null,"primary_user_id":"01951ab0-11ac-7885-9dd0-8469ec7404e3","tier_id":"01928f2d-6756-755b-8a9d-c8094db2af27","primary_user":{"id":"01951ab0-11ac-7885-9dd0-8469ec7404e3","meta":null,"created_on":"2025-02-18T20:11:41.356Z","created_by_id":null,"modified_on":"2025-02-18T20:26:23.291Z","modified_by_id":"01951ab0-11ac-7885-9dd0-8469ec7404e3","deleted_on":null,"deleted_by_id":null,"tenant_id":"00000000-0000-0000-0000-000000000000","email":"ayisau222@gmail.com","status":"active","first_name":"Abdussamad","last_name":"Yisau","twofa_enabled":false,"last_active":"2025-02-18T20:26:23.290Z","last_ip":"172.70.90.193","allowed_ips":null,"last_timezone":"Europe/London","last_location":"London","phone":"+23409133779812","review":null,"gender":"male","date_of_birth":"1999-07-05","cba_id":"74","photo_id":null,"referral_code":"132W6E","allowed_locations":null,"referred_by":null},"tier":{"id":"01928f2d-6756-755b-8a9d-c8094db2af27","meta":null,"created_on":"2024-10-15T07:56:10.789Z","created_by_id":null,"modified_on":"2025-01-23T15:14:24.513Z","modified_by_id":"01927265-4ed2-79cc-a0e6-e11339a359f3","deleted_on":null,"deleted_by_id":null,"tenant_id":"00000000-0000-0000-0000-000000000000","profile_type":"personal","name":"Tier 1","description":"Tier 1","level":1,"enabled":true,"balance_limit":2000000,"single_sending_limit":500000,"single_receiving_limit":500000,"period_sending_limit":500000,"period_sending_limit_time_unit":"day","period_receiving_limit":500000,"period_receiving_limit_time_unit":"day","requirements":[{"id":"019318f9-c895-744d-8f65-4636cc26dd1c","type_id":"019318f9-c895-744d-8f65-4636cc26dd1c","type":"verification","slug":"phone","name":"Phone","description":"Verify yor number"},{"id":"019318f9-c895-744d-8f65-4636cc26dd1d","type_id":"019318f9-c895-744d-8f65-4636cc26dd1d","type":"verification","slug":"email","name":"Email","description":"Verify your email"},{"id":"019318f9-c895-744d-8f65-4636cc26dd1f","type_id":"019318f9-c895-744d-8f65-4636cc26dd1f","type":"verification","slug":"liveness","name":"Image liveness check","description":"This step helps us verify your identity by matching your image with the credentials you’ve provided."},{"id":"01933d40-03e5-777c-a6e6-bf72eb1c8968","type_id":"01933d40-03e5-777c-a6e6-bf72eb1c8968","type":"verification","slug":"bvn","name":"BVN","description":"BVN"}]}},{"id":"019519ed-434f-7885-9dcb-bad68d0aae22","meta":null,"created_on":"2025-02-18T16:38:54.543Z","created_by_id":"019519ed-23fa-7885-9dcb-67660fb0472c","modified_on":"2025-02-18T17:41:10.452Z","modified_by_id":"019519ed-23fa-7885-9dcb-67660fb0472c","deleted_on":null,"deleted_by_id":null,"tenant_id":"00000000-0000-0000-0000-000000000000","name":"Olayemi Victoria","type":"personal","status":"active","review":null,"allowed_time_periods":null,"primary_user_id":"019519ed-23fa-7885-9dcb-67660fb0472c","tier_id":"01928f2d-6756-755b-8a9d-c8094db2af27","primary_user":{"id":"019519ed-23fa-7885-9dcb-67660fb0472c","meta":null,"created_on":"2025-02-18T16:38:46.458Z","created_by_id":null,"modified_on":"2025-02-19T08:43:27.249Z","modified_by_id":"019519ed-23fa-7885-9dcb-67660fb0472c","deleted_on":null,"deleted_by_id":null,"tenant_id":"00000000-0000-0000-0000-000000000000","email":"olayemivictoria3@gmail.com","status":"active","first_name":"Olayemi","last_name":"Victoria","twofa_enabled":false,"last_active":"2025-02-19T08:43:27.248Z","last_ip":"172.69.194.101","allowed_ips":null,"last_timezone":"Europe/London","last_location":"London","phone":"+2348134044021","review":null,"gender":"female","date_of_birth":"1995-07-31","cba_id":"73","photo_id":null,"referral_code":"81LRBE","allowed_locations":null,"referred_by":"019372de-17ef-7cc2-8fc0-43fe11ba042f"},"tier":{"id":"01928f2d-6756-755b-8a9d-c8094db2af27","meta":null,"created_on":"2024-10-15T07:56:10.789Z","created_by_id":null,"modified_on":"2025-01-23T15:14:24.513Z","modified_by_id":"01927265-4ed2-79cc-a0e6-e11339a359f3","deleted_on":null,"deleted_by_id":null,"tenant_id":"00000000-0000-0000-0000-000000000000","profile_type":"personal","name":"Tier 1","description":"Tier 1","level":1,"enabled":true,"balance_limit":2000000,"single_sending_limit":500000,"single_receiving_limit":500000,"period_sending_limit":500000,"period_sending_limit_time_unit":"day","period_receiving_limit":500000,"period_receiving_limit_time_unit":"day","requirements":[{"id":"01933d40-03e5-777c-a6e6-bf72eb1c8968","type_id":"01933d40-03e5-777c-a6e6-bf72eb1c8968","type":"verification","slug":"bvn","name":"BVN","description":"BVN"},{"id":"019318f9-c895-744d-8f65-4636cc26dd1c","type_id":"019318f9-c895-744d-8f65-4636cc26dd1c","type":"verification","slug":"phone","name":"Phone","description":"Verify yor number"},{"id":"019318f9-c895-744d-8f65-4636cc26dd1d","type_id":"019318f9-c895-744d-8f65-4636cc26dd1d","type":"verification","slug":"email","name":"Email","description":"Verify your email"},{"id":"019318f9-c895-744d-8f65-4636cc26dd1f","type_id":"019318f9-c895-744d-8f65-4636cc26dd1f","type":"verification","slug":"liveness","name":"Image liveness check","description":"This step helps us verify your identity by matching your image with the credentials you’ve provided."}]}},{"id":"019519c8-9ed6-7333-b4e3-5f08aedc6994","meta":null,"created_on":"2025-02-18T15:58:53.142Z","created_by_id":"019519c8-80aa-7333-b4e3-3bdde2ca5ee1","modified_on":"2025-02-18T15:58:53.142Z","modified_by_id":null,"deleted_on":null,"deleted_by_id":null,"tenant_id":"00000000-0000-0000-0000-000000000000","name":"Grady Zebah","type":"personal","status":"active","review":null,"allowed_time_periods":null,"primary_user_id":"019519c8-80aa-7333-b4e3-3bdde2ca5ee1","tier_id":null,"primary_user":{"id":"019519c8-80aa-7333-b4e3-3bdde2ca5ee1","meta":null,"created_on":"2025-02-18T15:58:45.336Z","created_by_id":null,"modified_on":"2025-02-19T01:50:29.536Z","modified_by_id":"019519c8-80aa-7333-b4e3-3bdde2ca5ee1","deleted_on":null,"deleted_by_id":null,"tenant_id":"00000000-0000-0000-0000-000000000000","email":"zino.ref2@mailinator.com","status":"active","first_name":"Grady","last_name":"Zebah","twofa_enabled":false,"last_active":"2025-02-19T01:50:29.535Z","last_ip":"172.71.26.121","allowed_ips":null,"last_timezone":"America/New_York","last_location":"Lawrenceville","phone":"+2349015660263","review":null,"gender":null,"date_of_birth":null,"cba_id":null,"photo_id":null,"referral_code":"Z45UGN","allowed_locations":null,"referred_by":null},"tier":null},{"id":"0195194f-12c9-788d-b55d-619c9f542b92","meta":null,"created_on":"2025-02-18T13:46:07.432Z","created_by_id":"0195194f-0685-788d-b55d-4f8ea7682eca","modified_on":"2025-02-18T13:47:20.452Z","modified_by_id":"0195194f-0685-788d-b55d-4f8ea7682eca","deleted_on":null,"deleted_by_id":null,"tenant_id":"00000000-0000-0000-0000-000000000000","name":"Ibrahim Azeez","type":"personal","status":"active","review":null,"allowed_time_periods":null,"primary_user_id":"0195194f-0685-788d-b55d-4f8ea7682eca","tier_id":"01928f2d-6756-755b-8a9d-c8094db2af27","primary_user":{"id":"0195194f-0685-788d-b55d-4f8ea7682eca","meta":null,"created_on":"2025-02-18T13:46:04.292Z","created_by_id":null,"modified_on":"2025-02-18T13:51:43.370Z","modified_by_id":"0195194f-0685-788d-b55d-4f8ea7682eca","deleted_on":null,"deleted_by_id":null,"tenant_id":"00000000-0000-0000-0000-000000000000","email":"tel@mailinator.com","status":"active","first_name":"Ibrahim","last_name":"Azeez","twofa_enabled":false,"last_active":"2025-02-18T13:51:43.370Z","last_ip":"172.68.42.158","allowed_ips":null,"last_timezone":"Africa/Johannesburg","last_location":"Johannesburg","phone":"+23409055768971","review":null,"gender":"male","date_of_birth":"2001-06-16","cba_id":"69","photo_id":null,"referral_code":"S77WGI","allowed_locations":null,"referred_by":null},"tier":{"id":"01928f2d-6756-755b-8a9d-c8094db2af27","meta":null,"created_on":"2024-10-15T07:56:10.789Z","created_by_id":null,"modified_on":"2025-01-23T15:14:24.513Z","modified_by_id":"01927265-4ed2-79cc-a0e6-e11339a359f3","deleted_on":null,"deleted_by_id":null,"tenant_id":"00000000-0000-0000-0000-000000000000","profile_type":"personal","name":"Tier 1","description":"Tier 1","level":1,"enabled":true,"balance_limit":2000000,"single_sending_limit":500000,"single_receiving_limit":500000,"period_sending_limit":500000,"period_sending_limit_time_unit":"day","period_receiving_limit":500000,"period_receiving_limit_time_unit":"day","requirements":[{"id":"019318f9-c895-744d-8f65-4636cc26dd1d","type_id":"019318f9-c895-744d-8f65-4636cc26dd1d","type":"verification","slug":"email","name":"Email","description":"Verify your email"},{"id":"01933d40-03e5-777c-a6e6-bf72eb1c8968","type_id":"01933d40-03e5-777c-a6e6-bf72eb1c8968","type":"verification","slug":"bvn","name":"BVN","description":"BVN"},{"id":"019318f9-c895-744d-8f65-4636cc26dd1f","type_id":"019318f9-c895-744d-8f65-4636cc26dd1f","type":"verification","slug":"liveness","name":"Image liveness check","description":"This step helps us verify your identity by matching your image with the credentials you’ve provided."},{"id":"019318f9-c895-744d-8f65-4636cc26dd1c","type_id":"019318f9-c895-744d-8f65-4636cc26dd1c","type":"verification","slug":"phone","name":"Phone","description":"Verify yor number"}]}},{"id":"01951948-dac1-788d-b55b-a3a454f78641","meta":null,"created_on":"2025-02-18T13:39:19.872Z","created_by_id":"01951948-c1ce-788d-b55b-8d7cd4bda7f6","modified_on":"2025-02-18T13:41:11.798Z","modified_by_id":"01951948-c1ce-788d-b55b-8d7cd4bda7f6","deleted_on":null,"deleted_by_id":null,"tenant_id":"00000000-0000-0000-0000-000000000000","name":"Onome Agaje","type":"personal","status":"active","review":null,"allowed_time_periods":null,"primary_user_id":"01951948-c1ce-788d-b55b-8d7cd4bda7f6","tier_id":"01928f2d-6756-755b-8a9d-c8094db2af27","primary_user":{"id":"01951948-c1ce-788d-b55b-8d7cd4bda7f6","meta":null,"created_on":"2025-02-18T13:39:13.415Z","created_by_id":null,"modified_on":"2025-02-18T14:41:18.265Z","modified_by_id":"01951948-c1ce-788d-b55b-8d7cd4bda7f6","deleted_on":null,"deleted_by_id":null,"tenant_id":"00000000-0000-0000-0000-000000000000","email":"onome@assurdly.com","status":"active","first_name":"Onome","last_name":"Agaje","twofa_enabled":false,"last_active":"2025-02-18T14:41:18.264Z","last_ip":"172.69.194.2","allowed_ips":null,"last_timezone":"Europe/London","last_location":"London","phone":"+2348085271418","review":null,"gender":"female","date_of_birth":"1994-01-03","cba_id":"67","photo_id":null,"referral_code":"QZH69S","allowed_locations":null,"referred_by":null},"tier":{"id":"01928f2d-6756-755b-8a9d-c8094db2af27","meta":null,"created_on":"2024-10-15T07:56:10.789Z","created_by_id":null,"modified_on":"2025-01-23T15:14:24.513Z","modified_by_id":"01927265-4ed2-79cc-a0e6-e11339a359f3","deleted_on":null,"deleted_by_id":null,"tenant_id":"00000000-0000-0000-0000-000000000000","profile_type":"personal","name":"Tier 1","description":"Tier 1","level":1,"enabled":true,"balance_limit":2000000,"single_sending_limit":500000,"single_receiving_limit":500000,"period_sending_limit":500000,"period_sending_limit_time_unit":"day","period_receiving_limit":500000,"period_receiving_limit_time_unit":"day","requirements":[{"id":"019318f9-c895-744d-8f65-4636cc26dd1c","type_id":"019318f9-c895-744d-8f65-4636cc26dd1c","type":"verification","slug":"phone","name":"Phone","description":"Verify yor number"},{"id":"019318f9-c895-744d-8f65-4636cc26dd1d","type_id":"019318f9-c895-744d-8f65-4636cc26dd1d","type":"verification","slug":"email","name":"Email","description":"Verify your email"},{"id":"019318f9-c895-744d-8f65-4636cc26dd1f","type_id":"019318f9-c895-744d-8f65-4636cc26dd1f","type":"verification","slug":"liveness","name":"Image liveness check","description":"This step helps us verify your identity by matching your image with the credentials you’ve provided."},{"id":"01933d40-03e5-777c-a6e6-bf72eb1c8968","type_id":"01933d40-03e5-777c-a6e6-bf72eb1c8968","type":"verification","slug":"bvn","name":"BVN","description":"BVN"}]}},{"id":"01951947-e033-788d-b55b-34e4b6a0a4ab","meta":null,"created_on":"2025-02-18T13:38:15.730Z","created_by_id":"01951947-d1fb-788d-b55b-1e7a8bef6ee0","modified_on":"2025-02-18T13:38:15.730Z","modified_by_id":null,"deleted_on":null,"deleted_by_id":null,"tenant_id":"00000000-0000-0000-0000-000000000000","name":"Favour great","type":"personal","status":"active","review":null,"allowed_time_periods":null,"primary_user_id":"01951947-d1fb-788d-b55b-1e7a8bef6ee0","tier_id":null,"primary_user":{"id":"01951947-d1fb-788d-b55b-1e7a8bef6ee0","meta":null,"created_on":"2025-02-18T13:38:12.091Z","created_by_id":null,"modified_on":"2025-02-18T13:48:08.847Z","modified_by_id":"01951947-d1fb-788d-b55b-1e7a8bef6ee0","deleted_on":null,"deleted_by_id":null,"tenant_id":"00000000-0000-0000-0000-000000000000","email":"favourNQ2@yopmail.com","status":"active","first_name":"Favour","last_name":"great","twofa_enabled":false,"last_active":"2025-02-18T13:48:08.847Z","last_ip":"172.70.90.125","allowed_ips":null,"last_timezone":"Europe/London","last_location":"London","phone":"+23409033362911","review":null,"gender":null,"date_of_birth":null,"cba_id":null,"photo_id":null,"referral_code":"2HGWD9","allowed_locations":null,"referred_by":null},"tier":null},{"id":"01951937-a1d6-788d-b555-fcb4f1d41a9f","meta":null,"created_on":"2025-02-18T13:20:31.189Z","created_by_id":"01951937-8cbe-788d-b555-e3ef0019a0d1","modified_on":"2025-02-18T13:24:30.688Z","modified_by_id":"01951937-8cbe-788d-b555-e3ef0019a0d1","deleted_on":null,"deleted_by_id":null,"tenant_id":"00000000-0000-0000-0000-000000000000","name":"Favour Elijah","type":"personal","status":"active","review":null,"allowed_time_periods":null,"primary_user_id":"01951937-8cbe-788d-b555-e3ef0019a0d1","tier_id":"01928f2d-6756-755b-8a9d-c8094db2af27","primary_user":{"id":"01951937-8cbe-788d-b555-e3ef0019a0d1","meta":null,"created_on":"2025-02-18T13:20:25.789Z","created_by_id":null,"modified_on":"2025-02-18T14:22:18.897Z","modified_by_id":"01951937-8cbe-788d-b555-e3ef0019a0d1","deleted_on":null,"deleted_by_id":null,"tenant_id":"00000000-0000-0000-0000-000000000000","email":"favourNQ@yopmail.com","status":"active","first_name":"Favour","last_name":"Elijah","twofa_enabled":false,"last_active":"2025-02-18T14:22:18.896Z","last_ip":"172.71.94.184","allowed_ips":null,"last_timezone":"Europe/Amsterdam","last_location":"Amsterdam","phone":"+23409033362915","review":null,"gender":"male","date_of_birth":"1998-06-20","cba_id":"65","photo_id":null,"referral_code":"QALR7D","allowed_locations":null,"referred_by":null},"tier":{"id":"01928f2d-6756-755b-8a9d-c8094db2af27","meta":null,"created_on":"2024-10-15T07:56:10.789Z","created_by_id":null,"modified_on":"2025-01-23T15:14:24.513Z","modified_by_id":"01927265-4ed2-79cc-a0e6-e11339a359f3","deleted_on":null,"deleted_by_id":null,"tenant_id":"00000000-0000-0000-0000-000000000000","profile_type":"personal","name":"Tier 1","description":"Tier 1","level":1,"enabled":true,"balance_limit":2000000,"single_sending_limit":500000,"single_receiving_limit":500000,"period_sending_limit":500000,"period_sending_limit_time_unit":"day","period_receiving_limit":500000,"period_receiving_limit_time_unit":"day","requirements":[{"id":"019318f9-c895-744d-8f65-4636cc26dd1f","type_id":"019318f9-c895-744d-8f65-4636cc26dd1f","type":"verification","slug":"liveness","name":"Image liveness check","description":"This step helps us verify your identity by matching your image with the credentials you’ve provided."},{"id":"01933d40-03e5-777c-a6e6-bf72eb1c8968","type_id":"01933d40-03e5-777c-a6e6-bf72eb1c8968","type":"verification","slug":"bvn","name":"BVN","description":"BVN"},{"id":"019318f9-c895-744d-8f65-4636cc26dd1c","type_id":"019318f9-c895-744d-8f65-4636cc26dd1c","type":"verification","slug":"phone","name":"Phone","description":"Verify yor number"},{"id":"019318f9-c895-744d-8f65-4636cc26dd1d","type_id":"019318f9-c895-744d-8f65-4636cc26dd1d","type":"verification","slug":"email","name":"Email","description":"Verify your email"}]}},{"id":"01951931-f824-788d-b553-94329a2c6b54","meta":null,"created_on":"2025-02-18T13:14:20.067Z","created_by_id":"01951931-e406-788d-b553-7d27fb8da8b8","modified_on":"2025-02-18T13:14:20.067Z","modified_by_id":null,"deleted_on":null,"deleted_by_id":null,"tenant_id":"00000000-0000-0000-0000-000000000000","name":"Esther Samuel","type":"personal","status":"active","review":null,"allowed_time_periods":null,"primary_user_id":"01951931-e406-788d-b553-7d27fb8da8b8","tier_id":null,"primary_user":{"id":"01951931-e406-788d-b553-7d27fb8da8b8","meta":null,"created_on":"2025-02-18T13:14:14.917Z","created_by_id":null,"modified_on":"2025-02-18T13:56:55.964Z","modified_by_id":"01951931-e406-788d-b553-7d27fb8da8b8","deleted_on":null,"deleted_by_id":null,"tenant_id":"00000000-0000-0000-0000-000000000000","email":"samuelesther1728@gmail.com","status":"active","first_name":"Esther","last_name":"Samuel","twofa_enabled":false,"last_active":"2025-02-18T13:56:55.964Z","last_ip":"172.70.160.218","allowed_ips":null,"last_timezone":"Europe/London","last_location":"London","phone":"+2349056220652","review":null,"gender":null,"date_of_birth":null,"cba_id":null,"photo_id":null,"referral_code":"3CKLC3","allowed_locations":null,"referred_by":null},"tier":null}],"meta":{"page":1,"total_pages":18,"total_items":178}}