{"status":"success","data":[{"id":"0195193b-e13e-788d-b557-ccc1cd05f425","meta":{"rc-number":"0000000","business-name":"Neem","business-email":"hi@neem.co","business-phone":"+23407069375650","business-types":"Partnership","business-address":"LAGOS, NIGERIA, LAGOS, Ibeju-Lekki, LAGOS"},"created_on":"2025-02-18T13:25:09.565Z","created_by_id":"01951937-8883-788d-b555-c914d0a4604b","modified_on":"2025-02-18T16:39:36.488Z","modified_by_id":"01951937-8883-788d-b555-c914d0a4604b","deleted_on":null,"deleted_by_id":null,"tenant_id":"00000000-0000-0000-0000-000000000000","name":"Profile","type":"business","status":"active","review":null,"allowed_time_periods":{"from":"23:00","to":"07:00"},"primary_user_id":"01951937-8883-788d-b555-c914d0a4604b","tier_id":"0193b49c-a302-711f-a668-d685d243452a","primary_user":{"id":"01951937-8883-788d-b555-c914d0a4604b","meta":null,"created_on":"2025-02-18T13:20:24.706Z","created_by_id":null,"modified_on":"2025-02-18T16:50:11.850Z","modified_by_id":"01951937-8883-788d-b555-c914d0a4604b","deleted_on":null,"deleted_by_id":null,"tenant_id":"00000000-0000-0000-0000-000000000000","email":"burujihikmat+CASH@gmail.com","status":"active","first_name":"Hikmat","last_name":"IbrahimBuruji","twofa_enabled":false,"last_active":"2025-02-18T16:50:11.849Z","last_ip":"172.69.170.141","allowed_ips":null,"last_timezone":"America/Chicago","last_location":"Houston","phone":"+23407069375651","review":null,"gender":null,"date_of_birth":null,"cba_id":"66","photo_id":null,"referral_code":"W9ZAWW","allowed_locations":null,"referred_by":null},"tier":{"id":"0193b49c-a302-711f-a668-d685d243452a","meta":null,"created_on":"2024-12-11T07:26:24.515Z","created_by_id":null,"modified_on":"2024-12-11T07:26:24.515Z","modified_by_id":null,"deleted_on":null,"deleted_by_id":null,"tenant_id":"00000000-0000-0000-0000-000000000001","profile_type":"business","name":"Tier 1","description":"Tier 1","level":1,"enabled":true,"balance_limit":0,"single_sending_limit":500000,"single_receiving_limit":500000,"period_sending_limit":500000,"period_sending_limit_time_unit":"day","period_receiving_limit":500000,"period_receiving_limit_time_unit":"day","requirements":[]}},{"id":"01951933-2bae-788d-b554-48cde56702cb","meta":{"rc-number":"0000000","business-name":"Neem","business-email":"abisola@assurdly.com","business-phone":"+23409043973003","business-types":"Sole Proprietorship","business-address":"LAGOS, NIGERIA, LAGOS, Ibeju-Lekki, LAGOS"},"created_on":"2025-02-18T13:15:38.796Z","created_by_id":"01951931-1bf9-788d-b552-ca948d61c53e","modified_on":"2025-02-18T13:45:22.736Z","modified_by_id":"01951931-1bf9-788d-b552-ca948d61c53e","deleted_on":null,"deleted_by_id":null,"tenant_id":"00000000-0000-0000-0000-000000000000","name":"Profile","type":"business","status":"active","review":null,"allowed_time_periods":null,"primary_user_id":"01951931-1bf9-788d-b552-ca948d61c53e","tier_id":"0193b49c-a302-711f-a668-d685d243452a","primary_user":{"id":"01951931-1bf9-788d-b552-ca948d61c53e","meta":null,"created_on":"2025-02-18T13:13:23.704Z","created_by_id":null,"modified_on":"2025-02-18T14:05:35.287Z","modified_by_id":"01951931-1bf9-788d-b552-ca948d61c53e","deleted_on":null,"deleted_by_id":null,"tenant_id":"00000000-0000-0000-0000-000000000000","email":"abisola@assurdly.com","status":"active","first_name":"Oyedotun","last_name":"Abisola","twofa_enabled":false,"last_active":"2025-02-18T14:05:35.287Z","last_ip":"172.71.126.210","allowed_ips":null,"last_timezone":"Europe/Paris","last_location":"Paris","phone":"+2349043973003","review":null,"gender":null,"date_of_birth":null,"cba_id":"68","photo_id":null,"referral_code":"B6WEV6","allowed_locations":null,"referred_by":"019353e7-40aa-7117-98b0-c1a15fba11db"},"tier":{"id":"0193b49c-a302-711f-a668-d685d243452a","meta":null,"created_on":"2024-12-11T07:26:24.515Z","created_by_id":null,"modified_on":"2024-12-11T07:26:24.515Z","modified_by_id":null,"deleted_on":null,"deleted_by_id":null,"tenant_id":"00000000-0000-0000-0000-000000000001","profile_type":"business","name":"Tier 1","description":"Tier 1","level":1,"enabled":true,"balance_limit":0,"single_sending_limit":500000,"single_receiving_limit":500000,"period_sending_limit":500000,"period_sending_limit_time_unit":"day","period_receiving_limit":500000,"period_receiving_limit_time_unit":"day","requirements":[]}},{"id":"0195192b-f785-788d-b551-23aee76199a7","meta":{"rc-number":"0987654321","business-name":"women.ng","business-email":"udeme@women.ng","business-phone":"+2348096560306","business-types":"Sole Proprietorship","business-address":"Lagos"},"created_on":"2025-02-18T13:07:46.692Z","created_by_id":"0195192a-f806-788d-b550-e3015a728f71","modified_on":"2025-02-18T13:09:13.297Z","modified_by_id":"0195192a-f806-788d-b550-e3015a728f71","deleted_on":null,"deleted_by_id":null,"tenant_id":"00000000-0000-0000-0000-000000000000","name":"Profile","type":"business","status":"active","review":null,"allowed_time_periods":null,"primary_user_id":"0195192a-f806-788d-b550-e3015a728f71","tier_id":"0193b49c-a302-711f-a668-d685d243452a","primary_user":{"id":"0195192a-f806-788d-b550-e3015a728f71","meta":null,"created_on":"2025-02-18T13:06:41.284Z","created_by_id":null,"modified_on":"2025-02-18T14:12:43.717Z","modified_by_id":"0195192a-f806-788d-b550-e3015a728f71","deleted_on":null,"deleted_by_id":null,"tenant_id":"00000000-0000-0000-0000-000000000000","email":"ben@mailinator.com","status":"active","first_name":"Testing","last_name":"Ben","twofa_enabled":false,"last_active":"2025-02-18T14:12:43.717Z","last_ip":"172.70.162.237","allowed_ips":null,"last_timezone":"Europe/London","last_location":"London","phone":"+2348098823456","review":null,"gender":null,"date_of_birth":null,"cba_id":"63","photo_id":null,"referral_code":"AQ2G8I","allowed_locations":null,"referred_by":null},"tier":{"id":"0193b49c-a302-711f-a668-d685d243452a","meta":null,"created_on":"2024-12-11T07:26:24.515Z","created_by_id":null,"modified_on":"2024-12-11T07:26:24.515Z","modified_by_id":null,"deleted_on":null,"deleted_by_id":null,"tenant_id":"00000000-0000-0000-0000-000000000001","profile_type":"business","name":"Tier 1","description":"Tier 1","level":1,"enabled":true,"balance_limit":0,"single_sending_limit":500000,"single_receiving_limit":500000,"period_sending_limit":500000,"period_sending_limit_time_unit":"day","period_receiving_limit":500000,"period_receiving_limit_time_unit":"day","requirements":[]}},{"id":"0195107b-ddd1-7bbe-8a32-c4cf40e8d1a9","meta":{"rc-number":"1234567890","business-name":"HooHah","business-email":"ezekiel+2@assurdly.com","business-phone":"+2348031111111","business-types":"Nonprofit Organization","business-address":"20 Stract Lane"},"created_on":"2025-02-16T20:38:28.050Z","created_by_id":"0195107a-ea8f-7bbe-8a32-af91b69832dc","modified_on":"2025-02-16T21:11:53.951Z","modified_by_id":"0195107a-ea8f-7bbe-8a32-af91b69832dc","deleted_on":null,"deleted_by_id":null,"tenant_id":"00000000-0000-0000-0000-000000000000","name":"Profile","type":"business","status":"active","review":null,"allowed_time_periods":{"from":"23:00","to":"07:00"},"primary_user_id":"0195107a-ea8f-7bbe-8a32-af91b69832dc","tier_id":"0193b49c-a302-711f-a668-d685d243452a","primary_user":{"id":"0195107a-ea8f-7bbe-8a32-af91b69832dc","meta":{},"created_on":"2025-02-16T20:37:25.775Z","created_by_id":null,"modified_on":"2025-02-16T21:33:38.046Z","modified_by_id":"0195107a-ea8f-7bbe-8a32-af91b69832dc","deleted_on":null,"deleted_by_id":null,"tenant_id":"00000000-0000-0000-0000-000000000000","email":"ezekiel+2@assurdly.com","status":"active","first_name":"Ezekiel","last_name":"Business","twofa_enabled":false,"last_active":"2025-02-16T21:33:38.045Z","last_ip":"162.158.102.247","allowed_ips":null,"last_timezone":"Europe/Warsaw","last_location":"Warsaw","phone":"+2348037492039","review":null,"gender":null,"date_of_birth":null,"cba_id":"62","photo_id":null,"referral_code":"05V3MK","allowed_locations":["abia"],"referred_by":null},"tier":{"id":"0193b49c-a302-711f-a668-d685d243452a","meta":null,"created_on":"2024-12-11T07:26:24.515Z","created_by_id":null,"modified_on":"2024-12-11T07:26:24.515Z","modified_by_id":null,"deleted_on":null,"deleted_by_id":null,"tenant_id":"00000000-0000-0000-0000-000000000001","profile_type":"business","name":"Tier 1","description":"Tier 1","level":1,"enabled":true,"balance_limit":0,"single_sending_limit":500000,"single_receiving_limit":500000,"period_sending_limit":500000,"period_sending_limit_time_unit":"day","period_receiving_limit":500000,"period_receiving_limit_time_unit":"day","requirements":[]}},{"id":"0195002e-9d3f-7ffd-8a4d-2dc4044a2194","meta":{"rc-number":"4567876","business-name":"thank you","business-email":"frail@yopmail.com","business-phone":"+23438092111","business-types":"Cooperative (Co-op)","business-address":"2 kene street"},"created_on":"2025-02-13T16:40:09.791Z","created_by_id":"0195002e-2d89-7ffd-8a4c-f2bc56584db8","modified_on":"2025-02-13T16:40:09.791Z","modified_by_id":null,"deleted_on":null,"deleted_by_id":null,"tenant_id":"00000000-0000-0000-0000-000000000000","name":"Profile","type":"business","status":"active","review":null,"allowed_time_periods":null,"primary_user_id":"0195002e-2d89-7ffd-8a4c-f2bc56584db8","tier_id":null,"primary_user":{"id":"0195002e-2d89-7ffd-8a4c-f2bc56584db8","meta":null,"created_on":"2025-02-13T16:39:41.193Z","created_by_id":null,"modified_on":"2025-02-13T16:47:52.300Z","modified_by_id":"0195002e-2d89-7ffd-8a4c-f2bc56584db8","deleted_on":null,"deleted_by_id":null,"tenant_id":"00000000-0000-0000-0000-000000000000","email":"wait@yopmail.com","status":"active","first_name":"all","last_name":"Brown","twofa_enabled":false,"last_active":"2025-02-13T16:47:52.299Z","last_ip":"172.70.91.139","allowed_ips":null,"last_timezone":"Europe/London","last_location":"London","phone":"+2348138091122","review":null,"gender":null,"date_of_birth":null,"cba_id":null,"photo_id":null,"referral_code":"5LRQIP","allowed_locations":null,"referred_by":null},"tier":null},{"id":"0195002d-3929-7ffd-8a4c-b6da184664ea","meta":{"rc-number":"4567877","business-name":"pending","business-email":"fraiil@yopmail.com","business-phone":"+23438092991","business-types":"Limited Liability Partnership (LLP)","business-address":"2 kene street"},"created_on":"2025-02-13T16:38:38.633Z","created_by_id":"0195002c-a5cf-7ffd-8a4c-8a1759b09bd7","modified_on":"2025-02-13T16:38:38.633Z","modified_by_id":null,"deleted_on":null,"deleted_by_id":null,"tenant_id":"00000000-0000-0000-0000-000000000000","name":"Profile","type":"business","status":"active","review":null,"allowed_time_periods":null,"primary_user_id":"0195002c-a5cf-7ffd-8a4c-8a1759b09bd7","tier_id":null,"primary_user":{"id":"0195002c-a5cf-7ffd-8a4c-8a1759b09bd7","meta":null,"created_on":"2025-02-13T16:38:00.912Z","created_by_id":null,"modified_on":"2025-02-13T16:38:58.224Z","modified_by_id":"0195002c-a5cf-7ffd-8a4c-8a1759b09bd7","deleted_on":null,"deleted_by_id":null,"tenant_id":"00000000-0000-0000-0000-000000000000","email":"strange@yopmail.com","status":"active","first_name":"Slate","last_name":"Brown","twofa_enabled":false,"last_active":"2025-02-13T16:38:58.221Z","last_ip":"141.101.76.192","allowed_ips":null,"last_timezone":"Europe/Amsterdam","last_location":"Amsterdam","phone":"+2348138092212","review":null,"gender":null,"date_of_birth":null,"cba_id":null,"photo_id":null,"referral_code":"QI8C7Q","allowed_locations":null,"referred_by":null},"tier":null},{"id":"0195002b-aa45-7ffd-8a4c-4be7ae1bc266","meta":{"rc-number":"4567877","business-name":"Neem","business-email":"fuan@yopmail.com","business-phone":"+23438092122","business-types":"Nonprofit Organization","business-address":"2 kene street"},"created_on":"2025-02-13T16:36:56.517Z","created_by_id":"0195002b-275c-7ffd-8a4c-1782a05709b6","modified_on":"2025-02-13T16:36:56.517Z","modified_by_id":null,"deleted_on":null,"deleted_by_id":null,"tenant_id":"00000000-0000-0000-0000-000000000000","name":"Profile","type":"business","status":"active","review":null,"allowed_time_periods":null,"primary_user_id":"0195002b-275c-7ffd-8a4c-1782a05709b6","tier_id":null,"primary_user":{"id":"0195002b-275c-7ffd-8a4c-1782a05709b6","meta":null,"created_on":"2025-02-13T16:36:23.003Z","created_by_id":null,"modified_on":"2025-02-13T16:37:20.524Z","modified_by_id":"0195002b-275c-7ffd-8a4c-1782a05709b6","deleted_on":null,"deleted_by_id":null,"tenant_id":"00000000-0000-0000-0000-000000000000","email":"fuan@yopmail.com","status":"active","first_name":"Fuan","last_name":"Frett","twofa_enabled":false,"last_active":"2025-02-13T16:37:20.522Z","last_ip":"141.101.76.119","allowed_ips":null,"last_timezone":"Europe/Amsterdam","last_location":"Amsterdam","phone":"+2348123470912","review":null,"gender":null,"date_of_birth":null,"cba_id":null,"photo_id":null,"referral_code":"7EENHW","allowed_locations":null,"referred_by":null},"tier":null},{"id":"0195002a-3440-7ffd-8a4b-c37eddb6abba","meta":{"rc-number":"4567876","business-name":"leep","business-email":"frill@yopmail.com","business-phone":"+23438094262","business-types":"Corporation","business-address":"2 kene street"},"created_on":"2025-02-13T16:35:20.768Z","created_by_id":"01950028-e600-7ffd-8a4b-862631032bef","modified_on":"2025-02-13T16:35:20.768Z","modified_by_id":null,"deleted_on":null,"deleted_by_id":null,"tenant_id":"00000000-0000-0000-0000-000000000000","name":"Profile","type":"business","status":"active","review":null,"allowed_time_periods":null,"primary_user_id":"01950028-e600-7ffd-8a4b-862631032bef","tier_id":null,"primary_user":{"id":"01950028-e600-7ffd-8a4b-862631032bef","meta":null,"created_on":"2025-02-13T16:33:55.200Z","created_by_id":null,"modified_on":"2025-02-14T08:17:20.555Z","modified_by_id":"01950028-e600-7ffd-8a4b-862631032bef","deleted_on":null,"deleted_by_id":null,"tenant_id":"00000000-0000-0000-0000-000000000000","email":"Temi@yopmail.com","status":"active","first_name":"Temi","last_name":"Brown","twofa_enabled":false,"last_active":"2025-02-14T08:17:20.554Z","last_ip":"141.101.99.16","allowed_ips":null,"last_timezone":"Europe/London","last_location":"London","phone":"+2348138094356","review":null,"gender":null,"date_of_birth":null,"cba_id":null,"photo_id":null,"referral_code":"OJQJNR","allowed_locations":null,"referred_by":null},"tier":null},{"id":"0195002a-25e2-7ffd-8a4b-99785b302ffd","meta":{"rc-number":"4567876","business-name":"leep","business-email":"frill@yopmail.com","business-phone":"+23438094262","business-types":"Corporation","business-address":"2 kene street"},"created_on":"2025-02-13T16:35:17.058Z","created_by_id":"01950028-e600-7ffd-8a4b-862631032bef","modified_on":"2025-02-13T16:35:17.058Z","modified_by_id":null,"deleted_on":null,"deleted_by_id":null,"tenant_id":"00000000-0000-0000-0000-000000000000","name":"Profile","type":"business","status":"active","review":null,"allowed_time_periods":null,"primary_user_id":"01950028-e600-7ffd-8a4b-862631032bef","tier_id":null,"primary_user":{"id":"01950028-e600-7ffd-8a4b-862631032bef","meta":null,"created_on":"2025-02-13T16:33:55.200Z","created_by_id":null,"modified_on":"2025-02-14T08:17:20.555Z","modified_by_id":"01950028-e600-7ffd-8a4b-862631032bef","deleted_on":null,"deleted_by_id":null,"tenant_id":"00000000-0000-0000-0000-000000000000","email":"Temi@yopmail.com","status":"active","first_name":"Temi","last_name":"Brown","twofa_enabled":false,"last_active":"2025-02-14T08:17:20.554Z","last_ip":"141.101.99.16","allowed_ips":null,"last_timezone":"Europe/London","last_location":"London","phone":"+2348138094356","review":null,"gender":null,"date_of_birth":null,"cba_id":null,"photo_id":null,"referral_code":"OJQJNR","allowed_locations":null,"referred_by":null},"tier":null},{"id":"0194ff9d-8bdb-7aaa-ace9-01c88861d33c","meta":{"rc-number":"0000000","business-name":"Faill","business-email":"frail@yopmail.com","business-phone":"+23438096654","business-types":"Partnership","business-address":"2 kene street"},"created_on":"2025-02-13T14:01:42.620Z","created_by_id":"0194ff9c-7aba-7aaa-ace8-a924c42eeb97","modified_on":"2025-02-13T14:04:11.096Z","modified_by_id":"0194ff9c-7aba-7aaa-ace8-a924c42eeb97","deleted_on":null,"deleted_by_id":null,"tenant_id":"00000000-0000-0000-0000-000000000000","name":"Profile","type":"business","status":"active","review":null,"allowed_time_periods":null,"primary_user_id":"0194ff9c-7aba-7aaa-ace8-a924c42eeb97","tier_id":"0193b49c-a302-711f-a668-d685d243452a","primary_user":{"id":"0194ff9c-7aba-7aaa-ace8-a924c42eeb97","meta":null,"created_on":"2025-02-13T14:00:32.698Z","created_by_id":null,"modified_on":"2025-02-13T14:12:25.838Z","modified_by_id":"0194ff9c-7aba-7aaa-ace8-a924c42eeb97","deleted_on":null,"deleted_by_id":null,"tenant_id":"00000000-0000-0000-0000-000000000000","email":"slain@yopmail.com","status":"active","first_name":"light","last_name":"find","twofa_enabled":false,"last_active":"2025-02-13T14:12:25.836Z","last_ip":"197.234.242.161","allowed_ips":null,"last_timezone":"Africa/Johannesburg","last_location":"Johannesburg","phone":"+2348138096438","review":null,"gender":null,"date_of_birth":null,"cba_id":null,"photo_id":null,"referral_code":"CVEZZ5","allowed_locations":null,"referred_by":"019372de-17ef-7cc2-8fc0-43fe11ba042f"},"tier":{"id":"0193b49c-a302-711f-a668-d685d243452a","meta":null,"created_on":"2024-12-11T07:26:24.515Z","created_by_id":null,"modified_on":"2024-12-11T07:26:24.515Z","modified_by_id":null,"deleted_on":null,"deleted_by_id":null,"tenant_id":"00000000-0000-0000-0000-000000000001","profile_type":"business","name":"Tier 1","description":"Tier 1","level":1,"enabled":true,"balance_limit":0,"single_sending_limit":500000,"single_receiving_limit":500000,"period_sending_limit":500000,"period_sending_limit_time_unit":"day","period_receiving_limit":500000,"period_receiving_limit_time_unit":"day","requirements":[]}}],"meta":{"page":1,"total_pages":13,"total_items":128}}