{"status":"success","data":[{"id":"01960e58-bf95-7993-88f3-aae114acd99a","meta":null,"created_on":"2025-04-07T03:43:39.412Z","created_by_id":"019372de-17ef-7cc2-8fc0-43fe11ba042f","modified_on":"2025-04-07T03:43:39.412Z","modified_by_id":null,"deleted_on":null,"deleted_by_id":null,"tenant_id":"00000000-0000-0000-0000-000000000000","name":"McGlynn - Borer Business","type":"business","status":"active","restricted":false,"review":null,"allowed_time_periods":null,"allowed_locations":null,"primary_user_id":"019372de-17ef-7cc2-8fc0-43fe11ba042f","tier_id":null,"primary_user":{"id":"019372de-17ef-7cc2-8fc0-43fe11ba042f","meta":{},"created_on":"2024-11-28T13:02:58.029Z","created_by_id":null,"modified_on":"2025-04-08T23:47:58.725Z","modified_by_id":"019372de-17ef-7cc2-8fc0-43fe11ba042f","deleted_on":null,"deleted_by_id":null,"tenant_id":"00000000-0000-0000-0000-000000000000","email":"ismael@mailinator.com","status":"active","first_name":"Sunday","last_name":"Testing","twofa_enabled":false,"last_active":"2025-04-08T23:47:58.724Z","last_ip":"102.216.11.2","allowed_ips":null,"last_timezone":"Africa/Lagos","last_location":"Ibadan","phone":"+2348089722636","review":null,"gender":"male","date_of_birth":null,"cba_id":"31","photo_id":null,"referral_code":"7LD1QN","referred_by":null,"has_pin":false,"has_password":false},"tier":null},{"id":"01960cc5-68ac-7993-88ec-c301c481d379","meta":null,"created_on":"2025-04-06T20:23:06.155Z","created_by_id":"019372de-17ef-7cc2-8fc0-43fe11ba042f","modified_on":"2025-04-06T20:23:06.155Z","modified_by_id":null,"deleted_on":null,"deleted_by_id":null,"tenant_id":"00000000-0000-0000-0000-000000000000","name":"Kautzer, Prohaska and Hegmann Business","type":"business","status":"active","restricted":false,"review":null,"allowed_time_periods":null,"allowed_locations":null,"primary_user_id":"019372de-17ef-7cc2-8fc0-43fe11ba042f","tier_id":null,"primary_user":{"id":"019372de-17ef-7cc2-8fc0-43fe11ba042f","meta":{},"created_on":"2024-11-28T13:02:58.029Z","created_by_id":null,"modified_on":"2025-04-08T23:47:58.725Z","modified_by_id":"019372de-17ef-7cc2-8fc0-43fe11ba042f","deleted_on":null,"deleted_by_id":null,"tenant_id":"00000000-0000-0000-0000-000000000000","email":"ismael@mailinator.com","status":"active","first_name":"Sunday","last_name":"Testing","twofa_enabled":false,"last_active":"2025-04-08T23:47:58.724Z","last_ip":"102.216.11.2","allowed_ips":null,"last_timezone":"Africa/Lagos","last_location":"Ibadan","phone":"+2348089722636","review":null,"gender":"male","date_of_birth":null,"cba_id":"31","photo_id":null,"referral_code":"7LD1QN","referred_by":null,"has_pin":false,"has_password":false},"tier":null},{"id":"01960cb8-e88a-7993-88eb-1a169d6f2632","meta":null,"created_on":"2025-04-06T20:09:26.921Z","created_by_id":"0195d26a-2323-711c-8833-9e3f99ed4f85","modified_on":"2025-04-06T20:09:26.921Z","modified_by_id":null,"deleted_on":null,"deleted_by_id":null,"tenant_id":"00000000-0000-0000-0000-000000000000","name":"Beer, Lesch and Dicki Business","type":"business","status":"active","restricted":false,"review":null,"allowed_time_periods":null,"allowed_locations":null,"primary_user_id":"0195d26a-2323-711c-8833-9e3f99ed4f85","tier_id":null,"primary_user":{"id":"0195d26a-2323-711c-8833-9e3f99ed4f85","meta":null,"created_on":"2025-03-26T12:25:26.050Z","created_by_id":null,"modified_on":"2025-04-07T11:02:37.224Z","modified_by_id":"0195d26a-2323-711c-8833-9e3f99ed4f85","deleted_on":null,"deleted_by_id":null,"tenant_id":"00000000-0000-0000-0000-000000000000","email":"boom@mailinator.com","status":"active","first_name":"Ibrahim","last_name":"Azeez","twofa_enabled":false,"last_active":"2025-04-06T20:10:31.429Z","last_ip":"141.101.98.190","allowed_ips":null,"last_timezone":"Europe/Moscow","last_location":"London","phone":"+2349058893837","review":null,"gender":"male","date_of_birth":"2001-06-16","cba_id":"140","photo_id":"0195d26a-e0b1-711c-8834-089bb7f9010d","referral_code":"PJ5R4O","referred_by":null,"has_pin":false,"has_password":false},"tier":null},{"id":"01960220-8d55-7eeb-9127-49fcb58c09ec","meta":null,"created_on":"2025-04-04T18:46:49.940Z","created_by_id":"0195d26a-2323-711c-8833-9e3f99ed4f85","modified_on":"2025-04-04T18:46:49.940Z","modified_by_id":null,"deleted_on":null,"deleted_by_id":null,"tenant_id":"00000000-0000-0000-0000-000000000000","name":"Mayert - Hessel Business","type":"business","status":"active","restricted":false,"review":null,"allowed_time_periods":null,"allowed_locations":null,"primary_user_id":"0195d26a-2323-711c-8833-9e3f99ed4f85","tier_id":null,"primary_user":{"id":"0195d26a-2323-711c-8833-9e3f99ed4f85","meta":null,"created_on":"2025-03-26T12:25:26.050Z","created_by_id":null,"modified_on":"2025-04-07T11:02:37.224Z","modified_by_id":"0195d26a-2323-711c-8833-9e3f99ed4f85","deleted_on":null,"deleted_by_id":null,"tenant_id":"00000000-0000-0000-0000-000000000000","email":"boom@mailinator.com","status":"active","first_name":"Ibrahim","last_name":"Azeez","twofa_enabled":false,"last_active":"2025-04-06T20:10:31.429Z","last_ip":"141.101.98.190","allowed_ips":null,"last_timezone":"Europe/Moscow","last_location":"London","phone":"+2349058893837","review":null,"gender":"male","date_of_birth":"2001-06-16","cba_id":"140","photo_id":"0195d26a-e0b1-711c-8834-089bb7f9010d","referral_code":"PJ5R4O","referred_by":null,"has_pin":false,"has_password":false},"tier":null},{"id":"0196021f-f5bd-7eeb-9125-6cd225cef762","meta":null,"created_on":"2025-04-04T18:46:11.132Z","created_by_id":"019372de-17ef-7cc2-8fc0-43fe11ba042f","modified_on":"2025-04-04T18:46:11.132Z","modified_by_id":null,"deleted_on":null,"deleted_by_id":null,"tenant_id":"00000000-0000-0000-0000-000000000000","name":"McDermott Inc Business","type":"business","status":"active","restricted":false,"review":null,"allowed_time_periods":null,"allowed_locations":null,"primary_user_id":"019372de-17ef-7cc2-8fc0-43fe11ba042f","tier_id":null,"primary_user":{"id":"019372de-17ef-7cc2-8fc0-43fe11ba042f","meta":{},"created_on":"2024-11-28T13:02:58.029Z","created_by_id":null,"modified_on":"2025-04-08T23:47:58.725Z","modified_by_id":"019372de-17ef-7cc2-8fc0-43fe11ba042f","deleted_on":null,"deleted_by_id":null,"tenant_id":"00000000-0000-0000-0000-000000000000","email":"ismael@mailinator.com","status":"active","first_name":"Sunday","last_name":"Testing","twofa_enabled":false,"last_active":"2025-04-08T23:47:58.724Z","last_ip":"102.216.11.2","allowed_ips":null,"last_timezone":"Africa/Lagos","last_location":"Ibadan","phone":"+2348089722636","review":null,"gender":"male","date_of_birth":null,"cba_id":"31","photo_id":null,"referral_code":"7LD1QN","referred_by":null,"has_pin":false,"has_password":false},"tier":null},{"id":"0195fc85-8e82-7887-ab37-99e227af12ec","meta":{"rc-number":"0000000","business-name":"Neem","business-email":"hi@neem.co","business-phone":"+2349055755613","business-types":"Sole Proprietorship","business-address":"LAGOS, NIGERIA, LAGOS, Ibeju-Lekki, LAGOS"},"created_on":"2025-04-03T16:39:26.084Z","created_by_id":"0195fc84-c556-7887-ab37-850d7747490f","modified_on":"2025-04-05T11:24:22.059Z","modified_by_id":"0193d109-a926-7446-abe5-7dafe8b742bd","deleted_on":null,"deleted_by_id":null,"tenant_id":"00000000-0000-0000-0000-000000000000","name":"","type":"business","status":"active","restricted":false,"review":"some\nsome","allowed_time_periods":null,"allowed_locations":null,"primary_user_id":"0195fc84-c556-7887-ab37-850d7747490f","tier_id":null,"primary_user":{"id":"0195fc84-c556-7887-ab37-850d7747490f","meta":null,"created_on":"2025-04-03T16:38:34.584Z","created_by_id":null,"modified_on":"2025-04-03T16:42:58.226Z","modified_by_id":"0195fc84-c556-7887-ab37-850d7747490f","deleted_on":null,"deleted_by_id":null,"tenant_id":"00000000-0000-0000-0000-000000000000","email":"baller@mailinator.com","status":"active","first_name":"Azeez","last_name":"Ibrahim","twofa_enabled":false,"last_active":"2025-04-03T16:42:58.224Z","last_ip":"162.158.23.200","allowed_ips":null,"last_timezone":"Europe/Paris","last_location":"Marseille","phone":"+2349066233261","review":null,"gender":null,"date_of_birth":null,"cba_id":null,"photo_id":null,"referral_code":"54LUM7","referred_by":null,"has_pin":false,"has_password":false},"tier":null},{"id":"0195fb63-f223-7887-ab30-ce6b407b432c","meta":null,"created_on":"2025-04-03T11:23:06.146Z","created_by_id":"019372de-17ef-7cc2-8fc0-43fe11ba042f","modified_on":"2025-04-03T11:23:06.146Z","modified_by_id":null,"deleted_on":null,"deleted_by_id":null,"tenant_id":"00000000-0000-0000-0000-000000000000","name":"Pagac Inc Business","type":"business","status":"active","restricted":false,"review":null,"allowed_time_periods":null,"allowed_locations":null,"primary_user_id":"019372de-17ef-7cc2-8fc0-43fe11ba042f","tier_id":null,"primary_user":{"id":"019372de-17ef-7cc2-8fc0-43fe11ba042f","meta":{},"created_on":"2024-11-28T13:02:58.029Z","created_by_id":null,"modified_on":"2025-04-08T23:47:58.725Z","modified_by_id":"019372de-17ef-7cc2-8fc0-43fe11ba042f","deleted_on":null,"deleted_by_id":null,"tenant_id":"00000000-0000-0000-0000-000000000000","email":"ismael@mailinator.com","status":"active","first_name":"Sunday","last_name":"Testing","twofa_enabled":false,"last_active":"2025-04-08T23:47:58.724Z","last_ip":"102.216.11.2","allowed_ips":null,"last_timezone":"Africa/Lagos","last_location":"Ibadan","phone":"+2348089722636","review":null,"gender":"male","date_of_birth":null,"cba_id":"31","photo_id":null,"referral_code":"7LD1QN","referred_by":null,"has_pin":false,"has_password":false},"tier":null},{"id":"0195f7d4-ce41-7887-ab2a-beea8b78e08a","meta":null,"created_on":"2025-04-02T18:47:53.661Z","created_by_id":"0195d26a-2323-711c-8833-9e3f99ed4f85","modified_on":"2025-04-02T18:47:53.661Z","modified_by_id":null,"deleted_on":null,"deleted_by_id":null,"tenant_id":"00000000-0000-0000-0000-000000000000","name":"Padberg, Frami and Jakubowski Business","type":"business","status":"active","restricted":false,"review":null,"allowed_time_periods":null,"allowed_locations":null,"primary_user_id":"0195d26a-2323-711c-8833-9e3f99ed4f85","tier_id":null,"primary_user":{"id":"0195d26a-2323-711c-8833-9e3f99ed4f85","meta":null,"created_on":"2025-03-26T12:25:26.050Z","created_by_id":null,"modified_on":"2025-04-07T11:02:37.224Z","modified_by_id":"0195d26a-2323-711c-8833-9e3f99ed4f85","deleted_on":null,"deleted_by_id":null,"tenant_id":"00000000-0000-0000-0000-000000000000","email":"boom@mailinator.com","status":"active","first_name":"Ibrahim","last_name":"Azeez","twofa_enabled":false,"last_active":"2025-04-06T20:10:31.429Z","last_ip":"141.101.98.190","allowed_ips":null,"last_timezone":"Europe/Moscow","last_location":"London","phone":"+2349058893837","review":null,"gender":"male","date_of_birth":"2001-06-16","cba_id":"140","photo_id":"0195d26a-e0b1-711c-8834-089bb7f9010d","referral_code":"PJ5R4O","referred_by":null,"has_pin":false,"has_password":false},"tier":null},{"id":"0195f7d2-1b84-7887-ab26-9a5fd5b8ce2f","meta":null,"created_on":"2025-04-02T18:44:56.832Z","created_by_id":"019372de-17ef-7cc2-8fc0-43fe11ba042f","modified_on":"2025-04-02T18:44:56.832Z","modified_by_id":null,"deleted_on":null,"deleted_by_id":null,"tenant_id":"00000000-0000-0000-0000-000000000000","name":"Terry, Rau and Streich Business","type":"business","status":"active","restricted":false,"review":null,"allowed_time_periods":null,"allowed_locations":null,"primary_user_id":"019372de-17ef-7cc2-8fc0-43fe11ba042f","tier_id":null,"primary_user":{"id":"019372de-17ef-7cc2-8fc0-43fe11ba042f","meta":{},"created_on":"2024-11-28T13:02:58.029Z","created_by_id":null,"modified_on":"2025-04-08T23:47:58.725Z","modified_by_id":"019372de-17ef-7cc2-8fc0-43fe11ba042f","deleted_on":null,"deleted_by_id":null,"tenant_id":"00000000-0000-0000-0000-000000000000","email":"ismael@mailinator.com","status":"active","first_name":"Sunday","last_name":"Testing","twofa_enabled":false,"last_active":"2025-04-08T23:47:58.724Z","last_ip":"102.216.11.2","allowed_ips":null,"last_timezone":"Africa/Lagos","last_location":"Ibadan","phone":"+2348089722636","review":null,"gender":"male","date_of_birth":null,"cba_id":"31","photo_id":null,"referral_code":"7LD1QN","referred_by":null,"has_pin":false,"has_password":false},"tier":null},{"id":"0195f7ca-5a7f-7887-ab25-6094f98eab34","meta":{"rc-number":"0000000","business-name":"Neem","business-email":"hi@neem.co","business-phone":"+23409055755671","business-types":"Partnership","business-address":"LAGOS, NIGERIA, LAGOS, Ibeju-Lekki, LAGOS"},"created_on":"2025-04-02T18:36:28.666Z","created_by_id":"0195573e-3a19-7dd1-9966-7b756b042953","modified_on":"2025-04-02T18:36:28.666Z","modified_by_id":null,"deleted_on":null,"deleted_by_id":null,"tenant_id":"00000000-0000-0000-0000-000000000000","name":"","type":"business","status":"active","restricted":false,"review":null,"allowed_time_periods":null,"allowed_locations":null,"primary_user_id":"0195573e-3a19-7dd1-9966-7b756b042953","tier_id":null,"primary_user":{"id":"0195573e-3a19-7dd1-9966-7b756b042953","meta":null,"created_on":"2025-03-02T14:24:10.777Z","created_by_id":null,"modified_on":"2025-04-04T09:26:38.999Z","modified_by_id":"0195573e-3a19-7dd1-9966-7b756b042953","deleted_on":null,"deleted_by_id":null,"tenant_id":"00000000-0000-0000-0000-000000000000","email":"azeez+89@assurdly.com","status":"active","first_name":"Ibrahim","last_name":"Azeez","twofa_enabled":false,"last_active":"2025-04-04T09:26:38.995Z","last_ip":"162.158.22.238","allowed_ips":null,"last_timezone":"Europe/Paris","last_location":"Marseille","phone":"+2349055755699","review":null,"gender":"male","date_of_birth":"2001-06-16","cba_id":"103","photo_id":"0195f78f-bb58-7887-ab24-f559cf0c8b90","referral_code":"M6AL7D","referred_by":null,"has_pin":false,"has_password":false},"tier":null}],"meta":{"page":1,"total_pages":21,"total_items":202}}