{"status":"success","data":[{"id":"0195f7d4-ce41-7887-ab2a-beea8b78e08a","meta":null,"created_on":"2025-04-02T18:47:53.661Z","created_by_id":"0195d26a-2323-711c-8833-9e3f99ed4f85","modified_on":"2025-04-02T18:47:53.661Z","modified_by_id":null,"deleted_on":null,"deleted_by_id":null,"tenant_id":"00000000-0000-0000-0000-000000000000","name":"Padberg, Frami and Jakubowski Business","type":"business","status":"active","restricted":false,"review":null,"allowed_time_periods":null,"allowed_locations":null,"primary_user_id":"0195d26a-2323-711c-8833-9e3f99ed4f85","tier_id":null,"primary_user":{"id":"0195d26a-2323-711c-8833-9e3f99ed4f85","meta":null,"created_on":"2025-03-26T12:25:26.050Z","created_by_id":null,"modified_on":"2025-04-02T18:47:53.638Z","modified_by_id":"0195d26a-2323-711c-8833-9e3f99ed4f85","deleted_on":null,"deleted_by_id":null,"tenant_id":"00000000-0000-0000-0000-000000000000","email":"boom@mailinator.com","status":"active","first_name":"Ibrahim","last_name":"Azeez","twofa_enabled":false,"last_active":"2025-04-02T18:47:53.640Z","last_ip":"162.158.186.230","allowed_ips":null,"last_timezone":"America/Los_Angeles","last_location":"","phone":"+2349058893837","review":null,"gender":"male","date_of_birth":"2001-06-16","cba_id":"140","photo_id":"0195d26a-e0b1-711c-8834-089bb7f9010d","referral_code":"PJ5R4O","referred_by":null,"has_pin":false,"has_password":false},"tier":null},{"id":"0195f7d2-1b84-7887-ab26-9a5fd5b8ce2f","meta":null,"created_on":"2025-04-02T18:44:56.832Z","created_by_id":"019372de-17ef-7cc2-8fc0-43fe11ba042f","modified_on":"2025-04-02T18:44:56.832Z","modified_by_id":null,"deleted_on":null,"deleted_by_id":null,"tenant_id":"00000000-0000-0000-0000-000000000000","name":"Terry, Rau and Streich Business","type":"business","status":"active","restricted":false,"review":null,"allowed_time_periods":null,"allowed_locations":null,"primary_user_id":"019372de-17ef-7cc2-8fc0-43fe11ba042f","tier_id":null,"primary_user":{"id":"019372de-17ef-7cc2-8fc0-43fe11ba042f","meta":{},"created_on":"2024-11-28T13:02:58.029Z","created_by_id":null,"modified_on":"2025-04-02T18:46:57.718Z","modified_by_id":"019372de-17ef-7cc2-8fc0-43fe11ba042f","deleted_on":null,"deleted_by_id":null,"tenant_id":"00000000-0000-0000-0000-000000000000","email":"ismael@mailinator.com","status":"active","first_name":"Sunday","last_name":"Testing","twofa_enabled":false,"last_active":"2025-04-02T18:46:57.721Z","last_ip":"172.71.241.162","allowed_ips":null,"last_timezone":"Europe/London","last_location":"London","phone":"+2349055755671","review":null,"gender":"male","date_of_birth":null,"cba_id":"31","photo_id":null,"referral_code":"7LD1QN","referred_by":null,"has_pin":false,"has_password":false},"tier":null},{"id":"0195f7ca-5a7f-7887-ab25-6094f98eab34","meta":{"rc-number":"0000000","business-name":"Neem","business-email":"hi@neem.co","business-phone":"+23409055755671","business-types":"Partnership","business-address":"LAGOS, NIGERIA, LAGOS, Ibeju-Lekki, LAGOS"},"created_on":"2025-04-02T18:36:28.666Z","created_by_id":"0195573e-3a19-7dd1-9966-7b756b042953","modified_on":"2025-04-02T18:36:28.666Z","modified_by_id":null,"deleted_on":null,"deleted_by_id":null,"tenant_id":"00000000-0000-0000-0000-000000000000","name":"","type":"business","status":"active","restricted":false,"review":null,"allowed_time_periods":null,"allowed_locations":null,"primary_user_id":"0195573e-3a19-7dd1-9966-7b756b042953","tier_id":null,"primary_user":{"id":"0195573e-3a19-7dd1-9966-7b756b042953","meta":null,"created_on":"2025-03-02T14:24:10.777Z","created_by_id":null,"modified_on":"2025-04-02T18:36:46.806Z","modified_by_id":"0195573e-3a19-7dd1-9966-7b756b042953","deleted_on":null,"deleted_by_id":null,"tenant_id":"00000000-0000-0000-0000-000000000000","email":"azeez+89@assurdly.com","status":"active","first_name":"Ibrahim","last_name":"Azeez","twofa_enabled":false,"last_active":"2025-04-02T18:36:46.809Z","last_ip":"172.71.232.62","allowed_ips":null,"last_timezone":"America/Sao_Paulo","last_location":"São Paulo","phone":"+2349055755699","review":null,"gender":"male","date_of_birth":"2001-06-16","cba_id":"103","photo_id":"0195f78f-bb58-7887-ab24-f559cf0c8b90","referral_code":"M6AL7D","referred_by":null,"has_pin":false,"has_password":false},"tier":null},{"id":"0195f52a-838a-7887-ab19-cc84763e8e42","meta":null,"created_on":"2025-04-02T06:22:38.986Z","created_by_id":"0195d26a-2323-711c-8833-9e3f99ed4f85","modified_on":"2025-04-02T06:22:38.986Z","modified_by_id":null,"deleted_on":null,"deleted_by_id":null,"tenant_id":"00000000-0000-0000-0000-000000000000","name":"Lindgren, VonRueden and O'Kon Business","type":"business","status":"active","restricted":false,"review":null,"allowed_time_periods":null,"allowed_locations":null,"primary_user_id":"0195d26a-2323-711c-8833-9e3f99ed4f85","tier_id":null,"primary_user":{"id":"0195d26a-2323-711c-8833-9e3f99ed4f85","meta":null,"created_on":"2025-03-26T12:25:26.050Z","created_by_id":null,"modified_on":"2025-04-02T18:47:53.638Z","modified_by_id":"0195d26a-2323-711c-8833-9e3f99ed4f85","deleted_on":null,"deleted_by_id":null,"tenant_id":"00000000-0000-0000-0000-000000000000","email":"boom@mailinator.com","status":"active","first_name":"Ibrahim","last_name":"Azeez","twofa_enabled":false,"last_active":"2025-04-02T18:47:53.640Z","last_ip":"162.158.186.230","allowed_ips":null,"last_timezone":"America/Los_Angeles","last_location":"","phone":"+2349058893837","review":null,"gender":"male","date_of_birth":"2001-06-16","cba_id":"140","photo_id":"0195d26a-e0b1-711c-8834-089bb7f9010d","referral_code":"PJ5R4O","referred_by":null,"has_pin":false,"has_password":false},"tier":null},{"id":"0195f51d-293d-7887-ab16-c1453cf6070a","meta":null,"created_on":"2025-04-02T06:08:03.900Z","created_by_id":"019372de-17ef-7cc2-8fc0-43fe11ba042f","modified_on":"2025-04-02T06:08:03.900Z","modified_by_id":null,"deleted_on":null,"deleted_by_id":null,"tenant_id":"00000000-0000-0000-0000-000000000000","name":"Goodwin Group Business","type":"business","status":"active","restricted":false,"review":null,"allowed_time_periods":null,"allowed_locations":null,"primary_user_id":"019372de-17ef-7cc2-8fc0-43fe11ba042f","tier_id":null,"primary_user":{"id":"019372de-17ef-7cc2-8fc0-43fe11ba042f","meta":{},"created_on":"2024-11-28T13:02:58.029Z","created_by_id":null,"modified_on":"2025-04-02T18:46:57.718Z","modified_by_id":"019372de-17ef-7cc2-8fc0-43fe11ba042f","deleted_on":null,"deleted_by_id":null,"tenant_id":"00000000-0000-0000-0000-000000000000","email":"ismael@mailinator.com","status":"active","first_name":"Sunday","last_name":"Testing","twofa_enabled":false,"last_active":"2025-04-02T18:46:57.721Z","last_ip":"172.71.241.162","allowed_ips":null,"last_timezone":"Europe/London","last_location":"London","phone":"+2349055755671","review":null,"gender":"male","date_of_birth":null,"cba_id":"31","photo_id":null,"referral_code":"7LD1QN","referred_by":null,"has_pin":false,"has_password":false},"tier":null},{"id":"0195f50d-4ecb-7887-ab11-bf612de28433","meta":null,"created_on":"2025-04-02T05:50:44.940Z","created_by_id":"0195d26a-2323-711c-8833-9e3f99ed4f85","modified_on":"2025-04-02T05:50:44.940Z","modified_by_id":null,"deleted_on":null,"deleted_by_id":null,"tenant_id":"00000000-0000-0000-0000-000000000000","name":"Gleason Inc Business","type":"business","status":"active","restricted":false,"review":null,"allowed_time_periods":null,"allowed_locations":null,"primary_user_id":"0195d26a-2323-711c-8833-9e3f99ed4f85","tier_id":null,"primary_user":{"id":"0195d26a-2323-711c-8833-9e3f99ed4f85","meta":null,"created_on":"2025-03-26T12:25:26.050Z","created_by_id":null,"modified_on":"2025-04-02T18:47:53.638Z","modified_by_id":"0195d26a-2323-711c-8833-9e3f99ed4f85","deleted_on":null,"deleted_by_id":null,"tenant_id":"00000000-0000-0000-0000-000000000000","email":"boom@mailinator.com","status":"active","first_name":"Ibrahim","last_name":"Azeez","twofa_enabled":false,"last_active":"2025-04-02T18:47:53.640Z","last_ip":"162.158.186.230","allowed_ips":null,"last_timezone":"America/Los_Angeles","last_location":"","phone":"+2349058893837","review":null,"gender":"male","date_of_birth":"2001-06-16","cba_id":"140","photo_id":"0195d26a-e0b1-711c-8834-089bb7f9010d","referral_code":"PJ5R4O","referred_by":null,"has_pin":false,"has_password":false},"tier":null},{"id":"0195f50d-4385-7887-ab11-73ed4013c9d3","meta":null,"created_on":"2025-04-02T05:50:42.053Z","created_by_id":"019372de-17ef-7cc2-8fc0-43fe11ba042f","modified_on":"2025-04-02T05:50:42.053Z","modified_by_id":null,"deleted_on":null,"deleted_by_id":null,"tenant_id":"00000000-0000-0000-0000-000000000000","name":"O'Keefe and Sons Business","type":"business","status":"active","restricted":false,"review":null,"allowed_time_periods":null,"allowed_locations":null,"primary_user_id":"019372de-17ef-7cc2-8fc0-43fe11ba042f","tier_id":null,"primary_user":{"id":"019372de-17ef-7cc2-8fc0-43fe11ba042f","meta":{},"created_on":"2024-11-28T13:02:58.029Z","created_by_id":null,"modified_on":"2025-04-02T18:46:57.718Z","modified_by_id":"019372de-17ef-7cc2-8fc0-43fe11ba042f","deleted_on":null,"deleted_by_id":null,"tenant_id":"00000000-0000-0000-0000-000000000000","email":"ismael@mailinator.com","status":"active","first_name":"Sunday","last_name":"Testing","twofa_enabled":false,"last_active":"2025-04-02T18:46:57.721Z","last_ip":"172.71.241.162","allowed_ips":null,"last_timezone":"Europe/London","last_location":"London","phone":"+2349055755671","review":null,"gender":"male","date_of_birth":null,"cba_id":"31","photo_id":null,"referral_code":"7LD1QN","referred_by":null,"has_pin":false,"has_password":false},"tier":null},{"id":"0195cf8d-72ea-7bb0-a50e-4aef0668a5ca","meta":{"rc-number":"123456789","business-name":"Test","business-email":"test@gmail.com","business-phone":"+2348123234345","business-types":"Sole Proprietorship","business-address":"Lagos"},"created_on":"2025-03-25T23:05:08.584Z","created_by_id":"019317a0-b7e5-7eeb-a7eb-bd18cf39a633","modified_on":"2025-03-25T23:05:08.584Z","modified_by_id":null,"deleted_on":null,"deleted_by_id":null,"tenant_id":"00000000-0000-0000-0000-000000000000","name":"","type":"business","status":"active","restricted":false,"review":null,"allowed_time_periods":null,"allowed_locations":null,"primary_user_id":"019317a0-b7e5-7eeb-a7eb-bd18cf39a633","tier_id":null,"primary_user":{"id":"019317a0-b7e5-7eeb-a7eb-bd18cf39a633","meta":{},"created_on":"2024-11-10T19:50:29.093Z","created_by_id":null,"modified_on":"2025-04-02T17:34:36.446Z","modified_by_id":"019317a0-b7e5-7eeb-a7eb-bd18cf39a633","deleted_on":null,"deleted_by_id":null,"tenant_id":"00000000-0000-0000-0000-000000000000","email":"mikeangel@mailinator.com","status":"active","first_name":"Mike","last_name":"Angelo","twofa_enabled":false,"last_active":"2025-04-02T17:34:36.448Z","last_ip":"172.71.130.196","allowed_ips":null,"last_timezone":"Europe/Paris","last_location":"Paris","phone":"+234(0)9055755671","review":null,"gender":"male","date_of_birth":"1990-01-01","cba_id":"19","photo_id":"0195afbb-ecca-788b-a91c-8a2ead0f8556","referral_code":"AZVBZI","referred_by":null,"has_pin":false,"has_password":false},"tier":null},{"id":"0195c362-4f51-7ff4-896e-959ff7ccd9e1","meta":{"rc-number":"0000000","business-name":"Faill","business-email":"dreaa@yopmail.com","business-phone":"+23438090909","business-types":"Sole Proprietorship","business-address":"2 kene street"},"created_on":"2025-03-23T14:22:34.831Z","created_by_id":"0195c361-76ee-7ff4-896e-788c43e0fa1d","modified_on":"2025-03-25T13:18:58.337Z","modified_by_id":"0193d109-a926-7446-abe5-7dafe8b742bd","deleted_on":null,"deleted_by_id":null,"tenant_id":"00000000-0000-0000-0000-000000000000","name":"","type":"business","status":"active","restricted":false,"review":null,"allowed_time_periods":null,"allowed_locations":null,"primary_user_id":"0195c361-76ee-7ff4-896e-788c43e0fa1d","tier_id":"01948d63-7196-7227-973e-3d2e8302d503","primary_user":{"id":"0195c361-76ee-7ff4-896e-788c43e0fa1d","meta":null,"created_on":"2025-03-23T14:21:39.437Z","created_by_id":null,"modified_on":"2025-03-25T13:19:02.427Z","modified_by_id":"0193d109-a926-7446-abe5-7dafe8b742bd","deleted_on":null,"deleted_by_id":null,"tenant_id":"00000000-0000-0000-0000-000000000000","email":"grain@yopmail.com","status":"active","first_name":"Fred","last_name":"Teslim","twofa_enabled":false,"last_active":"2025-03-23T14:44:34.504Z","last_ip":"162.158.216.160","allowed_ips":null,"last_timezone":"Asia/Ho_Chi_Minh","last_location":"Ho Chi Minh City","phone":"+2348138095433","review":null,"gender":null,"date_of_birth":null,"cba_id":"139","photo_id":null,"referral_code":"CAPYD3","referred_by":null,"has_pin":false,"has_password":false},"tier":{"id":"01948d63-7196-7227-973e-3d2e8302d503","meta":null,"created_on":"2025-01-22T09:41:32.182Z","created_by_id":"01927265-4ed2-79cc-a0e6-e11339a359f3","modified_on":"2025-02-07T11:01:48.510Z","modified_by_id":"01927265-4ed2-79cc-a0e6-e11339a359f3","deleted_on":null,"deleted_by_id":null,"tenant_id":"00000000-0000-0000-0000-000000000000","profile_type":"business","name":"Tier 1","description":"Tier 1","level":1,"enabled":true,"balance_limit":2000000,"single_sending_limit":500000,"single_receiving_limit":500000,"period_sending_limit":500000,"period_sending_limit_time_unit":"day","period_receiving_limit":500000,"period_receiving_limit_time_unit":"day","requirements":[{"id":"01923359-cd8b-755b-862f-22b00cdce2e8","type_id":"01923359-cd8b-755b-862f-22b00cdce2e8","type":"kyc","slug":"profiles","name":"Business Information","description":"Verify your business phone number and email address."}]}},{"id":"0195b9df-b3d2-7447-8ef6-8a70b1fabfca","meta":{"rc-number":"0000000","business-name":"Neem","business-email":"hi@neem.co","business-phone":"+2348000000003","business-types":"Corporation","business-address":"LAGOS, NIGERIA, LAGOS, Ibeju-Lekki, LAGOS"},"created_on":"2025-03-21T18:03:20.400Z","created_by_id":"0195b9dd-d430-7447-8ef6-7008a4022429","modified_on":"2025-03-21T18:03:20.400Z","modified_by_id":null,"deleted_on":null,"deleted_by_id":null,"tenant_id":"00000000-0000-0000-0000-000000000000","name":"","type":"business","status":"active","restricted":false,"review":null,"allowed_time_periods":null,"allowed_locations":null,"primary_user_id":"0195b9dd-d430-7447-8ef6-7008a4022429","tier_id":null,"primary_user":{"id":"0195b9dd-d430-7447-8ef6-7008a4022429","meta":null,"created_on":"2025-03-21T18:01:17.616Z","created_by_id":null,"modified_on":"2025-03-26T12:15:23.974Z","modified_by_id":"0195b9dd-d430-7447-8ef6-7008a4022429","deleted_on":null,"deleted_by_id":null,"tenant_id":"00000000-0000-0000-0000-000000000000","email":"john@mailinator.com","status":"active","first_name":"John","last_name":"Doe","twofa_enabled":false,"last_active":"2025-03-26T12:15:19.337Z","last_ip":"197.234.242.44","allowed_ips":null,"last_timezone":"Africa/Johannesburg","last_location":"Johannesburg","phone":"+2348000000010","review":null,"gender":null,"date_of_birth":null,"cba_id":null,"photo_id":null,"referral_code":"4LRQJ8","referred_by":null,"has_pin":false,"has_password":false},"tier":null}],"meta":{"page":1,"total_pages":20,"total_items":197}}