{"status":"success","data":[{"id":"0195f6c9-58d1-7887-ab23-7ed9846f9db0","meta":null,"created_on":"2025-04-02T13:55:45.490Z","created_by_id":"0195f6c9-1c0e-7887-ab23-6384e81fae4c","modified_on":"2025-04-02T13:55:45.490Z","modified_by_id":null,"deleted_on":null,"deleted_by_id":null,"tenant_id":"00000000-0000-0000-0000-000000000000","name":"Gil Arena","type":"personal","status":"active","restricted":false,"review":null,"allowed_time_periods":null,"allowed_locations":null,"primary_user_id":"0195f6c9-1c0e-7887-ab23-6384e81fae4c","tier_id":null,"primary_user":{"id":"0195f6c9-1c0e-7887-ab23-6384e81fae4c","meta":null,"created_on":"2025-04-02T13:55:29.934Z","created_by_id":null,"modified_on":"2025-04-02T14:27:20.251Z","modified_by_id":"0195f6c9-1c0e-7887-ab23-6384e81fae4c","deleted_on":null,"deleted_by_id":null,"tenant_id":"00000000-0000-0000-0000-000000000000","email":"gilarena@gmail.com","status":"active","first_name":"Gil","last_name":"Arena","twofa_enabled":false,"last_active":"2025-04-02T14:27:20.250Z","last_ip":"141.101.98.16","allowed_ips":null,"last_timezone":"Europe/London","last_location":"London","phone":"+2348123557689","review":null,"gender":null,"date_of_birth":null,"cba_id":null,"photo_id":null,"referral_code":"Q75P4O","referred_by":null,"has_pin":false,"has_password":false},"tier":null},{"id":"0195f124-ce5c-7ffc-a56d-c7ee7317170a","meta":null,"created_on":"2025-04-01T11:37:56.058Z","created_by_id":"0195f124-8e35-7ffc-a56d-6b7b52a64b52","modified_on":"2025-04-01T11:37:56.058Z","modified_by_id":null,"deleted_on":null,"deleted_by_id":null,"tenant_id":"00000000-0000-0000-0000-000000000000","name":"Boyle Meta","type":"personal","status":"active","restricted":false,"review":null,"allowed_time_periods":null,"allowed_locations":null,"primary_user_id":"0195f124-8e35-7ffc-a56d-6b7b52a64b52","tier_id":null,"primary_user":{"id":"0195f124-8e35-7ffc-a56d-6b7b52a64b52","meta":null,"created_on":"2025-04-01T11:37:39.634Z","created_by_id":null,"modified_on":"2025-04-01T11:37:39.748Z","modified_by_id":null,"deleted_on":null,"deleted_by_id":null,"tenant_id":"00000000-0000-0000-0000-000000000000","email":"Nathanial@mailinator.com","status":"active","first_name":"Boyle","last_name":"Meta","twofa_enabled":false,"last_active":"2025-04-01T11:37:39.634Z","last_ip":"172.70.108.227","allowed_ips":null,"last_timezone":"America/New_York","last_location":"Newark","phone":null,"review":null,"gender":null,"date_of_birth":null,"cba_id":null,"photo_id":null,"referral_code":"EW6JTV","referred_by":"019372de-17ef-7cc2-8fc0-43fe11ba042f","has_pin":false,"has_password":false},"tier":null},{"id":"0195dcc5-26aa-7003-9cef-a323c0ff5804","meta":null,"created_on":"2025-03-28T12:41:02.890Z","created_by_id":"0195d933-f5a1-7003-9ce9-e1fc6633d348","modified_on":"2025-03-28T12:41:02.890Z","modified_by_id":null,"deleted_on":null,"deleted_by_id":null,"tenant_id":"00000000-0000-0000-0000-000000000000","name":"Oritsemisan Makpokpomi","type":"personal","status":"active","restricted":false,"review":null,"allowed_time_periods":null,"allowed_locations":null,"primary_user_id":"0195d933-f5a1-7003-9ce9-e1fc6633d348","tier_id":null,"primary_user":{"id":"0195d933-f5a1-7003-9ce9-e1fc6633d348","meta":null,"created_on":"2025-03-27T20:03:35.968Z","created_by_id":null,"modified_on":"2025-03-28T12:51:49.285Z","modified_by_id":"0195d933-f5a1-7003-9ce9-e1fc6633d348","deleted_on":null,"deleted_by_id":null,"tenant_id":"00000000-0000-0000-0000-000000000000","email":"misanmakpo@gmail.com","status":"active","first_name":"Oritsemisan","last_name":"Makpokpomi","twofa_enabled":false,"last_active":"2025-03-28T12:51:49.281Z","last_ip":"172.71.98.50","allowed_ips":null,"last_timezone":"Europe/Amsterdam","last_location":"Amsterdam","phone":"+2349032048838","review":null,"gender":null,"date_of_birth":null,"cba_id":null,"photo_id":null,"referral_code":"QUH5AK","referred_by":null,"has_pin":false,"has_password":false},"tier":null},{"id":"0195dc68-0c29-7003-9ced-b44bcc013981","meta":null,"created_on":"2025-03-28T10:59:21.257Z","created_by_id":"0195dc64-09ca-7003-9cec-efa814e8938d","modified_on":"2025-03-28T12:48:55.712Z","modified_by_id":"0195dc64-09ca-7003-9cec-efa814e8938d","deleted_on":null,"deleted_by_id":null,"tenant_id":"00000000-0000-0000-0000-000000000000","name":"Oritsemisan Makpokpomi","type":"personal","status":"active","restricted":false,"review":null,"allowed_time_periods":null,"allowed_locations":null,"primary_user_id":"0195dc64-09ca-7003-9cec-efa814e8938d","tier_id":"01928f2d-6756-755b-8a9d-c8094db2af27","primary_user":{"id":"0195dc64-09ca-7003-9cec-efa814e8938d","meta":null,"created_on":"2025-03-28T10:54:58.506Z","created_by_id":null,"modified_on":"2025-03-28T12:57:37.995Z","modified_by_id":"0195dc64-09ca-7003-9cec-efa814e8938d","deleted_on":null,"deleted_by_id":null,"tenant_id":"00000000-0000-0000-0000-000000000000","email":"misan@assurdly.com","status":"active","first_name":"Oritsemisan","last_name":"Makpokpomi","twofa_enabled":false,"last_active":"2025-03-28T12:57:37.994Z","last_ip":"141.101.99.214","allowed_ips":null,"last_timezone":"Europe/London","last_location":"London","phone":"+2348104738987","review":null,"gender":"female","date_of_birth":"2004-04-01","cba_id":"142","photo_id":"0195dccb-e42c-7003-9cf0-159321ad8bc7","referral_code":"1UAC2S","referred_by":null,"has_pin":false,"has_password":false},"tier":{"id":"01928f2d-6756-755b-8a9d-c8094db2af27","meta":null,"created_on":"2024-10-15T07:56:10.789Z","created_by_id":null,"modified_on":"2025-01-23T15:14:24.513Z","modified_by_id":"01927265-4ed2-79cc-a0e6-e11339a359f3","deleted_on":null,"deleted_by_id":null,"tenant_id":"00000000-0000-0000-0000-000000000000","profile_type":"personal","name":"Tier 1","description":"Tier 1","level":1,"enabled":true,"balance_limit":2000000,"single_sending_limit":500000,"single_receiving_limit":500000,"period_sending_limit":500000,"period_sending_limit_time_unit":"day","period_receiving_limit":500000,"period_receiving_limit_time_unit":"day","requirements":[{"id":"019318f9-c895-744d-8f65-4636cc26dd1f","type_id":"019318f9-c895-744d-8f65-4636cc26dd1f","type":"verification","slug":"liveness","name":"Image liveness check","description":"This step helps us verify your identity by matching your image with the credentials you’ve provided."},{"id":"019318f9-c895-744d-8f65-4636cc26dd1d","type_id":"019318f9-c895-744d-8f65-4636cc26dd1d","type":"verification","slug":"email","name":"Email","description":"Verify your email"},{"id":"019318f9-c895-744d-8f65-4636cc26dd1c","type_id":"019318f9-c895-744d-8f65-4636cc26dd1c","type":"verification","slug":"phone","name":"Phone","description":"Verify yor number"},{"id":"01933d40-03e5-777c-a6e6-bf72eb1c8968","type_id":"01933d40-03e5-777c-a6e6-bf72eb1c8968","type":"verification","slug":"bvn","name":"BVN","description":"BVN"}]}},{"id":"0195d26a-45cb-711c-8833-b628ce71be8a","meta":{"business-name":"Brakus - Monahan"},"created_on":"2025-03-26T12:25:34.923Z","created_by_id":"0195d26a-2323-711c-8833-9e3f99ed4f85","modified_on":"2025-04-02T06:22:41.850Z","modified_by_id":"0195d26a-2323-711c-8833-9e3f99ed4f85","deleted_on":null,"deleted_by_id":null,"tenant_id":"00000000-0000-0000-0000-000000000000","name":"Casper Group","type":"personal","status":"active","restricted":false,"review":null,"allowed_time_periods":null,"allowed_locations":null,"primary_user_id":"0195d26a-2323-711c-8833-9e3f99ed4f85","tier_id":"01928f2d-6756-755b-8a9d-c8094db2af27","primary_user":{"id":"0195d26a-2323-711c-8833-9e3f99ed4f85","meta":null,"created_on":"2025-03-26T12:25:26.050Z","created_by_id":null,"modified_on":"2025-04-02T18:47:49.641Z","modified_by_id":"0195d26a-2323-711c-8833-9e3f99ed4f85","deleted_on":null,"deleted_by_id":null,"tenant_id":"00000000-0000-0000-0000-000000000000","email":"boom@mailinator.com","status":"active","first_name":"Ibrahim","last_name":"Azeez","twofa_enabled":false,"last_active":"2025-04-02T06:23:33.966Z","last_ip":"162.158.186.230","allowed_ips":null,"last_timezone":"America/Los_Angeles","last_location":"","phone":"+2349058893837","review":null,"gender":"male","date_of_birth":"2001-06-16","cba_id":"140","photo_id":"0195d26a-e0b1-711c-8834-089bb7f9010d","referral_code":"PJ5R4O","referred_by":null,"has_pin":false,"has_password":false},"tier":{"id":"01928f2d-6756-755b-8a9d-c8094db2af27","meta":null,"created_on":"2024-10-15T07:56:10.789Z","created_by_id":null,"modified_on":"2025-01-23T15:14:24.513Z","modified_by_id":"01927265-4ed2-79cc-a0e6-e11339a359f3","deleted_on":null,"deleted_by_id":null,"tenant_id":"00000000-0000-0000-0000-000000000000","profile_type":"personal","name":"Tier 1","description":"Tier 1","level":1,"enabled":true,"balance_limit":2000000,"single_sending_limit":500000,"single_receiving_limit":500000,"period_sending_limit":500000,"period_sending_limit_time_unit":"day","period_receiving_limit":500000,"period_receiving_limit_time_unit":"day","requirements":[{"id":"019318f9-c895-744d-8f65-4636cc26dd1f","type_id":"019318f9-c895-744d-8f65-4636cc26dd1f","type":"verification","slug":"liveness","name":"Image liveness check","description":"This step helps us verify your identity by matching your image with the credentials you’ve provided."},{"id":"01933d40-03e5-777c-a6e6-bf72eb1c8968","type_id":"01933d40-03e5-777c-a6e6-bf72eb1c8968","type":"verification","slug":"bvn","name":"BVN","description":"BVN"},{"id":"019318f9-c895-744d-8f65-4636cc26dd1d","type_id":"019318f9-c895-744d-8f65-4636cc26dd1d","type":"verification","slug":"email","name":"Email","description":"Verify your email"},{"id":"019318f9-c895-744d-8f65-4636cc26dd1c","type_id":"019318f9-c895-744d-8f65-4636cc26dd1c","type":"verification","slug":"phone","name":"Phone","description":"Verify yor number"}]}},{"id":"0195cfc8-96c9-7bb0-a50f-9394dd5a9025","meta":{},"created_on":"2025-03-26T00:09:44.392Z","created_by_id":"0195002b-275c-7ffd-8a4c-1782a05709b6","modified_on":"2025-03-26T00:09:44.392Z","modified_by_id":null,"deleted_on":null,"deleted_by_id":null,"tenant_id":"00000000-0000-0000-0000-000000000000","name":"Fuan Frett","type":"personal","status":"active","restricted":false,"review":null,"allowed_time_periods":null,"allowed_locations":null,"primary_user_id":"0195002b-275c-7ffd-8a4c-1782a05709b6","tier_id":null,"primary_user":{"id":"0195002b-275c-7ffd-8a4c-1782a05709b6","meta":null,"created_on":"2025-02-13T16:36:23.003Z","created_by_id":null,"modified_on":"2025-03-26T00:09:55.680Z","modified_by_id":"0195002b-275c-7ffd-8a4c-1782a05709b6","deleted_on":null,"deleted_by_id":null,"tenant_id":"00000000-0000-0000-0000-000000000000","email":"fuan@yopmail.com","status":"active","first_name":"Fuan","last_name":"Frett","twofa_enabled":false,"last_active":"2025-03-26T00:09:55.680Z","last_ip":"172.68.42.119","allowed_ips":null,"last_timezone":"Africa/Johannesburg","last_location":"Johannesburg","phone":"+2348123470912","review":null,"gender":null,"date_of_birth":null,"cba_id":"82","photo_id":null,"referral_code":"7EENHW","referred_by":null,"has_pin":false,"has_password":false},"tier":null},{"id":"0195cfbe-06b8-7bb0-a50f-2e1c793b4a16","meta":{},"created_on":"2025-03-25T23:58:12.151Z","created_by_id":"01944a80-f3cb-7881-990d-98798437f1f3","modified_on":"2025-03-25T23:58:12.151Z","modified_by_id":null,"deleted_on":null,"deleted_by_id":null,"tenant_id":"00000000-0000-0000-0000-000000000000","name":"Haven Mitchell","type":"personal","status":"active","restricted":false,"review":null,"allowed_time_periods":null,"allowed_locations":null,"primary_user_id":"01944a80-f3cb-7881-990d-98798437f1f3","tier_id":null,"primary_user":{"id":"01944a80-f3cb-7881-990d-98798437f1f3","meta":null,"created_on":"2025-01-09T09:59:12.588Z","created_by_id":null,"modified_on":"2025-04-01T12:24:05.553Z","modified_by_id":"01944a80-f3cb-7881-990d-98798437f1f3","deleted_on":null,"deleted_by_id":null,"tenant_id":"00000000-0000-0000-0000-000000000000","email":"calista@mailinator.com","status":"active","first_name":"Haven","last_name":"Mitchell","twofa_enabled":false,"last_active":"2025-03-26T00:05:26.648Z","last_ip":"172.70.108.21","allowed_ips":null,"last_timezone":"Africa/Johannesburg","last_location":"Newark","phone":null,"review":null,"gender":null,"date_of_birth":null,"cba_id":null,"photo_id":null,"referral_code":"0YUT6L","referred_by":null,"has_pin":false,"has_password":false},"tier":null},{"id":"0195cfad-f6fb-7bb0-a50e-731747d1256d","meta":{},"created_on":"2025-03-25T23:40:39.546Z","created_by_id":"01953cbc-6903-733b-86b3-35f33447c487","modified_on":"2025-03-25T23:40:39.546Z","modified_by_id":null,"deleted_on":null,"deleted_by_id":null,"tenant_id":"00000000-0000-0000-0000-000000000000","name":"Azeez Ibrahim","type":"personal","status":"active","restricted":false,"review":null,"allowed_time_periods":null,"allowed_locations":null,"primary_user_id":"01953cbc-6903-733b-86b3-35f33447c487","tier_id":null,"primary_user":{"id":"01953cbc-6903-733b-86b3-35f33447c487","meta":null,"created_on":"2025-02-25T10:52:15.491Z","created_by_id":null,"modified_on":"2025-04-02T12:33:29.555Z","modified_by_id":"01953cbc-6903-733b-86b3-35f33447c487","deleted_on":null,"deleted_by_id":null,"tenant_id":"00000000-0000-0000-0000-000000000000","email":"testbus@yopmail.com","status":"active","first_name":"Azeez","last_name":"Ibrahim","twofa_enabled":false,"last_active":"2025-04-02T12:33:29.554Z","last_ip":"172.70.108.21","allowed_ips":null,"last_timezone":"America/New_York","last_location":"Newark","phone":"+2348023664977","review":null,"gender":null,"date_of_birth":null,"cba_id":"87","photo_id":null,"referral_code":"C2R71F","referred_by":null,"has_pin":false,"has_password":false},"tier":null},{"id":"0195cc93-0d28-788a-b419-581db4d71d02","meta":null,"created_on":"2025-03-25T09:12:24.104Z","created_by_id":"0195b9dd-d430-7447-8ef6-7008a4022429","modified_on":"2025-03-25T09:12:24.104Z","modified_by_id":null,"deleted_on":null,"deleted_by_id":null,"tenant_id":"00000000-0000-0000-0000-000000000000","name":"John Doe","type":"personal","status":"active","restricted":false,"review":null,"allowed_time_periods":null,"allowed_locations":null,"primary_user_id":"0195b9dd-d430-7447-8ef6-7008a4022429","tier_id":null,"primary_user":{"id":"0195b9dd-d430-7447-8ef6-7008a4022429","meta":null,"created_on":"2025-03-21T18:01:17.616Z","created_by_id":null,"modified_on":"2025-03-26T12:15:23.974Z","modified_by_id":"0195b9dd-d430-7447-8ef6-7008a4022429","deleted_on":null,"deleted_by_id":null,"tenant_id":"00000000-0000-0000-0000-000000000000","email":"john@mailinator.com","status":"active","first_name":"John","last_name":"Doe","twofa_enabled":false,"last_active":"2025-03-26T12:15:19.337Z","last_ip":"197.234.242.44","allowed_ips":null,"last_timezone":"Africa/Johannesburg","last_location":"Johannesburg","phone":"+2348000000010","review":null,"gender":null,"date_of_birth":null,"cba_id":null,"photo_id":null,"referral_code":"4LRQJ8","referred_by":null,"has_pin":false,"has_password":false},"tier":null},{"id":"0195cc38-313e-788a-b418-95a74ae8c80d","meta":null,"created_on":"2025-03-25T07:33:09.567Z","created_by_id":"0193cfd4-2de3-766c-bad1-9088f26479d9","modified_on":"2025-03-25T07:33:09.567Z","modified_by_id":null,"deleted_on":null,"deleted_by_id":null,"tenant_id":"00000000-0000-0000-0000-000000000000","name":"Amad Testing","type":"personal","status":"active","restricted":false,"review":null,"allowed_time_periods":null,"allowed_locations":null,"primary_user_id":"0193cfd4-2de3-766c-bad1-9088f26479d9","tier_id":null,"primary_user":{"id":"0193cfd4-2de3-766c-bad1-9088f26479d9","meta":null,"created_on":"2024-12-16T14:16:49.379Z","created_by_id":null,"modified_on":"2025-03-25T23:45:42.691Z","modified_by_id":"0193cfd4-2de3-766c-bad1-9088f26479d9","deleted_on":null,"deleted_by_id":null,"tenant_id":"00000000-0000-0000-0000-000000000000","email":"amad@mailinator.com","status":"active","first_name":"Amad","last_name":"Testing","twofa_enabled":false,"last_active":"2025-03-25T23:45:42.689Z","last_ip":"197.234.243.81","allowed_ips":null,"last_timezone":"Africa/Johannesburg","last_location":"Johannesburg","phone":null,"review":null,"gender":null,"date_of_birth":null,"cba_id":null,"photo_id":null,"referral_code":"WF4C8G","referred_by":null,"has_pin":false,"has_password":false},"tier":null}],"meta":{"page":1,"total_pages":26,"total_items":255}}