{"status":"success","data":[{"id":"01960c92-ff77-7004-9277-f23e47cd96e0","meta":{"pin":"1234","amount":10000000000000000,"logo_url":"djdjjde","biller_id":"mtn","option_id":"prepaid","category_id":"airtime","account_name":"djdjjd","account_number":"0000000040","liveness_session_id":""},"created_on":"2025-04-06T19:28:02.457Z","created_by_id":"019372de-17ef-7cc2-8fc0-43fe11ba042f","modified_on":"2025-04-06T19:28:02.457Z","modified_by_id":null,"deleted_on":null,"deleted_by_id":null,"tenant_id":"00000000-0000-0000-0000-000000000000","frequency":"once","type":"bill-payment","start_date":"2025-12-30T21:00:00.000Z","next_run_date":"2025-12-30T21:00:00.000Z","end_date":"2025-12-31T12:00:00.000Z","status":"active","amount":"0.00","profile_id":"0193a649-e3d0-7881-8b7f-2ef1d89a9aff","account_id":"0193a699-2f15-7881-8b7f-ae50980bcfad","user":{"id":"019372de-17ef-7cc2-8fc0-43fe11ba042f","meta":{},"created_on":"2024-11-28T13:02:58.029Z","created_by_id":null,"modified_on":"2025-04-09T18:44:45.821Z","modified_by_id":"019372de-17ef-7cc2-8fc0-43fe11ba042f","deleted_on":null,"deleted_by_id":null,"tenant_id":"00000000-0000-0000-0000-000000000000","email":"ismael@mailinator.com","status":"active","first_name":"Sunday","last_name":"Testing","twofa_enabled":false,"last_active":"2025-04-09T18:44:37.147Z","last_ip":"52.225.37.48","allowed_ips":null,"last_timezone":"America/Los_Angeles","last_location":"San Jose","phone":"+2348089722636","review":null,"gender":"male","date_of_birth":null,"cba_id":"31","photo_id":null,"referral_code":"7LD1QN","referred_by":null}},{"id":"01960c8d-f709-799d-938c-37efc84bf64d","meta":{"pin":"1234","amount":10000000000000000,"biller_id":"mtn","option_id":"prepaid","category_id":"airtime","account_number":"0000000040","liveness_session_id":""},"created_on":"2025-04-06T19:22:32.612Z","created_by_id":"019372de-17ef-7cc2-8fc0-43fe11ba042f","modified_on":"2025-04-06T19:22:32.612Z","modified_by_id":null,"deleted_on":null,"deleted_by_id":null,"tenant_id":"00000000-0000-0000-0000-000000000000","frequency":"once","type":"bill-payment","start_date":"2025-12-30T21:00:00.000Z","next_run_date":"2025-12-30T21:00:00.000Z","end_date":"2025-12-31T12:00:00.000Z","status":"active","amount":"0.00","profile_id":"0193a649-e3d0-7881-8b7f-2ef1d89a9aff","account_id":"0193a699-2f15-7881-8b7f-ae50980bcfad","user":{"id":"019372de-17ef-7cc2-8fc0-43fe11ba042f","meta":{},"created_on":"2024-11-28T13:02:58.029Z","created_by_id":null,"modified_on":"2025-04-09T18:44:45.821Z","modified_by_id":"019372de-17ef-7cc2-8fc0-43fe11ba042f","deleted_on":null,"deleted_by_id":null,"tenant_id":"00000000-0000-0000-0000-000000000000","email":"ismael@mailinator.com","status":"active","first_name":"Sunday","last_name":"Testing","twofa_enabled":false,"last_active":"2025-04-09T18:44:37.147Z","last_ip":"52.225.37.48","allowed_ips":null,"last_timezone":"America/Los_Angeles","last_location":"San Jose","phone":"+2348089722636","review":null,"gender":"male","date_of_birth":null,"cba_id":"31","photo_id":null,"referral_code":"7LD1QN","referred_by":null}},{"id":"01960c8d-bcc5-7777-9199-43d7a41df821","meta":{"pin":"1234","amount":10000000000000000,"biller_id":"mtn","option_id":"prepaid","category_id":"airtime","account_number":"0000000040","liveness_session_id":""},"created_on":"2025-04-06T19:22:17.659Z","created_by_id":"019372de-17ef-7cc2-8fc0-43fe11ba042f","modified_on":"2025-04-06T19:22:17.659Z","modified_by_id":null,"deleted_on":null,"deleted_by_id":null,"tenant_id":"00000000-0000-0000-0000-000000000000","frequency":"once","type":"bill-payment","start_date":"2025-12-30T21:00:00.000Z","next_run_date":"2025-12-30T21:00:00.000Z","end_date":"2025-12-31T12:00:00.000Z","status":"active","amount":"0.00","profile_id":"0193a649-e3d0-7881-8b7f-2ef1d89a9aff","account_id":"0193a699-2f15-7881-8b7f-ae50980bcfad","user":{"id":"019372de-17ef-7cc2-8fc0-43fe11ba042f","meta":{},"created_on":"2024-11-28T13:02:58.029Z","created_by_id":null,"modified_on":"2025-04-09T18:44:45.821Z","modified_by_id":"019372de-17ef-7cc2-8fc0-43fe11ba042f","deleted_on":null,"deleted_by_id":null,"tenant_id":"00000000-0000-0000-0000-000000000000","email":"ismael@mailinator.com","status":"active","first_name":"Sunday","last_name":"Testing","twofa_enabled":false,"last_active":"2025-04-09T18:44:37.147Z","last_ip":"52.225.37.48","allowed_ips":null,"last_timezone":"America/Los_Angeles","last_location":"San Jose","phone":"+2348089722636","review":null,"gender":"male","date_of_birth":null,"cba_id":"31","photo_id":null,"referral_code":"7LD1QN","referred_by":null}},{"id":"0194ffd4-fad8-7221-b999-431213eaa7bc","meta":{"pin":"1234","amount":100,"biller_id":"mtn","option_id":"","category_id":"airtime","account_number":"08138096550"},"created_on":"2025-02-13T15:02:15.513Z","created_by_id":"019372de-17ef-7cc2-8fc0-43fe11ba042f","modified_on":"2025-04-06T08:20:42.094Z","modified_by_id":null,"deleted_on":null,"deleted_by_id":null,"tenant_id":"00000000-0000-0000-0000-000000000000","frequency":"quarterly","type":"bill-payment","start_date":"2025-02-16T00:00:00.000Z","next_run_date":"2025-05-16T00:00:00.000Z","end_date":"2025-02-21T23:59:59.999Z","status":"completed","amount":"0.00","profile_id":"0193a649-e3d0-7881-8b7f-2ef1d89a9aff","account_id":"0193a699-2f15-7881-8b7f-ae50980bcfad","user":{"id":"019372de-17ef-7cc2-8fc0-43fe11ba042f","meta":{},"created_on":"2024-11-28T13:02:58.029Z","created_by_id":null,"modified_on":"2025-04-09T18:44:45.821Z","modified_by_id":"019372de-17ef-7cc2-8fc0-43fe11ba042f","deleted_on":null,"deleted_by_id":null,"tenant_id":"00000000-0000-0000-0000-000000000000","email":"ismael@mailinator.com","status":"active","first_name":"Sunday","last_name":"Testing","twofa_enabled":false,"last_active":"2025-04-09T18:44:37.147Z","last_ip":"52.225.37.48","allowed_ips":null,"last_timezone":"America/Los_Angeles","last_location":"San Jose","phone":"+2348089722636","review":null,"gender":"male","date_of_birth":null,"cba_id":"31","photo_id":null,"referral_code":"7LD1QN","referred_by":null}},{"id":"0194b561-f351-7aaf-88d1-e673ec4f6e5a","meta":{"pin":"1234","amount":100.23,"biller_id":"mtn","option_id":"","category_id":"airtime","account_number":"09055755671"},"created_on":"2025-01-30T04:04:42.962Z","created_by_id":"019372de-17ef-7cc2-8fc0-43fe11ba042f","modified_on":"2025-04-06T08:20:29.740Z","modified_by_id":"019372de-17ef-7cc2-8fc0-43fe11ba042f","deleted_on":null,"deleted_by_id":null,"tenant_id":"00000000-0000-0000-0000-000000000000","frequency":"daily","type":"bill-payment","start_date":"2025-02-10T21:00:00.000Z","next_run_date":"2025-04-06T21:00:00.000Z","end_date":"2025-02-20T00:00:00.000Z","status":"completed","amount":"10.00","profile_id":"0193a649-e3d0-7881-8b7f-2ef1d89a9aff","account_id":"0193a699-2f15-7881-8b7f-ae50980bcfad","user":{"id":"019372de-17ef-7cc2-8fc0-43fe11ba042f","meta":{},"created_on":"2024-11-28T13:02:58.029Z","created_by_id":null,"modified_on":"2025-04-09T18:44:45.821Z","modified_by_id":"019372de-17ef-7cc2-8fc0-43fe11ba042f","deleted_on":null,"deleted_by_id":null,"tenant_id":"00000000-0000-0000-0000-000000000000","email":"ismael@mailinator.com","status":"active","first_name":"Sunday","last_name":"Testing","twofa_enabled":false,"last_active":"2025-04-09T18:44:37.147Z","last_ip":"52.225.37.48","allowed_ips":null,"last_timezone":"America/Los_Angeles","last_location":"San Jose","phone":"+2348089722636","review":null,"gender":"male","date_of_birth":null,"cba_id":"31","photo_id":null,"referral_code":"7LD1QN","referred_by":null}},{"id":"0194b489-54dc-7aaf-88cd-68196ddcad9a","meta":{"pin":"1234","amount":2000,"biller_id":"9mobile","option_id":"2000","category_id":"databundle","account_number":"09086635565"},"created_on":"2025-01-30T00:08:06.619Z","created_by_id":"019372de-17ef-7cc2-8fc0-43fe11ba042f","modified_on":"2025-04-06T08:20:28.606Z","modified_by_id":null,"deleted_on":null,"deleted_by_id":null,"tenant_id":"00000000-0000-0000-0000-000000000000","frequency":"weekly","type":"bill-payment","start_date":"2025-01-30T01:08:04.495Z","next_run_date":"2025-04-10T01:08:04.495Z","end_date":"2025-01-31T23:59:59.999Z","status":"completed","amount":"0.00","profile_id":"0193a649-e3d0-7881-8b7f-2ef1d89a9aff","account_id":"0193a699-2f15-7881-8b7f-ae50980bcfad","user":{"id":"019372de-17ef-7cc2-8fc0-43fe11ba042f","meta":{},"created_on":"2024-11-28T13:02:58.029Z","created_by_id":null,"modified_on":"2025-04-09T18:44:45.821Z","modified_by_id":"019372de-17ef-7cc2-8fc0-43fe11ba042f","deleted_on":null,"deleted_by_id":null,"tenant_id":"00000000-0000-0000-0000-000000000000","email":"ismael@mailinator.com","status":"active","first_name":"Sunday","last_name":"Testing","twofa_enabled":false,"last_active":"2025-04-09T18:44:37.147Z","last_ip":"52.225.37.48","allowed_ips":null,"last_timezone":"America/Los_Angeles","last_location":"San Jose","phone":"+2348089722636","review":null,"gender":"male","date_of_birth":null,"cba_id":"31","photo_id":null,"referral_code":"7LD1QN","referred_by":null}},{"id":"01948f99-d53e-7cc6-93df-3aee2f089709","meta":{"pin":"1234","amount":2150,"biller_id":"dstv","option_id":"NLTESE36","category_id":"cabletv","account_number":"568976543"},"created_on":"2025-01-22T20:00:11.069Z","created_by_id":"019372de-17ef-7cc2-8fc0-43fe11ba042f","modified_on":"2025-04-06T08:20:26.323Z","modified_by_id":null,"deleted_on":null,"deleted_by_id":null,"tenant_id":"00000000-0000-0000-0000-000000000000","frequency":"monthly","type":"bill-payment","start_date":"2025-01-23T00:00:00.000Z","next_run_date":"2025-04-23T00:00:00.000Z","end_date":"2025-01-31T23:59:59.999Z","status":"completed","amount":"0.00","profile_id":"0193a649-e3d0-7881-8b7f-2ef1d89a9aff","account_id":"0193a699-2f15-7881-8b7f-ae50980bcfad","user":{"id":"019372de-17ef-7cc2-8fc0-43fe11ba042f","meta":{},"created_on":"2024-11-28T13:02:58.029Z","created_by_id":null,"modified_on":"2025-04-09T18:44:45.821Z","modified_by_id":"019372de-17ef-7cc2-8fc0-43fe11ba042f","deleted_on":null,"deleted_by_id":null,"tenant_id":"00000000-0000-0000-0000-000000000000","email":"ismael@mailinator.com","status":"active","first_name":"Sunday","last_name":"Testing","twofa_enabled":false,"last_active":"2025-04-09T18:44:37.147Z","last_ip":"52.225.37.48","allowed_ips":null,"last_timezone":"America/Los_Angeles","last_location":"San Jose","phone":"+2348089722636","review":null,"gender":"male","date_of_birth":null,"cba_id":"31","photo_id":null,"referral_code":"7LD1QN","referred_by":null}},{"id":"01948f98-0416-7cc6-93df-30e862e5c3b1","meta":{"pin":"1234","amount":100,"biller_id":"kedco_electric_postpaid","option_id":null,"category_id":"electricity","account_number":"7876"},"created_on":"2025-01-22T19:58:11.988Z","created_by_id":"019372de-17ef-7cc2-8fc0-43fe11ba042f","modified_on":"2025-04-06T08:20:25.912Z","modified_by_id":null,"deleted_on":null,"deleted_by_id":null,"tenant_id":"00000000-0000-0000-0000-000000000000","frequency":"weekly","type":"bill-payment","start_date":"2025-01-23T00:00:00.000Z","next_run_date":"2025-04-10T00:00:00.000Z","end_date":"2025-01-31T23:59:59.999Z","status":"completed","amount":"0.00","profile_id":"0193a649-e3d0-7881-8b7f-2ef1d89a9aff","account_id":"0193a699-2f15-7881-8b7f-ae50980bcfad","user":{"id":"019372de-17ef-7cc2-8fc0-43fe11ba042f","meta":{},"created_on":"2024-11-28T13:02:58.029Z","created_by_id":null,"modified_on":"2025-04-09T18:44:45.821Z","modified_by_id":"019372de-17ef-7cc2-8fc0-43fe11ba042f","deleted_on":null,"deleted_by_id":null,"tenant_id":"00000000-0000-0000-0000-000000000000","email":"ismael@mailinator.com","status":"active","first_name":"Sunday","last_name":"Testing","twofa_enabled":false,"last_active":"2025-04-09T18:44:37.147Z","last_ip":"52.225.37.48","allowed_ips":null,"last_timezone":"America/Los_Angeles","last_location":"San Jose","phone":"+2348089722636","review":null,"gender":"male","date_of_birth":null,"cba_id":"31","photo_id":null,"referral_code":"7LD1QN","referred_by":null}},{"id":"01948f55-aee3-7cc6-93db-7389bcf8da53","meta":{"pin":"1234","amount":100,"biller_id":"9mobile","option_id":"","category_id":"airtime","account_number":"08138096566"},"created_on":"2025-01-22T18:45:44.802Z","created_by_id":"019372de-17ef-7cc2-8fc0-43fe11ba042f","modified_on":"2025-04-06T08:20:19.837Z","modified_by_id":null,"deleted_on":null,"deleted_by_id":null,"tenant_id":"00000000-0000-0000-0000-000000000000","frequency":"daily","type":"bill-payment","start_date":"2025-01-23T00:00:00.000Z","next_run_date":"2025-04-07T00:00:00.000Z","end_date":"2025-01-30T23:59:59.999Z","status":"completed","amount":"0.00","profile_id":"0193a649-e3d0-7881-8b7f-2ef1d89a9aff","account_id":"0193a699-2f15-7881-8b7f-ae50980bcfad","user":{"id":"019372de-17ef-7cc2-8fc0-43fe11ba042f","meta":{},"created_on":"2024-11-28T13:02:58.029Z","created_by_id":null,"modified_on":"2025-04-09T18:44:45.821Z","modified_by_id":"019372de-17ef-7cc2-8fc0-43fe11ba042f","deleted_on":null,"deleted_by_id":null,"tenant_id":"00000000-0000-0000-0000-000000000000","email":"ismael@mailinator.com","status":"active","first_name":"Sunday","last_name":"Testing","twofa_enabled":false,"last_active":"2025-04-09T18:44:37.147Z","last_ip":"52.225.37.48","allowed_ips":null,"last_timezone":"America/Los_Angeles","last_location":"San Jose","phone":"+2348089722636","review":null,"gender":"male","date_of_birth":null,"cba_id":"31","photo_id":null,"referral_code":"7LD1QN","referred_by":null}},{"id":"01948f3a-c16d-7cc6-93d8-bd46dfe11b73","meta":{"pin":"1234","amount":50,"biller_id":"airtel","option_id":"49.99","category_id":"databundle","account_number":"8123478878"},"created_on":"2025-01-22T18:16:20.076Z","created_by_id":"019372de-17ef-7cc2-8fc0-43fe11ba042f","modified_on":"2025-04-06T08:20:19.441Z","modified_by_id":null,"deleted_on":null,"deleted_by_id":null,"tenant_id":"00000000-0000-0000-0000-000000000000","frequency":"daily","type":"bill-payment","start_date":"2025-01-22T19:15:56.839Z","next_run_date":"2025-04-06T19:15:56.839Z","end_date":"2025-01-30T23:59:59.999Z","status":"completed","amount":"0.00","profile_id":"0193a649-e3d0-7881-8b7f-2ef1d89a9aff","account_id":"0193a699-2f15-7881-8b7f-ae50980bcfad","user":{"id":"019372de-17ef-7cc2-8fc0-43fe11ba042f","meta":{},"created_on":"2024-11-28T13:02:58.029Z","created_by_id":null,"modified_on":"2025-04-09T18:44:45.821Z","modified_by_id":"019372de-17ef-7cc2-8fc0-43fe11ba042f","deleted_on":null,"deleted_by_id":null,"tenant_id":"00000000-0000-0000-0000-000000000000","email":"ismael@mailinator.com","status":"active","first_name":"Sunday","last_name":"Testing","twofa_enabled":false,"last_active":"2025-04-09T18:44:37.147Z","last_ip":"52.225.37.48","allowed_ips":null,"last_timezone":"America/Los_Angeles","last_location":"San Jose","phone":"+2348089722636","review":null,"gender":"male","date_of_birth":null,"cba_id":"31","photo_id":null,"referral_code":"7LD1QN","referred_by":null}}],"meta":{"page":1,"total_pages":6,"total_items":51}}