{"status":"success","data":[{"id":"0194e005-c7fd-7eec-9657-be9661e9509e","meta":{"rc-number":"0000000","business-name":"Neem","business-email":"hi@neem.co","business-phone":"+23409055755671","business-types":"Limited Liability Partnership (LLP)","business-address":"LAGOS, NIGERIA, LAGOS, Ibeju-Lekki, LAGOS"},"created_on":"2025-02-07T10:47:42.845Z","created_by_id":"0194e005-6d9f-7eec-9657-ac38032e964f","modified_on":"2025-02-07T11:15:40.408Z","modified_by_id":"0194e005-6d9f-7eec-9657-ac38032e964f","deleted_on":null,"deleted_by_id":null,"tenant_id":"00000000-0000-0000-0000-000000000000","name":"Profile","type":"business","status":"active","review":null,"allowed_time_periods":null,"primary_user_id":"0194e005-6d9f-7eec-9657-ac38032e964f","tier_id":"0193b49c-a302-711f-a668-d685d243452a","primary_user":{"id":"0194e005-6d9f-7eec-9657-ac38032e964f","meta":null,"created_on":"2025-02-07T10:47:19.711Z","created_by_id":null,"modified_on":"2025-02-07T11:15:52.718Z","modified_by_id":"0194e005-6d9f-7eec-9657-ac38032e964f","deleted_on":null,"deleted_by_id":null,"tenant_id":"00000000-0000-0000-0000-000000000000","email":"l.adeosun.la+3@gmail.com","status":"active","first_name":"Azeez","last_name":"ibrahim","twofa_enabled":false,"last_active":"2025-02-07T11:15:52.716Z","last_ip":"141.101.98.66","allowed_ips":null,"last_timezone":"Europe/London","last_location":"London","phone":"+23409059755671","review":null,"gender":null,"date_of_birth":null,"cba_id":null,"photo_id":null,"referral_code":"7AI7IT","allowed_locations":null,"referred_by":null},"tier":{"id":"0193b49c-a302-711f-a668-d685d243452a","meta":null,"created_on":"2024-12-11T07:26:24.515Z","created_by_id":null,"modified_on":"2024-12-11T07:26:24.515Z","modified_by_id":null,"deleted_on":null,"deleted_by_id":null,"tenant_id":"00000000-0000-0000-0000-000000000001","profile_type":"business","name":"Tier 1","description":"Tier 1","level":1,"enabled":true,"balance_limit":0,"single_sending_limit":500000,"single_receiving_limit":500000,"period_sending_limit":500000,"period_sending_limit_time_unit":"day","period_receiving_limit":500000,"period_receiving_limit_time_unit":"day","requirements":[]}},{"id":"0194ddfa-c80d-7eec-9656-182b181ae80c","meta":{"business-email":"adzino@yopmail.com","business-phone":"+2348089722636"},"created_on":"2025-02-07T01:16:27.532Z","created_by_id":"0194daec-e8fe-733a-b687-8516caa204d0","modified_on":"2025-02-07T01:16:27.532Z","modified_by_id":null,"deleted_on":null,"deleted_by_id":null,"tenant_id":"00000000-0000-0000-0000-000000000000","name":"Profile","type":"business","status":"active","review":null,"allowed_time_periods":null,"primary_user_id":"0194daec-e8fe-733a-b687-8516caa204d0","tier_id":null,"primary_user":{"id":"0194daec-e8fe-733a-b687-8516caa204d0","meta":null,"created_on":"2025-02-06T11:02:26.814Z","created_by_id":null,"modified_on":"2025-02-09T18:11:51.633Z","modified_by_id":"0194daec-e8fe-733a-b687-8516caa204d0","deleted_on":null,"deleted_by_id":null,"tenant_id":"00000000-0000-0000-0000-000000000000","email":"zedcd1-in@yopmail.com","status":"active","first_name":"Zedikiah","last_name":"Lee","twofa_enabled":false,"last_active":"2025-02-09T18:11:51.632Z","last_ip":"172.71.182.151","allowed_ips":null,"last_timezone":"Europe/Amsterdam","last_location":"Amsterdam","phone":"+2349015660262","review":null,"gender":null,"date_of_birth":null,"cba_id":null,"photo_id":null,"referral_code":"K5CI2W","allowed_locations":null,"referred_by":null},"tier":null},{"id":"0194dc18-9f42-7eec-964f-4d650385231b","meta":{"rc-number":"0000000","business-name":"Neem","business-email":"hi@neem.co","business-phone":"+23409055755671","business-types":"Sole Proprietorship","business-address":"LAGOS, NIGERIA, LAGOS, Ibeju-Lekki, LAGOS"},"created_on":"2025-02-06T16:29:48.738Z","created_by_id":"0194dc18-51f1-7eec-964f-3953d28b062f","modified_on":"2025-02-06T16:29:48.738Z","modified_by_id":null,"deleted_on":null,"deleted_by_id":null,"tenant_id":"00000000-0000-0000-0000-000000000000","name":"Profile","type":"business","status":"active","review":null,"allowed_time_periods":null,"primary_user_id":"0194dc18-51f1-7eec-964f-3953d28b062f","tier_id":null,"primary_user":{"id":"0194dc18-51f1-7eec-964f-3953d28b062f","meta":null,"created_on":"2025-02-06T16:29:28.941Z","created_by_id":null,"modified_on":"2025-02-06T16:44:22.763Z","modified_by_id":"0194dc18-51f1-7eec-964f-3953d28b062f","deleted_on":null,"deleted_by_id":null,"tenant_id":"00000000-0000-0000-0000-000000000000","email":"azeez+100@assurdly.com","status":"active","first_name":"Ibrahim","last_name":"Azeez","twofa_enabled":false,"last_active":"2025-02-06T16:44:22.762Z","last_ip":"172.70.91.139","allowed_ips":null,"last_timezone":"Europe/London","last_location":"London","phone":"+23409150755671","review":null,"gender":null,"date_of_birth":null,"cba_id":null,"photo_id":null,"referral_code":"L72FEV","allowed_locations":null,"referred_by":null},"tier":null},{"id":"0194bbe4-40c3-7448-b8f8-3eb770312a8a","meta":{"business-types":"Sole Proprietorship"},"created_on":"2025-01-31T10:24:45.762Z","created_by_id":"0194bbe4-1a10-7448-b8f8-28ea0803aa3d","modified_on":"2025-01-31T10:24:45.762Z","modified_by_id":null,"deleted_on":null,"deleted_by_id":null,"tenant_id":"00000000-0000-0000-0000-000000000000","name":"Profile","type":"business","status":"active","review":null,"allowed_time_periods":null,"primary_user_id":"0194bbe4-1a10-7448-b8f8-28ea0803aa3d","tier_id":null,"primary_user":{"id":"0194bbe4-1a10-7448-b8f8-28ea0803aa3d","meta":null,"created_on":"2025-01-31T10:24:35.856Z","created_by_id":null,"modified_on":"2025-01-31T10:39:21.463Z","modified_by_id":"0194bbe4-1a10-7448-b8f8-28ea0803aa3d","deleted_on":null,"deleted_by_id":null,"tenant_id":"00000000-0000-0000-0000-000000000000","email":"Arc@mailinator.com","status":"active","first_name":"Tyo","last_name":"Rat","twofa_enabled":false,"last_active":"2025-01-31T10:39:21.463Z","last_ip":"141.101.98.15","allowed_ips":null,"last_timezone":"Europe/London","last_location":"London","phone":"+2349055755598","review":null,"gender":null,"date_of_birth":null,"cba_id":null,"photo_id":null,"referral_code":"3999FE","allowed_locations":null,"referred_by":null},"tier":null},{"id":"0194b87b-a12c-7bb8-88e9-cec69df15839","meta":null,"created_on":"2025-01-30T18:31:37.516Z","created_by_id":"019372de-17ef-7cc2-8fc0-43fe11ba042f","modified_on":"2025-01-30T18:31:37.516Z","modified_by_id":null,"deleted_on":null,"deleted_by_id":null,"tenant_id":"00000000-0000-0000-0000-000000000000","name":"Nolan Group Business","type":"business","status":"active","review":null,"allowed_time_periods":null,"primary_user_id":"019372de-17ef-7cc2-8fc0-43fe11ba042f","tier_id":null,"primary_user":{"id":"019372de-17ef-7cc2-8fc0-43fe11ba042f","meta":{},"created_on":"2024-11-28T13:02:58.029Z","created_by_id":null,"modified_on":"2025-02-09T20:14:20.521Z","modified_by_id":"019372de-17ef-7cc2-8fc0-43fe11ba042f","deleted_on":null,"deleted_by_id":null,"tenant_id":"00000000-0000-0000-0000-000000000000","email":"ismael@mailinator.com","status":"active","first_name":"Sunday","last_name":"Testing","twofa_enabled":false,"last_active":"2025-02-09T20:14:18.238Z","last_ip":"172.71.254.144","allowed_ips":null,"last_timezone":"America/Chicago","last_location":"","phone":"+2349055755671","review":null,"gender":"male","date_of_birth":null,"cba_id":"31","photo_id":null,"referral_code":"7LD1QN","allowed_locations":[],"referred_by":null},"tier":null},{"id":"0194b83b-1cc6-7bb8-88e6-71e0925be9f0","meta":null,"created_on":"2025-01-30T17:21:09.317Z","created_by_id":"019372de-17ef-7cc2-8fc0-43fe11ba042f","modified_on":"2025-01-30T17:21:09.317Z","modified_by_id":null,"deleted_on":null,"deleted_by_id":null,"tenant_id":"00000000-0000-0000-0000-000000000000","name":"Spencer - Predovic Business","type":"business","status":"active","review":null,"allowed_time_periods":null,"primary_user_id":"019372de-17ef-7cc2-8fc0-43fe11ba042f","tier_id":null,"primary_user":{"id":"019372de-17ef-7cc2-8fc0-43fe11ba042f","meta":{},"created_on":"2024-11-28T13:02:58.029Z","created_by_id":null,"modified_on":"2025-02-09T20:14:20.521Z","modified_by_id":"019372de-17ef-7cc2-8fc0-43fe11ba042f","deleted_on":null,"deleted_by_id":null,"tenant_id":"00000000-0000-0000-0000-000000000000","email":"ismael@mailinator.com","status":"active","first_name":"Sunday","last_name":"Testing","twofa_enabled":false,"last_active":"2025-02-09T20:14:18.238Z","last_ip":"172.71.254.144","allowed_ips":null,"last_timezone":"America/Chicago","last_location":"","phone":"+2349055755671","review":null,"gender":"male","date_of_birth":null,"cba_id":"31","photo_id":null,"referral_code":"7LD1QN","allowed_locations":[],"referred_by":null},"tier":null},{"id":"0194b7e0-c8be-7bb8-88e2-bac9c622dea2","meta":null,"created_on":"2025-01-30T15:42:29.561Z","created_by_id":"019372de-17ef-7cc2-8fc0-43fe11ba042f","modified_on":"2025-01-30T15:42:29.561Z","modified_by_id":null,"deleted_on":null,"deleted_by_id":null,"tenant_id":"00000000-0000-0000-0000-000000000000","name":"Dibbert, Miller and Larson Business","type":"business","status":"active","review":null,"allowed_time_periods":null,"primary_user_id":"019372de-17ef-7cc2-8fc0-43fe11ba042f","tier_id":null,"primary_user":{"id":"019372de-17ef-7cc2-8fc0-43fe11ba042f","meta":{},"created_on":"2024-11-28T13:02:58.029Z","created_by_id":null,"modified_on":"2025-02-09T20:14:20.521Z","modified_by_id":"019372de-17ef-7cc2-8fc0-43fe11ba042f","deleted_on":null,"deleted_by_id":null,"tenant_id":"00000000-0000-0000-0000-000000000000","email":"ismael@mailinator.com","status":"active","first_name":"Sunday","last_name":"Testing","twofa_enabled":false,"last_active":"2025-02-09T20:14:18.238Z","last_ip":"172.71.254.144","allowed_ips":null,"last_timezone":"America/Chicago","last_location":"","phone":"+2349055755671","review":null,"gender":"male","date_of_birth":null,"cba_id":"31","photo_id":null,"referral_code":"7LD1QN","allowed_locations":[],"referred_by":null},"tier":null},{"id":"0194b71a-97ac-777c-b557-54c80931889c","meta":{"rc-number":"0000000","business-name":"Neem","business-email":"hi@neem.co","business-phone":"+2349055755671","business-types":"Cooperative (Co-op)","business-address":"LAGOS, NIGERIA, LAGOS, Ibeju-Lekki, LAGOS"},"created_on":"2025-01-30T12:06:00.875Z","created_by_id":"0194b717-9ed1-777c-b557-43f547e10344","modified_on":"2025-01-30T12:06:00.875Z","modified_by_id":null,"deleted_on":null,"deleted_by_id":null,"tenant_id":"00000000-0000-0000-0000-000000000000","name":"Profile","type":"business","status":"active","review":null,"allowed_time_periods":null,"primary_user_id":"0194b717-9ed1-777c-b557-43f547e10344","tier_id":null,"primary_user":{"id":"0194b717-9ed1-777c-b557-43f547e10344","meta":null,"created_on":"2025-01-30T12:02:46.095Z","created_by_id":null,"modified_on":"2025-01-30T12:10:09.097Z","modified_by_id":"0194b717-9ed1-777c-b557-43f547e10344","deleted_on":null,"deleted_by_id":null,"tenant_id":"00000000-0000-0000-0000-000000000000","email":"boye@mailinator.com","status":"active","first_name":"Boye","last_name":"Akinurun","twofa_enabled":false,"last_active":"2025-01-30T12:10:09.096Z","last_ip":"172.71.95.34","allowed_ips":null,"last_timezone":"Europe/Amsterdam","last_location":"Amsterdam","phone":"+2349055755674","review":null,"gender":null,"date_of_birth":null,"cba_id":null,"photo_id":null,"referral_code":"7UIO0P","allowed_locations":null,"referred_by":null},"tier":null},{"id":"0194b6df-0473-7998-ab21-483ef9eef8ec","meta":null,"created_on":"2025-01-30T11:00:56.561Z","created_by_id":"019372de-17ef-7cc2-8fc0-43fe11ba042f","modified_on":"2025-01-30T11:00:56.561Z","modified_by_id":null,"deleted_on":null,"deleted_by_id":null,"tenant_id":"00000000-0000-0000-0000-000000000000","name":"Kessler, Conroy and Padberg Business","type":"business","status":"active","review":null,"allowed_time_periods":null,"primary_user_id":"019372de-17ef-7cc2-8fc0-43fe11ba042f","tier_id":null,"primary_user":{"id":"019372de-17ef-7cc2-8fc0-43fe11ba042f","meta":{},"created_on":"2024-11-28T13:02:58.029Z","created_by_id":null,"modified_on":"2025-02-09T20:14:20.521Z","modified_by_id":"019372de-17ef-7cc2-8fc0-43fe11ba042f","deleted_on":null,"deleted_by_id":null,"tenant_id":"00000000-0000-0000-0000-000000000000","email":"ismael@mailinator.com","status":"active","first_name":"Sunday","last_name":"Testing","twofa_enabled":false,"last_active":"2025-02-09T20:14:18.238Z","last_ip":"172.71.254.144","allowed_ips":null,"last_timezone":"America/Chicago","last_location":"","phone":"+2349055755671","review":null,"gender":"male","date_of_birth":null,"cba_id":"31","photo_id":null,"referral_code":"7LD1QN","allowed_locations":[],"referred_by":null},"tier":null},{"id":"0194b6c5-30a1-7770-bdf4-75d9ad575863","meta":null,"created_on":"2025-01-30T10:32:43.937Z","created_by_id":"019372de-17ef-7cc2-8fc0-43fe11ba042f","modified_on":"2025-01-30T10:32:43.937Z","modified_by_id":null,"deleted_on":null,"deleted_by_id":null,"tenant_id":"00000000-0000-0000-0000-000000000000","name":"Dickens LLC Business","type":"business","status":"active","review":null,"allowed_time_periods":null,"primary_user_id":"019372de-17ef-7cc2-8fc0-43fe11ba042f","tier_id":null,"primary_user":{"id":"019372de-17ef-7cc2-8fc0-43fe11ba042f","meta":{},"created_on":"2024-11-28T13:02:58.029Z","created_by_id":null,"modified_on":"2025-02-09T20:14:20.521Z","modified_by_id":"019372de-17ef-7cc2-8fc0-43fe11ba042f","deleted_on":null,"deleted_by_id":null,"tenant_id":"00000000-0000-0000-0000-000000000000","email":"ismael@mailinator.com","status":"active","first_name":"Sunday","last_name":"Testing","twofa_enabled":false,"last_active":"2025-02-09T20:14:18.238Z","last_ip":"172.71.254.144","allowed_ips":null,"last_timezone":"America/Chicago","last_location":"","phone":"+2349055755671","review":null,"gender":"male","date_of_birth":null,"cba_id":"31","photo_id":null,"referral_code":"7LD1QN","allowed_locations":[],"referred_by":null},"tier":null}],"meta":{"page":1,"total_pages":12,"total_items":112}}