{"status":"success","data":[{"id":"01961bde-f88e-7aa9-8b90-e19ff7975893","meta":null,"created_on":"2025-04-09T18:45:19.631Z","created_by_id":"019372de-17ef-7cc2-8fc0-43fe11ba042f","modified_on":"2025-04-09T18:45:19.631Z","modified_by_id":null,"deleted_on":null,"deleted_by_id":null,"tenant_id":"00000000-0000-0000-0000-000000000000","bank_code":"000014","bank_name":"Access Bank","account_number":"1678264112","account_name":"John Doe","profile_id":"0193a649-e3d0-7881-8b7f-2ef1d89a9aff"},{"id":"01961b11-af09-7aa9-8b8c-6047b848cc37","meta":null,"created_on":"2025-04-09T15:01:05.931Z","created_by_id":"019372de-17ef-7cc2-8fc0-43fe11ba042f","modified_on":"2025-04-09T15:01:05.931Z","modified_by_id":null,"deleted_on":null,"deleted_by_id":null,"tenant_id":"00000000-0000-0000-0000-000000000000","bank_code":"000014","bank_name":"Access Bank","account_number":"1435561712","account_name":"John Doe","profile_id":"0193a649-e3d0-7881-8b7f-2ef1d89a9aff"},{"id":"01960e59-2e3a-7993-88f4-b680da91028f","meta":null,"created_on":"2025-04-07T03:44:07.737Z","created_by_id":"019372de-17ef-7cc2-8fc0-43fe11ba042f","modified_on":"2025-04-07T03:44:07.737Z","modified_by_id":null,"deleted_on":null,"deleted_by_id":null,"tenant_id":"00000000-0000-0000-0000-000000000000","bank_code":"000014","bank_name":"Access Bank","account_number":"1485088712","account_name":"John Doe","profile_id":"0193a649-e3d0-7881-8b7f-2ef1d89a9aff"},{"id":"01960cc5-d5e6-7993-88ed-c4d677e720d3","meta":null,"created_on":"2025-04-06T20:23:34.118Z","created_by_id":"019372de-17ef-7cc2-8fc0-43fe11ba042f","modified_on":"2025-04-06T20:23:34.118Z","modified_by_id":null,"deleted_on":null,"deleted_by_id":null,"tenant_id":"00000000-0000-0000-0000-000000000000","bank_code":"000014","bank_name":"Access Bank","account_number":"4817194712","account_name":"John Doe","profile_id":"0193a649-e3d0-7881-8b7f-2ef1d89a9aff"},{"id":"01960220-646a-7eeb-9126-6e72d8e5d31b","meta":null,"created_on":"2025-04-04T18:46:39.466Z","created_by_id":"019372de-17ef-7cc2-8fc0-43fe11ba042f","modified_on":"2025-04-04T18:46:39.466Z","modified_by_id":null,"deleted_on":null,"deleted_by_id":null,"tenant_id":"00000000-0000-0000-0000-000000000000","bank_code":"000014","bank_name":"Access Bank","account_number":"1924984812","account_name":"John Doe","profile_id":"0193a649-e3d0-7881-8b7f-2ef1d89a9aff"},{"id":"0195fb64-87d5-7887-ab31-f0809bfdb3cd","meta":null,"created_on":"2025-04-03T11:23:44.469Z","created_by_id":"019372de-17ef-7cc2-8fc0-43fe11ba042f","modified_on":"2025-04-03T11:23:44.469Z","modified_by_id":null,"deleted_on":null,"deleted_by_id":null,"tenant_id":"00000000-0000-0000-0000-000000000000","bank_code":"000014","bank_name":"Access Bank","account_number":"2105070812","account_name":"John Doe","profile_id":"0193a649-e3d0-7881-8b7f-2ef1d89a9aff"},{"id":"0195f7d3-01ce-7887-ab28-37e019e03ea2","meta":null,"created_on":"2025-04-02T18:45:55.787Z","created_by_id":"019372de-17ef-7cc2-8fc0-43fe11ba042f","modified_on":"2025-04-02T18:45:55.787Z","modified_by_id":null,"deleted_on":null,"deleted_by_id":null,"tenant_id":"00000000-0000-0000-0000-000000000000","bank_code":"000014","bank_name":"Access Bank","account_number":"9700928512","account_name":"John Doe","profile_id":"0193a649-e3d0-7881-8b7f-2ef1d89a9aff"},{"id":"0195f51d-9ef9-7887-ab17-cf83fd13f00c","meta":null,"created_on":"2025-04-02T06:08:34.042Z","created_by_id":"019372de-17ef-7cc2-8fc0-43fe11ba042f","modified_on":"2025-04-02T06:08:34.042Z","modified_by_id":null,"deleted_on":null,"deleted_by_id":null,"tenant_id":"00000000-0000-0000-0000-000000000000","bank_code":"000014","bank_name":"Access Bank","account_number":"5028534512","account_name":"John Doe","profile_id":"0193a649-e3d0-7881-8b7f-2ef1d89a9aff"},{"id":"0195f50e-481d-7887-ab14-87aeda8fc12d","meta":null,"created_on":"2025-04-02T05:51:48.766Z","created_by_id":"019372de-17ef-7cc2-8fc0-43fe11ba042f","modified_on":"2025-04-02T05:51:48.766Z","modified_by_id":null,"deleted_on":null,"deleted_by_id":null,"tenant_id":"00000000-0000-0000-0000-000000000000","bank_code":"000014","bank_name":"Access Bank","account_number":"3943498412","account_name":"John Doe","profile_id":"0193a649-e3d0-7881-8b7f-2ef1d89a9aff"},{"id":"0195f50e-46f7-7887-ab14-72ee9fa7d9d4","meta":null,"created_on":"2025-04-02T05:51:48.471Z","created_by_id":"019372de-17ef-7cc2-8fc0-43fe11ba042f","modified_on":"2025-04-02T05:51:48.471Z","modified_by_id":null,"deleted_on":null,"deleted_by_id":null,"tenant_id":"00000000-0000-0000-0000-000000000000","bank_code":"000014","bank_name":"Access Bank","account_number":"9731730512","account_name":"John Doe","profile_id":"0193a649-e3d0-7881-8b7f-2ef1d89a9aff"}],"meta":{"page":1,"total_pages":2,"total_items":17}}