{"status":"success","data":[{"id":"019503f9-15ac-722d-940a-b20eeaf87a6e","meta":null,"created_on":"2025-02-14T10:20:10.540Z","created_by_id":"019503f8-cee9-722d-940a-99a5d7eacff6","modified_on":"2025-02-14T10:20:10.540Z","modified_by_id":null,"deleted_on":null,"deleted_by_id":null,"tenant_id":"00000000-0000-0000-0000-000000000000","name":"connect Ted","type":"personal","status":"active","review":null,"allowed_time_periods":null,"primary_user_id":"019503f8-cee9-722d-940a-99a5d7eacff6","tier_id":null,"primary_user":{"id":"019503f8-cee9-722d-940a-99a5d7eacff6","meta":null,"created_on":"2025-02-14T10:19:52.425Z","created_by_id":null,"modified_on":"2025-02-14T10:27:22.618Z","modified_by_id":"019503f8-cee9-722d-940a-99a5d7eacff6","deleted_on":null,"deleted_by_id":null,"tenant_id":"00000000-0000-0000-0000-000000000000","email":"slayer@yopmail.com","status":"active","first_name":"connect","last_name":"Ted","twofa_enabled":false,"last_active":"2025-02-14T10:27:22.616Z","last_ip":"172.71.178.44","allowed_ips":null,"last_timezone":"Europe/London","last_location":"London","phone":"+2348138092345","review":null,"gender":null,"date_of_birth":null,"cba_id":null,"photo_id":null,"referral_code":"0OUEU3","allowed_locations":null,"referred_by":null},"tier":null},{"id":"01950051-9759-7ffd-8a50-c943078198e5","meta":null,"created_on":"2025-02-13T17:18:22.041Z","created_by_id":"01950051-80e7-7ffd-8a50-b31424f60486","modified_on":"2025-02-13T17:29:19.695Z","modified_by_id":"01950051-80e7-7ffd-8a50-b31424f60486","deleted_on":null,"deleted_by_id":null,"tenant_id":"00000000-0000-0000-0000-000000000000","name":"Adedeji Olowe","type":"personal","status":"active","review":null,"allowed_time_periods":null,"primary_user_id":"01950051-80e7-7ffd-8a50-b31424f60486","tier_id":"01928f2d-6756-755b-8a9d-c8094db2af27","primary_user":{"id":"01950051-80e7-7ffd-8a50-b31424f60486","meta":null,"created_on":"2025-02-13T17:18:16.296Z","created_by_id":null,"modified_on":"2025-02-13T17:41:31.619Z","modified_by_id":"01950051-80e7-7ffd-8a50-b31424f60486","deleted_on":null,"deleted_by_id":null,"tenant_id":"00000000-0000-0000-0000-000000000000","email":"adedeji@olowe.com","status":"active","first_name":"Adedeji","last_name":"Olowe","twofa_enabled":false,"last_active":"2025-02-13T17:41:31.599Z","last_ip":"172.69.195.22","allowed_ips":null,"last_timezone":"Europe/London","last_location":"London","phone":"+2347074138291","review":null,"gender":"male","date_of_birth":"1978-01-06","cba_id":"61","photo_id":null,"referral_code":"JCPM41","allowed_locations":null,"referred_by":null},"tier":{"id":"01928f2d-6756-755b-8a9d-c8094db2af27","meta":null,"created_on":"2024-10-15T07:56:10.789Z","created_by_id":null,"modified_on":"2025-01-23T15:14:24.513Z","modified_by_id":"01927265-4ed2-79cc-a0e6-e11339a359f3","deleted_on":null,"deleted_by_id":null,"tenant_id":"00000000-0000-0000-0000-000000000000","profile_type":"personal","name":"Tier 1","description":"Tier 1","level":1,"enabled":true,"balance_limit":2000000,"single_sending_limit":500000,"single_receiving_limit":500000,"period_sending_limit":500000,"period_sending_limit_time_unit":"day","period_receiving_limit":500000,"period_receiving_limit_time_unit":"day","requirements":[{"id":"019318f9-c895-744d-8f65-4636cc26dd1d","type_id":"019318f9-c895-744d-8f65-4636cc26dd1d","type":"verification","slug":"email","name":"Email","description":"Verify your email"},{"id":"019318f9-c895-744d-8f65-4636cc26dd1f","type_id":"019318f9-c895-744d-8f65-4636cc26dd1f","type":"verification","slug":"liveness","name":"Image liveness check","description":"This step helps us verify your identity by matching your image with the credentials you’ve provided."},{"id":"01933d40-03e5-777c-a6e6-bf72eb1c8968","type_id":"01933d40-03e5-777c-a6e6-bf72eb1c8968","type":"verification","slug":"bvn","name":"BVN","description":"BVN"},{"id":"019318f9-c895-744d-8f65-4636cc26dd1c","type_id":"019318f9-c895-744d-8f65-4636cc26dd1c","type":"verification","slug":"phone","name":"Phone","description":"Verify yor number"}]}},{"id":"0195004c-6841-7ffd-8a4f-bd6ec6186595","meta":null,"created_on":"2025-02-13T17:12:42.305Z","created_by_id":"0195004c-036c-7ffd-8a4f-a35511304995","modified_on":"2025-02-13T17:19:41.798Z","modified_by_id":"0195004c-036c-7ffd-8a4f-a35511304995","deleted_on":null,"deleted_by_id":null,"tenant_id":"00000000-0000-0000-0000-000000000000","name":"Doyin Adebiyi","type":"personal","status":"active","review":null,"allowed_time_periods":null,"primary_user_id":"0195004c-036c-7ffd-8a4f-a35511304995","tier_id":"01928f2d-6756-755b-8a9d-c8094db2af27","primary_user":{"id":"0195004c-036c-7ffd-8a4f-a35511304995","meta":null,"created_on":"2025-02-13T17:12:16.492Z","created_by_id":null,"modified_on":"2025-02-13T18:03:26.987Z","modified_by_id":"0195004c-036c-7ffd-8a4f-a35511304995","deleted_on":null,"deleted_by_id":null,"tenant_id":"00000000-0000-0000-0000-000000000000","email":"doyin@cashdrive.co","status":"active","first_name":"Doyin","last_name":"Adebiyi","twofa_enabled":false,"last_active":"2025-02-13T18:03:26.986Z","last_ip":"172.69.222.82","allowed_ips":null,"last_timezone":"Europe/Paris","last_location":"Paris","phone":"+2349070071555","review":null,"gender":"male","date_of_birth":"1978-07-17","cba_id":"59","photo_id":null,"referral_code":"M50HV4","allowed_locations":null,"referred_by":null},"tier":{"id":"01928f2d-6756-755b-8a9d-c8094db2af27","meta":null,"created_on":"2024-10-15T07:56:10.789Z","created_by_id":null,"modified_on":"2025-01-23T15:14:24.513Z","modified_by_id":"01927265-4ed2-79cc-a0e6-e11339a359f3","deleted_on":null,"deleted_by_id":null,"tenant_id":"00000000-0000-0000-0000-000000000000","profile_type":"personal","name":"Tier 1","description":"Tier 1","level":1,"enabled":true,"balance_limit":2000000,"single_sending_limit":500000,"single_receiving_limit":500000,"period_sending_limit":500000,"period_sending_limit_time_unit":"day","period_receiving_limit":500000,"period_receiving_limit_time_unit":"day","requirements":[{"id":"019318f9-c895-744d-8f65-4636cc26dd1f","type_id":"019318f9-c895-744d-8f65-4636cc26dd1f","type":"verification","slug":"liveness","name":"Image liveness check","description":"This step helps us verify your identity by matching your image with the credentials you’ve provided."},{"id":"019318f9-c895-744d-8f65-4636cc26dd1d","type_id":"019318f9-c895-744d-8f65-4636cc26dd1d","type":"verification","slug":"email","name":"Email","description":"Verify your email"},{"id":"019318f9-c895-744d-8f65-4636cc26dd1c","type_id":"019318f9-c895-744d-8f65-4636cc26dd1c","type":"verification","slug":"phone","name":"Phone","description":"Verify yor number"},{"id":"01933d40-03e5-777c-a6e6-bf72eb1c8968","type_id":"01933d40-03e5-777c-a6e6-bf72eb1c8968","type":"verification","slug":"bvn","name":"BVN","description":"BVN"}]}},{"id":"0195004a-f1c4-7ffd-8a4f-5381e1303a6a","meta":null,"created_on":"2025-02-13T17:11:06.435Z","created_by_id":"01950049-eabf-7ffd-8a4e-d37e62bc74bd","modified_on":"2025-02-13T17:18:03.298Z","modified_by_id":"01950049-eabf-7ffd-8a4e-d37e62bc74bd","deleted_on":null,"deleted_by_id":null,"tenant_id":"00000000-0000-0000-0000-000000000000","name":"Bukola Makinde","type":"personal","status":"active","review":null,"allowed_time_periods":null,"primary_user_id":"01950049-eabf-7ffd-8a4e-d37e62bc74bd","tier_id":"01928f2d-6756-755b-8a9d-c8094db2af27","primary_user":{"id":"01950049-eabf-7ffd-8a4e-d37e62bc74bd","meta":null,"created_on":"2025-02-13T17:09:59.103Z","created_by_id":null,"modified_on":"2025-02-13T18:00:39.231Z","modified_by_id":"01950049-eabf-7ffd-8a4e-d37e62bc74bd","deleted_on":null,"deleted_by_id":null,"tenant_id":"00000000-0000-0000-0000-000000000000","email":"bukola.makinde@cashdrive.co","status":"active","first_name":"Bukola","last_name":"Makinde","twofa_enabled":false,"last_active":"2025-02-13T18:00:39.230Z","last_ip":"141.101.98.203","allowed_ips":null,"last_timezone":"Europe/London","last_location":"London","phone":"+23408069434787","review":null,"gender":"male","date_of_birth":"1992-04-10","cba_id":"58","photo_id":null,"referral_code":"ERYSZ6","allowed_locations":null,"referred_by":null},"tier":{"id":"01928f2d-6756-755b-8a9d-c8094db2af27","meta":null,"created_on":"2024-10-15T07:56:10.789Z","created_by_id":null,"modified_on":"2025-01-23T15:14:24.513Z","modified_by_id":"01927265-4ed2-79cc-a0e6-e11339a359f3","deleted_on":null,"deleted_by_id":null,"tenant_id":"00000000-0000-0000-0000-000000000000","profile_type":"personal","name":"Tier 1","description":"Tier 1","level":1,"enabled":true,"balance_limit":2000000,"single_sending_limit":500000,"single_receiving_limit":500000,"period_sending_limit":500000,"period_sending_limit_time_unit":"day","period_receiving_limit":500000,"period_receiving_limit_time_unit":"day","requirements":[{"id":"01933d40-03e5-777c-a6e6-bf72eb1c8968","type_id":"01933d40-03e5-777c-a6e6-bf72eb1c8968","type":"verification","slug":"bvn","name":"BVN","description":"BVN"},{"id":"019318f9-c895-744d-8f65-4636cc26dd1f","type_id":"019318f9-c895-744d-8f65-4636cc26dd1f","type":"verification","slug":"liveness","name":"Image liveness check","description":"This step helps us verify your identity by matching your image with the credentials you’ve provided."},{"id":"019318f9-c895-744d-8f65-4636cc26dd1d","type_id":"019318f9-c895-744d-8f65-4636cc26dd1d","type":"verification","slug":"email","name":"Email","description":"Verify your email"},{"id":"019318f9-c895-744d-8f65-4636cc26dd1c","type_id":"019318f9-c895-744d-8f65-4636cc26dd1c","type":"verification","slug":"phone","name":"Phone","description":"Verify yor number"}]}},{"id":"0195004a-e944-7ffd-8a4f-0e6ac6a30be4","meta":null,"created_on":"2025-02-13T17:11:04.260Z","created_by_id":"0195004a-8bbc-7ffd-8a4e-f6733c7c794d","modified_on":"2025-02-13T17:20:06.597Z","modified_by_id":"0195004a-8bbc-7ffd-8a4e-f6733c7c794d","deleted_on":null,"deleted_by_id":null,"tenant_id":"00000000-0000-0000-0000-000000000000","name":"Jerry Ehanmo","type":"personal","status":"active","review":null,"allowed_time_periods":null,"primary_user_id":"0195004a-8bbc-7ffd-8a4e-f6733c7c794d","tier_id":"01928f2d-6756-755b-8a9d-c8094db2af27","primary_user":{"id":"0195004a-8bbc-7ffd-8a4e-f6733c7c794d","meta":null,"created_on":"2025-02-13T17:10:40.316Z","created_by_id":null,"modified_on":"2025-02-13T17:36:19.629Z","modified_by_id":"0195004a-8bbc-7ffd-8a4e-f6733c7c794d","deleted_on":null,"deleted_by_id":null,"tenant_id":"00000000-0000-0000-0000-000000000000","email":"jerry@cashdrive.co","status":"active","first_name":"Jerry","last_name":"Ehanmo","twofa_enabled":false,"last_active":"2025-02-13T17:36:19.624Z","last_ip":"172.69.43.170","allowed_ips":null,"last_timezone":"Europe/London","last_location":"London","phone":"+2348098500675","review":null,"gender":"male","date_of_birth":"1981-02-25","cba_id":"60","photo_id":null,"referral_code":"I72QDV","allowed_locations":null,"referred_by":null},"tier":{"id":"01928f2d-6756-755b-8a9d-c8094db2af27","meta":null,"created_on":"2024-10-15T07:56:10.789Z","created_by_id":null,"modified_on":"2025-01-23T15:14:24.513Z","modified_by_id":"01927265-4ed2-79cc-a0e6-e11339a359f3","deleted_on":null,"deleted_by_id":null,"tenant_id":"00000000-0000-0000-0000-000000000000","profile_type":"personal","name":"Tier 1","description":"Tier 1","level":1,"enabled":true,"balance_limit":2000000,"single_sending_limit":500000,"single_receiving_limit":500000,"period_sending_limit":500000,"period_sending_limit_time_unit":"day","period_receiving_limit":500000,"period_receiving_limit_time_unit":"day","requirements":[{"id":"019318f9-c895-744d-8f65-4636cc26dd1c","type_id":"019318f9-c895-744d-8f65-4636cc26dd1c","type":"verification","slug":"phone","name":"Phone","description":"Verify yor number"},{"id":"019318f9-c895-744d-8f65-4636cc26dd1d","type_id":"019318f9-c895-744d-8f65-4636cc26dd1d","type":"verification","slug":"email","name":"Email","description":"Verify your email"},{"id":"019318f9-c895-744d-8f65-4636cc26dd1f","type_id":"019318f9-c895-744d-8f65-4636cc26dd1f","type":"verification","slug":"liveness","name":"Image liveness check","description":"This step helps us verify your identity by matching your image with the credentials you’ve provided."},{"id":"01933d40-03e5-777c-a6e6-bf72eb1c8968","type_id":"01933d40-03e5-777c-a6e6-bf72eb1c8968","type":"verification","slug":"bvn","name":"BVN","description":"BVN"}]}},{"id":"0194fffd-02d8-7ffd-8a4a-16ddf6002a67","meta":null,"created_on":"2025-02-13T15:45:59.001Z","created_by_id":"0194fffc-b707-7ffd-8a49-bade06ffdb55","modified_on":"2025-02-13T15:45:59.001Z","modified_by_id":null,"deleted_on":null,"deleted_by_id":null,"tenant_id":"00000000-0000-0000-0000-000000000000","name":"Hettinger Kari","type":"personal","status":"active","review":null,"allowed_time_periods":null,"primary_user_id":"0194fffc-b707-7ffd-8a49-bade06ffdb55","tier_id":null,"primary_user":{"id":"0194fffc-b707-7ffd-8a49-bade06ffdb55","meta":null,"created_on":"2025-02-13T15:45:39.592Z","created_by_id":null,"modified_on":"2025-02-13T18:44:27.419Z","modified_by_id":"0194fffc-b707-7ffd-8a49-bade06ffdb55","deleted_on":null,"deleted_by_id":null,"tenant_id":"00000000-0000-0000-0000-000000000000","email":"Yolanda@mailinator.com","status":"active","first_name":"Hettinger","last_name":"Kari","twofa_enabled":false,"last_active":"2025-02-13T16:53:24.998Z","last_ip":"172.68.186.58","allowed_ips":null,"last_timezone":"Africa/Lagos","last_location":"Cape Town","phone":null,"review":null,"gender":null,"date_of_birth":null,"cba_id":null,"photo_id":null,"referral_code":"FDG4EP","allowed_locations":null,"referred_by":"019372de-17ef-7cc2-8fc0-43fe11ba042f"},"tier":null},{"id":"0194fff5-b866-7ffd-8a48-785c2f2cbff6","meta":null,"created_on":"2025-02-13T15:38:01.162Z","created_by_id":"0194fff5-a428-7ffd-8a48-675c04748bce","modified_on":"2025-02-13T15:39:08.097Z","modified_by_id":"0194fff5-a428-7ffd-8a48-675c04748bce","deleted_on":null,"deleted_by_id":null,"tenant_id":"00000000-0000-0000-0000-000000000000","name":"cook Azeez","type":"personal","status":"active","review":null,"allowed_time_periods":null,"primary_user_id":"0194fff5-a428-7ffd-8a48-675c04748bce","tier_id":"01928f2d-6756-755b-8a9d-c8094db2af27","primary_user":{"id":"0194fff5-a428-7ffd-8a48-675c04748bce","meta":null,"created_on":"2025-02-13T15:37:56.009Z","created_by_id":null,"modified_on":"2025-02-13T15:43:17.131Z","modified_by_id":"0194fff5-a428-7ffd-8a48-675c04748bce","deleted_on":null,"deleted_by_id":null,"tenant_id":"00000000-0000-0000-0000-000000000000","email":"cook@yopmail.com","status":"active","first_name":"cook","last_name":"Azeez","twofa_enabled":false,"last_active":"2025-02-13T15:43:17.129Z","last_ip":"172.70.47.76","allowed_ips":null,"last_timezone":"Europe/Amsterdam","last_location":"Amsterdam","phone":"+2348123478657","review":null,"gender":"female","date_of_birth":"1994-06-20","cba_id":"56","photo_id":null,"referral_code":"BX5NGY","allowed_locations":null,"referred_by":null},"tier":{"id":"01928f2d-6756-755b-8a9d-c8094db2af27","meta":null,"created_on":"2024-10-15T07:56:10.789Z","created_by_id":null,"modified_on":"2025-01-23T15:14:24.513Z","modified_by_id":"01927265-4ed2-79cc-a0e6-e11339a359f3","deleted_on":null,"deleted_by_id":null,"tenant_id":"00000000-0000-0000-0000-000000000000","profile_type":"personal","name":"Tier 1","description":"Tier 1","level":1,"enabled":true,"balance_limit":2000000,"single_sending_limit":500000,"single_receiving_limit":500000,"period_sending_limit":500000,"period_sending_limit_time_unit":"day","period_receiving_limit":500000,"period_receiving_limit_time_unit":"day","requirements":[{"id":"01933d40-03e5-777c-a6e6-bf72eb1c8968","type_id":"01933d40-03e5-777c-a6e6-bf72eb1c8968","type":"verification","slug":"bvn","name":"BVN","description":"BVN"},{"id":"019318f9-c895-744d-8f65-4636cc26dd1c","type_id":"019318f9-c895-744d-8f65-4636cc26dd1c","type":"verification","slug":"phone","name":"Phone","description":"Verify yor number"},{"id":"019318f9-c895-744d-8f65-4636cc26dd1d","type_id":"019318f9-c895-744d-8f65-4636cc26dd1d","type":"verification","slug":"email","name":"Email","description":"Verify your email"},{"id":"019318f9-c895-744d-8f65-4636cc26dd1f","type_id":"019318f9-c895-744d-8f65-4636cc26dd1f","type":"verification","slug":"liveness","name":"Image liveness check","description":"This step helps us verify your identity by matching your image with the credentials you’ve provided."}]}},{"id":"0194ffe7-e224-7bb8-b843-bc858680dfcd","meta":null,"created_on":"2025-02-13T15:22:54.372Z","created_by_id":"0194ffe7-ceda-7bb8-b843-a65e8ddac67f","modified_on":"2025-02-13T15:24:11.940Z","modified_by_id":"0194ffe7-ceda-7bb8-b843-a65e8ddac67f","deleted_on":null,"deleted_by_id":null,"tenant_id":"00000000-0000-0000-0000-000000000000","name":"Ibrahim Azeez","type":"personal","status":"active","review":null,"allowed_time_periods":null,"primary_user_id":"0194ffe7-ceda-7bb8-b843-a65e8ddac67f","tier_id":"01928f2d-6756-755b-8a9d-c8094db2af27","primary_user":{"id":"0194ffe7-ceda-7bb8-b843-a65e8ddac67f","meta":null,"created_on":"2025-02-13T15:22:49.435Z","created_by_id":null,"modified_on":"2025-02-13T15:32:54.543Z","modified_by_id":"0194ffe7-ceda-7bb8-b843-a65e8ddac67f","deleted_on":null,"deleted_by_id":null,"tenant_id":"00000000-0000-0000-0000-000000000000","email":"zii@mailinator.com","status":"active","first_name":"Ibrahim","last_name":"Azeez","twofa_enabled":false,"last_active":"2025-02-13T15:32:54.541Z","last_ip":"172.68.186.163","allowed_ips":null,"last_timezone":"Africa/Johannesburg","last_location":"Cape Town","phone":"+23407055755677","review":null,"gender":"male","date_of_birth":"2001-06-16","cba_id":"55","photo_id":null,"referral_code":"F19ZA5","allowed_locations":null,"referred_by":null},"tier":{"id":"01928f2d-6756-755b-8a9d-c8094db2af27","meta":null,"created_on":"2024-10-15T07:56:10.789Z","created_by_id":null,"modified_on":"2025-01-23T15:14:24.513Z","modified_by_id":"01927265-4ed2-79cc-a0e6-e11339a359f3","deleted_on":null,"deleted_by_id":null,"tenant_id":"00000000-0000-0000-0000-000000000000","profile_type":"personal","name":"Tier 1","description":"Tier 1","level":1,"enabled":true,"balance_limit":2000000,"single_sending_limit":500000,"single_receiving_limit":500000,"period_sending_limit":500000,"period_sending_limit_time_unit":"day","period_receiving_limit":500000,"period_receiving_limit_time_unit":"day","requirements":[{"id":"01933d40-03e5-777c-a6e6-bf72eb1c8968","type_id":"01933d40-03e5-777c-a6e6-bf72eb1c8968","type":"verification","slug":"bvn","name":"BVN","description":"BVN"},{"id":"019318f9-c895-744d-8f65-4636cc26dd1f","type_id":"019318f9-c895-744d-8f65-4636cc26dd1f","type":"verification","slug":"liveness","name":"Image liveness check","description":"This step helps us verify your identity by matching your image with the credentials you’ve provided."},{"id":"019318f9-c895-744d-8f65-4636cc26dd1d","type_id":"019318f9-c895-744d-8f65-4636cc26dd1d","type":"verification","slug":"email","name":"Email","description":"Verify your email"},{"id":"019318f9-c895-744d-8f65-4636cc26dd1c","type_id":"019318f9-c895-744d-8f65-4636cc26dd1c","type":"verification","slug":"phone","name":"Phone","description":"Verify yor number"}]}},{"id":"0194ffe5-da43-7bb8-b843-17825a8153ff","meta":null,"created_on":"2025-02-13T15:20:41.283Z","created_by_id":"0194ffe5-bb37-7bb8-b842-fc1e61ad333f","modified_on":"2025-02-13T15:20:41.283Z","modified_by_id":null,"deleted_on":null,"deleted_by_id":null,"tenant_id":"00000000-0000-0000-0000-000000000000","name":"Ibrahim Azeez","type":"personal","status":"active","review":null,"allowed_time_periods":null,"primary_user_id":"0194ffe5-bb37-7bb8-b842-fc1e61ad333f","tier_id":null,"primary_user":{"id":"0194ffe5-bb37-7bb8-b842-fc1e61ad333f","meta":null,"created_on":"2025-02-13T15:20:33.336Z","created_by_id":null,"modified_on":"2025-02-13T15:32:02.170Z","modified_by_id":"0194ffe5-bb37-7bb8-b842-fc1e61ad333f","deleted_on":null,"deleted_by_id":null,"tenant_id":"00000000-0000-0000-0000-000000000000","email":"rita@yopmail.com","status":"active","first_name":"Ibrahim","last_name":"Azeez","twofa_enabled":false,"last_active":"2025-02-13T15:32:02.168Z","last_ip":"172.71.178.41","allowed_ips":null,"last_timezone":"Europe/London","last_location":"London","phone":"+23407055755558","review":null,"gender":null,"date_of_birth":null,"cba_id":null,"photo_id":null,"referral_code":"OHO9EJ","allowed_locations":null,"referred_by":null},"tier":null},{"id":"0194ffdf-a392-7cc6-a4e6-b4fd610ba17e","meta":null,"created_on":"2025-02-13T15:13:54.062Z","created_by_id":"0194ffdf-8a71-7bb8-b842-765f8b1b36e7","modified_on":"2025-02-13T15:21:28.340Z","modified_by_id":"0194ffdf-8a71-7bb8-b842-765f8b1b36e7","deleted_on":null,"deleted_by_id":null,"tenant_id":"00000000-0000-0000-0000-000000000000","name":"Ibrahim Azeez","type":"personal","status":"active","review":null,"allowed_time_periods":null,"primary_user_id":"0194ffdf-8a71-7bb8-b842-765f8b1b36e7","tier_id":"01928f2d-6756-755b-8a9d-c8094db2af27","primary_user":{"id":"0194ffdf-8a71-7bb8-b842-765f8b1b36e7","meta":null,"created_on":"2025-02-13T15:13:47.561Z","created_by_id":null,"modified_on":"2025-02-13T15:21:46.896Z","modified_by_id":"0194ffdf-8a71-7bb8-b842-765f8b1b36e7","deleted_on":null,"deleted_by_id":null,"tenant_id":"00000000-0000-0000-0000-000000000000","email":"kola@mailinator.com","status":"active","first_name":"Ibrahim","last_name":"Azeez","twofa_enabled":false,"last_active":"2025-02-13T15:21:46.893Z","last_ip":"197.234.242.92","allowed_ips":null,"last_timezone":"Africa/Johannesburg","last_location":"Johannesburg","phone":"+23407056655671","review":null,"gender":"male","date_of_birth":"2001-06-16","cba_id":"54","photo_id":null,"referral_code":"LWLHE2","allowed_locations":null,"referred_by":null},"tier":{"id":"01928f2d-6756-755b-8a9d-c8094db2af27","meta":null,"created_on":"2024-10-15T07:56:10.789Z","created_by_id":null,"modified_on":"2025-01-23T15:14:24.513Z","modified_by_id":"01927265-4ed2-79cc-a0e6-e11339a359f3","deleted_on":null,"deleted_by_id":null,"tenant_id":"00000000-0000-0000-0000-000000000000","profile_type":"personal","name":"Tier 1","description":"Tier 1","level":1,"enabled":true,"balance_limit":2000000,"single_sending_limit":500000,"single_receiving_limit":500000,"period_sending_limit":500000,"period_sending_limit_time_unit":"day","period_receiving_limit":500000,"period_receiving_limit_time_unit":"day","requirements":[{"id":"019318f9-c895-744d-8f65-4636cc26dd1c","type_id":"019318f9-c895-744d-8f65-4636cc26dd1c","type":"verification","slug":"phone","name":"Phone","description":"Verify yor number"},{"id":"019318f9-c895-744d-8f65-4636cc26dd1d","type_id":"019318f9-c895-744d-8f65-4636cc26dd1d","type":"verification","slug":"email","name":"Email","description":"Verify your email"},{"id":"019318f9-c895-744d-8f65-4636cc26dd1f","type_id":"019318f9-c895-744d-8f65-4636cc26dd1f","type":"verification","slug":"liveness","name":"Image liveness check","description":"This step helps us verify your identity by matching your image with the credentials you’ve provided."},{"id":"01933d40-03e5-777c-a6e6-bf72eb1c8968","type_id":"01933d40-03e5-777c-a6e6-bf72eb1c8968","type":"verification","slug":"bvn","name":"BVN","description":"BVN"}]}}],"meta":{"page":1,"total_pages":17,"total_items":162}}