{"status":"success","data":[{"id":"0194d201-be98-7bb6-b3f8-b0030818366f","meta":null,"created_on":"2025-02-04T17:28:37.271Z","created_by_id":"01927265-4ed2-79cc-a0e6-e11339a359f3","modified_on":"2025-02-13T00:46:49.394Z","modified_by_id":"0193d109-a926-7446-abe5-7dafe8b742bd","deleted_on":null,"deleted_by_id":null,"tenant_id":"00000000-0000-0000-0000-000000000000","email":"Slayy@yopmail.com","status":"pending","first_name":null,"last_name":null,"twofa_enabled":false,"last_active":"2025-02-04T17:28:37.271Z","last_ip":null,"allowed_ips":null,"last_timezone":null,"last_location":null,"role_id":"0194d518-5291-7bb3-a119-630a16a3d8e8","role":{"id":"0194d518-5291-7bb3-a119-630a16a3d8e8","meta":null,"created_on":"2025-02-05T07:52:08.594Z","created_by_id":"01927265-4ed2-79cc-a0e6-e11339a359f3","modified_on":"2025-02-05T07:52:08.594Z","modified_by_id":null,"deleted_on":null,"deleted_by_id":null,"name":"Dispute Updater","slug":"dispute-updater","description":"Dispute Updater","status":"active","tenant_id":"00000000-0000-0000-0000-000000000000"}},{"id":"0194b899-400e-7bb8-88ec-cecb411c4e39","meta":null,"created_on":"2025-01-30T19:03:58.729Z","created_by_id":"01927265-4ed2-79cc-a0e6-e11339a359f3","modified_on":"2025-02-05T07:55:13.889Z","modified_by_id":"01927265-4ed2-79cc-a0e6-e11339a359f3","deleted_on":null,"deleted_by_id":null,"tenant_id":"00000000-0000-0000-0000-000000000000","email":"azeez+2@assurdly.com","status":"active","first_name":"Ibrahim","last_name":"ykr","twofa_enabled":false,"last_active":"2025-02-05T07:55:13.885Z","last_ip":"172.71.241.59","allowed_ips":null,"last_timezone":"Europe/London","last_location":null,"role_id":"0194d518-5291-7bb3-a119-630a16a3d8e8","role":{"id":"0194d518-5291-7bb3-a119-630a16a3d8e8","meta":null,"created_on":"2025-02-05T07:52:08.594Z","created_by_id":"01927265-4ed2-79cc-a0e6-e11339a359f3","modified_on":"2025-02-05T07:52:08.594Z","modified_by_id":null,"deleted_on":null,"deleted_by_id":null,"name":"Dispute Updater","slug":"dispute-updater","description":"Dispute Updater","status":"active","tenant_id":"00000000-0000-0000-0000-000000000000"}},{"id":"0194b895-e8b2-7bb8-88ec-285341127951","meta":null,"created_on":"2025-01-30T19:00:19.762Z","created_by_id":"01927265-4ed2-79cc-a0e6-e11339a359f3","modified_on":"2025-01-30T19:00:21.138Z","modified_by_id":null,"deleted_on":null,"deleted_by_id":null,"tenant_id":"00000000-0000-0000-0000-000000000000","email":"Jillian49@hotmail.com","status":"active","first_name":"Kavon","last_name":"Boehm","twofa_enabled":false,"last_active":"2025-01-30T19:00:19.762Z","last_ip":null,"allowed_ips":null,"last_timezone":null,"last_location":null,"role_id":"019295e4-b39f-7dd9-892d-46959f7d679d","role":{"id":"019295e4-b39f-7dd9-892d-46959f7d679d","meta":null,"created_on":"2024-10-16T15:14:06.278Z","created_by_id":null,"modified_on":"2024-11-10T16:10:00.176Z","modified_by_id":null,"deleted_on":null,"deleted_by_id":null,"name":"Manager","slug":"manager","description":"Manager","status":"active","tenant_id":"00000000-0000-0000-0000-000000000000"}},{"id":"0194b6a7-951d-7aab-9415-707ba2b33755","meta":null,"created_on":"2025-01-30T10:00:23.580Z","created_by_id":"01927265-4ed2-79cc-a0e6-e11339a359f3","modified_on":"2025-01-30T19:00:19.490Z","modified_by_id":"01927265-4ed2-79cc-a0e6-e11339a359f3","deleted_on":null,"deleted_by_id":null,"tenant_id":"00000000-0000-0000-0000-000000000000","email":"menajayne@yahoo.com","status":"inactive","first_name":null,"last_name":null,"twofa_enabled":false,"last_active":"2025-01-30T10:00:23.580Z","last_ip":null,"allowed_ips":null,"last_timezone":null,"last_location":null,"role_id":"01927265-d8bc-7195-996f-e131d5e13339","role":{"id":"01927265-d8bc-7195-996f-e131d5e13339","meta":null,"created_on":"2024-12-02T20:59:05.761Z","created_by_id":null,"modified_on":"2024-12-02T20:59:05.761Z","modified_by_id":null,"deleted_on":null,"deleted_by_id":null,"name":"Admin","slug":"admin","description":"","status":"active","tenant_id":null}},{"id":"0194b6a5-9990-7aab-9415-573f9b0d24ab","meta":null,"created_on":"2025-01-30T09:58:13.647Z","created_by_id":"01927265-4ed2-79cc-a0e6-e11339a359f3","modified_on":"2025-01-30T09:58:13.647Z","modified_by_id":null,"deleted_on":null,"deleted_by_id":null,"tenant_id":"00000000-0000-0000-0000-000000000000","email":"menajjayne@yahoo.com","status":"pending","first_name":null,"last_name":null,"twofa_enabled":false,"last_active":"2025-01-30T09:58:13.647Z","last_ip":null,"allowed_ips":null,"last_timezone":null,"last_location":null,"role_id":"01927265-d8bc-7195-996f-e131d5e13339","role":{"id":"01927265-d8bc-7195-996f-e131d5e13339","meta":null,"created_on":"2024-12-02T20:59:05.761Z","created_by_id":null,"modified_on":"2024-12-02T20:59:05.761Z","modified_by_id":null,"deleted_on":null,"deleted_by_id":null,"name":"Admin","slug":"admin","description":"","status":"active","tenant_id":null}},{"id":"0194b1b3-c213-7666-8d22-f535b7ea725b","meta":null,"created_on":"2025-01-29T10:55:35.444Z","created_by_id":"01927265-4ed2-79cc-a0e6-e11339a359f3","modified_on":"2025-01-29T10:58:09.966Z","modified_by_id":null,"deleted_on":null,"deleted_by_id":null,"tenant_id":"00000000-0000-0000-0000-000000000000","email":"slake@yopmail.com","status":"active","first_name":"Say","last_name":"less","twofa_enabled":false,"last_active":"2025-01-29T10:58:09.960Z","last_ip":"172.70.90.32","allowed_ips":null,"last_timezone":"Europe/London","last_location":null,"role_id":"01945e2b-41cc-7554-9591-f3f3a36d09bb","role":{"id":"01945e2b-41cc-7554-9591-f3f3a36d09bb","meta":null,"created_on":"2025-01-13T05:38:00.770Z","created_by_id":null,"modified_on":"2025-01-13T05:38:00.770Z","modified_by_id":null,"deleted_on":null,"deleted_by_id":null,"name":"China","slug":"china","description":"Mauritius","status":"active","tenant_id":"00000000-0000-0000-0000-000000000000"}},{"id":"0194b1b1-704a-7666-8d22-ef45db762afd","meta":null,"created_on":"2025-01-29T10:53:03.434Z","created_by_id":"01927265-4ed2-79cc-a0e6-e11339a359f3","modified_on":"2025-01-29T10:53:03.434Z","modified_by_id":null,"deleted_on":null,"deleted_by_id":null,"tenant_id":"00000000-0000-0000-0000-000000000000","email":"Slay@yopmail.com","status":"pending","first_name":null,"last_name":null,"twofa_enabled":false,"last_active":"2025-01-29T10:53:03.434Z","last_ip":null,"allowed_ips":null,"last_timezone":null,"last_location":null,"role_id":"019489a3-563f-7cc8-abea-5077e5cfb91a","role":{"id":"019489a3-563f-7cc8-abea-5077e5cfb91a","meta":null,"created_on":"2025-01-21T16:12:50.623Z","created_by_id":"01927265-4ed2-79cc-a0e6-e11339a359f3","modified_on":"2025-01-29T11:22:42.543Z","modified_by_id":"01927265-4ed2-79cc-a0e6-e11339a359f3","deleted_on":null,"deleted_by_id":null,"name":"Cashier","slug":"cashier","description":"test","status":"active","tenant_id":"00000000-0000-0000-0000-000000000000"}},{"id":"0194a673-66a4-7dd7-aac8-3c86d76c75d2","meta":null,"created_on":"2025-01-27T06:29:28.356Z","created_by_id":"01927265-4ed2-79cc-a0e6-e11339a359f3","modified_on":"2025-01-27T06:29:29.918Z","modified_by_id":null,"deleted_on":null,"deleted_by_id":null,"tenant_id":"00000000-0000-0000-0000-000000000000","email":"Hope_Towne@hotmail.com","status":"active","first_name":"Meggie","last_name":"Reinger","twofa_enabled":false,"last_active":"2025-01-27T06:29:28.356Z","last_ip":null,"allowed_ips":null,"last_timezone":null,"last_location":null,"role_id":"019295e4-b39f-7dd9-892d-46959f7d679d","role":{"id":"019295e4-b39f-7dd9-892d-46959f7d679d","meta":null,"created_on":"2024-10-16T15:14:06.278Z","created_by_id":null,"modified_on":"2024-11-10T16:10:00.176Z","modified_by_id":null,"deleted_on":null,"deleted_by_id":null,"name":"Manager","slug":"manager","description":"Manager","status":"active","tenant_id":"00000000-0000-0000-0000-000000000000"}},{"id":"0194980a-90b5-7dd2-b9a1-71efcb0b72f6","meta":null,"created_on":"2025-01-24T11:20:16.821Z","created_by_id":"01927265-4ed2-79cc-a0e6-e11339a359f3","modified_on":"2025-01-27T06:29:27.848Z","modified_by_id":"01927265-4ed2-79cc-a0e6-e11339a359f3","deleted_on":null,"deleted_by_id":null,"tenant_id":"00000000-0000-0000-0000-000000000000","email":"Yan@yopmail.com","status":"inactive","first_name":"Feee","last_name":"bala","twofa_enabled":false,"last_active":"2025-01-24T11:20:16.821Z","last_ip":null,"allowed_ips":null,"last_timezone":null,"last_location":null,"role_id":"019489a3-563f-7cc8-abea-5077e5cfb91a","role":{"id":"019489a3-563f-7cc8-abea-5077e5cfb91a","meta":null,"created_on":"2025-01-21T16:12:50.623Z","created_by_id":"01927265-4ed2-79cc-a0e6-e11339a359f3","modified_on":"2025-01-29T11:22:42.543Z","modified_by_id":"01927265-4ed2-79cc-a0e6-e11339a359f3","deleted_on":null,"deleted_by_id":null,"name":"Cashier","slug":"cashier","description":"test","status":"active","tenant_id":"00000000-0000-0000-0000-000000000000"}},{"id":"019464f8-9f47-777b-9e06-dc054d12b5af","meta":null,"created_on":"2025-01-14T13:20:02.887Z","created_by_id":null,"modified_on":"2025-01-14T13:20:02.887Z","modified_by_id":null,"deleted_on":null,"deleted_by_id":null,"tenant_id":"00000000-0000-0000-0000-000000000000","email":"ekemenaj@gmail.com","status":"pending","first_name":null,"last_name":null,"twofa_enabled":false,"last_active":"2025-01-14T13:20:02.887Z","last_ip":null,"allowed_ips":null,"last_timezone":null,"last_location":null,"role_id":"01927265-d8bc-7195-996f-e131d5e13339","role":{"id":"01927265-d8bc-7195-996f-e131d5e13339","meta":null,"created_on":"2024-12-02T20:59:05.761Z","created_by_id":null,"modified_on":"2024-12-02T20:59:05.761Z","modified_by_id":null,"deleted_on":null,"deleted_by_id":null,"name":"Admin","slug":"admin","description":"","status":"active","tenant_id":null}}],"meta":{"page":1,"total_pages":6,"total_items":58}}