{"status":"success","data":[{"id":"019435cb-8e7d-7aa1-b635-ad7f79da04bf","meta":null,"created_on":"2025-01-05T09:28:40.316Z","created_by":null,"modified_on":"2025-01-05T09:28:40.316Z","modified_by":null,"deleted_on":null,"deleted_by":null,"name":"Intelligent Rubber Computer","slug":"intelligent-rubber-computer","description":"Regional","status":"active","profile_id":"0193a649-e3d0-7881-8b7f-2ef1d89a9aff","tenant_id":"00000000-0000-0000-0000-000000000000","userCount":5},{"id":"019435ce-7a84-7aa1-b635-bff8beae7b8e","meta":null,"created_on":"2025-01-05T09:31:51.812Z","created_by":null,"modified_on":"2025-01-05T09:31:51.812Z","modified_by":null,"deleted_on":null,"deleted_by":null,"name":"Fantastic Frozen Bike","slug":"fantastic-frozen-bike","description":"Central","status":"active","profile_id":"0193a649-e3d0-7881-8b7f-2ef1d89a9aff","tenant_id":"00000000-0000-0000-0000-000000000000","userCount":0},{"id":"019435d1-02dd-7aa1-b635-ce8df84783c8","meta":null,"created_on":"2025-01-05T09:34:37.788Z","created_by":null,"modified_on":"2025-01-05T09:34:37.788Z","modified_by":null,"deleted_on":null,"deleted_by":null,"name":"Sleek Soft Pizza","slug":"sleek-soft-pizza","description":"Senior","status":"active","profile_id":"0193a649-e3d0-7881-8b7f-2ef1d89a9aff","tenant_id":"00000000-0000-0000-0000-000000000000","userCount":0},{"id":"019435d1-53b8-7aa1-b635-dec5a3f048ff","meta":null,"created_on":"2025-01-05T09:34:58.488Z","created_by":null,"modified_on":"2025-01-05T09:34:58.488Z","modified_by":null,"deleted_on":null,"deleted_by":null,"name":"Generic Wooden Ball","slug":"generic-wooden-ball","description":"Direct","status":"active","profile_id":"0193a649-e3d0-7881-8b7f-2ef1d89a9aff","tenant_id":"00000000-0000-0000-0000-000000000000","userCount":0},{"id":"019435d1-d98c-7aa1-b635-ed5c5a319462","meta":null,"created_on":"2025-01-05T09:35:32.745Z","created_by":null,"modified_on":"2025-01-05T09:35:32.745Z","modified_by":null,"deleted_on":null,"deleted_by":null,"name":"Awesome Frozen Table","slug":"awesome-frozen-table","description":"District","status":"active","profile_id":"0193a649-e3d0-7881-8b7f-2ef1d89a9aff","tenant_id":"00000000-0000-0000-0000-000000000000","userCount":0},{"id":"019435d3-5e27-7aa1-b636-0e6113f9564e","meta":null,"created_on":"2025-01-05T09:37:12.231Z","created_by":null,"modified_on":"2025-01-05T09:37:12.231Z","modified_by":null,"deleted_on":null,"deleted_by":null,"name":"Handmade Rubber Mouse","slug":"handmade-rubber-mouse","description":"District","status":"active","profile_id":"0193a649-e3d0-7881-8b7f-2ef1d89a9aff","tenant_id":"00000000-0000-0000-0000-000000000000","userCount":0},{"id":"019435d3-e2e8-7aa1-b636-1ace58f9a14f","meta":null,"created_on":"2025-01-05T09:37:46.216Z","created_by":null,"modified_on":"2025-01-05T09:37:46.216Z","modified_by":null,"deleted_on":null,"deleted_by":null,"name":"Awesome Frozen Hat","slug":"awesome-frozen-hat","description":"Global","status":"active","profile_id":"0193a649-e3d0-7881-8b7f-2ef1d89a9aff","tenant_id":"00000000-0000-0000-0000-000000000000","userCount":0},{"id":"019435d4-2106-7aa1-b636-29de80b54443","meta":null,"created_on":"2025-01-05T09:38:02.118Z","created_by":null,"modified_on":"2025-01-05T09:38:02.118Z","modified_by":null,"deleted_on":null,"deleted_by":null,"name":"Rustic Soft Gloves","slug":"rustic-soft-gloves","description":"Senior","status":"active","profile_id":"0193a649-e3d0-7881-8b7f-2ef1d89a9aff","tenant_id":"00000000-0000-0000-0000-000000000000","userCount":0},{"id":"0194390f-3451-7aa1-9609-b7bb23e65f18","meta":null,"created_on":"2025-01-06T00:41:25.328Z","created_by":null,"modified_on":"2025-01-06T00:41:25.328Z","modified_by":null,"deleted_on":null,"deleted_by":null,"name":"Licensed Steel Gloves","slug":"licensed-steel-gloves","description":"Human","status":"active","profile_id":"0193a649-e3d0-7881-8b7f-2ef1d89a9aff","tenant_id":"00000000-0000-0000-0000-000000000000","userCount":0},{"id":"01943a40-e5a9-722f-8216-3062cd927c54","meta":null,"created_on":"2025-01-06T06:15:19.206Z","created_by":null,"modified_on":"2025-01-06T06:15:19.206Z","modified_by":null,"deleted_on":null,"deleted_by":null,"name":"Unbranded Soft Shirt","slug":"unbranded-soft-shirt","description":"Dynamic","status":"active","profile_id":"0193a649-e3d0-7881-8b7f-2ef1d89a9aff","tenant_id":"00000000-0000-0000-0000-000000000000","userCount":0}],"meta":{"page":1,"total_pages":2,"total_items":16}}