{"status":"success","data":[{"id":"01961014-845d-7667-b562-4c5dbfff8eb5","meta":null,"created_on":"2025-04-07T11:48:22.238Z","created_by_id":"01927265-4ed2-79cc-a0e6-e11339a359f3","modified_on":"2025-04-07T11:48:22.238Z","modified_by_id":null,"deleted_on":null,"deleted_by_id":null,"tenant_id":"00000000-0000-0000-0000-000000000000","email":"Adeyy@yopmail.com","status":"pending","first_name":null,"last_name":null,"twofa_enabled":false,"last_active":"2025-04-07T11:48:22.238Z","last_ip":null,"allowed_ips":null,"last_timezone":null,"last_location":null,"role_id":"019565fb-39d9-7aa8-9c09-58b126e99bf3","role":{"id":"019565fb-39d9-7aa8-9c09-58b126e99bf3","meta":null,"created_on":"2025-03-05T11:05:18.040Z","created_by_id":"01927265-4ed2-79cc-a0e6-e11339a359f3","modified_on":"2025-03-05T11:05:18.040Z","modified_by_id":null,"deleted_on":null,"deleted_by_id":null,"name":"Everything","slug":"everything","description":"Everything","status":"active","tenant_id":"00000000-0000-0000-0000-000000000000"},"has_pin":false,"has_password":false},{"id":"0195c931-4d48-788a-b417-a8306ac5bfb6","meta":null,"created_on":"2025-03-24T17:26:46.343Z","created_by_id":"0192cc0f-bd83-700c-a5b9-691965d489a3","modified_on":"2025-03-27T20:05:50.187Z","modified_by_id":null,"deleted_on":null,"deleted_by_id":null,"tenant_id":"00000000-0000-0000-0000-000000000000","email":"misan@assurdly.com","status":"active","first_name":"Oritsemisan","last_name":"Makpokpomi","twofa_enabled":false,"last_active":"2025-03-27T20:05:50.185Z","last_ip":"172.70.91.163","allowed_ips":null,"last_timezone":"Europe/London","last_location":null,"role_id":"019565fb-39d9-7aa8-9c09-58b126e99bf3","role":{"id":"019565fb-39d9-7aa8-9c09-58b126e99bf3","meta":null,"created_on":"2025-03-05T11:05:18.040Z","created_by_id":"01927265-4ed2-79cc-a0e6-e11339a359f3","modified_on":"2025-03-05T11:05:18.040Z","modified_by_id":null,"deleted_on":null,"deleted_by_id":null,"name":"Everything","slug":"everything","description":"Everything","status":"active","tenant_id":"00000000-0000-0000-0000-000000000000"},"has_pin":false,"has_password":false},{"id":"0195adef-dd3e-7ccb-ba8e-6f2029620128","meta":null,"created_on":"2025-03-19T10:25:32.989Z","created_by_id":"01927265-4ed2-79cc-a0e6-e11339a359f3","modified_on":"2025-03-19T10:25:32.989Z","modified_by_id":null,"deleted_on":null,"deleted_by_id":null,"tenant_id":"00000000-0000-0000-0000-000000000000","email":"chris@yopmail.com","status":"pending","first_name":null,"last_name":null,"twofa_enabled":false,"last_active":"2025-03-19T10:25:32.989Z","last_ip":null,"allowed_ips":null,"last_timezone":null,"last_location":null,"role_id":"019565fb-39d9-7aa8-9c09-58b126e99bf3","role":{"id":"019565fb-39d9-7aa8-9c09-58b126e99bf3","meta":null,"created_on":"2025-03-05T11:05:18.040Z","created_by_id":"01927265-4ed2-79cc-a0e6-e11339a359f3","modified_on":"2025-03-05T11:05:18.040Z","modified_by_id":null,"deleted_on":null,"deleted_by_id":null,"name":"Everything","slug":"everything","description":"Everything","status":"active","tenant_id":"00000000-0000-0000-0000-000000000000"},"has_pin":false,"has_password":false},{"id":"0195708b-4335-711a-acaa-0ea3b8ce50c8","meta":null,"created_on":"2025-03-07T12:18:49.780Z","created_by_id":"01927265-4ed2-79cc-a0e6-e11339a359f3","modified_on":"2025-03-12T17:37:44.789Z","modified_by_id":null,"deleted_on":null,"deleted_by_id":null,"tenant_id":"00000000-0000-0000-0000-000000000000","email":"fred@yopmail.com","status":"active","first_name":"Feee","last_name":"faith","twofa_enabled":false,"last_active":"2025-03-12T20:12:06.396Z","last_ip":"172.69.195.80","allowed_ips":null,"last_timezone":"Europe/London","last_location":null,"role_id":"019565fb-39d9-7aa8-9c09-58b126e99bf3","role":{"id":"019565fb-39d9-7aa8-9c09-58b126e99bf3","meta":null,"created_on":"2025-03-05T11:05:18.040Z","created_by_id":"01927265-4ed2-79cc-a0e6-e11339a359f3","modified_on":"2025-03-05T11:05:18.040Z","modified_by_id":null,"deleted_on":null,"deleted_by_id":null,"name":"Everything","slug":"everything","description":"Everything","status":"active","tenant_id":"00000000-0000-0000-0000-000000000000"},"has_pin":false,"has_password":false},{"id":"01953018-8915-7330-84ba-fe08a6f0789a","meta":null,"created_on":"2025-02-22T23:57:49.205Z","created_by_id":"0193d109-a926-7446-abe5-7dafe8b742bd","modified_on":"2025-02-22T23:57:49.205Z","modified_by_id":null,"deleted_on":null,"deleted_by_id":null,"tenant_id":"00000000-0000-0000-0000-000000000000","email":"destinyerhabor6+dev1@gmail.com","status":"pending","first_name":null,"last_name":null,"twofa_enabled":false,"last_active":"2025-02-22T23:57:49.205Z","last_ip":null,"allowed_ips":null,"last_timezone":null,"last_location":null,"role_id":"0194b932-92d0-7bb8-88f2-0bc884cbbed4","role":{"id":"0194b932-92d0-7bb8-88f2-0bc884cbbed4","meta":null,"created_on":"2025-01-30T21:51:26.928Z","created_by_id":"01927265-4ed2-79cc-a0e6-e11339a359f3","modified_on":"2025-01-30T21:51:26.928Z","modified_by_id":null,"deleted_on":null,"deleted_by_id":null,"name":"interface","slug":"interface","description":"system","status":"active","tenant_id":"00000000-0000-0000-0000-000000000000"},"has_pin":false,"has_password":false},{"id":"01953014-c673-7330-84ba-de63073387f4","meta":null,"created_on":"2025-02-22T23:53:42.714Z","created_by_id":"0193d109-a926-7446-abe5-7dafe8b742bd","modified_on":"2025-02-22T23:53:42.714Z","modified_by_id":null,"deleted_on":null,"deleted_by_id":null,"tenant_id":"00000000-0000-0000-0000-000000000000","email":"destinyerhabor6+dev@gmail.com","status":"pending","first_name":null,"last_name":null,"twofa_enabled":false,"last_active":"2025-02-22T23:53:42.714Z","last_ip":null,"allowed_ips":null,"last_timezone":null,"last_location":null,"role_id":"0194a673-5ab3-7dd7-aac7-b0ebf3ba61e5","role":{"id":"0194a673-5ab3-7dd7-aac7-b0ebf3ba61e5","meta":null,"created_on":"2025-01-27T06:29:25.299Z","created_by_id":"01927265-4ed2-79cc-a0e6-e11339a359f3","modified_on":"2025-01-27T06:29:25.299Z","modified_by_id":null,"deleted_on":null,"deleted_by_id":null,"name":"Russian","slug":"russian","description":"Brook","status":"active","tenant_id":"00000000-0000-0000-0000-000000000000"},"has_pin":false,"has_password":false},{"id":"01951be3-7317-7885-9dd5-8e57f0db470b","meta":null,"created_on":"2025-02-19T01:47:25.846Z","created_by_id":"01927265-4ed2-79cc-a0e6-e11339a359f3","modified_on":"2025-02-23T21:52:19.718Z","modified_by_id":null,"deleted_on":null,"deleted_by_id":null,"tenant_id":"00000000-0000-0000-0000-000000000000","email":"zino.ref2@mailinator.com","status":"active","first_name":"Grady","last_name":"Zebah","twofa_enabled":false,"last_active":"2025-02-23T21:52:19.714Z","last_ip":"172.71.26.139","allowed_ips":null,"last_timezone":"America/New_York","last_location":null,"role_id":"01951a90-6127-7885-9dd0-1943f4ef80c5","role":{"id":"01951a90-6127-7885-9dd0-1943f4ef80c5","meta":null,"created_on":"2025-02-18T19:37:04.550Z","created_by_id":"01927265-4ed2-79cc-a0e6-e11339a359f3","modified_on":"2025-02-18T19:37:04.550Z","modified_by_id":null,"deleted_on":null,"deleted_by_id":null,"name":"Dispute Checker 1","slug":"dispute-checker-1","description":"Approve disputes","status":"active","tenant_id":"00000000-0000-0000-0000-000000000000"},"has_pin":false,"has_password":false},{"id":"01951bd0-463b-7885-9dd5-18d36bcd9868","meta":null,"created_on":"2025-02-19T01:26:29.179Z","created_by_id":"01927265-4ed2-79cc-a0e6-e11339a359f3","modified_on":"2025-02-23T00:35:25.984Z","modified_by_id":"01927265-4ed2-79cc-a0e6-e11339a359f3","deleted_on":null,"deleted_by_id":null,"tenant_id":"00000000-0000-0000-0000-000000000000","email":"zedcd1-in@yopmail.com","status":"inactive","first_name":null,"last_name":null,"twofa_enabled":false,"last_active":"2025-02-19T01:26:29.179Z","last_ip":null,"allowed_ips":null,"last_timezone":null,"last_location":null,"role_id":"01951a90-6127-7885-9dd0-1943f4ef80c5","role":{"id":"01951a90-6127-7885-9dd0-1943f4ef80c5","meta":null,"created_on":"2025-02-18T19:37:04.550Z","created_by_id":"01927265-4ed2-79cc-a0e6-e11339a359f3","modified_on":"2025-02-18T19:37:04.550Z","modified_by_id":null,"deleted_on":null,"deleted_by_id":null,"name":"Dispute Checker 1","slug":"dispute-checker-1","description":"Approve disputes","status":"active","tenant_id":"00000000-0000-0000-0000-000000000000"},"has_pin":false,"has_password":false},{"id":"019519c9-34e3-7333-b4e3-a0eafe4e0522","meta":null,"created_on":"2025-02-18T15:59:31.555Z","created_by_id":"01927265-4ed2-79cc-a0e6-e11339a359f3","modified_on":"2025-02-18T15:59:31.555Z","modified_by_id":null,"deleted_on":null,"deleted_by_id":null,"tenant_id":"00000000-0000-0000-0000-000000000000","email":"azeez@mule.com","status":"pending","first_name":null,"last_name":null,"twofa_enabled":false,"last_active":"2025-02-18T15:59:31.555Z","last_ip":null,"allowed_ips":null,"last_timezone":null,"last_location":null,"role_id":"0194b895-df4d-7bb8-88eb-a501c0ae8f1d","role":{"id":"0194b895-df4d-7bb8-88eb-a501c0ae8f1d","meta":null,"created_on":"2025-01-30T19:00:17.357Z","created_by_id":"01927265-4ed2-79cc-a0e6-e11339a359f3","modified_on":"2025-01-30T19:00:17.357Z","modified_by_id":null,"deleted_on":null,"deleted_by_id":null,"name":"RAM","slug":"ram","description":"Hat","status":"active","tenant_id":"00000000-0000-0000-0000-000000000000"},"has_pin":false,"has_password":false},{"id":"0194d201-be98-7bb6-b3f8-b0030818366f","meta":null,"created_on":"2025-02-04T17:28:37.271Z","created_by_id":"01927265-4ed2-79cc-a0e6-e11339a359f3","modified_on":"2025-02-13T00:46:49.394Z","modified_by_id":"0193d109-a926-7446-abe5-7dafe8b742bd","deleted_on":null,"deleted_by_id":null,"tenant_id":"00000000-0000-0000-0000-000000000000","email":"Slayy@yopmail.com","status":"pending","first_name":null,"last_name":null,"twofa_enabled":false,"last_active":"2025-02-04T17:28:37.271Z","last_ip":null,"allowed_ips":null,"last_timezone":null,"last_location":null,"role_id":"0194d518-5291-7bb3-a119-630a16a3d8e8","role":{"id":"0194d518-5291-7bb3-a119-630a16a3d8e8","meta":null,"created_on":"2025-02-05T07:52:08.594Z","created_by_id":"01927265-4ed2-79cc-a0e6-e11339a359f3","modified_on":"2025-02-18T16:30:35.734Z","modified_by_id":"01927265-4ed2-79cc-a0e6-e11339a359f3","deleted_on":null,"deleted_by_id":null,"name":"Dispute Updater","slug":"dispute-updater","description":"Dispute Updater","status":"inactive","tenant_id":"00000000-0000-0000-0000-000000000000"},"has_pin":false,"has_password":false}],"meta":{"page":1,"total_pages":7,"total_items":67}}