{"status":"success","data":[{"id":"0196ea5b-87dd-7cc7-ac70-9f0fd94e8d55","meta":null,"created_on":"2025-05-19T21:03:09.288Z","created_by_id":"01925343-fbc8-7886-abfb-41c8746fc8ce","modified_on":"2025-05-21T13:15:28.897Z","modified_by_id":"019372de-17ef-7cc2-8fc0-43fe11ba042f","deleted_on":null,"deleted_by_id":null,"tenant_id":"00000000-0000-0000-0000-000000000000","profile_id":"0193a649-e3d0-7881-8b7f-2ef1d89a9aff","name":"Test 20th may main regular","product_id":"0196652d-0d12-7eec-b09a-36ab4b96c692","account_id":"0193a699-2f15-7881-8b7f-ae50980bcfad","is_fixed":false,"allow_top_up":false,"cba_id":"614","deposit":"324.00","interest_earned":"0.00","balance":"324.13","end_date":"2025-05-20T21:03:04.502Z","start_date":"2025-05-19T21:03:04.502Z","periodic_amount":324,"interest_rate":"10.00","interest_period":"yearly","tenor_value":1,"tenor_period":"days","interest_compounding_period":"yearly","interest_posting_period":"yearly","status":"matured","frequency":null,"card_id":null,"mandate_id":null,"auto_maturity_action":"withdraw"},{"id":"0196ea5a-f26b-7cc7-ac70-71ca207887ff","meta":null,"created_on":"2025-05-19T21:02:31.009Z","created_by_id":"01925343-fbc8-7886-abfb-41c8746fc8ce","modified_on":"2025-05-21T13:15:29.127Z","modified_by_id":"019372de-17ef-7cc2-8fc0-43fe11ba042f","deleted_on":null,"deleted_by_id":null,"tenant_id":"00000000-0000-0000-0000-000000000000","profile_id":"0193a649-e3d0-7881-8b7f-2ef1d89a9aff","name":"Test 20th may main regular","product_id":"0196652f-4f3e-7eec-b09a-3bb0f20d654c","account_id":"0193a699-2f15-7881-8b7f-ae50980bcfad","is_fixed":false,"allow_top_up":false,"cba_id":"613","deposit":"426.00","interest_earned":"0.00","balance":"426.18","end_date":"2025-05-20T21:02:27.436Z","start_date":"2025-05-19T21:02:27.436Z","periodic_amount":426,"interest_rate":"0.00","interest_period":"yearly","tenor_value":1,"tenor_period":"days","interest_compounding_period":"yearly","interest_posting_period":"yearly","status":"matured","frequency":null,"card_id":null,"mandate_id":null,"auto_maturity_action":"withdraw"},{"id":"0196ea5a-2bc4-7cc7-ac70-4ac76fbc5036","meta":null,"created_on":"2025-05-19T21:01:40.175Z","created_by_id":"01925343-fbc8-7886-abfb-41c8746fc8ce","modified_on":"2025-05-20T16:41:29.440Z","modified_by_id":"019372de-17ef-7cc2-8fc0-43fe11ba042f","deleted_on":null,"deleted_by_id":null,"tenant_id":"00000000-0000-0000-0000-000000000000","profile_id":"0193a649-e3d0-7881-8b7f-2ef1d89a9aff","name":"Test 20th may regular","product_id":"0196cbc7-cf59-7aa1-a925-7c8dcdf1102a","account_id":"0193a699-2f15-7881-8b7f-ae50980bcfad","is_fixed":false,"allow_top_up":false,"cba_id":"612","deposit":"273.00","interest_earned":"0.00","balance":"0.00","end_date":"2025-05-29T21:01:35.822Z","start_date":"2025-05-19T21:01:35.822Z","periodic_amount":273,"interest_rate":"11.00","interest_period":"yearly","tenor_value":10,"tenor_period":"days","interest_compounding_period":"yearly","interest_posting_period":"yearly","status":"closed","frequency":null,"card_id":null,"mandate_id":null,"auto_maturity_action":"withdraw"},{"id":"0196ea59-8d77-7cc7-ac70-3deece814871","meta":null,"created_on":"2025-05-19T21:00:59.646Z","created_by_id":"01925343-fbc8-7886-abfb-41c8746fc8ce","modified_on":"2025-05-21T13:15:29.494Z","modified_by_id":"019372de-17ef-7cc2-8fc0-43fe11ba042f","deleted_on":null,"deleted_by_id":null,"tenant_id":"00000000-0000-0000-0000-000000000000","profile_id":"0193a649-e3d0-7881-8b7f-2ef1d89a9aff","name":"Test 20th may","product_id":"0196b57d-d58f-7bba-bcb5-64c2fb41eead","account_id":"0193a699-2f15-7881-8b7f-ae50980bcfad","is_fixed":true,"allow_top_up":false,"cba_id":"611","deposit":"500.00","interest_earned":"0.21","balance":"500.21","end_date":"2025-05-20T21:00:53.012Z","start_date":"2025-05-19T21:00:53.012Z","periodic_amount":500,"interest_rate":"10.00","interest_period":"yearly","tenor_value":1,"tenor_period":"days","interest_compounding_period":"yearly","interest_posting_period":"yearly","status":"matured","frequency":null,"card_id":null,"mandate_id":null,"auto_maturity_action":"withdraw"},{"id":"0196ea59-3b11-7cc7-ac70-1dfdcce1dedd","meta":null,"created_on":"2025-05-19T21:00:38.543Z","created_by_id":"01925343-fbc8-7886-abfb-41c8746fc8ce","modified_on":"2025-05-21T13:15:29.695Z","modified_by_id":"019372de-17ef-7cc2-8fc0-43fe11ba042f","deleted_on":null,"deleted_by_id":null,"tenant_id":"00000000-0000-0000-0000-000000000000","profile_id":"0193a649-e3d0-7881-8b7f-2ef1d89a9aff","name":"Women Empowerment Loan","product_id":"0196b57d-d58f-7bba-bcb5-64c2fb41eead","account_id":"0193a699-2f15-7881-8b7f-ae50980bcfad","is_fixed":true,"allow_top_up":false,"cba_id":"610","deposit":"500.00","interest_earned":"0.21","balance":"500.21","end_date":"2025-05-20T21:00:31.628Z","start_date":"2025-05-19T21:00:31.628Z","periodic_amount":500,"interest_rate":"10.00","interest_period":"yearly","tenor_value":1,"tenor_period":"days","interest_compounding_period":"yearly","interest_posting_period":"yearly","status":"matured","frequency":null,"card_id":null,"mandate_id":null,"auto_maturity_action":"withdraw"},{"id":"0196d949-0d1d-722a-a744-a8659c439e8b","meta":null,"created_on":"2025-05-16T13:29:25.615Z","created_by_id":"01925343-fbc8-7886-abfb-41c8746fc8ce","modified_on":"2025-05-21T13:15:29.800Z","modified_by_id":"019372de-17ef-7cc2-8fc0-43fe11ba042f","deleted_on":null,"deleted_by_id":null,"tenant_id":"00000000-0000-0000-0000-000000000000","profile_id":"0193a649-e3d0-7881-8b7f-2ef1d89a9aff","name":"Women Empowerment Loan","product_id":"0196b57d-d58f-7bba-bcb5-64c2fb41eead","account_id":"0193a699-2f15-7881-8b7f-ae50980bcfad","is_fixed":true,"allow_top_up":false,"cba_id":"609","deposit":"500.00","interest_earned":"0.21","balance":"500.21","end_date":"2025-05-17T13:29:18.816Z","start_date":"2025-05-16T13:29:18.816Z","periodic_amount":500,"interest_rate":"10.00","interest_period":"yearly","tenor_value":1,"tenor_period":"days","interest_compounding_period":"yearly","interest_posting_period":"yearly","status":"matured","frequency":null,"card_id":null,"mandate_id":null,"auto_maturity_action":"withdraw"},{"id":"0196d945-e050-7448-8492-3ff04d8f9a57","meta":null,"created_on":"2025-05-16T13:25:57.456Z","created_by_id":"019372de-17ef-7cc2-8fc0-43fe11ba042f","modified_on":"2025-05-21T13:15:28.797Z","modified_by_id":"019372de-17ef-7cc2-8fc0-43fe11ba042f","deleted_on":null,"deleted_by_id":null,"tenant_id":"00000000-0000-0000-0000-000000000000","profile_id":"0193a649-e3d0-7881-8b7f-2ef1d89a9aff","name":"Test product","product_id":"0196d4c6-d2c9-7448-8491-2ae6cdd79093","account_id":"0193a699-2f15-7881-8b7f-ae50980bcfad","is_fixed":true,"allow_top_up":false,"cba_id":"608","deposit":"10000.00","interest_earned":"24.66","balance":"10000.00","end_date":"2025-05-26T13:25:52.376Z","start_date":"2025-05-16T13:25:52.376Z","periodic_amount":10000,"interest_rate":"10.00","interest_period":"yearly","tenor_value":10,"tenor_period":"days","interest_compounding_period":"yearly","interest_posting_period":"yearly","status":"active","frequency":null,"card_id":null,"mandate_id":null,"auto_maturity_action":"withdraw"},{"id":"0196d943-785f-722a-a744-7bca0a5dec7d","meta":null,"created_on":"2025-05-16T13:23:19.897Z","created_by_id":"01925343-fbc8-7886-abfb-41c8746fc8ce","modified_on":"2025-05-21T13:15:29.002Z","modified_by_id":"019372de-17ef-7cc2-8fc0-43fe11ba042f","deleted_on":null,"deleted_by_id":null,"tenant_id":"00000000-0000-0000-0000-000000000000","profile_id":"0193a649-e3d0-7881-8b7f-2ef1d89a9aff","name":"Women Empowerment Loan","product_id":"0196b57d-d58f-7bba-bcb5-64c2fb41eead","account_id":"01951065-f30c-7bbe-8a30-3eee60a72183","is_fixed":true,"allow_top_up":false,"cba_id":"607","deposit":"500.00","interest_earned":"1.23","balance":"500.00","end_date":"2025-06-14T13:23:16.536Z","start_date":"2025-05-16T13:23:16.536Z","periodic_amount":500,"interest_rate":"10.00","interest_period":"yearly","tenor_value":29,"tenor_period":"days","interest_compounding_period":"yearly","interest_posting_period":"yearly","status":"active","frequency":null,"card_id":null,"mandate_id":null,"auto_maturity_action":"withdraw"},{"id":"0196d4db-3aa2-7448-8491-868e5875accc","meta":null,"created_on":"2025-05-15T16:50:59.362Z","created_by_id":"019372de-17ef-7cc2-8fc0-43fe11ba042f","modified_on":"2025-05-21T13:15:29.299Z","modified_by_id":"019372de-17ef-7cc2-8fc0-43fe11ba042f","deleted_on":null,"deleted_by_id":null,"tenant_id":"00000000-0000-0000-0000-000000000000","profile_id":"0193a649-e3d0-7881-8b7f-2ef1d89a9aff","name":"Test product","product_id":"0196d4c6-d2c9-7448-8491-2ae6cdd79093","account_id":"0193a699-2f15-7881-8b7f-ae50980bcfad","is_fixed":true,"allow_top_up":false,"cba_id":"606","deposit":"10000.00","interest_earned":"28.77","balance":"10000.00","end_date":"2025-05-25T16:50:54.259Z","start_date":"2025-05-15T16:50:54.259Z","periodic_amount":10000,"interest_rate":"10.00","interest_period":"yearly","tenor_value":10,"tenor_period":"days","interest_compounding_period":"yearly","interest_posting_period":"yearly","status":"active","frequency":null,"card_id":null,"mandate_id":null,"auto_maturity_action":"withdraw"},{"id":"0196d315-a70d-7885-8301-83f8fff38b0f","meta":null,"created_on":"2025-05-15T08:35:33.773Z","created_by_id":"019372de-17ef-7cc2-8fc0-43fe11ba042f","modified_on":"2025-05-21T13:15:29.500Z","modified_by_id":"019372de-17ef-7cc2-8fc0-43fe11ba042f","deleted_on":null,"deleted_by_id":null,"tenant_id":"00000000-0000-0000-0000-000000000000","profile_id":"0193a649-e3d0-7881-8b7f-2ef1d89a9aff","name":"omo","product_id":"0196cbc7-cf59-7aa1-a925-7c8dcdf1102a","account_id":"0193a699-2f15-7881-8b7f-ae50980bcfad","is_fixed":false,"allow_top_up":false,"cba_id":"602","deposit":"4000.00","interest_earned":"0.00","balance":"4000.00","end_date":"2025-06-15T08:35:32.518Z","start_date":"2025-05-15T08:35:32.518Z","periodic_amount":4000,"interest_rate":"11.00","interest_period":"yearly","tenor_value":1,"tenor_period":"months","interest_compounding_period":"yearly","interest_posting_period":"yearly","status":"active","frequency":null,"card_id":null,"mandate_id":null,"auto_maturity_action":"withdraw"}],"meta":{"page":1,"total_pages":6,"total_items":59}}