{"status":"success","data":[{"id":"01945181-9263-7ff5-a661-4580499e92f0","created_on":"2025-01-10T18:37:13.696Z","first_name":"Giuseppe","last_name":"Kautzer","email":"Charlie@mailinator.com","phone":null,"last_active":"2025-01-10T18:37:13.696Z","userProfile":{"id":"01945181-9268-7ff5-a661-4f75293909b5","status":"active","role_id":"019435d1-53b8-7aa1-b635-dec5a3f048ff","role":{"name":"Generic Wooden Ball","slug":"generic-wooden-ball"}}},{"id":"01944c40-1132-777f-a935-bb601297864f","created_on":"2025-01-09T18:07:34.707Z","first_name":null,"last_name":null,"email":"jothn@gmail.com","phone":null,"last_active":"2025-01-09T18:07:34.707Z","userProfile":{"id":"01944c40-1137-777f-a935-c693302fa239","status":"pending","role_id":"019435d1-53b8-7aa1-b635-dec5a3f048ff","role":{"name":"Generic Wooden Ball","slug":"generic-wooden-ball"}}},{"id":"01944bbd-b959-777f-a932-3f9b08b0197f","created_on":"2025-01-09T15:45:12.537Z","first_name":null,"last_name":null,"email":"mike@mailinator.com","phone":null,"last_active":"2025-01-09T15:45:12.537Z","userProfile":{"id":"01944bbd-b961-777f-a932-44593139b25b","status":"pending","role_id":"019435d1-02dd-7aa1-b635-ce8df84783c8","role":{"name":"Sleek Soft Pizza","slug":"sleek-soft-pizza"}}},{"id":"01944bbd-1bfe-777f-a932-2b036ebda4a6","created_on":"2025-01-09T15:44:32.254Z","first_name":null,"last_name":null,"email":"azeez@mailinator.com","phone":null,"last_active":"2025-01-09T15:44:32.254Z","userProfile":{"id":"01944bbd-1c03-777f-a932-356ceb3eb15f","status":"pending","role_id":"019435d1-02dd-7aa1-b635-ce8df84783c8","role":{"name":"Sleek Soft Pizza","slug":"sleek-soft-pizza"}}},{"id":"01944a80-f3cb-7881-990d-98798437f1f3","created_on":"2025-01-09T09:59:12.588Z","first_name":"Haven","last_name":"Mitchell","email":"calista@mailinator.com","phone":null,"last_active":"2025-01-10T08:53:08.403Z","userProfile":{"id":"01944a80-f3d1-7881-990d-a4d23f1656fe","status":"inactive","role_id":"01926788-1eaf-7336-86de-89316b9797d9","role":{"name":"Initiator","slug":"initiator"}}},{"id":"019442b6-ec7e-788e-b499-e1295489e89e","created_on":"2025-01-07T21:41:11.934Z","first_name":null,"last_name":null,"email":"Tani@mailinator.com","phone":null,"last_active":"2025-01-07T21:41:11.934Z","userProfile":{"id":"019442b6-ec82-788e-b499-ea45a18acec8","status":"pending","role_id":"019435d1-53b8-7aa1-b635-dec5a3f048ff","role":{"name":"Generic Wooden Ball","slug":"generic-wooden-ball"}}},{"id":"019438bd-d51e-7aa1-9609-028439fe0fcf","created_on":"2025-01-05T23:12:32.542Z","first_name":"Cleveland","last_name":"Runolfsdottir","email":"Easter@mailinator.com","phone":null,"last_active":"2025-01-05T23:12:32.542Z","userProfile":{"id":"019438bd-d522-7aa1-9609-0a3516f0747f","status":"inactive","role_id":"019435cb-8e7d-7aa1-b635-ad7f79da04bf","role":{"name":"Intelligent Rubber Computer","slug":"intelligent-rubber-computer"}}},{"id":"019435fc-b33e-7994-b9f8-365e85eab562","created_on":"2025-01-05T10:22:20.990Z","first_name":"Edison","last_name":"Hand","email":"Misty@mailinator.com","phone":null,"last_active":"2025-01-05T10:22:20.990Z","userProfile":{"id":"019435fc-b38e-7994-b9f8-3ee000bdeab2","status":"inactive","role_id":"019435cb-8e7d-7aa1-b635-ad7f79da04bf","role":{"name":"Intelligent Rubber Computer","slug":"intelligent-rubber-computer"}}},{"id":"019435eb-0965-7994-b9f7-1672c02fbbd9","created_on":"2025-01-05T10:03:03.397Z","first_name":null,"last_name":null,"email":"Sincere@mailinator.com","phone":null,"last_active":"2025-01-05T10:03:03.397Z","userProfile":{"id":"019435eb-096b-7994-b9f7-1f5c3868066e","status":"pending","role_id":"019435cb-8e7d-7aa1-b635-ad7f79da04bf","role":{"name":"Intelligent Rubber Computer","slug":"intelligent-rubber-computer"}}},{"id":"019435ea-d50b-7994-b9f7-06b92a04f51f","created_on":"2025-01-05T10:02:49.995Z","first_name":null,"last_name":null,"email":"Tatyana@mailinator.com","phone":null,"last_active":"2025-01-05T10:02:49.995Z","userProfile":{"id":"019435ea-d50f-7994-b9f7-0b10913082fa","status":"pending","role_id":"019435cb-8e7d-7aa1-b635-ad7f79da04bf","role":{"name":"Intelligent Rubber Computer","slug":"intelligent-rubber-computer"}}}],"meta":{"page":1,"total_pages":2,"total_items":19}}