{"status":"success","data":[{"id":"01945182-61a6-7ff5-a662-b8e4541940cc","meta":null,"created_on":"2025-01-10T18:38:06.756Z","created_by":"019372de-17ef-7cc2-8fc0-43fe11ba042f","modified_on":"2025-01-10T18:38:22.312Z","modified_by":null,"deleted_on":null,"deleted_by":null,"tenant_id":"00000000-0000-0000-0000-000000000000","account_id":"0193e462-3285-7ff7-a93e-42b71063a119","profile_id":"0193a649-e3d0-7881-8b7f-2ef1d89a9aff","cba_id":"1731","currency":"NGN","amount":"900.00","reference":"Ttobayhbuho","processor_reference":null,"processor_status":null,"processor_message":null,"status":"success","entry_type":"debit","narration":"Bill payment to gotv for 1102003467","transaction_date":"2025-01-10T18:38:06.753Z","transaction_type":"bill-payment","processor":"baxipay","reviewed_on":null,"reviewed_by":null,"batch_id":null,"schedule_id":null,"account":{"id":"0193e462-3285-7ff7-a93e-42b71063a119","meta":null,"created_on":"2024-12-20T14:04:20.997Z","created_by":null,"modified_on":"2025-01-10T18:37:22.566Z","modified_by":null,"deleted_on":null,"deleted_by":null,"tenant_id":"00000000-0000-0000-0000-000000000000","name":"emergency","cba_id":"0000000106","status":"active","profile_id":"0193a649-e3d0-7881-8b7f-2ef1d89a9aff","account_number":"0000000106","bank_id":"0193324f-cad0-7f86-923b-43fb21ac5b29","ledger_balance":"2000.00","hold_balance":"0.00","available_balance":"2000.00","currency":"NGN","restricted":false},"transfer":null,"disputes":[],"batch":null,"transfer_beneficiary":null,"bill_payment_beneficiary":null},{"id":"01945182-53a4-7ff5-a662-b18f5671e30a","meta":null,"created_on":"2025-01-10T18:38:03.172Z","created_by":"019372de-17ef-7cc2-8fc0-43fe11ba042f","modified_on":"2025-01-10T18:38:03.855Z","modified_by":null,"deleted_on":null,"deleted_by":null,"tenant_id":"00000000-0000-0000-0000-000000000000","account_id":"0193e462-3285-7ff7-a93e-42b71063a119","profile_id":"0193a649-e3d0-7881-8b7f-2ef1d89a9aff","cba_id":"1730","currency":"NGN","amount":"200.00","reference":"Tsijszzkyqg","processor_reference":null,"processor_status":null,"processor_message":null,"status":"success","entry_type":"debit","narration":"Bill payment to 9mobile for 11020034671","transaction_date":"2025-01-10T18:38:03.171Z","transaction_type":"bill-payment","processor":"baxipay","reviewed_on":null,"reviewed_by":null,"batch_id":null,"schedule_id":null,"account":{"id":"0193e462-3285-7ff7-a93e-42b71063a119","meta":null,"created_on":"2024-12-20T14:04:20.997Z","created_by":null,"modified_on":"2025-01-10T18:37:22.566Z","modified_by":null,"deleted_on":null,"deleted_by":null,"tenant_id":"00000000-0000-0000-0000-000000000000","name":"emergency","cba_id":"0000000106","status":"active","profile_id":"0193a649-e3d0-7881-8b7f-2ef1d89a9aff","account_number":"0000000106","bank_id":"0193324f-cad0-7f86-923b-43fb21ac5b29","ledger_balance":"2000.00","hold_balance":"0.00","available_balance":"2000.00","currency":"NGN","restricted":false},"transfer":null,"disputes":[],"batch":null,"transfer_beneficiary":null,"bill_payment_beneficiary":null},{"id":"01945182-4f6c-7ff5-a662-aca633af0b08","meta":null,"created_on":"2025-01-10T18:38:02.091Z","created_by":"019372de-17ef-7cc2-8fc0-43fe11ba042f","modified_on":"2025-01-10T18:38:02.740Z","modified_by":null,"deleted_on":null,"deleted_by":null,"tenant_id":"00000000-0000-0000-0000-000000000000","account_id":"0193e462-3285-7ff7-a93e-42b71063a119","profile_id":"0193a649-e3d0-7881-8b7f-2ef1d89a9aff","cba_id":"1729","currency":"NGN","amount":"50.00","reference":"Txwjyafvnsw","processor_reference":null,"processor_status":null,"processor_message":null,"status":"success","entry_type":"debit","narration":"Bill payment to airtel for 11020034671","transaction_date":"2025-01-10T18:38:02.088Z","transaction_type":"bill-payment","processor":"baxipay","reviewed_on":null,"reviewed_by":null,"batch_id":null,"schedule_id":null,"account":{"id":"0193e462-3285-7ff7-a93e-42b71063a119","meta":null,"created_on":"2024-12-20T14:04:20.997Z","created_by":null,"modified_on":"2025-01-10T18:37:22.566Z","modified_by":null,"deleted_on":null,"deleted_by":null,"tenant_id":"00000000-0000-0000-0000-000000000000","name":"emergency","cba_id":"0000000106","status":"active","profile_id":"0193a649-e3d0-7881-8b7f-2ef1d89a9aff","account_number":"0000000106","bank_id":"0193324f-cad0-7f86-923b-43fb21ac5b29","ledger_balance":"2000.00","hold_balance":"0.00","available_balance":"2000.00","currency":"NGN","restricted":false},"transfer":null,"disputes":[],"batch":null,"transfer_beneficiary":null,"bill_payment_beneficiary":null},{"id":"01945182-4473-7ff5-a662-a3903b1bf99b","meta":null,"created_on":"2025-01-10T18:37:59.283Z","created_by":"019372de-17ef-7cc2-8fc0-43fe11ba042f","modified_on":"2025-01-10T18:37:59.706Z","modified_by":null,"deleted_on":null,"deleted_by":null,"tenant_id":"00000000-0000-0000-0000-000000000000","account_id":"0193e462-3285-7ff7-a93e-42b71063a119","profile_id":"0193a649-e3d0-7881-8b7f-2ef1d89a9aff","cba_id":"1728","currency":"NGN","amount":"100.00","reference":"Ttvpvimputf","processor_reference":null,"processor_status":null,"processor_message":null,"status":"success","entry_type":"debit","narration":"Bill payment to mtn for 11020034671","transaction_date":"2025-01-10T18:37:59.282Z","transaction_type":"bill-payment","processor":"baxipay","reviewed_on":null,"reviewed_by":null,"batch_id":null,"schedule_id":null,"account":{"id":"0193e462-3285-7ff7-a93e-42b71063a119","meta":null,"created_on":"2024-12-20T14:04:20.997Z","created_by":null,"modified_on":"2025-01-10T18:37:22.566Z","modified_by":null,"deleted_on":null,"deleted_by":null,"tenant_id":"00000000-0000-0000-0000-000000000000","name":"emergency","cba_id":"0000000106","status":"active","profile_id":"0193a649-e3d0-7881-8b7f-2ef1d89a9aff","account_number":"0000000106","bank_id":"0193324f-cad0-7f86-923b-43fb21ac5b29","ledger_balance":"2000.00","hold_balance":"0.00","available_balance":"2000.00","currency":"NGN","restricted":false},"transfer":null,"disputes":[],"batch":null,"transfer_beneficiary":null,"bill_payment_beneficiary":null},{"id":"01945182-41a8-7ff5-a662-9dde323dd2dc","meta":null,"created_on":"2025-01-10T18:37:58.568Z","created_by":"019372de-17ef-7cc2-8fc0-43fe11ba042f","modified_on":"2025-01-10T18:37:58.844Z","modified_by":null,"deleted_on":null,"deleted_by":null,"tenant_id":"00000000-0000-0000-0000-000000000000","account_id":"0193e462-3285-7ff7-a93e-42b71063a119","profile_id":"0193a649-e3d0-7881-8b7f-2ef1d89a9aff","cba_id":"1727","currency":"NGN","amount":"100.00","reference":"Tmxrdmnvzai","processor_reference":null,"processor_status":null,"processor_message":null,"status":"success","entry_type":"debit","narration":"Bill payment to smile for 1102003467","transaction_date":"2025-01-10T18:37:58.567Z","transaction_type":"bill-payment","processor":"baxipay","reviewed_on":null,"reviewed_by":null,"batch_id":null,"schedule_id":null,"account":{"id":"0193e462-3285-7ff7-a93e-42b71063a119","meta":null,"created_on":"2024-12-20T14:04:20.997Z","created_by":null,"modified_on":"2025-01-10T18:37:22.566Z","modified_by":null,"deleted_on":null,"deleted_by":null,"tenant_id":"00000000-0000-0000-0000-000000000000","name":"emergency","cba_id":"0000000106","status":"active","profile_id":"0193a649-e3d0-7881-8b7f-2ef1d89a9aff","account_number":"0000000106","bank_id":"0193324f-cad0-7f86-923b-43fb21ac5b29","ledger_balance":"2000.00","hold_balance":"0.00","available_balance":"2000.00","currency":"NGN","restricted":false},"transfer":null,"disputes":[],"batch":null,"transfer_beneficiary":null,"bill_payment_beneficiary":null},{"id":"01945182-3e47-7ff5-a662-913f619570ed","meta":null,"created_on":"2025-01-10T18:37:57.703Z","created_by":"019372de-17ef-7cc2-8fc0-43fe11ba042f","modified_on":"2025-01-10T18:37:58.144Z","modified_by":null,"deleted_on":null,"deleted_by":null,"tenant_id":"00000000-0000-0000-0000-000000000000","account_id":"0193e462-3285-7ff7-a93e-42b71063a119","profile_id":"0193a649-e3d0-7881-8b7f-2ef1d89a9aff","cba_id":"1726","currency":"NGN","amount":"100.00","reference":"Tbfbeihgnrr","processor_reference":null,"processor_status":null,"processor_message":null,"status":"success","entry_type":"debit","narration":"Bill payment to 9mobile for 1102003467","transaction_date":"2025-01-10T18:37:57.702Z","transaction_type":"bill-payment","processor":"baxipay","reviewed_on":null,"reviewed_by":null,"batch_id":null,"schedule_id":null,"account":{"id":"0193e462-3285-7ff7-a93e-42b71063a119","meta":null,"created_on":"2024-12-20T14:04:20.997Z","created_by":null,"modified_on":"2025-01-10T18:37:22.566Z","modified_by":null,"deleted_on":null,"deleted_by":null,"tenant_id":"00000000-0000-0000-0000-000000000000","name":"emergency","cba_id":"0000000106","status":"active","profile_id":"0193a649-e3d0-7881-8b7f-2ef1d89a9aff","account_number":"0000000106","bank_id":"0193324f-cad0-7f86-923b-43fb21ac5b29","ledger_balance":"2000.00","hold_balance":"0.00","available_balance":"2000.00","currency":"NGN","restricted":false},"transfer":null,"disputes":[],"batch":null,"transfer_beneficiary":null,"bill_payment_beneficiary":null},{"id":"01945182-3a4f-7ff5-a662-8be958b43696","meta":null,"created_on":"2025-01-10T18:37:56.687Z","created_by":"019372de-17ef-7cc2-8fc0-43fe11ba042f","modified_on":"2025-01-10T18:37:57.161Z","modified_by":null,"deleted_on":null,"deleted_by":null,"tenant_id":"00000000-0000-0000-0000-000000000000","account_id":"0193e462-3285-7ff7-a93e-42b71063a119","profile_id":"0193a649-e3d0-7881-8b7f-2ef1d89a9aff","cba_id":"1725","currency":"NGN","amount":"100.00","reference":"Teuzlfgbpui","processor_reference":null,"processor_status":null,"processor_message":null,"status":"success","entry_type":"debit","narration":"Bill payment to airtel for 1102003467","transaction_date":"2025-01-10T18:37:56.686Z","transaction_type":"bill-payment","processor":"baxipay","reviewed_on":null,"reviewed_by":null,"batch_id":null,"schedule_id":null,"account":{"id":"0193e462-3285-7ff7-a93e-42b71063a119","meta":null,"created_on":"2024-12-20T14:04:20.997Z","created_by":null,"modified_on":"2025-01-10T18:37:22.566Z","modified_by":null,"deleted_on":null,"deleted_by":null,"tenant_id":"00000000-0000-0000-0000-000000000000","name":"emergency","cba_id":"0000000106","status":"active","profile_id":"0193a649-e3d0-7881-8b7f-2ef1d89a9aff","account_number":"0000000106","bank_id":"0193324f-cad0-7f86-923b-43fb21ac5b29","ledger_balance":"2000.00","hold_balance":"0.00","available_balance":"2000.00","currency":"NGN","restricted":false},"transfer":null,"disputes":[],"batch":null,"transfer_beneficiary":null,"bill_payment_beneficiary":null},{"id":"01945182-2451-7ff5-a662-83b5ebb05bd5","meta":null,"created_on":"2025-01-10T18:37:51.057Z","created_by":"019372de-17ef-7cc2-8fc0-43fe11ba042f","modified_on":"2025-01-10T18:37:56.163Z","modified_by":null,"deleted_on":null,"deleted_by":null,"tenant_id":"00000000-0000-0000-0000-000000000000","account_id":"0193e462-3285-7ff7-a93e-42b71063a119","profile_id":"0193a649-e3d0-7881-8b7f-2ef1d89a9aff","cba_id":"1724","currency":"NGN","amount":"100.00","reference":"Trgaqbmuvge","processor_reference":null,"processor_status":null,"processor_message":null,"status":"success","entry_type":"debit","narration":"Bill payment to glo for 1102003467","transaction_date":"2025-01-10T18:37:51.057Z","transaction_type":"bill-payment","processor":"baxipay","reviewed_on":null,"reviewed_by":null,"batch_id":null,"schedule_id":null,"account":{"id":"0193e462-3285-7ff7-a93e-42b71063a119","meta":null,"created_on":"2024-12-20T14:04:20.997Z","created_by":null,"modified_on":"2025-01-10T18:37:22.566Z","modified_by":null,"deleted_on":null,"deleted_by":null,"tenant_id":"00000000-0000-0000-0000-000000000000","name":"emergency","cba_id":"0000000106","status":"active","profile_id":"0193a649-e3d0-7881-8b7f-2ef1d89a9aff","account_number":"0000000106","bank_id":"0193324f-cad0-7f86-923b-43fb21ac5b29","ledger_balance":"2000.00","hold_balance":"0.00","available_balance":"2000.00","currency":"NGN","restricted":false},"transfer":null,"disputes":[],"batch":null,"transfer_beneficiary":null,"bill_payment_beneficiary":null},{"id":"01945182-2020-7ff5-a662-7a4c90f29b2b","meta":null,"created_on":"2025-01-10T18:37:49.985Z","created_by":"019372de-17ef-7cc2-8fc0-43fe11ba042f","modified_on":"2025-01-10T18:37:50.572Z","modified_by":null,"deleted_on":null,"deleted_by":null,"tenant_id":"00000000-0000-0000-0000-000000000000","account_id":"0193e462-3285-7ff7-a93e-42b71063a119","profile_id":"0193a649-e3d0-7881-8b7f-2ef1d89a9aff","cba_id":"1723","currency":"NGN","amount":"100.00","reference":"Trwisyjgruo","processor_reference":null,"processor_status":null,"processor_message":null,"status":"success","entry_type":"debit","narration":"Bill payment to mtn for 7918852161","transaction_date":"2025-01-10T18:37:49.984Z","transaction_type":"bill-payment","processor":"baxipay","reviewed_on":null,"reviewed_by":null,"batch_id":null,"schedule_id":null,"account":{"id":"0193e462-3285-7ff7-a93e-42b71063a119","meta":null,"created_on":"2024-12-20T14:04:20.997Z","created_by":null,"modified_on":"2025-01-10T18:37:22.566Z","modified_by":null,"deleted_on":null,"deleted_by":null,"tenant_id":"00000000-0000-0000-0000-000000000000","name":"emergency","cba_id":"0000000106","status":"active","profile_id":"0193a649-e3d0-7881-8b7f-2ef1d89a9aff","account_number":"0000000106","bank_id":"0193324f-cad0-7f86-923b-43fb21ac5b29","ledger_balance":"2000.00","hold_balance":"0.00","available_balance":"2000.00","currency":"NGN","restricted":false},"transfer":null,"disputes":[],"batch":null,"transfer_beneficiary":null,"bill_payment_beneficiary":null},{"id":"01945181-c8f2-7ff5-a661-f9aaec1a2449","meta":null,"created_on":"2025-01-10T18:37:27.666Z","created_by":"019372de-17ef-7cc2-8fc0-43fe11ba042f","modified_on":"2025-01-10T18:37:28.565Z","modified_by":null,"deleted_on":null,"deleted_by":null,"tenant_id":"00000000-0000-0000-0000-000000000000","account_id":"0193e462-3285-7ff7-a93e-42b71063a119","profile_id":"0193a649-e3d0-7881-8b7f-2ef1d89a9aff","cba_id":"1720","currency":"NGN","amount":"10.00","reference":"Tngsgqynhfe","processor_reference":null,"processor_status":null,"processor_message":null,"status":"success","entry_type":"debit","narration":"Sodiq","transaction_date":"2025-01-10T18:37:27.665Z","transaction_type":"fee","processor":"cba","reviewed_on":null,"reviewed_by":null,"batch_id":null,"schedule_id":null,"account":{"id":"0193e462-3285-7ff7-a93e-42b71063a119","meta":null,"created_on":"2024-12-20T14:04:20.997Z","created_by":null,"modified_on":"2025-01-10T18:37:22.566Z","modified_by":null,"deleted_on":null,"deleted_by":null,"tenant_id":"00000000-0000-0000-0000-000000000000","name":"emergency","cba_id":"0000000106","status":"active","profile_id":"0193a649-e3d0-7881-8b7f-2ef1d89a9aff","account_number":"0000000106","bank_id":"0193324f-cad0-7f86-923b-43fb21ac5b29","ledger_balance":"2000.00","hold_balance":"0.00","available_balance":"2000.00","currency":"NGN","restricted":false},"transfer":null,"disputes":[],"batch":null,"transfer_beneficiary":null,"bill_payment_beneficiary":null}],"meta":{"page":1,"total_pages":48,"total_items":471}}