{"status":"success","data":[{"id":"0194511f-4a8f-7ff5-a65e-e53ccef2c43d","meta":{"pin":"1234","biller_id":"mtn","category_id":"airtime","account_number":"09030253741"},"created_on":"2025-01-10T16:49:52.784Z","created_by_id":null,"modified_on":"2025-01-10T17:29:59.164Z","modified_by_id":null,"deleted_on":null,"deleted_by_id":null,"tenant_id":"00000000-0000-0000-0000-000000000000","frequency":"daily","type":"bill-payment","start_date":"2025-01-11T00:00:00.000Z","next_run_date":"2025-01-11T00:00:00.000Z","end_date":"2025-01-13T00:00:00.000Z","status":"active","amount":"100.00","profile_id":"01931947-9fea-744d-8f66-118c138292e3","account_id":"0193f0e2-ab16-799a-85ae-fa4fbe2990a7","user":null},{"id":"01944a78-1f4d-7881-990d-5cbf0da5d380","meta":{"pin":"1234","biller_id":"9mobile","category_id":"airtime","account_number":"09055755671"},"created_on":"2025-01-09T09:49:33.902Z","created_by_id":null,"modified_on":"2025-01-09T09:49:33.902Z","modified_by_id":null,"deleted_on":null,"deleted_by_id":null,"tenant_id":"00000000-0000-0000-0000-000000000000","frequency":"daily","type":"bill-payment","start_date":"2025-01-10T00:00:00.000Z","next_run_date":"2025-01-10T00:00:00.000Z","end_date":"2025-01-16T00:00:00.000Z","status":"active","amount":"100.00","profile_id":"01931947-9fea-744d-8f66-118c138292e3","account_id":"0193f0e2-ab16-799a-85ae-fa4fbe2990a7","user":null},{"id":"01944736-dbf8-755d-84cd-c47e2cb334bc","meta":{"pin":"1234","biller_id":"mtn","option_id":"","category_id":"airtime","account_number":"09055755671"},"created_on":"2025-01-08T18:39:25.176Z","created_by_id":null,"modified_on":"2025-01-10T16:53:44.575Z","modified_by_id":null,"deleted_on":null,"deleted_by_id":null,"tenant_id":"00000000-0000-0000-0000-000000000000","frequency":"daily","type":"bill-payment","start_date":"2025-01-10T21:00:00.000Z","next_run_date":"2025-01-10T21:00:00.000Z","end_date":"2025-01-20T21:00:00.000Z","status":"active","amount":"100.23","profile_id":"01931947-9fea-744d-8f66-118c138292e3","account_id":"0193912b-6f5e-7335-b5bc-3302dcc08103","user":null},{"id":"01944736-d7af-755d-84cd-b82f459dc82f","meta":{"recipients":[{"bank_code":"999998","bank_name":"vee test","narration":"Sodiq","account_name":"Ake Mobolaji & Temabo","account_number":"1780004070"}]},"created_on":"2025-01-08T18:39:24.080Z","created_by_id":null,"modified_on":"2025-01-08T18:39:24.375Z","modified_by_id":null,"deleted_on":null,"deleted_by_id":null,"tenant_id":"00000000-0000-0000-0000-000000000000","frequency":"daily","type":"transfer","start_date":"2025-01-10T00:00:00.000Z","next_run_date":"2025-01-10T00:00:00.000Z","end_date":"2025-01-20T00:00:00.000Z","status":"active","amount":"50.23","profile_id":"01931947-9fea-744d-8f66-118c138292e3","account_id":"0193912b-6f5e-7335-b5bc-3302dcc08103","user":null},{"id":"019412eb-fffd-7aa7-b123-0cefc5596946","meta":{"biller_id":"dstv","option_id":"PRWE36","category_id":"cabletv"},"created_on":"2024-12-29T14:57:23.965Z","created_by_id":null,"modified_on":"2024-12-29T14:57:23.965Z","modified_by_id":null,"deleted_on":null,"deleted_by_id":null,"tenant_id":"00000000-0000-0000-0000-000000000000","frequency":"monthly","type":"bill-payment","start_date":"2024-12-31T00:00:00.000Z","next_run_date":"2024-12-31T00:00:00.000Z","end_date":"2025-01-31T00:00:00.000Z","status":"active","amount":"21000.00","profile_id":"01931947-9fea-744d-8f66-118c138292e3","account_id":"019390f5-db96-7335-b5bb-74eac1376a9c","user":null},{"id":"019412eb-9aab-7aa7-b123-0639939e5b18","meta":{"biller_id":"dstv","option_id":"PRWE36","category_id":"cabletv"},"created_on":"2024-12-29T14:56:58.026Z","created_by_id":null,"modified_on":"2024-12-29T14:56:58.026Z","modified_by_id":null,"deleted_on":null,"deleted_by_id":null,"tenant_id":"00000000-0000-0000-0000-000000000000","frequency":"monthly","type":"bill-payment","start_date":"2024-12-31T00:00:00.000Z","next_run_date":"2024-12-31T00:00:00.000Z","end_date":"2025-01-31T00:00:00.000Z","status":"active","amount":"21000.00","profile_id":"01931947-9fea-744d-8f66-118c138292e3","account_id":"019390f5-db96-7335-b5bb-74eac1376a9c","user":null},{"id":"019412e8-1f1f-7aa7-b122-ea49102a0128","meta":{"biller_id":"gotv","option_id":"GOTVSUPA","category_id":"cabletv"},"created_on":"2024-12-29T14:53:09.792Z","created_by_id":null,"modified_on":"2024-12-29T14:53:09.792Z","modified_by_id":null,"deleted_on":null,"deleted_by_id":null,"tenant_id":"00000000-0000-0000-0000-000000000000","frequency":"monthly","type":"bill-payment","start_date":"2024-12-30T00:00:00.000Z","next_run_date":"2024-12-30T00:00:00.000Z","end_date":"2025-02-19T00:00:00.000Z","status":"active","amount":"5500.00","profile_id":"01931947-9fea-744d-8f66-118c138292e3","account_id":"019390f5-db96-7335-b5bb-74eac1376a9c","user":null},{"id":"019412e8-1ad0-7aa7-b122-e102893156f0","meta":{"biller_id":"gotv","option_id":"GOTVSUPA","category_id":"cabletv"},"created_on":"2024-12-29T14:53:08.688Z","created_by_id":null,"modified_on":"2024-12-29T14:53:08.688Z","modified_by_id":null,"deleted_on":null,"deleted_by_id":null,"tenant_id":"00000000-0000-0000-0000-000000000000","frequency":"monthly","type":"bill-payment","start_date":"2024-12-30T00:00:00.000Z","next_run_date":"2024-12-30T00:00:00.000Z","end_date":"2025-02-19T00:00:00.000Z","status":"active","amount":"5500.00","profile_id":"01931947-9fea-744d-8f66-118c138292e3","account_id":"019390f5-db96-7335-b5bb-74eac1376a9c","user":null},{"id":"019412e8-183c-7aa7-b122-d88fcb1c9a6a","meta":{"biller_id":"gotv","option_id":"GOTVSUPA","category_id":"cabletv"},"created_on":"2024-12-29T14:53:08.028Z","created_by_id":null,"modified_on":"2024-12-29T14:53:08.028Z","modified_by_id":null,"deleted_on":null,"deleted_by_id":null,"tenant_id":"00000000-0000-0000-0000-000000000000","frequency":"monthly","type":"bill-payment","start_date":"2024-12-30T00:00:00.000Z","next_run_date":"2024-12-30T00:00:00.000Z","end_date":"2025-02-19T00:00:00.000Z","status":"active","amount":"5500.00","profile_id":"01931947-9fea-744d-8f66-118c138292e3","account_id":"019390f5-db96-7335-b5bb-74eac1376a9c","user":null},{"id":"019412e8-1531-7aa7-b122-d2149b9b446d","meta":{"biller_id":"gotv","option_id":"GOTVSUPA","category_id":"cabletv"},"created_on":"2024-12-29T14:53:07.250Z","created_by_id":null,"modified_on":"2024-12-29T14:53:07.250Z","modified_by_id":null,"deleted_on":null,"deleted_by_id":null,"tenant_id":"00000000-0000-0000-0000-000000000000","frequency":"monthly","type":"bill-payment","start_date":"2024-12-30T00:00:00.000Z","next_run_date":"2024-12-30T00:00:00.000Z","end_date":"2025-02-19T00:00:00.000Z","status":"active","amount":"5500.00","profile_id":"01931947-9fea-744d-8f66-118c138292e3","account_id":"019390f5-db96-7335-b5bb-74eac1376a9c","user":null}],"meta":{"page":1,"total_pages":6,"total_items":56}}