{"status":"success","data":[{"id":"0196ac10-ea1c-7cca-bb5a-d8a733da6841","meta":null,"created_on":"2025-05-07T18:45:11.836Z","created_by_id":null,"modified_on":"2025-05-07T18:45:11.836Z","modified_by_id":null,"deleted_on":null,"deleted_by_id":null,"tenant_id":"00000000-0000-0000-0000-000000000000","user_id":"019372de-17ef-7cc2-8fc0-43fe11ba042f","status":"pending","referree_id":"0196ac10-ea11-7cca-bb5a-d39adf74dc24","referree_earning":"233.33","referrer_earning":"100.32","user":{"id":"019372de-17ef-7cc2-8fc0-43fe11ba042f","meta":{},"created_on":"2024-11-28T13:02:58.029Z","created_by_id":null,"modified_on":"2025-05-07T18:46:17.424Z","modified_by_id":"019372de-17ef-7cc2-8fc0-43fe11ba042f","deleted_on":null,"deleted_by_id":null,"tenant_id":"00000000-0000-0000-0000-000000000000","email":"ismael@mailinator.com","status":"active","first_name":"Sunday","last_name":"Testing","twofa_enabled":false,"last_active":"2025-05-07T18:46:17.423Z","last_login":"2025-05-07T18:45:12.924Z","last_ip":"52.234.38.90","allowed_ips":null,"last_timezone":"America/Los_Angeles","last_location":"San Jose","phone":"+2348089722636","review":null,"gender":"male","date_of_birth":null,"cba_id":"31","photo_id":null,"referral_code":"7LD1QN","referred_by":null},"referree":{"id":"0196ac10-ea11-7cca-bb5a-d39adf74dc24","meta":null,"created_on":"2025-05-07T18:45:11.825Z","created_by_id":null,"modified_on":"2025-05-07T18:45:11.926Z","modified_by_id":null,"deleted_on":null,"deleted_by_id":null,"tenant_id":"00000000-0000-0000-0000-000000000000","email":"OwenSchillerClothingd@mailinator.com","status":"active","first_name":"Towne","last_name":"Kareem","twofa_enabled":false,"last_active":"2025-05-07T18:45:11.825Z","last_login":"2025-05-07T18:45:11.926Z","last_ip":"52.234.38.90","allowed_ips":null,"last_timezone":"America/Los_Angeles","last_location":"San Jose","phone":null,"review":null,"gender":null,"date_of_birth":null,"cba_id":null,"photo_id":null,"referral_code":"5BJ3X3","referred_by":"019372de-17ef-7cc2-8fc0-43fe11ba042f"},"events":[]},{"id":"01969cf8-b25e-7eeb-b170-b5ec8d44af61","meta":null,"created_on":"2025-05-04T20:24:26.264Z","created_by_id":null,"modified_on":"2025-05-04T20:24:26.264Z","modified_by_id":null,"deleted_on":null,"deleted_by_id":null,"tenant_id":"00000000-0000-0000-0000-000000000000","user_id":"019372de-17ef-7cc2-8fc0-43fe11ba042f","status":"pending","referree_id":"01969cf8-b147-7eeb-b170-aa98831124fe","referree_earning":"233.33","referrer_earning":"100.32","user":{"id":"019372de-17ef-7cc2-8fc0-43fe11ba042f","meta":{},"created_on":"2024-11-28T13:02:58.029Z","created_by_id":null,"modified_on":"2025-05-07T18:46:17.424Z","modified_by_id":"019372de-17ef-7cc2-8fc0-43fe11ba042f","deleted_on":null,"deleted_by_id":null,"tenant_id":"00000000-0000-0000-0000-000000000000","email":"ismael@mailinator.com","status":"active","first_name":"Sunday","last_name":"Testing","twofa_enabled":false,"last_active":"2025-05-07T18:46:17.423Z","last_login":"2025-05-07T18:45:12.924Z","last_ip":"52.234.38.90","allowed_ips":null,"last_timezone":"America/Los_Angeles","last_location":"San Jose","phone":"+2348089722636","review":null,"gender":"male","date_of_birth":null,"cba_id":"31","photo_id":null,"referral_code":"7LD1QN","referred_by":null},"referree":{"id":"01969cf8-b147-7eeb-b170-aa98831124fe","meta":null,"created_on":"2025-05-04T20:24:26.184Z","created_by_id":null,"modified_on":"2025-05-04T20:24:26.675Z","modified_by_id":null,"deleted_on":null,"deleted_by_id":null,"tenant_id":"00000000-0000-0000-0000-000000000000","email":"ZellaWymanRubberg@mailinator.com","status":"active","first_name":"Zieme","last_name":"Brooklyn","twofa_enabled":false,"last_active":"2025-05-04T20:24:26.184Z","last_login":null,"last_ip":"20.161.77.186","allowed_ips":null,"last_timezone":"America/New_York","last_location":"Boydton","phone":null,"review":null,"gender":null,"date_of_birth":null,"cba_id":null,"photo_id":null,"referral_code":"LU5RI1","referred_by":"019372de-17ef-7cc2-8fc0-43fe11ba042f"},"events":[]},{"id":"01969ceb-29a0-7eeb-b170-7a0f1b916846","meta":null,"created_on":"2025-05-04T20:09:39.489Z","created_by_id":null,"modified_on":"2025-05-04T20:09:39.489Z","modified_by_id":null,"deleted_on":null,"deleted_by_id":null,"tenant_id":"00000000-0000-0000-0000-000000000000","user_id":"019372de-17ef-7cc2-8fc0-43fe11ba042f","status":"pending","referree_id":"01969ceb-2998-7eeb-b170-705403d99844","referree_earning":"233.33","referrer_earning":"100.32","user":{"id":"019372de-17ef-7cc2-8fc0-43fe11ba042f","meta":{},"created_on":"2024-11-28T13:02:58.029Z","created_by_id":null,"modified_on":"2025-05-07T18:46:17.424Z","modified_by_id":"019372de-17ef-7cc2-8fc0-43fe11ba042f","deleted_on":null,"deleted_by_id":null,"tenant_id":"00000000-0000-0000-0000-000000000000","email":"ismael@mailinator.com","status":"active","first_name":"Sunday","last_name":"Testing","twofa_enabled":false,"last_active":"2025-05-07T18:46:17.423Z","last_login":"2025-05-07T18:45:12.924Z","last_ip":"52.234.38.90","allowed_ips":null,"last_timezone":"America/Los_Angeles","last_location":"San Jose","phone":"+2348089722636","review":null,"gender":"male","date_of_birth":null,"cba_id":"31","photo_id":null,"referral_code":"7LD1QN","referred_by":null},"referree":{"id":"01969ceb-2998-7eeb-b170-705403d99844","meta":null,"created_on":"2025-05-04T20:09:39.480Z","created_by_id":null,"modified_on":"2025-05-04T20:09:39.578Z","modified_by_id":null,"deleted_on":null,"deleted_by_id":null,"tenant_id":"00000000-0000-0000-0000-000000000000","email":"ArleneKiehnXML@mailinator.com","status":"active","first_name":"Medhurst","last_name":"Carlie","twofa_enabled":false,"last_active":"2025-05-04T20:09:39.480Z","last_login":null,"last_ip":"20.57.79.233","allowed_ips":null,"last_timezone":"America/New_York","last_location":"Boydton","phone":null,"review":null,"gender":null,"date_of_birth":null,"cba_id":null,"photo_id":null,"referral_code":"39QXEC","referred_by":"019372de-17ef-7cc2-8fc0-43fe11ba042f"},"events":[]},{"id":"01969253-b408-7884-93b5-e80dc459519c","meta":null,"created_on":"2025-05-02T18:48:01.209Z","created_by_id":null,"modified_on":"2025-05-02T18:48:01.209Z","modified_by_id":null,"deleted_on":null,"deleted_by_id":null,"tenant_id":"00000000-0000-0000-0000-000000000000","user_id":"019372de-17ef-7cc2-8fc0-43fe11ba042f","status":"pending","referree_id":"01969253-b3b2-7884-93b5-e03aed92b1dc","referree_earning":"233.33","referrer_earning":"100.32","user":{"id":"019372de-17ef-7cc2-8fc0-43fe11ba042f","meta":{},"created_on":"2024-11-28T13:02:58.029Z","created_by_id":null,"modified_on":"2025-05-07T18:46:17.424Z","modified_by_id":"019372de-17ef-7cc2-8fc0-43fe11ba042f","deleted_on":null,"deleted_by_id":null,"tenant_id":"00000000-0000-0000-0000-000000000000","email":"ismael@mailinator.com","status":"active","first_name":"Sunday","last_name":"Testing","twofa_enabled":false,"last_active":"2025-05-07T18:46:17.423Z","last_login":"2025-05-07T18:45:12.924Z","last_ip":"52.234.38.90","allowed_ips":null,"last_timezone":"America/Los_Angeles","last_location":"San Jose","phone":"+2348089722636","review":null,"gender":"male","date_of_birth":null,"cba_id":"31","photo_id":null,"referral_code":"7LD1QN","referred_by":null},"referree":{"id":"01969253-b3b2-7884-93b5-e03aed92b1dc","meta":null,"created_on":"2025-05-02T18:48:01.195Z","created_by_id":null,"modified_on":"2025-05-02T18:48:01.390Z","modified_by_id":null,"deleted_on":null,"deleted_by_id":null,"tenant_id":"00000000-0000-0000-0000-000000000000","email":"IkeBernhardproductivity@mailinator.com","status":"active","first_name":"Morar","last_name":"Deondre","twofa_enabled":false,"last_active":"2025-05-02T18:48:01.195Z","last_login":null,"last_ip":"52.225.77.185","allowed_ips":null,"last_timezone":"America/Los_Angeles","last_location":"San Jose","phone":null,"review":null,"gender":null,"date_of_birth":null,"cba_id":null,"photo_id":null,"referral_code":"P6PQL2","referred_by":"019372de-17ef-7cc2-8fc0-43fe11ba042f"},"events":[]},{"id":"01969253-3466-7884-93b4-c99306dbbd1b","meta":null,"created_on":"2025-05-02T18:47:28.615Z","created_by_id":null,"modified_on":"2025-05-02T18:47:28.615Z","modified_by_id":null,"deleted_on":null,"deleted_by_id":null,"tenant_id":"00000000-0000-0000-0000-000000000000","user_id":"019372de-17ef-7cc2-8fc0-43fe11ba042f","status":"pending","referree_id":"01969253-345e-7884-93b4-c69fa83b4bf7","referree_earning":"233.33","referrer_earning":"100.32","user":{"id":"019372de-17ef-7cc2-8fc0-43fe11ba042f","meta":{},"created_on":"2024-11-28T13:02:58.029Z","created_by_id":null,"modified_on":"2025-05-07T18:46:17.424Z","modified_by_id":"019372de-17ef-7cc2-8fc0-43fe11ba042f","deleted_on":null,"deleted_by_id":null,"tenant_id":"00000000-0000-0000-0000-000000000000","email":"ismael@mailinator.com","status":"active","first_name":"Sunday","last_name":"Testing","twofa_enabled":false,"last_active":"2025-05-07T18:46:17.423Z","last_login":"2025-05-07T18:45:12.924Z","last_ip":"52.234.38.90","allowed_ips":null,"last_timezone":"America/Los_Angeles","last_location":"San Jose","phone":"+2348089722636","review":null,"gender":"male","date_of_birth":null,"cba_id":"31","photo_id":null,"referral_code":"7LD1QN","referred_by":null},"referree":{"id":"01969253-345e-7884-93b4-c69fa83b4bf7","meta":null,"created_on":"2025-05-02T18:47:28.607Z","created_by_id":null,"modified_on":"2025-05-02T18:47:28.702Z","modified_by_id":null,"deleted_on":null,"deleted_by_id":null,"tenant_id":"00000000-0000-0000-0000-000000000000","email":"HermannKutchoverriding9@mailinator.com","status":"active","first_name":"McGlynn","last_name":"Kasandra","twofa_enabled":false,"last_active":"2025-05-02T18:47:28.607Z","last_login":null,"last_ip":"52.234.44.55","allowed_ips":null,"last_timezone":"America/Los_Angeles","last_location":"San Jose","phone":null,"review":null,"gender":null,"date_of_birth":null,"cba_id":null,"photo_id":null,"referral_code":"EEOPAU","referred_by":"019372de-17ef-7cc2-8fc0-43fe11ba042f"},"events":[]},{"id":"01968804-46b5-7112-b018-cad763814044","meta":null,"created_on":"2025-04-30T18:45:03.796Z","created_by_id":null,"modified_on":"2025-04-30T18:45:03.796Z","modified_by_id":null,"deleted_on":null,"deleted_by_id":null,"tenant_id":"00000000-0000-0000-0000-000000000000","user_id":"019372de-17ef-7cc2-8fc0-43fe11ba042f","status":"pending","referree_id":"01968804-46ac-7112-b018-c3ee00839b0e","referree_earning":"233.33","referrer_earning":"100.32","user":{"id":"019372de-17ef-7cc2-8fc0-43fe11ba042f","meta":{},"created_on":"2024-11-28T13:02:58.029Z","created_by_id":null,"modified_on":"2025-05-07T18:46:17.424Z","modified_by_id":"019372de-17ef-7cc2-8fc0-43fe11ba042f","deleted_on":null,"deleted_by_id":null,"tenant_id":"00000000-0000-0000-0000-000000000000","email":"ismael@mailinator.com","status":"active","first_name":"Sunday","last_name":"Testing","twofa_enabled":false,"last_active":"2025-05-07T18:46:17.423Z","last_login":"2025-05-07T18:45:12.924Z","last_ip":"52.234.38.90","allowed_ips":null,"last_timezone":"America/Los_Angeles","last_location":"San Jose","phone":"+2348089722636","review":null,"gender":"male","date_of_birth":null,"cba_id":"31","photo_id":null,"referral_code":"7LD1QN","referred_by":null},"referree":{"id":"01968804-46ac-7112-b018-c3ee00839b0e","meta":null,"created_on":"2025-04-30T18:45:03.788Z","created_by_id":null,"modified_on":"2025-04-30T18:45:03.977Z","modified_by_id":null,"deleted_on":null,"deleted_by_id":null,"tenant_id":"00000000-0000-0000-0000-000000000000","email":"OttoRobertsclient-serverf@mailinator.com","status":"active","first_name":"Becker","last_name":"Van","twofa_enabled":false,"last_active":"2025-04-30T18:45:03.788Z","last_login":null,"last_ip":"52.234.47.219","allowed_ips":null,"last_timezone":"America/Los_Angeles","last_location":"San Jose","phone":null,"review":null,"gender":null,"date_of_birth":null,"cba_id":null,"photo_id":null,"referral_code":"G9CD9K","referred_by":"019372de-17ef-7cc2-8fc0-43fe11ba042f"},"events":[]},{"id":"019678eb-f4df-7664-b416-eb37f86a4500","meta":null,"created_on":"2025-04-27T20:24:11.743Z","created_by_id":null,"modified_on":"2025-04-27T20:24:11.743Z","modified_by_id":null,"deleted_on":null,"deleted_by_id":null,"tenant_id":"00000000-0000-0000-0000-000000000000","user_id":"019372de-17ef-7cc2-8fc0-43fe11ba042f","status":"pending","referree_id":"019678eb-f4d9-7664-b416-e0a100ba7c5f","referree_earning":"233.33","referrer_earning":"100.32","user":{"id":"019372de-17ef-7cc2-8fc0-43fe11ba042f","meta":{},"created_on":"2024-11-28T13:02:58.029Z","created_by_id":null,"modified_on":"2025-05-07T18:46:17.424Z","modified_by_id":"019372de-17ef-7cc2-8fc0-43fe11ba042f","deleted_on":null,"deleted_by_id":null,"tenant_id":"00000000-0000-0000-0000-000000000000","email":"ismael@mailinator.com","status":"active","first_name":"Sunday","last_name":"Testing","twofa_enabled":false,"last_active":"2025-05-07T18:46:17.423Z","last_login":"2025-05-07T18:45:12.924Z","last_ip":"52.234.38.90","allowed_ips":null,"last_timezone":"America/Los_Angeles","last_location":"San Jose","phone":"+2348089722636","review":null,"gender":"male","date_of_birth":null,"cba_id":"31","photo_id":null,"referral_code":"7LD1QN","referred_by":null},"referree":{"id":"019678eb-f4d9-7664-b416-e0a100ba7c5f","meta":null,"created_on":"2025-04-27T20:24:11.737Z","created_by_id":null,"modified_on":"2025-04-27T20:24:11.756Z","modified_by_id":null,"deleted_on":null,"deleted_by_id":null,"tenant_id":"00000000-0000-0000-0000-000000000000","email":"AraBorersynthesized@mailinator.com","status":"active","first_name":"Kerluke","last_name":"Reece","twofa_enabled":false,"last_active":"2025-04-27T20:24:11.737Z","last_login":null,"last_ip":"68.154.30.146","allowed_ips":null,"last_timezone":"America/Chicago","last_location":"","phone":null,"review":null,"gender":null,"date_of_birth":null,"cba_id":null,"photo_id":null,"referral_code":"981ZCU","referred_by":"019372de-17ef-7cc2-8fc0-43fe11ba042f"},"events":[]},{"id":"019678de-a6ab-7664-b416-b10436e5f49d","meta":null,"created_on":"2025-04-27T20:09:39.755Z","created_by_id":null,"modified_on":"2025-04-27T20:09:39.755Z","modified_by_id":null,"deleted_on":null,"deleted_by_id":null,"tenant_id":"00000000-0000-0000-0000-000000000000","user_id":"019372de-17ef-7cc2-8fc0-43fe11ba042f","status":"pending","referree_id":"019678de-a6a4-7664-b416-ad16a202649d","referree_earning":"233.33","referrer_earning":"100.32","user":{"id":"019372de-17ef-7cc2-8fc0-43fe11ba042f","meta":{},"created_on":"2024-11-28T13:02:58.029Z","created_by_id":null,"modified_on":"2025-05-07T18:46:17.424Z","modified_by_id":"019372de-17ef-7cc2-8fc0-43fe11ba042f","deleted_on":null,"deleted_by_id":null,"tenant_id":"00000000-0000-0000-0000-000000000000","email":"ismael@mailinator.com","status":"active","first_name":"Sunday","last_name":"Testing","twofa_enabled":false,"last_active":"2025-05-07T18:46:17.423Z","last_login":"2025-05-07T18:45:12.924Z","last_ip":"52.234.38.90","allowed_ips":null,"last_timezone":"America/Los_Angeles","last_location":"San Jose","phone":"+2348089722636","review":null,"gender":"male","date_of_birth":null,"cba_id":"31","photo_id":null,"referral_code":"7LD1QN","referred_by":null},"referree":{"id":"019678de-a6a4-7664-b416-ad16a202649d","meta":null,"created_on":"2025-04-27T20:09:39.748Z","created_by_id":null,"modified_on":"2025-04-27T20:09:39.840Z","modified_by_id":null,"deleted_on":null,"deleted_by_id":null,"tenant_id":"00000000-0000-0000-0000-000000000000","email":"BrayanCroninplug-and-play@mailinator.com","status":"active","first_name":"Fahey","last_name":"Darrion","twofa_enabled":false,"last_active":"2025-04-27T20:09:39.748Z","last_login":null,"last_ip":"20.57.46.40","allowed_ips":null,"last_timezone":"America/New_York","last_location":"Boydton","phone":null,"review":null,"gender":null,"date_of_birth":null,"cba_id":null,"photo_id":null,"referral_code":"QG22QJ","referred_by":"019372de-17ef-7cc2-8fc0-43fe11ba042f"},"events":[]},{"id":"01966e46-be98-7664-b413-2939f233121d","meta":null,"created_on":"2025-04-25T18:47:32.271Z","created_by_id":null,"modified_on":"2025-04-25T18:47:32.271Z","modified_by_id":null,"deleted_on":null,"deleted_by_id":null,"tenant_id":"00000000-0000-0000-0000-000000000000","user_id":"019372de-17ef-7cc2-8fc0-43fe11ba042f","status":"pending","referree_id":"01966e46-be91-7664-b413-22dc39a9241e","referree_earning":"233.33","referrer_earning":"100.32","user":{"id":"019372de-17ef-7cc2-8fc0-43fe11ba042f","meta":{},"created_on":"2024-11-28T13:02:58.029Z","created_by_id":null,"modified_on":"2025-05-07T18:46:17.424Z","modified_by_id":"019372de-17ef-7cc2-8fc0-43fe11ba042f","deleted_on":null,"deleted_by_id":null,"tenant_id":"00000000-0000-0000-0000-000000000000","email":"ismael@mailinator.com","status":"active","first_name":"Sunday","last_name":"Testing","twofa_enabled":false,"last_active":"2025-05-07T18:46:17.423Z","last_login":"2025-05-07T18:45:12.924Z","last_ip":"52.234.38.90","allowed_ips":null,"last_timezone":"America/Los_Angeles","last_location":"San Jose","phone":"+2348089722636","review":null,"gender":"male","date_of_birth":null,"cba_id":"31","photo_id":null,"referral_code":"7LD1QN","referred_by":null},"referree":{"id":"01966e46-be91-7664-b413-22dc39a9241e","meta":null,"created_on":"2025-04-25T18:47:32.264Z","created_by_id":null,"modified_on":"2025-04-25T18:47:32.283Z","modified_by_id":null,"deleted_on":null,"deleted_by_id":null,"tenant_id":"00000000-0000-0000-0000-000000000000","email":"TessNienowShirt@mailinator.com","status":"active","first_name":"Green","last_name":"Kelsi","twofa_enabled":false,"last_active":"2025-04-25T18:47:32.264Z","last_login":null,"last_ip":"52.234.38.165","allowed_ips":null,"last_timezone":"America/Los_Angeles","last_location":"San Jose","phone":null,"review":null,"gender":null,"date_of_birth":null,"cba_id":null,"photo_id":null,"referral_code":"FMRK6F","referred_by":"019372de-17ef-7cc2-8fc0-43fe11ba042f"},"events":[]},{"id":"01966e46-571a-7664-b411-f6128f02dd0f","meta":null,"created_on":"2025-04-25T18:47:05.777Z","created_by_id":null,"modified_on":"2025-04-25T18:47:05.777Z","modified_by_id":null,"deleted_on":null,"deleted_by_id":null,"tenant_id":"00000000-0000-0000-0000-000000000000","user_id":"019372de-17ef-7cc2-8fc0-43fe11ba042f","status":"pending","referree_id":"01966e46-5712-7664-b411-ed860b0c7ed9","referree_earning":"233.33","referrer_earning":"100.32","user":{"id":"019372de-17ef-7cc2-8fc0-43fe11ba042f","meta":{},"created_on":"2024-11-28T13:02:58.029Z","created_by_id":null,"modified_on":"2025-05-07T18:46:17.424Z","modified_by_id":"019372de-17ef-7cc2-8fc0-43fe11ba042f","deleted_on":null,"deleted_by_id":null,"tenant_id":"00000000-0000-0000-0000-000000000000","email":"ismael@mailinator.com","status":"active","first_name":"Sunday","last_name":"Testing","twofa_enabled":false,"last_active":"2025-05-07T18:46:17.423Z","last_login":"2025-05-07T18:45:12.924Z","last_ip":"52.234.38.90","allowed_ips":null,"last_timezone":"America/Los_Angeles","last_location":"San Jose","phone":"+2348089722636","review":null,"gender":"male","date_of_birth":null,"cba_id":"31","photo_id":null,"referral_code":"7LD1QN","referred_by":null},"referree":{"id":"01966e46-5712-7664-b411-ed860b0c7ed9","meta":null,"created_on":"2025-04-25T18:47:05.769Z","created_by_id":null,"modified_on":"2025-04-25T18:47:05.863Z","modified_by_id":null,"deleted_on":null,"deleted_by_id":null,"tenant_id":"00000000-0000-0000-0000-000000000000","email":"MartinaSchadencircuit6@mailinator.com","status":"active","first_name":"Champlin","last_name":"Reginald","twofa_enabled":false,"last_active":"2025-04-25T18:47:05.769Z","last_login":null,"last_ip":"20.102.199.89","allowed_ips":null,"last_timezone":"America/Chicago","last_location":"Chicago","phone":null,"review":null,"gender":null,"date_of_birth":null,"cba_id":null,"photo_id":null,"referral_code":"VIHJ8W","referred_by":"019372de-17ef-7cc2-8fc0-43fe11ba042f"},"events":[]}],"meta":{"page":1,"total_pages":10,"total_items":92}}