{"status":"success","data":[{"id":"0196ac11-f280-7cca-bb5d-b7496a67403b","meta":null,"created_on":"2025-05-07T18:46:19.520Z","created_by_id":"019372de-17ef-7cc2-8fc0-43fe11ba042f","modified_on":"2025-05-07T18:46:19.520Z","modified_by_id":null,"deleted_on":null,"deleted_by_id":null,"tenant_id":"00000000-0000-0000-0000-000000000000","profile_id":"0193a649-e3d0-7881-8b7f-2ef1d89a9aff","name":"Vacation Funds","product_id":"0196ab83-3217-7ff4-8b54-ea2f79a13044","account_id":"01951065-f30c-7bbe-8a30-3eee60a72183","is_fixed":true,"allow_top_up":false,"cba_id":"582","deposit":"500.00","interest_earned":"0.00","balance":"0.00","end_date":"2025-08-07T18:46:19.127Z","start_date":"2025-05-07T18:46:19.127Z","periodic_amount":500,"interest_rate":"10.00","interest_period":"yearly","tenor_value":3,"tenor_period":"months","interest_compounding_period":"yearly","interest_posting_period":"yearly","status":"active","frequency":null,"card_id":null,"mandate_id":null,"auto_maturity_action":"withdraw"},{"id":"0196ab87-a608-7ff4-8b55-5e6fc008c3c4","meta":null,"created_on":"2025-05-07T16:15:15.975Z","created_by_id":"019372de-17ef-7cc2-8fc0-43fe11ba042f","modified_on":"2025-05-07T16:42:58.271Z","modified_by_id":"019372de-17ef-7cc2-8fc0-43fe11ba042f","deleted_on":null,"deleted_by_id":null,"tenant_id":"00000000-0000-0000-0000-000000000000","profile_id":"0193a649-e3d0-7881-8b7f-2ef1d89a9aff","name":"Test demo","product_id":"0196ab83-3217-7ff4-8b54-ea2f79a13044","account_id":"0193a699-2f15-7881-8b7f-ae50980bcfad","is_fixed":true,"allow_top_up":false,"cba_id":"581","deposit":"100000.00","interest_earned":"41.10","balance":"100000.00","end_date":"2025-08-07T16:15:13.379Z","start_date":"2025-05-07T16:15:13.379Z","periodic_amount":100000,"interest_rate":"10.00","interest_period":"yearly","tenor_value":3,"tenor_period":"months","interest_compounding_period":"yearly","interest_posting_period":"yearly","status":"active","frequency":null,"card_id":null,"mandate_id":null,"auto_maturity_action":"withdraw"},{"id":"0196ab77-303f-7bbe-a0ff-2e2effe9d0a3","meta":null,"created_on":"2025-05-07T15:57:17.245Z","created_by_id":"019372de-17ef-7cc2-8fc0-43fe11ba042f","modified_on":"2025-05-07T16:42:58.489Z","modified_by_id":"019372de-17ef-7cc2-8fc0-43fe11ba042f","deleted_on":null,"deleted_by_id":null,"tenant_id":"00000000-0000-0000-0000-000000000000","profile_id":"0193a649-e3d0-7881-8b7f-2ef1d89a9aff","name":"Testing Fixed Investments","product_id":"0196a04c-3a69-7553-8352-07dad42c2af0","account_id":"0193a699-2f15-7881-8b7f-ae50980bcfad","is_fixed":true,"allow_top_up":false,"cba_id":"580","deposit":"100000.00","interest_earned":"41.10","balance":"100000.00","end_date":"2025-05-17T15:57:14.602Z","start_date":"2025-05-07T15:57:14.602Z","periodic_amount":100000,"interest_rate":"5.00","interest_period":"monthly","tenor_value":10,"tenor_period":"days","interest_compounding_period":"monthly","interest_posting_period":"monthly","status":"active","frequency":null,"card_id":null,"mandate_id":null,"auto_maturity_action":"withdraw"},{"id":"0196ab77-2697-7bbe-a0ff-14d6fa910923","meta":null,"created_on":"2025-05-07T15:57:14.773Z","created_by_id":"019372de-17ef-7cc2-8fc0-43fe11ba042f","modified_on":"2025-05-07T16:42:58.688Z","modified_by_id":"019372de-17ef-7cc2-8fc0-43fe11ba042f","deleted_on":null,"deleted_by_id":null,"tenant_id":"00000000-0000-0000-0000-000000000000","profile_id":"0193a649-e3d0-7881-8b7f-2ef1d89a9aff","name":"Testing Fixed Investments","product_id":"0196a04c-3a69-7553-8352-07dad42c2af0","account_id":"0193a699-2f15-7881-8b7f-ae50980bcfad","is_fixed":true,"allow_top_up":false,"cba_id":"579","deposit":"100000.00","interest_earned":"41.10","balance":"100000.00","end_date":"2025-05-17T15:57:12.440Z","start_date":"2025-05-07T15:57:12.440Z","periodic_amount":100000,"interest_rate":"5.00","interest_period":"monthly","tenor_value":10,"tenor_period":"days","interest_compounding_period":"monthly","interest_posting_period":"monthly","status":"active","frequency":null,"card_id":null,"mandate_id":null,"auto_maturity_action":"withdraw"},{"id":"0196ab4b-222e-7bbe-a0fb-d62721ec35c4","meta":null,"created_on":"2025-05-07T15:09:09.976Z","created_by_id":"019372de-17ef-7cc2-8fc0-43fe11ba042f","modified_on":"2025-05-07T16:42:58.824Z","modified_by_id":"019372de-17ef-7cc2-8fc0-43fe11ba042f","deleted_on":null,"deleted_by_id":null,"tenant_id":"00000000-0000-0000-0000-000000000000","profile_id":"0193a649-e3d0-7881-8b7f-2ef1d89a9aff","name":"Testing Fixed Investments","product_id":"0196a04c-3a69-7553-8352-07dad42c2af0","account_id":"0193a699-2f15-7881-8b7f-ae50980bcfad","is_fixed":true,"allow_top_up":false,"cba_id":"578","deposit":"300000.00","interest_earned":"123.29","balance":"300000.00","end_date":"2025-06-06T15:09:07.142Z","start_date":"2025-05-07T15:09:07.142Z","periodic_amount":300000,"interest_rate":"5.00","interest_period":"monthly","tenor_value":30,"tenor_period":"days","interest_compounding_period":"monthly","interest_posting_period":"monthly","status":"active","frequency":null,"card_id":null,"mandate_id":null,"auto_maturity_action":"withdraw"},{"id":"0196a715-d590-7bbe-a0f8-862a4fa9c6a0","meta":null,"created_on":"2025-05-06T19:32:28.176Z","created_by_id":"019372de-17ef-7cc2-8fc0-43fe11ba042f","modified_on":"2025-05-07T16:42:58.884Z","modified_by_id":"019372de-17ef-7cc2-8fc0-43fe11ba042f","deleted_on":null,"deleted_by_id":null,"tenant_id":"00000000-0000-0000-0000-000000000000","profile_id":"0193a649-e3d0-7881-8b7f-2ef1d89a9aff","name":"Stuff","product_id":"01966531-94ed-7eec-b09a-423c4ef88ed2","account_id":"0193a699-2f15-7881-8b7f-ae50980bcfad","is_fixed":false,"allow_top_up":false,"cba_id":"577","deposit":"1.00","interest_earned":"0.00","balance":"1.00","end_date":"2025-06-06T19:32:26.830Z","start_date":"2025-05-06T19:32:26.830Z","periodic_amount":1,"interest_rate":"0.00","interest_period":"yearly","tenor_value":1,"tenor_period":"months","interest_compounding_period":"yearly","interest_posting_period":"yearly","status":"active","frequency":null,"card_id":null,"mandate_id":null,"auto_maturity_action":"withdraw"},{"id":"0196a57c-ee53-788c-95d0-ef4b0aee3306","meta":null,"created_on":"2025-05-06T12:05:50.255Z","created_by_id":"019372de-17ef-7cc2-8fc0-43fe11ba042f","modified_on":"2025-05-07T16:42:58.171Z","modified_by_id":"019372de-17ef-7cc2-8fc0-43fe11ba042f","deleted_on":null,"deleted_by_id":null,"tenant_id":"00000000-0000-0000-0000-000000000000","profile_id":"0193a649-e3d0-7881-8b7f-2ef1d89a9aff","name":"Women Empowerment Loan","product_id":"0196a04c-3a69-7553-8352-07dad42c2af0","account_id":"01951065-f30c-7bbe-8a30-3eee60a72183","is_fixed":true,"allow_top_up":false,"cba_id":"576","deposit":"300.00","interest_earned":"0.25","balance":"300.00","end_date":"2025-06-04T12:05:47.998Z","start_date":"2025-05-06T12:05:47.998Z","periodic_amount":300,"interest_rate":"5.00","interest_period":"monthly","tenor_value":29,"tenor_period":"days","interest_compounding_period":"monthly","interest_posting_period":"monthly","status":"active","frequency":null,"card_id":null,"mandate_id":null,"auto_maturity_action":"withdraw"},{"id":"0196a579-b01b-788c-95d0-d4309d58d8b2","meta":null,"created_on":"2025-05-06T12:02:17.720Z","created_by_id":"019372de-17ef-7cc2-8fc0-43fe11ba042f","modified_on":"2025-05-07T16:42:58.233Z","modified_by_id":"019372de-17ef-7cc2-8fc0-43fe11ba042f","deleted_on":null,"deleted_by_id":null,"tenant_id":"00000000-0000-0000-0000-000000000000","profile_id":"0193a649-e3d0-7881-8b7f-2ef1d89a9aff","name":"Women Empowerment Loan","product_id":"0196a04c-3a69-7553-8352-07dad42c2af0","account_id":"01951065-f30c-7bbe-8a30-3eee60a72183","is_fixed":true,"allow_top_up":false,"cba_id":"575","deposit":"300.00","interest_earned":"0.25","balance":"300.00","end_date":"2025-06-04T12:02:15.479Z","start_date":"2025-05-06T12:02:15.479Z","periodic_amount":300,"interest_rate":"5.00","interest_period":"monthly","tenor_value":29,"tenor_period":"days","interest_compounding_period":"monthly","interest_posting_period":"monthly","status":"active","frequency":null,"card_id":null,"mandate_id":null,"auto_maturity_action":"withdraw"},{"id":"0196a578-8dff-788c-95d0-b4291679b26f","meta":null,"created_on":"2025-05-06T12:01:03.450Z","created_by_id":"019372de-17ef-7cc2-8fc0-43fe11ba042f","modified_on":"2025-05-07T16:42:58.490Z","modified_by_id":"019372de-17ef-7cc2-8fc0-43fe11ba042f","deleted_on":null,"deleted_by_id":null,"tenant_id":"00000000-0000-0000-0000-000000000000","profile_id":"0193a649-e3d0-7881-8b7f-2ef1d89a9aff","name":"Women Empowerment Loan","product_id":"0196a04c-3a69-7553-8352-07dad42c2af0","account_id":"0193a699-2f15-7881-8b7f-ae50980bcfad","is_fixed":true,"allow_top_up":false,"cba_id":"574","deposit":"100000.00","interest_earned":"82.19","balance":"100000.00","end_date":"2025-06-04T12:00:57.610Z","start_date":"2025-05-06T12:00:57.610Z","periodic_amount":100000,"interest_rate":"5.00","interest_period":"monthly","tenor_value":29,"tenor_period":"days","interest_compounding_period":"monthly","interest_posting_period":"monthly","status":"active","frequency":null,"card_id":null,"mandate_id":null,"auto_maturity_action":"withdraw"},{"id":"0196a186-f9f2-7553-8354-c3caece936d7","meta":null,"created_on":"2025-05-05T17:38:19.762Z","created_by_id":"019372de-17ef-7cc2-8fc0-43fe11ba042f","modified_on":"2025-05-07T16:42:58.687Z","modified_by_id":"019372de-17ef-7cc2-8fc0-43fe11ba042f","deleted_on":null,"deleted_by_id":null,"tenant_id":"00000000-0000-0000-0000-000000000000","profile_id":"0193a649-e3d0-7881-8b7f-2ef1d89a9aff","name":"Testing Fixed Investments","product_id":"0196a04c-3a69-7553-8352-07dad42c2af0","account_id":"0193a699-2f15-7881-8b7f-ae50980bcfad","is_fixed":true,"allow_top_up":false,"cba_id":"573","deposit":"100000.00","interest_earned":"123.29","balance":"100000.00","end_date":"2025-05-15T17:38:17.182Z","start_date":"2025-05-05T17:38:17.182Z","periodic_amount":100000,"interest_rate":"5.00","interest_period":"monthly","tenor_value":10,"tenor_period":"days","interest_compounding_period":"monthly","interest_posting_period":"monthly","status":"active","frequency":null,"card_id":null,"mandate_id":null,"auto_maturity_action":"withdraw"}],"meta":{"page":1,"total_pages":4,"total_items":40}}