{"status":"success","data":[{"id":"0196ab83-3217-7ff4-8b54-ea2f79a13044","meta":null,"created_on":"2025-05-07T16:10:24.151Z","created_by_id":"01927265-4ed2-79cc-a0e6-e11339a359f3","modified_on":"2025-05-07T16:10:24.151Z","modified_by_id":null,"deleted_on":null,"deleted_by_id":null,"tenant_id":"00000000-0000-0000-0000-000000000000","name":"Test demo","description":"just testing ","status":"active","currency":"NGN","type":"fixed","no_of_investors":100,"min_amount":"5000.00","interest_rate":"10.00","interest_period":"yearly","interest_compounding_period":"yearly","interest_posting_period":"yearly","cba_id":"195","terms_and_condition_file_id":"0196ab83-2403-7ff4-8b54-d9301b55035c","withholding_tax":7,"pre_closure_penal_interest":5,"min_deposit_term":10,"min_deposit_term_period":"days","max_deposit_term":3,"max_deposit_term_period":"months","min_amount_before_liquidation_approval":10000,"frequency":null,"certificate_template_id":null},{"id":"0196ab7f-91a3-7ee1-8dc5-9e00a46608d0","meta":null,"created_on":"2025-05-07T16:06:26.467Z","created_by_id":"01927265-4ed2-79cc-a0e6-e11339a359f3","modified_on":"2025-05-07T16:06:26.467Z","modified_by_id":null,"deleted_on":null,"deleted_by_id":null,"tenant_id":"00000000-0000-0000-0000-000000000000","name":"jaded","description":"JustTestingg","status":"active","currency":"NGN","type":"fixed","no_of_investors":100,"min_amount":"1000.00","interest_rate":"10.00","interest_period":"yearly","interest_compounding_period":"yearly","interest_posting_period":"yearly","cba_id":"194","terms_and_condition_file_id":"0196ab7f-81e4-7ee1-8dc5-8b2d8092df86","withholding_tax":10,"pre_closure_penal_interest":10,"min_deposit_term":1,"min_deposit_term_period":"days","max_deposit_term":4,"max_deposit_term_period":"months","min_amount_before_liquidation_approval":10,"frequency":null,"certificate_template_id":null},{"id":"0196a04c-3a69-7553-8352-07dad42c2af0","meta":null,"created_on":"2025-05-05T11:54:32.426Z","created_by_id":"0192cc0f-bd83-700c-a5b9-691965d489a3","modified_on":"2025-05-05T17:37:56.840Z","modified_by_id":"0192cc0f-bd83-700c-a5b9-691965d489a3","deleted_on":null,"deleted_by_id":null,"tenant_id":"00000000-0000-0000-0000-000000000000","name":"Testing Fixed Investments","description":"Testing Fixed Investments","status":"active","currency":"NGN","type":"fixed","no_of_investors":10,"min_amount":"100000.00","interest_rate":"5.00","interest_period":"monthly","interest_compounding_period":"monthly","interest_posting_period":"monthly","cba_id":"193","terms_and_condition_file_id":"0196a047-47f3-7553-8351-f58346f1df41","withholding_tax":2,"pre_closure_penal_interest":2,"min_deposit_term":10,"min_deposit_term_period":"days","max_deposit_term":30,"max_deposit_term_period":"days","min_amount_before_liquidation_approval":150000,"frequency":null,"certificate_template_id":null},{"id":"01966c9a-042d-744c-a926-c6778c29f809","meta":null,"created_on":"2025-04-25T10:59:15.117Z","created_by_id":"01927265-4ed2-79cc-a0e6-e11339a359f3","modified_on":"2025-04-30T16:24:36.074Z","modified_by_id":"01927265-4ed2-79cc-a0e6-e11339a359f3","deleted_on":null,"deleted_by_id":null,"tenant_id":"00000000-0000-0000-0000-000000000000","name":"Talent ","description":"To support talents","status":"active","currency":"NGN","type":"fixed","no_of_investors":1,"min_amount":"100000.00","interest_rate":"0.00","interest_period":"yearly","interest_compounding_period":"yearly","interest_posting_period":"yearly","cba_id":"192","terms_and_condition_file_id":"01966c99-d472-744c-a926-b7990ff7a3c5","withholding_tax":1,"pre_closure_penal_interest":1,"min_deposit_term":1,"min_deposit_term_period":"days","max_deposit_term":200000,"max_deposit_term_period":"months","min_amount_before_liquidation_approval":0,"frequency":null,"certificate_template_id":"01931742-0781-722b-8de7-6c42b6f4c2eb"},{"id":"01966c4f-e376-788e-9dd8-d53458c5b29e","meta":null,"created_on":"2025-04-25T09:38:17.078Z","created_by_id":"0193d109-a926-7446-abe5-7dafe8b742bd","modified_on":"2025-04-28T19:04:35.662Z","modified_by_id":"01927265-4ed2-79cc-a0e6-e11339a359f3","deleted_on":null,"deleted_by_id":null,"tenant_id":"00000000-0000-0000-0000-000000000000","name":"Newtt","description":"form","status":"active","currency":"NGN","type":"structured","no_of_investors":1,"min_amount":"1.00","interest_rate":"10.00","interest_period":"yearly","interest_compounding_period":"yearly","interest_posting_period":"yearly","cba_id":"191","terms_and_condition_file_id":"01966c53-bdd0-788e-9dd8-fff454df8901","withholding_tax":1,"pre_closure_penal_interest":1,"min_deposit_term":1,"min_deposit_term_period":"days","max_deposit_term":1,"max_deposit_term_period":"months","min_amount_before_liquidation_approval":0,"frequency":"monthly","certificate_template_id":"01931742-0781-722b-8de7-6c42b6f4c2eb"},{"id":"01966531-94ed-7eec-b09a-423c4ef88ed2","meta":null,"created_on":"2025-04-24T00:27:50.383Z","created_by_id":"0193d109-a926-7446-abe5-7dafe8b742bd","modified_on":"2025-04-24T00:28:06.821Z","modified_by_id":"0193d109-a926-7446-abe5-7dafe8b742bd","deleted_on":null,"deleted_by_id":null,"tenant_id":"00000000-0000-0000-0000-000000000000","name":"some stuff","description":"yepuu","status":"active","currency":"NGN","type":"custom","no_of_investors":1,"min_amount":"1.00","interest_rate":"0.00","interest_period":"yearly","interest_compounding_period":"yearly","interest_posting_period":"yearly","cba_id":"189","terms_and_condition_file_id":null,"withholding_tax":1,"pre_closure_penal_interest":1,"min_deposit_term":1,"min_deposit_term_period":"days","max_deposit_term":1,"max_deposit_term_period":"months","min_amount_before_liquidation_approval":0,"frequency":"monthly","certificate_template_id":"01931742-0781-722b-8de7-6c42b6f4c2eb"},{"id":"0196652f-4f3e-7eec-b09a-3bb0f20d654c","meta":null,"created_on":"2025-04-24T00:25:21.472Z","created_by_id":"01927265-4ed2-79cc-a0e6-e11339a359f3","modified_on":"2025-04-24T00:25:21.472Z","modified_by_id":null,"deleted_on":null,"deleted_by_id":null,"tenant_id":"00000000-0000-0000-0000-000000000000","name":"tecl3cjl3nes","description":"eeeelcneckneclkence","status":"active","currency":"NGN","type":"custom","no_of_investors":1,"min_amount":"1.00","interest_rate":"0.00","interest_period":"yearly","interest_compounding_period":"yearly","interest_posting_period":"yearly","cba_id":"188","terms_and_condition_file_id":null,"withholding_tax":1,"pre_closure_penal_interest":1,"min_deposit_term":1,"min_deposit_term_period":"days","max_deposit_term":1,"max_deposit_term_period":"months","min_amount_before_liquidation_approval":0,"frequency":"monthly","certificate_template_id":"01931742-0781-722b-8de7-6c42b6f4c2eb"},{"id":"0196652d-0d12-7eec-b09a-36ab4b96c692","meta":null,"created_on":"2025-04-24T00:22:53.460Z","created_by_id":"01927265-4ed2-79cc-a0e6-e11339a359f3","modified_on":"2025-05-05T21:03:03.079Z","modified_by_id":"0193d109-a926-7446-abe5-7dafe8b742bd","deleted_on":null,"deleted_by_id":null,"tenant_id":"00000000-0000-0000-0000-000000000000","name":"Premium Savings Plan ADP","description":"A high-yield savings product with flexible terms.","status":"active","currency":"NGN","type":"custom","no_of_investors":1000,"min_amount":"5000.00","interest_rate":"10.00","interest_period":"yearly","interest_compounding_period":"yearly","interest_posting_period":"yearly","cba_id":"187","terms_and_condition_file_id":"01966c7b-c6df-744c-a926-a6b51f5e3cda","withholding_tax":1,"pre_closure_penal_interest":2,"min_deposit_term":1,"min_deposit_term_period":"days","max_deposit_term":24,"max_deposit_term_period":"months","min_amount_before_liquidation_approval":0,"frequency":"monthly","certificate_template_id":"01931742-0781-722b-8de7-6c42b6f4c2eb"},{"id":"01966526-6c8d-7eec-b09a-0a0c81c870b5","meta":null,"created_on":"2025-04-24T00:15:39.150Z","created_by_id":"01927265-4ed2-79cc-a0e6-e11339a359f3","modified_on":"2025-05-05T21:03:28.105Z","modified_by_id":"0193d109-a926-7446-abe5-7dafe8b742bd","deleted_on":null,"deleted_by_id":null,"tenant_id":"00000000-0000-0000-0000-000000000000","name":"Premium Savings Plan AI","description":"A high-yield savings product with flexible terms.","status":"active","currency":"NGN","type":"custom","no_of_investors":100,"min_amount":"5000.00","interest_rate":"10.00","interest_period":"yearly","interest_compounding_period":"yearly","interest_posting_period":"yearly","cba_id":"186","terms_and_condition_file_id":null,"withholding_tax":1,"pre_closure_penal_interest":2,"min_deposit_term":1,"min_deposit_term_period":"days","max_deposit_term":24,"max_deposit_term_period":"months","min_amount_before_liquidation_approval":0,"frequency":"monthly","certificate_template_id":"01931742-0781-722b-8de7-6c42b6f4c2eb"},{"id":"01966522-f943-7eec-b099-ea3ef2a79967","meta":null,"created_on":"2025-04-24T00:11:53.028Z","created_by_id":"0193d109-a926-7446-abe5-7dafe8b742bd","modified_on":"2025-04-30T11:00:41.181Z","modified_by_id":"0193d109-a926-7446-abe5-7dafe8b742bd","deleted_on":null,"deleted_by_id":null,"tenant_id":"00000000-0000-0000-0000-000000000000","name":"test","description":"form","status":"active","currency":"NGN","type":"fixed","no_of_investors":1,"min_amount":"0.00","interest_rate":"0.00","interest_period":"yearly","interest_compounding_period":"yearly","interest_posting_period":"yearly","cba_id":"185","terms_and_condition_file_id":null,"withholding_tax":1,"pre_closure_penal_interest":1,"min_deposit_term":1,"min_deposit_term_period":"days","max_deposit_term":1,"max_deposit_term_period":"months","min_amount_before_liquidation_approval":0,"frequency":null,"certificate_template_id":"01931742-0781-722b-8de7-6c42b6f4c2eb"}],"meta":{"page":1,"total_pages":3,"total_items":25}}