{"status":"success","data":[{"id":"019601af-55a9-7eeb-9121-cbb91f23db3f","meta":null,"created_on":"2025-04-04T16:43:10.121Z","created_by_id":"01927265-4ed2-79cc-a0e6-e11339a359f3","modified_on":"2025-04-04T16:53:50.089Z","modified_by_id":"01927265-4ed2-79cc-a0e6-e11339a359f3","deleted_on":null,"deleted_by_id":null,"tenant_id":"00000000-0000-0000-0000-000000000000","name":"Test name","description":"Test description","currency":"NGN","profile_type":"personal","payment_methods":["card"],"payment_model":"straight","disbursement_method":"account","collection_methods":["manual"],"interest_rate":"50.00","interest_period":"days","min_amount":"20000.00","max_amount":"40000.00","frequencies":["weekly"],"min_tenor_value":1,"min_tenor_period":"weeks","max_tenor_value":4,"max_tenor_period":"weeks","status":"active","cba_id":null,"offer_letter_template_id":"01931742-0781-722b-8de7-6c42b6f4c2ea"},{"id":"0196017e-5083-7eeb-9120-e9aab327316c","meta":null,"created_on":"2025-04-04T15:49:37.539Z","created_by_id":"01927265-4ed2-79cc-a0e6-e11339a359f3","modified_on":"2025-04-04T15:49:37.539Z","modified_by_id":null,"deleted_on":null,"deleted_by_id":null,"tenant_id":"00000000-0000-0000-0000-000000000000","name":"Bless up","description":"Herer is the description","currency":"NGN","profile_type":"personal","payment_methods":["card"],"payment_model":"reducing","disbursement_method":"funds-transfer","collection_methods":["automatic"],"interest_rate":"30.00","interest_period":"days","min_amount":"20000.00","max_amount":"50000.00","frequencies":["weekly"],"min_tenor_value":1,"min_tenor_period":"months","max_tenor_value":4,"max_tenor_period":"months","status":"active","cba_id":null,"offer_letter_template_id":"01931742-0781-722b-8de7-6c42b6f4c2ea"},{"id":"01960155-ee3a-7eeb-911f-7e4a78202ec4","meta":null,"created_on":"2025-04-04T15:05:30.938Z","created_by_id":"01927265-4ed2-79cc-a0e6-e11339a359f3","modified_on":"2025-04-04T15:05:30.938Z","modified_by_id":null,"deleted_on":null,"deleted_by_id":null,"tenant_id":"00000000-0000-0000-0000-000000000000","name":"New def","description":"Here is a new def","currency":"NGN","profile_type":"personal","payment_methods":["account"],"payment_model":"reducing","disbursement_method":"account","collection_methods":["automatic"],"interest_rate":"40.00","interest_period":"weeks","min_amount":"100000.00","max_amount":"500000.00","frequencies":["weekly"],"min_tenor_value":1,"min_tenor_period":"weeks","max_tenor_value":8,"max_tenor_period":"weeks","status":"active","cba_id":null,"offer_letter_template_id":"01931742-0781-722b-8de7-6c42b6f4c2ea"},{"id":"01960151-9d1c-7eeb-911f-68d08b2dca4e","meta":null,"created_on":"2025-04-04T15:00:48.028Z","created_by_id":"01927265-4ed2-79cc-a0e6-e11339a359f3","modified_on":"2025-04-04T15:00:48.028Z","modified_by_id":null,"deleted_on":null,"deleted_by_id":null,"tenant_id":"00000000-0000-0000-0000-000000000000","name":"Example name","description":"Here is a new def","currency":"NGN","profile_type":"personal","payment_methods":["card"],"payment_model":"straight","disbursement_method":"account","collection_methods":["manual"],"interest_rate":"50.00","interest_period":"flat","min_amount":"30000.00","max_amount":"50000.00","frequencies":["weekly"],"min_tenor_value":1,"min_tenor_period":"weeks","max_tenor_value":4,"max_tenor_period":"weeks","status":"active","cba_id":null,"offer_letter_template_id":"01931742-0781-722b-8de7-6c42b6f4c2ea"},{"id":"0195ed3a-5a87-7ffc-a56d-3244090100b6","meta":null,"created_on":"2025-03-31T17:22:59.336Z","created_by_id":"0192cc0f-bd83-700c-a5b9-691965d489a3","modified_on":"2025-04-04T15:35:28.459Z","modified_by_id":"01927265-4ed2-79cc-a0e6-e11339a359f3","deleted_on":null,"deleted_by_id":null,"tenant_id":"00000000-0000-0000-0000-000000000000","name":"Test Product For Oladeji","description":"This is the demo Product","currency":"NGN","profile_type":"personal","payment_methods":["card","account","mandate"],"payment_model":"straight","disbursement_method":"account","collection_methods":["manual","automatic"],"interest_rate":"2.00","interest_period":"flat","min_amount":"0.00","max_amount":"100000.00","frequencies":["daily"],"min_tenor_value":1,"min_tenor_period":"days","max_tenor_value":7,"max_tenor_period":"weeks","status":"inactive","cba_id":null,"offer_letter_template_id":"01931742-0781-722b-8de7-6c42b6f4c2ea"},{"id":"0195d258-a87c-7ffd-aa60-6e5d78667afd","meta":null,"created_on":"2025-03-26T12:06:20.716Z","created_by_id":"01927265-4ed2-79cc-a0e6-e11339a359f3","modified_on":"2025-04-04T13:06:40.740Z","modified_by_id":"01927265-4ed2-79cc-a0e6-e11339a359f3","deleted_on":null,"deleted_by_id":null,"tenant_id":"00000000-0000-0000-0000-000000000000","name":"Demo Product 2","description":"This is the demo Product","currency":"NGN","profile_type":"personal","payment_methods":["card"],"payment_model":"straight","disbursement_method":"account","collection_methods":["manual"],"interest_rate":"2.00","interest_period":"flat","min_amount":"0.00","max_amount":"1000.00","frequencies":["daily"],"min_tenor_value":1,"min_tenor_period":"days","max_tenor_value":7,"max_tenor_period":"weeks","status":"inactive","cba_id":null,"offer_letter_template_id":"01931742-0781-722b-8de7-6c42b6f4c2ea"},{"id":"0194c998-bd8a-7000-ba68-e4b73be60da7","meta":null,"created_on":"2025-02-03T02:16:57.995Z","created_by_id":"01927265-4ed2-79cc-a0e6-e11339a359f3","modified_on":"2025-04-04T12:55:19.438Z","modified_by_id":"01927265-4ed2-79cc-a0e6-e11339a359f3","deleted_on":null,"deleted_by_id":null,"tenant_id":"00000000-0000-0000-0000-000000000000","name":"Demo Gbesere Product","description":"This is the demo Product","currency":"NGN","profile_type":"personal","payment_methods":null,"payment_model":"straight","disbursement_method":"account","collection_methods":null,"interest_rate":"2.00","interest_period":"flat","min_amount":"0.00","max_amount":"1000.00","frequencies":null,"min_tenor_value":1,"min_tenor_period":"days","max_tenor_value":7,"max_tenor_period":"weeks","status":"active","cba_id":null,"offer_letter_template_id":"01931742-0781-722b-8de7-6c42b6f4c2ea"},{"id":"0194c992-8a08-7000-ba68-c871ba20d45c","meta":null,"created_on":"2025-02-03T02:10:11.590Z","created_by_id":"01927265-4ed2-79cc-a0e6-e11339a359f3","modified_on":"2025-04-04T12:54:22.134Z","modified_by_id":"01927265-4ed2-79cc-a0e6-e11339a359f3","deleted_on":null,"deleted_by_id":null,"tenant_id":"00000000-0000-0000-0000-000000000000","name":"Demo Gbese Product","description":"This is the demo Product","currency":"NGN","profile_type":"personal","payment_methods":null,"payment_model":"straight","disbursement_method":"account","collection_methods":null,"interest_rate":"2.00","interest_period":"flat","min_amount":"0.00","max_amount":"1000.00","frequencies":null,"min_tenor_value":1,"min_tenor_period":"days","max_tenor_value":7,"max_tenor_period":"weeks","status":"inactive","cba_id":null,"offer_letter_template_id":"01931742-0781-722b-8de7-6c42b6f4c2ea"},{"id":"0193d421-bcc4-7ee1-ab25-2d502f2694b8","meta":null,"created_on":"2024-12-17T10:20:01.092Z","created_by_id":null,"modified_on":"2025-04-02T11:28:45.652Z","modified_by_id":"01927265-4ed2-79cc-a0e6-e11339a359f3","deleted_on":null,"deleted_by_id":null,"tenant_id":"00000000-0000-0000-0000-000000000000","name":"Webite Product","description":"This is the demo Product","currency":"NGN","profile_type":"personal","payment_methods":null,"payment_model":"straight","disbursement_method":"account","collection_methods":null,"interest_rate":"2.00","interest_period":"flat","min_amount":"0.00","max_amount":"1000.00","frequencies":null,"min_tenor_value":1,"min_tenor_period":"days","max_tenor_value":7,"max_tenor_period":"weeks","status":"inactive","cba_id":null,"offer_letter_template_id":"01931742-0781-722b-8de7-6c42b6f4c2ea"},{"id":"01934623-c78f-7664-8b2d-2f06d575e8bb","meta":null,"created_on":"2024-11-19T20:36:10.255Z","created_by_id":null,"modified_on":"2024-11-19T20:36:10.255Z","modified_by_id":null,"deleted_on":null,"deleted_by_id":null,"tenant_id":"00000000-0000-0000-0000-000000000000","name":"Test Product","description":"This is the demo Product","currency":"NGN","profile_type":"personal","payment_methods":null,"payment_model":"straight","disbursement_method":"account","collection_methods":null,"interest_rate":"2.00","interest_period":"flat","min_amount":"0.00","max_amount":"1000.00","frequencies":null,"min_tenor_value":1,"min_tenor_period":"days","max_tenor_value":7,"max_tenor_period":"weeks","status":"active","cba_id":null,"offer_letter_template_id":"01931742-0781-722b-8de7-6c42b6f4c2ea"}],"meta":{"page":1,"total_pages":2,"total_items":11}}