{"status":"success","data":[{"id":"0195611d-ee5c-7bb6-afde-49d79359327f","meta":{"recipients":[{"amount":1000,"bank_code":"050030","bank_name":"NORTHQUEST FINANCE COMPANY LIMITED ","narration":"","account_name":"Olayemi Victoria","account_number":"8134044021"}]},"created_on":"2025-03-04T12:25:06.389Z","created_by_id":"019372de-17ef-7cc2-8fc0-43fe11ba042f","modified_on":"2025-03-04T12:25:06.389Z","modified_by_id":null,"deleted_on":null,"deleted_by_id":null,"tenant_id":"00000000-0000-0000-0000-000000000000","frequency":"once","type":"transfer","start_date":"2025-03-04T14:00:00.000Z","next_run_date":"2025-03-04T14:00:00.000Z","end_date":"2025-03-04T14:00:00.000Z","status":"active","amount":"0.00","profile_id":"0193a649-e3d0-7881-8b7f-2ef1d89a9aff","account_id":"0193a699-2f15-7881-8b7f-ae50980bcfad","user":{"id":"019372de-17ef-7cc2-8fc0-43fe11ba042f","meta":{},"created_on":"2024-11-28T13:02:58.029Z","created_by_id":null,"modified_on":"2025-04-04T18:46:17.812Z","modified_by_id":"019372de-17ef-7cc2-8fc0-43fe11ba042f","deleted_on":null,"deleted_by_id":null,"tenant_id":"00000000-0000-0000-0000-000000000000","email":"ismael@mailinator.com","status":"active","first_name":"Sunday","last_name":"Testing","twofa_enabled":false,"last_active":"2025-04-04T18:46:11.124Z","last_ip":"172.70.131.213","allowed_ips":null,"last_timezone":"America/Chicago","last_location":"Chicago","phone":"+2349055755671","review":null,"gender":"male","date_of_birth":null,"cba_id":"31","photo_id":null,"referral_code":"7LD1QN","referred_by":null}},{"id":"01955753-3e36-7dd1-9968-2550d652f8ca","meta":{"recipients":[{"amount":100,"bank_code":"999998","bank_name":"vee test","narration":"Test","account_name":"John Doe","account_number":"0000000108"}]},"created_on":"2025-03-02T14:47:08.085Z","created_by_id":"019372de-17ef-7cc2-8fc0-43fe11ba042f","modified_on":"2025-03-02T14:47:08.085Z","modified_by_id":null,"deleted_on":null,"deleted_by_id":null,"tenant_id":"00000000-0000-0000-0000-000000000000","frequency":"daily","type":"transfer","start_date":"2025-03-03T00:00:00.000Z","next_run_date":"2025-03-03T00:00:00.000Z","end_date":"2025-03-04T23:59:59.999Z","status":"active","amount":"0.00","profile_id":"0193a649-e3d0-7881-8b7f-2ef1d89a9aff","account_id":"0193a699-2f15-7881-8b7f-ae50980bcfad","user":{"id":"019372de-17ef-7cc2-8fc0-43fe11ba042f","meta":{},"created_on":"2024-11-28T13:02:58.029Z","created_by_id":null,"modified_on":"2025-04-04T18:46:17.812Z","modified_by_id":"019372de-17ef-7cc2-8fc0-43fe11ba042f","deleted_on":null,"deleted_by_id":null,"tenant_id":"00000000-0000-0000-0000-000000000000","email":"ismael@mailinator.com","status":"active","first_name":"Sunday","last_name":"Testing","twofa_enabled":false,"last_active":"2025-04-04T18:46:11.124Z","last_ip":"172.70.131.213","allowed_ips":null,"last_timezone":"America/Chicago","last_location":"Chicago","phone":"+2349055755671","review":null,"gender":"male","date_of_birth":null,"cba_id":"31","photo_id":null,"referral_code":"7LD1QN","referred_by":null}},{"id":"01953f23-f623-7111-8e57-d6e7c936b602","meta":{"recipients":[{"amount":2000,"bank_code":"000014","bank_name":"Access Bank","narration":"bulk transfer","account_name":"John Doe","account_number":"5680166012"}]},"created_on":"2025-02-25T22:04:36.258Z","created_by_id":"019372de-17ef-7cc2-8fc0-43fe11ba042f","modified_on":"2025-02-25T22:04:36.258Z","modified_by_id":null,"deleted_on":null,"deleted_by_id":null,"tenant_id":"00000000-0000-0000-0000-000000000000","frequency":"once","type":"transfer","start_date":"2025-02-26T23:04:00.000Z","next_run_date":"2025-02-26T23:04:00.000Z","end_date":"2025-02-26T23:04:00.000Z","status":"active","amount":"0.00","profile_id":"0193a649-e3d0-7881-8b7f-2ef1d89a9aff","account_id":"0193a699-2f15-7881-8b7f-ae50980bcfad","user":{"id":"019372de-17ef-7cc2-8fc0-43fe11ba042f","meta":{},"created_on":"2024-11-28T13:02:58.029Z","created_by_id":null,"modified_on":"2025-04-04T18:46:17.812Z","modified_by_id":"019372de-17ef-7cc2-8fc0-43fe11ba042f","deleted_on":null,"deleted_by_id":null,"tenant_id":"00000000-0000-0000-0000-000000000000","email":"ismael@mailinator.com","status":"active","first_name":"Sunday","last_name":"Testing","twofa_enabled":false,"last_active":"2025-04-04T18:46:11.124Z","last_ip":"172.70.131.213","allowed_ips":null,"last_timezone":"America/Chicago","last_location":"Chicago","phone":"+2349055755671","review":null,"gender":"male","date_of_birth":null,"cba_id":"31","photo_id":null,"referral_code":"7LD1QN","referred_by":null}},{"id":"0194ffd4-fad8-7221-b999-431213eaa7bc","meta":{"pin":"1234","amount":100,"biller_id":"mtn","option_id":"","category_id":"airtime","account_number":"08138096550"},"created_on":"2025-02-13T15:02:15.513Z","created_by_id":"019372de-17ef-7cc2-8fc0-43fe11ba042f","modified_on":"2025-02-13T15:02:15.513Z","modified_by_id":null,"deleted_on":null,"deleted_by_id":null,"tenant_id":"00000000-0000-0000-0000-000000000000","frequency":"quarterly","type":"bill-payment","start_date":"2025-02-16T00:00:00.000Z","next_run_date":"2025-02-16T00:00:00.000Z","end_date":"2025-02-21T23:59:59.999Z","status":"active","amount":"0.00","profile_id":"0193a649-e3d0-7881-8b7f-2ef1d89a9aff","account_id":"0193a699-2f15-7881-8b7f-ae50980bcfad","user":{"id":"019372de-17ef-7cc2-8fc0-43fe11ba042f","meta":{},"created_on":"2024-11-28T13:02:58.029Z","created_by_id":null,"modified_on":"2025-04-04T18:46:17.812Z","modified_by_id":"019372de-17ef-7cc2-8fc0-43fe11ba042f","deleted_on":null,"deleted_by_id":null,"tenant_id":"00000000-0000-0000-0000-000000000000","email":"ismael@mailinator.com","status":"active","first_name":"Sunday","last_name":"Testing","twofa_enabled":false,"last_active":"2025-04-04T18:46:11.124Z","last_ip":"172.70.131.213","allowed_ips":null,"last_timezone":"America/Chicago","last_location":"Chicago","phone":"+2349055755671","review":null,"gender":"male","date_of_birth":null,"cba_id":"31","photo_id":null,"referral_code":"7LD1QN","referred_by":null}},{"id":"0194e13c-4b1f-7001-96a1-dbce0b948682","meta":{"recipients":[{"amount":500,"bank_code":"000014","bank_name":"Access Bank","narration":"","account_name":"John Doe","account_number":"0007845613"}]},"created_on":"2025-02-07T16:26:52.575Z","created_by_id":"019372de-17ef-7cc2-8fc0-43fe11ba042f","modified_on":"2025-02-07T16:26:52.575Z","modified_by_id":null,"deleted_on":null,"deleted_by_id":null,"tenant_id":"00000000-0000-0000-0000-000000000000","frequency":"once","type":"transfer","start_date":"2025-02-08T00:00:00.000Z","next_run_date":"2025-02-08T00:00:00.000Z","end_date":"2025-02-08T00:00:00.000Z","status":"active","amount":"0.00","profile_id":"0193a649-e3d0-7881-8b7f-2ef1d89a9aff","account_id":"0193a699-2f15-7881-8b7f-ae50980bcfad","user":{"id":"019372de-17ef-7cc2-8fc0-43fe11ba042f","meta":{},"created_on":"2024-11-28T13:02:58.029Z","created_by_id":null,"modified_on":"2025-04-04T18:46:17.812Z","modified_by_id":"019372de-17ef-7cc2-8fc0-43fe11ba042f","deleted_on":null,"deleted_by_id":null,"tenant_id":"00000000-0000-0000-0000-000000000000","email":"ismael@mailinator.com","status":"active","first_name":"Sunday","last_name":"Testing","twofa_enabled":false,"last_active":"2025-04-04T18:46:11.124Z","last_ip":"172.70.131.213","allowed_ips":null,"last_timezone":"America/Chicago","last_location":"Chicago","phone":"+2349055755671","review":null,"gender":"male","date_of_birth":null,"cba_id":"31","photo_id":null,"referral_code":"7LD1QN","referred_by":null}},{"id":"0194d75f-6316-777b-aa2c-45a59acfc5ef","meta":{"recipients":[{"amount":500,"bank_code":"000014","bank_name":"Access Bank","narration":"","account_name":"John Doe","account_number":"5680166012"}]},"created_on":"2025-02-05T18:29:00.311Z","created_by_id":"019372de-17ef-7cc2-8fc0-43fe11ba042f","modified_on":"2025-02-05T18:29:00.311Z","modified_by_id":null,"deleted_on":null,"deleted_by_id":null,"tenant_id":"00000000-0000-0000-0000-000000000000","frequency":"daily","type":"transfer","start_date":"2025-02-06T00:00:00.000Z","next_run_date":"2025-02-06T00:00:00.000Z","end_date":"2025-02-07T00:00:00.000Z","status":"active","amount":"0.00","profile_id":"0193a649-e3d0-7881-8b7f-2ef1d89a9aff","account_id":"0193a699-2f15-7881-8b7f-ae50980bcfad","user":{"id":"019372de-17ef-7cc2-8fc0-43fe11ba042f","meta":{},"created_on":"2024-11-28T13:02:58.029Z","created_by_id":null,"modified_on":"2025-04-04T18:46:17.812Z","modified_by_id":"019372de-17ef-7cc2-8fc0-43fe11ba042f","deleted_on":null,"deleted_by_id":null,"tenant_id":"00000000-0000-0000-0000-000000000000","email":"ismael@mailinator.com","status":"active","first_name":"Sunday","last_name":"Testing","twofa_enabled":false,"last_active":"2025-04-04T18:46:11.124Z","last_ip":"172.70.131.213","allowed_ips":null,"last_timezone":"America/Chicago","last_location":"Chicago","phone":"+2349055755671","review":null,"gender":"male","date_of_birth":null,"cba_id":"31","photo_id":null,"referral_code":"7LD1QN","referred_by":null}},{"id":"0194d75d-9229-777b-aa2c-2959190c8b3a","meta":{"recipients":[{"amount":1000,"bank_code":"000014","bank_name":"Access Bank","narration":"","account_name":"John Doe","account_number":"5680166012"}]},"created_on":"2025-02-05T18:27:01.290Z","created_by_id":"019372de-17ef-7cc2-8fc0-43fe11ba042f","modified_on":"2025-02-05T18:27:01.290Z","modified_by_id":null,"deleted_on":null,"deleted_by_id":null,"tenant_id":"00000000-0000-0000-0000-000000000000","frequency":"once","type":"transfer","start_date":"2025-02-07T00:00:00.000Z","next_run_date":"2025-02-07T00:00:00.000Z","end_date":"2025-02-07T00:00:00.000Z","status":"active","amount":"0.00","profile_id":"0193a649-e3d0-7881-8b7f-2ef1d89a9aff","account_id":"0193a699-2f15-7881-8b7f-ae50980bcfad","user":{"id":"019372de-17ef-7cc2-8fc0-43fe11ba042f","meta":{},"created_on":"2024-11-28T13:02:58.029Z","created_by_id":null,"modified_on":"2025-04-04T18:46:17.812Z","modified_by_id":"019372de-17ef-7cc2-8fc0-43fe11ba042f","deleted_on":null,"deleted_by_id":null,"tenant_id":"00000000-0000-0000-0000-000000000000","email":"ismael@mailinator.com","status":"active","first_name":"Sunday","last_name":"Testing","twofa_enabled":false,"last_active":"2025-04-04T18:46:11.124Z","last_ip":"172.70.131.213","allowed_ips":null,"last_timezone":"America/Chicago","last_location":"Chicago","phone":"+2349055755671","review":null,"gender":"male","date_of_birth":null,"cba_id":"31","photo_id":null,"referral_code":"7LD1QN","referred_by":null}},{"id":"0194d75c-eb2d-777b-aa2c-221b422b9255","meta":{"recipients":[{"amount":1000,"bank_code":"000014","bank_name":"Access Bank","narration":"","account_name":"John Doe","account_number":"5680166012"}]},"created_on":"2025-02-05T18:26:18.542Z","created_by_id":"019372de-17ef-7cc2-8fc0-43fe11ba042f","modified_on":"2025-02-05T18:26:18.542Z","modified_by_id":null,"deleted_on":null,"deleted_by_id":null,"tenant_id":"00000000-0000-0000-0000-000000000000","frequency":"once","type":"transfer","start_date":"2025-02-07T00:00:00.000Z","next_run_date":"2025-02-07T00:00:00.000Z","end_date":"2025-02-07T00:00:00.000Z","status":"active","amount":"0.00","profile_id":"0193a649-e3d0-7881-8b7f-2ef1d89a9aff","account_id":"0193a699-2f15-7881-8b7f-ae50980bcfad","user":{"id":"019372de-17ef-7cc2-8fc0-43fe11ba042f","meta":{},"created_on":"2024-11-28T13:02:58.029Z","created_by_id":null,"modified_on":"2025-04-04T18:46:17.812Z","modified_by_id":"019372de-17ef-7cc2-8fc0-43fe11ba042f","deleted_on":null,"deleted_by_id":null,"tenant_id":"00000000-0000-0000-0000-000000000000","email":"ismael@mailinator.com","status":"active","first_name":"Sunday","last_name":"Testing","twofa_enabled":false,"last_active":"2025-04-04T18:46:11.124Z","last_ip":"172.70.131.213","allowed_ips":null,"last_timezone":"America/Chicago","last_location":"Chicago","phone":"+2349055755671","review":null,"gender":"male","date_of_birth":null,"cba_id":"31","photo_id":null,"referral_code":"7LD1QN","referred_by":null}},{"id":"0194d75c-a3d2-777b-aa2c-1bb56ff84f05","meta":{"recipients":[{"amount":1000,"bank_code":"000014","bank_name":"Access Bank","narration":"","account_name":"John Doe","account_number":"5680166012"}]},"created_on":"2025-02-05T18:26:00.274Z","created_by_id":"019372de-17ef-7cc2-8fc0-43fe11ba042f","modified_on":"2025-02-05T18:26:00.274Z","modified_by_id":null,"deleted_on":null,"deleted_by_id":null,"tenant_id":"00000000-0000-0000-0000-000000000000","frequency":"once","type":"transfer","start_date":"2025-02-07T00:00:00.000Z","next_run_date":"2025-02-07T00:00:00.000Z","end_date":"2025-02-07T00:00:00.000Z","status":"active","amount":"0.00","profile_id":"0193a649-e3d0-7881-8b7f-2ef1d89a9aff","account_id":"0193a699-2f15-7881-8b7f-ae50980bcfad","user":{"id":"019372de-17ef-7cc2-8fc0-43fe11ba042f","meta":{},"created_on":"2024-11-28T13:02:58.029Z","created_by_id":null,"modified_on":"2025-04-04T18:46:17.812Z","modified_by_id":"019372de-17ef-7cc2-8fc0-43fe11ba042f","deleted_on":null,"deleted_by_id":null,"tenant_id":"00000000-0000-0000-0000-000000000000","email":"ismael@mailinator.com","status":"active","first_name":"Sunday","last_name":"Testing","twofa_enabled":false,"last_active":"2025-04-04T18:46:11.124Z","last_ip":"172.70.131.213","allowed_ips":null,"last_timezone":"America/Chicago","last_location":"Chicago","phone":"+2349055755671","review":null,"gender":"male","date_of_birth":null,"cba_id":"31","photo_id":null,"referral_code":"7LD1QN","referred_by":null}},{"id":"0194b77d-c7d0-777c-b55a-ca5343ea2c2c","meta":{"recipients":[{"amount":1000,"bank_code":"050030","bank_name":"NORTHQUEST FINANCE COMPANY LIMITED ","narration":"","account_name":"John Doe","account_number":"8139354433"}]},"created_on":"2025-01-30T13:54:21.265Z","created_by_id":"019372de-17ef-7cc2-8fc0-43fe11ba042f","modified_on":"2025-01-30T13:54:21.265Z","modified_by_id":null,"deleted_on":null,"deleted_by_id":null,"tenant_id":"00000000-0000-0000-0000-000000000000","frequency":"weekly","type":"transfer","start_date":"2025-01-31T00:00:00.000Z","next_run_date":"2025-01-31T00:00:00.000Z","end_date":"2025-02-21T00:00:00.000Z","status":"active","amount":"0.00","profile_id":"0193a649-e3d0-7881-8b7f-2ef1d89a9aff","account_id":"0193a699-2f15-7881-8b7f-ae50980bcfad","user":{"id":"019372de-17ef-7cc2-8fc0-43fe11ba042f","meta":{},"created_on":"2024-11-28T13:02:58.029Z","created_by_id":null,"modified_on":"2025-04-04T18:46:17.812Z","modified_by_id":"019372de-17ef-7cc2-8fc0-43fe11ba042f","deleted_on":null,"deleted_by_id":null,"tenant_id":"00000000-0000-0000-0000-000000000000","email":"ismael@mailinator.com","status":"active","first_name":"Sunday","last_name":"Testing","twofa_enabled":false,"last_active":"2025-04-04T18:46:11.124Z","last_ip":"172.70.131.213","allowed_ips":null,"last_timezone":"America/Chicago","last_location":"Chicago","phone":"+2349055755671","review":null,"gender":"male","date_of_birth":null,"cba_id":"31","photo_id":null,"referral_code":"7LD1QN","referred_by":null}}],"meta":{"page":1,"total_pages":10,"total_items":95}}