{"status":"success","data":[{"id":"0194a803-de8e-7dd7-aad1-f133eabe15b0","meta":null,"created_on":"2025-01-27T13:46:53.454Z","created_by_id":"0194a803-ac74-7dd7-aad1-e03a5a71aaaf","modified_on":"2025-01-29T12:41:30.282Z","modified_by_id":"01927265-4ed2-79cc-a0e6-e11339a359f3","deleted_on":null,"deleted_by_id":null,"tenant_id":"00000000-0000-0000-0000-000000000000","name":"Fuan Brown","type":"personal","status":"active","review":"","allowed_time_periods":null,"primary_user_id":"0194a803-ac74-7dd7-aad1-e03a5a71aaaf","tier_id":"01928f2d-6756-755b-8a9d-c8094db2af27","primary_user":{"id":"0194a803-ac74-7dd7-aad1-e03a5a71aaaf","meta":null,"created_on":"2025-01-27T13:46:40.627Z","created_by_id":null,"modified_on":"2025-01-27T14:34:06.649Z","modified_by_id":"0194a803-ac74-7dd7-aad1-e03a5a71aaaf","deleted_on":null,"deleted_by_id":null,"tenant_id":"00000000-0000-0000-0000-000000000000","email":"brown@mailinator.com","status":"active","first_name":"Fuan","last_name":"Brown","twofa_enabled":false,"last_active":"2025-01-27T14:34:06.641Z","last_ip":"172.70.162.110","allowed_ips":null,"last_timezone":"Europe/London","last_location":"London","phone":"+2348123478877","review":null,"gender":null,"date_of_birth":null,"cba_id":null,"photo_id":null,"referral_code":"V03FNM","allowed_locations":null,"referred_by":null},"tier":{"id":"01928f2d-6756-755b-8a9d-c8094db2af27","meta":null,"created_on":"2024-10-15T07:56:10.789Z","created_by_id":null,"modified_on":"2025-01-23T15:14:24.513Z","modified_by_id":"01927265-4ed2-79cc-a0e6-e11339a359f3","deleted_on":null,"deleted_by_id":null,"tenant_id":"00000000-0000-0000-0000-000000000000","profile_type":"personal","name":"Tier 1","description":"Tier 1","level":1,"enabled":true,"balance_limit":2000000,"single_sending_limit":500000,"single_receiving_limit":500000,"period_sending_limit":500000,"period_sending_limit_time_unit":"day","period_receiving_limit":500000,"period_receiving_limit_time_unit":"day","requirements":[{"id":"019318f9-c895-744d-8f65-4636cc26dd1f","type_id":"019318f9-c895-744d-8f65-4636cc26dd1f","type":"verification","slug":"liveness","name":"Image liveness check"},{"id":"01933d40-03e5-777c-a6e6-bf72eb1c8968","type_id":"01933d40-03e5-777c-a6e6-bf72eb1c8968","type":"verification","slug":"bvn","name":"BVN"},{"id":"0193731a-59fe-788a-9877-8bef6d0c2cfc","type_id":"0193731a-59fe-788a-9877-8bef6d0c2cfc","type":"kyc","slug":"personal-information","name":"Personal Information"}]}},{"id":"01948f7c-9369-7cc6-93de-917e67f20682","meta":null,"created_on":"2025-01-22T19:28:13.670Z","created_by_id":"01948f7c-64fb-7cc6-93de-83282fa131be","modified_on":"2025-01-22T19:28:13.670Z","modified_by_id":null,"deleted_on":null,"deleted_by_id":null,"tenant_id":"00000000-0000-0000-0000-000000000000","name":"Ibrahim Azeez","type":"personal","status":"active","review":null,"allowed_time_periods":null,"primary_user_id":"01948f7c-64fb-7cc6-93de-83282fa131be","tier_id":null,"primary_user":{"id":"01948f7c-64fb-7cc6-93de-83282fa131be","meta":null,"created_on":"2025-01-22T19:28:01.786Z","created_by_id":null,"modified_on":"2025-01-22T19:32:41.728Z","modified_by_id":"01948f7c-64fb-7cc6-93de-83282fa131be","deleted_on":null,"deleted_by_id":null,"tenant_id":"00000000-0000-0000-0000-000000000000","email":"azeez+57@assurdly.com","status":"active","first_name":"Ibrahim","last_name":"Azeez","twofa_enabled":false,"last_active":"2025-01-22T19:32:41.727Z","last_ip":"172.69.195.134","allowed_ips":null,"last_timezone":"Europe/London","last_location":"London","phone":"+23409055745671","review":null,"gender":null,"date_of_birth":null,"cba_id":null,"photo_id":null,"referral_code":"T23XJR","allowed_locations":null,"referred_by":null},"tier":null},{"id":"01948de6-b23d-7227-9742-1acc4ca96139","meta":null,"created_on":"2025-01-22T12:04:53.949Z","created_by_id":"0194779e-0699-722d-b130-8816d366e2fc","modified_on":"2025-01-22T12:04:53.949Z","modified_by_id":null,"deleted_on":null,"deleted_by_id":null,"tenant_id":"00000000-0000-0000-0000-000000000000","name":"Destiny Erhabor","type":"personal","status":"active","review":null,"allowed_time_periods":null,"primary_user_id":"0194779e-0699-722d-b130-8816d366e2fc","tier_id":null,"primary_user":{"id":"0194779e-0699-722d-b130-8816d366e2fc","meta":null,"created_on":"2025-01-18T04:13:52.665Z","created_by_id":"019372de-17ef-7cc2-8fc0-43fe11ba042f","modified_on":"2025-01-29T16:06:04.032Z","modified_by_id":"0194779e-0699-722d-b130-8816d366e2fc","deleted_on":null,"deleted_by_id":null,"tenant_id":"00000000-0000-0000-0000-000000000000","email":"destinyerhabor6@gmail.com","status":"active","first_name":"Destiny","last_name":"Erhabor","twofa_enabled":false,"last_active":"2025-01-29T16:06:04.029Z","last_ip":"172.69.43.187","allowed_ips":null,"last_timezone":"Europe/London","last_location":"London","phone":null,"review":null,"gender":null,"date_of_birth":null,"cba_id":null,"photo_id":null,"referral_code":null,"allowed_locations":null,"referred_by":null},"tier":null},{"id":"01948dbf-e0b3-7227-9740-beb8f31fda2e","meta":null,"created_on":"2025-01-22T11:22:29.936Z","created_by_id":"01948dbf-d640-7227-9740-ac054d4b5b70","modified_on":"2025-01-22T11:22:29.936Z","modified_by_id":null,"deleted_on":null,"deleted_by_id":null,"tenant_id":"00000000-0000-0000-0000-000000000000","name":"Lara Barry","type":"personal","status":"active","review":null,"allowed_time_periods":null,"primary_user_id":"01948dbf-d640-7227-9740-ac054d4b5b70","tier_id":null,"primary_user":{"id":"01948dbf-d640-7227-9740-ac054d4b5b70","meta":null,"created_on":"2025-01-22T11:22:27.263Z","created_by_id":null,"modified_on":"2025-01-22T15:19:40.391Z","modified_by_id":"01948dbf-d640-7227-9740-ac054d4b5b70","deleted_on":null,"deleted_by_id":null,"tenant_id":"00000000-0000-0000-0000-000000000000","email":"Lara@mailinator.com","status":"active","first_name":"Lara","last_name":"Barry","twofa_enabled":false,"last_active":"2025-01-22T15:19:40.302Z","last_ip":"172.70.91.164","allowed_ips":null,"last_timezone":"Europe/London","last_location":"London","phone":"+2348058693556","review":null,"gender":null,"date_of_birth":null,"cba_id":null,"photo_id":null,"referral_code":"CBG4PP","allowed_locations":null,"referred_by":null},"tier":null},{"id":"01948669-e23b-7886-8c7f-8360b509b2d6","meta":null,"created_on":"2025-01-21T01:11:13.719Z","created_by_id":"01948669-cb1c-7886-8c7f-72a5cf65fe6d","modified_on":"2025-01-21T01:11:13.719Z","modified_by_id":null,"deleted_on":null,"deleted_by_id":null,"tenant_id":"00000000-0000-0000-0000-000000000000","name":"Gbemiga Akindeju","type":"personal","status":"active","review":null,"allowed_time_periods":null,"primary_user_id":"01948669-cb1c-7886-8c7f-72a5cf65fe6d","tier_id":null,"primary_user":{"id":"01948669-cb1c-7886-8c7f-72a5cf65fe6d","meta":null,"created_on":"2025-01-21T01:11:07.804Z","created_by_id":null,"modified_on":"2025-01-21T02:32:25.682Z","modified_by_id":"01948669-cb1c-7886-8c7f-72a5cf65fe6d","deleted_on":null,"deleted_by_id":null,"tenant_id":"00000000-0000-0000-0000-000000000000","email":"noyojes785@fanicle.com","status":"active","first_name":"Gbemiga","last_name":"Akindeju","twofa_enabled":false,"last_active":"2025-01-21T02:32:25.669Z","last_ip":"141.101.76.84","allowed_ips":null,"last_timezone":"Europe/Amsterdam","last_location":"Amsterdam","phone":"+2347085284790","review":null,"gender":null,"date_of_birth":null,"cba_id":null,"photo_id":null,"referral_code":"TXZQO3","allowed_locations":null,"referred_by":null},"tier":null},{"id":"01948654-bd50-7886-8c7f-07b967726daa","meta":null,"created_on":"2025-01-21T00:48:08.015Z","created_by_id":"01948654-a577-7886-8c7e-f68b7b4f93ac","modified_on":"2025-01-21T00:48:08.015Z","modified_by_id":null,"deleted_on":null,"deleted_by_id":null,"tenant_id":"00000000-0000-0000-0000-000000000000","name":"Dev AGMA","type":"personal","status":"active","review":null,"allowed_time_periods":null,"primary_user_id":"01948654-a577-7886-8c7e-f68b7b4f93ac","tier_id":null,"primary_user":{"id":"01948654-a577-7886-8c7e-f68b7b4f93ac","meta":null,"created_on":"2025-01-21T00:48:01.910Z","created_by_id":null,"modified_on":"2025-01-21T01:01:27.583Z","modified_by_id":"01948654-a577-7886-8c7e-f68b7b4f93ac","deleted_on":null,"deleted_by_id":null,"tenant_id":"00000000-0000-0000-0000-000000000000","email":"xesewi8571@maonyn.com","status":"active","first_name":"Dev","last_name":"AGMA","twofa_enabled":false,"last_active":"2025-01-21T01:01:27.581Z","last_ip":"172.70.46.185","allowed_ips":null,"last_timezone":"Europe/Amsterdam","last_location":"Amsterdam","phone":"+2348165150412","review":null,"gender":null,"date_of_birth":null,"cba_id":null,"photo_id":null,"referral_code":"79Z1T3","allowed_locations":null,"referred_by":null},"tier":null},{"id":"0194864b-0c20-7886-8c7e-c00ae02c9260","meta":null,"created_on":"2025-01-21T00:37:32.831Z","created_by_id":"01948646-5165-7886-8c7e-89ebf999a50c","modified_on":"2025-01-21T00:37:32.831Z","modified_by_id":null,"deleted_on":null,"deleted_by_id":null,"tenant_id":"00000000-0000-0000-0000-000000000000","name":"Gbengah Akindejuh","type":"personal","status":"active","review":null,"allowed_time_periods":null,"primary_user_id":"01948646-5165-7886-8c7e-89ebf999a50c","tier_id":null,"primary_user":{"id":"01948646-5165-7886-8c7e-89ebf999a50c","meta":null,"created_on":"2025-01-21T00:32:22.885Z","created_by_id":null,"modified_on":"2025-01-21T07:51:11.415Z","modified_by_id":"01948646-5165-7886-8c7e-89ebf999a50c","deleted_on":null,"deleted_by_id":null,"tenant_id":"00000000-0000-0000-0000-000000000000","email":"oluwagbemiga@lendsqr.com","status":"active","first_name":"Gbengah","last_name":"Akindejuh","twofa_enabled":false,"last_active":"2025-01-21T07:51:11.410Z","last_ip":"172.70.47.63","allowed_ips":null,"last_timezone":"Europe/Amsterdam","last_location":"Amsterdam","phone":"+2349030253741","review":null,"gender":null,"date_of_birth":null,"cba_id":null,"photo_id":null,"referral_code":"3NC05I","allowed_locations":null,"referred_by":null},"tier":null},{"id":"01947344-70cb-7668-98fb-65816d4ab773","meta":null,"created_on":"2025-01-17T07:57:32.745Z","created_by_id":"01947344-473f-7668-98fb-5124fefa496c","modified_on":"2025-01-17T07:57:32.745Z","modified_by_id":null,"deleted_on":null,"deleted_by_id":null,"tenant_id":"00000000-0000-0000-0000-000000000000","name":"Dare Art","type":"personal","status":"active","review":null,"allowed_time_periods":null,"primary_user_id":"01947344-473f-7668-98fb-5124fefa496c","tier_id":null,"primary_user":{"id":"01947344-473f-7668-98fb-5124fefa496c","meta":null,"created_on":"2025-01-17T07:57:22.110Z","created_by_id":null,"modified_on":"2025-01-17T08:03:28.911Z","modified_by_id":"01947344-473f-7668-98fb-5124fefa496c","deleted_on":null,"deleted_by_id":null,"tenant_id":"00000000-0000-0000-0000-000000000000","email":"Art@mailinator.com","status":"active","first_name":"Dare","last_name":"Art","twofa_enabled":false,"last_active":"2025-01-17T08:03:28.889Z","last_ip":"172.69.195.181","allowed_ips":null,"last_timezone":"Europe/London","last_location":"London","phone":"+23408160247509","review":null,"gender":null,"date_of_birth":null,"cba_id":null,"photo_id":null,"referral_code":"K5ZEE4","allowed_locations":null,"referred_by":null},"tier":null},{"id":"01946915-3c1b-777b-9e0d-1e05fa0b800a","meta":null,"created_on":"2025-01-15T08:29:46.903Z","created_by_id":null,"modified_on":"2025-01-15T08:29:46.903Z","modified_by_id":null,"deleted_on":null,"deleted_by_id":null,"tenant_id":"00000000-0000-0000-0000-000000000000","name":"Janet Adefeyisan","type":"personal","status":"active","review":null,"allowed_time_periods":null,"primary_user_id":"01946911-88a4-777b-9e0d-0899b60cb200","tier_id":null,"primary_user":{"id":"01946911-88a4-777b-9e0d-0899b60cb200","meta":null,"created_on":"2025-01-15T08:25:44.357Z","created_by_id":null,"modified_on":"2025-01-15T08:30:36.247Z","modified_by_id":null,"deleted_on":null,"deleted_by_id":null,"tenant_id":"00000000-0000-0000-0000-000000000000","email":"Jsjsjsj@gmail.com","status":"active","first_name":"Janet","last_name":"Adefeyisan","twofa_enabled":false,"last_active":"2025-01-15T08:31:17.346Z","last_ip":"172.69.195.217","allowed_ips":null,"last_timezone":"Europe/London","last_location":"London","phone":null,"review":null,"gender":null,"date_of_birth":null,"cba_id":null,"photo_id":null,"referral_code":"8RB2QC","allowed_locations":null,"referred_by":null},"tier":null},{"id":"019450bd-9d8f-700b-b89d-d7f715405e7b","meta":null,"created_on":"2025-01-10T15:03:11.502Z","created_by_id":null,"modified_on":"2025-01-10T15:03:11.502Z","modified_by_id":null,"deleted_on":null,"deleted_by_id":null,"tenant_id":"00000000-0000-0000-0000-000000000000","name":"Sunday Testing","type":"personal","status":"active","review":null,"allowed_time_periods":null,"primary_user_id":"019372de-17ef-7cc2-8fc0-43fe11ba042f","tier_id":null,"primary_user":{"id":"019372de-17ef-7cc2-8fc0-43fe11ba042f","meta":null,"created_on":"2024-11-28T13:02:58.029Z","created_by_id":null,"modified_on":"2025-02-02T20:15:05.595Z","modified_by_id":"019372de-17ef-7cc2-8fc0-43fe11ba042f","deleted_on":null,"deleted_by_id":null,"tenant_id":"00000000-0000-0000-0000-000000000000","email":"Ismael@mailinator.com","status":"active","first_name":"Sunday","last_name":"Testing","twofa_enabled":false,"last_active":"2025-02-02T20:15:05.594Z","last_ip":"172.70.130.191","allowed_ips":null,"last_timezone":"America/Chicago","last_location":"Chicago","phone":"+2349055755671","review":null,"gender":"male","date_of_birth":null,"cba_id":"31","photo_id":null,"referral_code":"7LD1QN","allowed_locations":null,"referred_by":null},"tier":null}],"meta":{"page":1,"total_pages":13,"total_items":127}}