{"status":"success","data":[{"id":"01926788-704b-7336-86de-a5f24f6e9083","meta":null,"created_on":"2024-10-07T15:10:47.882Z","created_by_id":null,"modified_on":"2024-10-07T15:10:47.882Z","modified_by_id":null,"deleted_on":null,"deleted_by_id":null,"name":"Owner","slug":"owner","description":"Owner","status":"active","profile_id":null,"tenant_id":null,"user_count":4},{"id":"01926788-56f8-7336-86de-98a2678c8611","meta":null,"created_on":"2024-10-07T15:10:41.400Z","created_by_id":null,"modified_on":"2024-10-07T15:10:41.400Z","modified_by_id":null,"deleted_on":null,"deleted_by_id":null,"name":"Authorizer","slug":"authorizer","description":"Authorizer","status":"active","profile_id":null,"tenant_id":null,"user_count":1},{"id":"01926788-3c4b-7336-86de-90ae20285abb","meta":null,"created_on":"2024-10-07T15:10:34.474Z","created_by_id":null,"modified_on":"2024-10-07T15:10:34.474Z","modified_by_id":null,"deleted_on":null,"deleted_by_id":null,"name":"Viewer","slug":"viewer","description":"Viewer","status":"active","profile_id":null,"tenant_id":null,"user_count":0},{"id":"01926788-1eaf-7336-86de-89316b9797d9","meta":null,"created_on":"2024-10-07T15:10:26.980Z","created_by_id":null,"modified_on":"2024-10-07T15:10:26.980Z","modified_by_id":null,"deleted_on":null,"deleted_by_id":null,"name":"Initiator","slug":"initiator","description":"Initiator","status":"active","profile_id":null,"tenant_id":null,"user_count":1},{"id":"019485a0-e971-7886-8c7b-57eec9197a22","meta":null,"created_on":"2025-01-20T21:31:42.832Z","created_by_id":"019372de-17ef-7cc2-8fc0-43fe11ba042f","modified_on":"2025-01-20T22:46:31.979Z","modified_by_id":"019372de-17ef-7cc2-8fc0-43fe11ba042f","deleted_on":null,"deleted_by_id":null,"name":"caesarsage","slug":"caesarsage","description":"testing from uix","status":"active","profile_id":"0193a649-e3d0-7881-8b7f-2ef1d89a9aff","tenant_id":"00000000-0000-0000-0000-000000000000","user_count":0},{"id":"01946928-8dfe-777b-9e0d-a26ee1339fab","meta":null,"created_on":"2025-01-15T08:50:53.055Z","created_by_id":null,"modified_on":"2025-01-24T10:54:59.727Z","modified_by_id":"019372de-17ef-7cc2-8fc0-43fe11ba042f","deleted_on":null,"deleted_by_id":null,"name":"Test","slug":"test","description":"Testing","status":"inactive","profile_id":"0193a649-e3d0-7881-8b7f-2ef1d89a9aff","tenant_id":"00000000-0000-0000-0000-000000000000","user_count":0},{"id":"019485a7-5fc4-7886-8c7d-16d4104eadb7","meta":null,"created_on":"2025-01-20T21:38:46.340Z","created_by_id":"019372de-17ef-7cc2-8fc0-43fe11ba042f","modified_on":"2025-01-24T11:44:25.714Z","modified_by_id":"019372de-17ef-7cc2-8fc0-43fe11ba042f","deleted_on":null,"deleted_by_id":null,"name":"caesarsage2","slug":"caesarsage2","description":"testing from ui","status":"active","profile_id":"0193a649-e3d0-7881-8b7f-2ef1d89a9aff","tenant_id":"00000000-0000-0000-0000-000000000000","user_count":0},{"id":"0195f51d-42c4-7887-ab17-0e6b03049a47","meta":null,"created_on":"2025-04-02T06:08:10.436Z","created_by_id":"019372de-17ef-7cc2-8fc0-43fe11ba042f","modified_on":"2025-04-02T06:08:10.436Z","modified_by_id":null,"deleted_on":null,"deleted_by_id":null,"name":"Intelligent Cotton Table","slug":"intelligent-cotton-table","description":"sodiq","status":"active","profile_id":"0193a649-e3d0-7881-8b7f-2ef1d89a9aff","tenant_id":"00000000-0000-0000-0000-000000000000","user_count":0},{"id":"0194390f-3451-7aa1-9609-b7bb23e65f18","meta":null,"created_on":"2025-01-06T00:41:25.328Z","created_by_id":null,"modified_on":"2025-01-20T23:12:08.873Z","modified_by_id":"019372de-17ef-7cc2-8fc0-43fe11ba042f","deleted_on":null,"deleted_by_id":null,"name":"Licensed Steel Glove","slug":"licensed-steel-glove","description":"Human steel","status":"active","profile_id":"0193a649-e3d0-7881-8b7f-2ef1d89a9aff","tenant_id":"00000000-0000-0000-0000-000000000000","user_count":0},{"id":"0194861b-3850-7886-8c7e-303cf4dfb5f7","meta":null,"created_on":"2025-01-20T23:45:18.415Z","created_by_id":"019372de-17ef-7cc2-8fc0-43fe11ba042f","modified_on":"2025-01-20T23:45:18.415Z","modified_by_id":null,"deleted_on":null,"deleted_by_id":null,"name":"Soft Glov","slug":"soft-glov","description":"Senior man","status":"active","profile_id":"0193a649-e3d0-7881-8b7f-2ef1d89a9aff","tenant_id":"00000000-0000-0000-0000-000000000000","user_count":0}],"meta":{"page":1,"total_pages":6,"total_items":52}}