{"status":"success","data":[{"id":"01954cd1-f3d3-7338-a2ce-b220bfa4a996","meta":null,"created_on":"2025-02-28T13:49:42.739Z","created_by_id":"01954cd1-e976-7338-a2ce-9b152cc5c58c","modified_on":"2025-02-28T13:49:42.739Z","modified_by_id":null,"deleted_on":null,"deleted_by_id":null,"tenant_id":"00000000-0000-0000-0000-000000000000","name":"Azeez Ibrahim","type":"personal","status":"active","restricted":false,"review":null,"allowed_time_periods":null,"allowed_locations":null,"primary_user_id":"01954cd1-e976-7338-a2ce-9b152cc5c58c","tier_id":null,"primary_user":{"id":"01954cd1-e976-7338-a2ce-9b152cc5c58c","meta":null,"created_on":"2025-02-28T13:49:40.086Z","created_by_id":null,"modified_on":"2025-02-28T14:37:22.779Z","modified_by_id":"01954cd1-e976-7338-a2ce-9b152cc5c58c","deleted_on":null,"deleted_by_id":null,"tenant_id":"00000000-0000-0000-0000-000000000000","email":"kuro@mailinator.com","status":"active","first_name":"Azeez","last_name":"Ibrahim","twofa_enabled":false,"last_active":"2025-02-28T14:37:22.778Z","last_ip":"172.71.122.168","allowed_ips":null,"last_timezone":"Europe/Paris","last_location":"Paris","phone":"+2349050566671","review":null,"gender":"male","date_of_birth":"2001-06-16","cba_id":null,"photo_id":null,"referral_code":"MHHZJ6","referred_by":null},"tier":null},{"id":"01954c86-7268-7338-a2cd-83a2dd8760db","meta":null,"created_on":"2025-02-28T12:27:14.409Z","created_by_id":"01954c86-5c79-7338-a2cd-6a25bd64c55b","modified_on":"2025-02-28T12:30:45.233Z","modified_by_id":"01954c86-5c79-7338-a2cd-6a25bd64c55b","deleted_on":null,"deleted_by_id":null,"tenant_id":"00000000-0000-0000-0000-000000000000","name":"Abdussamad Yisau","type":"personal","status":"active","restricted":false,"review":null,"allowed_time_periods":null,"allowed_locations":null,"primary_user_id":"01954c86-5c79-7338-a2cd-6a25bd64c55b","tier_id":"01928f2d-6756-755b-8a9d-c8094db2af27","primary_user":{"id":"01954c86-5c79-7338-a2cd-6a25bd64c55b","meta":null,"created_on":"2025-02-28T12:27:08.793Z","created_by_id":null,"modified_on":"2025-02-28T13:57:59.604Z","modified_by_id":"01954c86-5c79-7338-a2cd-6a25bd64c55b","deleted_on":null,"deleted_by_id":null,"tenant_id":"00000000-0000-0000-0000-000000000000","email":"testcoo@gmail.com","status":"active","first_name":"Abdussamad","last_name":"Yisau","twofa_enabled":false,"last_active":"2025-02-28T13:57:59.603Z","last_ip":"172.71.241.102","allowed_ips":null,"last_timezone":"Europe/London","last_location":"London","phone":"+2349133779812","review":null,"gender":"male","date_of_birth":"1999-07-05","cba_id":"101","photo_id":null,"referral_code":"Z4LLI3","referred_by":null},"tier":{"id":"01928f2d-6756-755b-8a9d-c8094db2af27","meta":null,"created_on":"2024-10-15T07:56:10.789Z","created_by_id":null,"modified_on":"2025-01-23T15:14:24.513Z","modified_by_id":"01927265-4ed2-79cc-a0e6-e11339a359f3","deleted_on":null,"deleted_by_id":null,"tenant_id":"00000000-0000-0000-0000-000000000000","profile_type":"personal","name":"Tier 1","description":"Tier 1","level":1,"enabled":true,"balance_limit":2000000,"single_sending_limit":500000,"single_receiving_limit":500000,"period_sending_limit":500000,"period_sending_limit_time_unit":"day","period_receiving_limit":500000,"period_receiving_limit_time_unit":"day","requirements":[{"id":"019318f9-c895-744d-8f65-4636cc26dd1d","type_id":"019318f9-c895-744d-8f65-4636cc26dd1d","type":"verification","slug":"email","name":"Email","description":"Verify your email"},{"id":"019318f9-c895-744d-8f65-4636cc26dd1c","type_id":"019318f9-c895-744d-8f65-4636cc26dd1c","type":"verification","slug":"phone","name":"Phone","description":"Verify yor number"},{"id":"019318f9-c895-744d-8f65-4636cc26dd1f","type_id":"019318f9-c895-744d-8f65-4636cc26dd1f","type":"verification","slug":"liveness","name":"Image liveness check","description":"This step helps us verify your identity by matching your image with the credentials you’ve provided."},{"id":"01933d40-03e5-777c-a6e6-bf72eb1c8968","type_id":"01933d40-03e5-777c-a6e6-bf72eb1c8968","type":"verification","slug":"bvn","name":"BVN","description":"BVN"}]}},{"id":"0195491c-b1c5-7ccd-8f7a-fac08026fac9","meta":null,"created_on":"2025-02-27T20:32:52.165Z","created_by_id":"0195491c-6669-7ccd-8f7a-a31a1eb32cb5","modified_on":"2025-02-27T20:32:52.165Z","modified_by_id":null,"deleted_on":null,"deleted_by_id":null,"tenant_id":"00000000-0000-0000-0000-000000000000","name":"Hammes Deon","type":"personal","status":"active","restricted":false,"review":null,"allowed_time_periods":null,"allowed_locations":null,"primary_user_id":"0195491c-6669-7ccd-8f7a-a31a1eb32cb5","tier_id":null,"primary_user":{"id":"0195491c-6669-7ccd-8f7a-a31a1eb32cb5","meta":null,"created_on":"2025-02-27T20:32:32.873Z","created_by_id":null,"modified_on":"2025-02-28T16:48:34.985Z","modified_by_id":"0195491c-6669-7ccd-8f7a-a31a1eb32cb5","deleted_on":null,"deleted_by_id":null,"tenant_id":"00000000-0000-0000-0000-000000000000","email":"Josianne@mailinator.com","status":"active","first_name":"Hammes","last_name":"Deon","twofa_enabled":false,"last_active":"2025-02-28T16:48:34.984Z","last_ip":"172.68.42.137","allowed_ips":null,"last_timezone":"Africa/Johannesburg","last_location":"Johannesburg","phone":null,"review":null,"gender":null,"date_of_birth":null,"cba_id":null,"photo_id":null,"referral_code":"0BXC1P","referred_by":"019372de-17ef-7cc2-8fc0-43fe11ba042f"},"tier":null},{"id":"01954849-115e-7cce-b25a-dbbc67358eab","meta":null,"created_on":"2025-02-27T16:41:43.006Z","created_by_id":"01954848-ebc5-7cce-b25a-c2b0ac020086","modified_on":"2025-02-27T16:43:22.612Z","modified_by_id":"01954848-ebc5-7cce-b25a-c2b0ac020086","deleted_on":null,"deleted_by_id":null,"tenant_id":"00000000-0000-0000-0000-000000000000","name":"Ibrahim Azeez","type":"personal","status":"active","restricted":false,"review":null,"allowed_time_periods":null,"allowed_locations":null,"primary_user_id":"01954848-ebc5-7cce-b25a-c2b0ac020086","tier_id":"01928f2d-6756-755b-8a9d-c8094db2af27","primary_user":{"id":"01954848-ebc5-7cce-b25a-c2b0ac020086","meta":null,"created_on":"2025-02-27T16:41:33.381Z","created_by_id":null,"modified_on":"2025-02-27T21:08:39.295Z","modified_by_id":"01954848-ebc5-7cce-b25a-c2b0ac020086","deleted_on":null,"deleted_by_id":null,"tenant_id":"00000000-0000-0000-0000-000000000000","email":"tiertest@mailinator.com","status":"active","first_name":"Ibrahim","last_name":"Azeez","twofa_enabled":false,"last_active":"2025-02-27T21:08:39.295Z","last_ip":"172.70.90.126","allowed_ips":null,"last_timezone":"Europe/London","last_location":"London","phone":"+2347055799671","review":null,"gender":"male","date_of_birth":"2001-06-16","cba_id":"100","photo_id":null,"referral_code":"M4P8EW","referred_by":null},"tier":{"id":"01928f2d-6756-755b-8a9d-c8094db2af27","meta":null,"created_on":"2024-10-15T07:56:10.789Z","created_by_id":null,"modified_on":"2025-01-23T15:14:24.513Z","modified_by_id":"01927265-4ed2-79cc-a0e6-e11339a359f3","deleted_on":null,"deleted_by_id":null,"tenant_id":"00000000-0000-0000-0000-000000000000","profile_type":"personal","name":"Tier 1","description":"Tier 1","level":1,"enabled":true,"balance_limit":2000000,"single_sending_limit":500000,"single_receiving_limit":500000,"period_sending_limit":500000,"period_sending_limit_time_unit":"day","period_receiving_limit":500000,"period_receiving_limit_time_unit":"day","requirements":[{"id":"01933d40-03e5-777c-a6e6-bf72eb1c8968","type_id":"01933d40-03e5-777c-a6e6-bf72eb1c8968","type":"verification","slug":"bvn","name":"BVN","description":"BVN"},{"id":"019318f9-c895-744d-8f65-4636cc26dd1f","type_id":"019318f9-c895-744d-8f65-4636cc26dd1f","type":"verification","slug":"liveness","name":"Image liveness check","description":"This step helps us verify your identity by matching your image with the credentials you’ve provided."},{"id":"019318f9-c895-744d-8f65-4636cc26dd1d","type_id":"019318f9-c895-744d-8f65-4636cc26dd1d","type":"verification","slug":"email","name":"Email","description":"Verify your email"},{"id":"019318f9-c895-744d-8f65-4636cc26dd1c","type_id":"019318f9-c895-744d-8f65-4636cc26dd1c","type":"verification","slug":"phone","name":"Phone","description":"Verify yor number"}]}},{"id":"0195480e-de28-7cce-b256-40ba1398812c","meta":{},"created_on":"2025-02-27T15:38:08.808Z","created_by_id":"0195480e-cc79-7cce-b255-e861245d59a1","modified_on":"2025-02-27T16:02:50.893Z","modified_by_id":"0195480e-cc79-7cce-b255-e861245d59a1","deleted_on":null,"deleted_by_id":null,"tenant_id":"00000000-0000-0000-0000-000000000000","name":"Adex Frett","type":"personal","status":"active","restricted":false,"review":null,"allowed_time_periods":null,"allowed_locations":null,"primary_user_id":"0195480e-cc79-7cce-b255-e861245d59a1","tier_id":null,"primary_user":{"id":"0195480e-cc79-7cce-b255-e861245d59a1","meta":null,"created_on":"2025-02-27T15:38:04.282Z","created_by_id":null,"modified_on":"2025-02-27T16:07:16.893Z","modified_by_id":"0195480e-cc79-7cce-b255-e861245d59a1","deleted_on":null,"deleted_by_id":null,"tenant_id":"00000000-0000-0000-0000-000000000000","email":"frun@yopmail.com","status":"active","first_name":"Adex","last_name":"Frett","twofa_enabled":false,"last_active":"2025-02-27T16:07:16.892Z","last_ip":"172.70.47.149","allowed_ips":null,"last_timezone":"Europe/Amsterdam","last_location":"Amsterdam","phone":"+2348138092134","review":null,"gender":null,"date_of_birth":null,"cba_id":null,"photo_id":null,"referral_code":"ZRTV69","referred_by":"019372de-17ef-7cc2-8fc0-43fe11ba042f"},"tier":null},{"id":"019546ea-8a8c-7cce-b250-bf2df0663101","meta":null,"created_on":"2025-02-27T10:18:50.892Z","created_by_id":"019427a2-a0aa-755d-a88e-bc2aa18b46f7","modified_on":"2025-02-27T10:21:43.891Z","modified_by_id":"019427a2-a0aa-755d-a88e-bc2aa18b46f7","deleted_on":null,"deleted_by_id":null,"tenant_id":"00000000-0000-0000-0000-000000000000","name":"Ibrahim Azeez","type":"personal","status":"active","restricted":false,"review":null,"allowed_time_periods":null,"allowed_locations":null,"primary_user_id":"019427a2-a0aa-755d-a88e-bc2aa18b46f7","tier_id":"01928f2d-6756-755b-8a9d-c8094db2af27","primary_user":{"id":"019427a2-a0aa-755d-a88e-bc2aa18b46f7","meta":null,"created_on":"2025-01-02T15:29:16.970Z","created_by_id":null,"modified_on":"2025-02-27T10:29:34.016Z","modified_by_id":"019427a2-a0aa-755d-a88e-bc2aa18b46f7","deleted_on":null,"deleted_by_id":null,"tenant_id":"00000000-0000-0000-0000-000000000000","email":"azeez@assurdly.com","status":"active","first_name":"Ibrahim","last_name":"Azeez","twofa_enabled":false,"last_active":"2025-02-27T10:29:34.014Z","last_ip":"172.69.6.218","allowed_ips":null,"last_timezone":"America/Chicago","last_location":"Chicago","phone":"+2349066766845","review":null,"gender":"male","date_of_birth":"2001-06-16","cba_id":"98","photo_id":null,"referral_code":"V3VVY5","referred_by":null},"tier":{"id":"01928f2d-6756-755b-8a9d-c8094db2af27","meta":null,"created_on":"2024-10-15T07:56:10.789Z","created_by_id":null,"modified_on":"2025-01-23T15:14:24.513Z","modified_by_id":"01927265-4ed2-79cc-a0e6-e11339a359f3","deleted_on":null,"deleted_by_id":null,"tenant_id":"00000000-0000-0000-0000-000000000000","profile_type":"personal","name":"Tier 1","description":"Tier 1","level":1,"enabled":true,"balance_limit":2000000,"single_sending_limit":500000,"single_receiving_limit":500000,"period_sending_limit":500000,"period_sending_limit_time_unit":"day","period_receiving_limit":500000,"period_receiving_limit_time_unit":"day","requirements":[{"id":"019318f9-c895-744d-8f65-4636cc26dd1c","type_id":"019318f9-c895-744d-8f65-4636cc26dd1c","type":"verification","slug":"phone","name":"Phone","description":"Verify yor number"},{"id":"019318f9-c895-744d-8f65-4636cc26dd1d","type_id":"019318f9-c895-744d-8f65-4636cc26dd1d","type":"verification","slug":"email","name":"Email","description":"Verify your email"},{"id":"019318f9-c895-744d-8f65-4636cc26dd1f","type_id":"019318f9-c895-744d-8f65-4636cc26dd1f","type":"verification","slug":"liveness","name":"Image liveness check","description":"This step helps us verify your identity by matching your image with the credentials you’ve provided."},{"id":"01933d40-03e5-777c-a6e6-bf72eb1c8968","type_id":"01933d40-03e5-777c-a6e6-bf72eb1c8968","type":"verification","slug":"bvn","name":"BVN","description":"BVN"}]}},{"id":"019546bc-bbd7-7ee6-9652-7895fc5abeda","meta":null,"created_on":"2025-02-27T09:28:48.856Z","created_by_id":"019546bc-a7e4-7ee6-9652-26812a56e4a0","modified_on":"2025-02-27T16:34:58.189Z","modified_by_id":"019546bc-a7e4-7ee6-9652-26812a56e4a0","deleted_on":null,"deleted_by_id":null,"tenant_id":"00000000-0000-0000-0000-000000000000","name":"Fuan Akinsanya","type":"personal","status":"active","restricted":false,"review":null,"allowed_time_periods":null,"allowed_locations":null,"primary_user_id":"019546bc-a7e4-7ee6-9652-26812a56e4a0","tier_id":"01928f2d-6756-755b-8a9d-c8094db2af27","primary_user":{"id":"019546bc-a7e4-7ee6-9652-26812a56e4a0","meta":null,"created_on":"2025-02-27T09:28:43.749Z","created_by_id":null,"modified_on":"2025-02-27T16:43:41.885Z","modified_by_id":"019546bc-a7e4-7ee6-9652-26812a56e4a0","deleted_on":null,"deleted_by_id":null,"tenant_id":"00000000-0000-0000-0000-000000000000","email":"fran@yopmail.com","status":"active","first_name":"Fuan","last_name":"Akinsanya","twofa_enabled":false,"last_active":"2025-02-27T16:43:41.883Z","last_ip":"172.71.182.146","allowed_ips":null,"last_timezone":"Europe/Amsterdam","last_location":"Amsterdam","phone":"+2348138096123","review":null,"gender":"female","date_of_birth":"1994-06-20","cba_id":"99","photo_id":null,"referral_code":"TRCP0T","referred_by":"019372de-17ef-7cc2-8fc0-43fe11ba042f"},"tier":{"id":"01928f2d-6756-755b-8a9d-c8094db2af27","meta":null,"created_on":"2024-10-15T07:56:10.789Z","created_by_id":null,"modified_on":"2025-01-23T15:14:24.513Z","modified_by_id":"01927265-4ed2-79cc-a0e6-e11339a359f3","deleted_on":null,"deleted_by_id":null,"tenant_id":"00000000-0000-0000-0000-000000000000","profile_type":"personal","name":"Tier 1","description":"Tier 1","level":1,"enabled":true,"balance_limit":2000000,"single_sending_limit":500000,"single_receiving_limit":500000,"period_sending_limit":500000,"period_sending_limit_time_unit":"day","period_receiving_limit":500000,"period_receiving_limit_time_unit":"day","requirements":[{"id":"019318f9-c895-744d-8f65-4636cc26dd1f","type_id":"019318f9-c895-744d-8f65-4636cc26dd1f","type":"verification","slug":"liveness","name":"Image liveness check","description":"This step helps us verify your identity by matching your image with the credentials you’ve provided."},{"id":"01933d40-03e5-777c-a6e6-bf72eb1c8968","type_id":"01933d40-03e5-777c-a6e6-bf72eb1c8968","type":"verification","slug":"bvn","name":"BVN","description":"BVN"},{"id":"019318f9-c895-744d-8f65-4636cc26dd1d","type_id":"019318f9-c895-744d-8f65-4636cc26dd1d","type":"verification","slug":"email","name":"Email","description":"Verify your email"},{"id":"019318f9-c895-744d-8f65-4636cc26dd1c","type_id":"019318f9-c895-744d-8f65-4636cc26dd1c","type":"verification","slug":"phone","name":"Phone","description":"Verify yor number"}]}},{"id":"019546b4-f7f8-7ee6-9651-8b227bf0120f","meta":null,"created_on":"2025-02-27T09:20:19.961Z","created_by_id":"019546b4-e14a-7ee6-9651-3435be4dcffc","modified_on":"2025-02-27T09:20:19.961Z","modified_by_id":null,"deleted_on":null,"deleted_by_id":null,"tenant_id":"00000000-0000-0000-0000-000000000000","name":"Fred Teslim","type":"personal","status":"active","restricted":false,"review":null,"allowed_time_periods":null,"allowed_locations":null,"primary_user_id":"019546b4-e14a-7ee6-9651-3435be4dcffc","tier_id":null,"primary_user":{"id":"019546b4-e14a-7ee6-9651-3435be4dcffc","meta":null,"created_on":"2025-02-27T09:20:14.155Z","created_by_id":null,"modified_on":"2025-02-27T09:27:25.248Z","modified_by_id":"019546b4-e14a-7ee6-9651-3435be4dcffc","deleted_on":null,"deleted_by_id":null,"tenant_id":"00000000-0000-0000-0000-000000000000","email":"frane@yopmail.com","status":"active","first_name":"Fred","last_name":"Teslim","twofa_enabled":false,"last_active":"2025-02-27T09:27:25.246Z","last_ip":"172.70.46.198","allowed_ips":null,"last_timezone":"Europe/Amsterdam","last_location":"Amsterdam","phone":"+2348138096201","review":null,"gender":"female","date_of_birth":"1994-06-20","cba_id":null,"photo_id":null,"referral_code":"T8EM8M","referred_by":"019372de-17ef-7cc2-8fc0-43fe11ba042f"},"tier":null},{"id":"01954449-997f-7bb3-926d-daf6e901db0c","meta":null,"created_on":"2025-02-26T22:03:48.990Z","created_by_id":"01954449-81a9-7bb3-926d-8735d3ef5901","modified_on":"2025-02-26T22:05:11.799Z","modified_by_id":"01954449-81a9-7bb3-926d-8735d3ef5901","deleted_on":null,"deleted_by_id":null,"tenant_id":"00000000-0000-0000-0000-000000000000","name":"Great Frett","type":"personal","status":"active","restricted":false,"review":null,"allowed_time_periods":null,"allowed_locations":null,"primary_user_id":"01954449-81a9-7bb3-926d-8735d3ef5901","tier_id":"01928f2d-6756-755b-8a9d-c8094db2af27","primary_user":{"id":"01954449-81a9-7bb3-926d-8735d3ef5901","meta":null,"created_on":"2025-02-26T22:03:42.889Z","created_by_id":null,"modified_on":"2025-02-26T22:09:27.118Z","modified_by_id":"01954449-81a9-7bb3-926d-8735d3ef5901","deleted_on":null,"deleted_by_id":null,"tenant_id":"00000000-0000-0000-0000-000000000000","email":"lem@mailinator.com","status":"active","first_name":"Great","last_name":"Frett","twofa_enabled":false,"last_active":"2025-02-26T22:09:27.117Z","last_ip":"172.71.95.116","allowed_ips":null,"last_timezone":"Europe/Amsterdam","last_location":"Amsterdam","phone":"+2348138096533","review":null,"gender":"female","date_of_birth":"1994-06-20","cba_id":"96","photo_id":null,"referral_code":"JOF07F","referred_by":"019372de-17ef-7cc2-8fc0-43fe11ba042f"},"tier":{"id":"01928f2d-6756-755b-8a9d-c8094db2af27","meta":null,"created_on":"2024-10-15T07:56:10.789Z","created_by_id":null,"modified_on":"2025-01-23T15:14:24.513Z","modified_by_id":"01927265-4ed2-79cc-a0e6-e11339a359f3","deleted_on":null,"deleted_by_id":null,"tenant_id":"00000000-0000-0000-0000-000000000000","profile_type":"personal","name":"Tier 1","description":"Tier 1","level":1,"enabled":true,"balance_limit":2000000,"single_sending_limit":500000,"single_receiving_limit":500000,"period_sending_limit":500000,"period_sending_limit_time_unit":"day","period_receiving_limit":500000,"period_receiving_limit_time_unit":"day","requirements":[{"id":"019318f9-c895-744d-8f65-4636cc26dd1c","type_id":"019318f9-c895-744d-8f65-4636cc26dd1c","type":"verification","slug":"phone","name":"Phone","description":"Verify yor number"},{"id":"019318f9-c895-744d-8f65-4636cc26dd1d","type_id":"019318f9-c895-744d-8f65-4636cc26dd1d","type":"verification","slug":"email","name":"Email","description":"Verify your email"},{"id":"019318f9-c895-744d-8f65-4636cc26dd1f","type_id":"019318f9-c895-744d-8f65-4636cc26dd1f","type":"verification","slug":"liveness","name":"Image liveness check","description":"This step helps us verify your identity by matching your image with the credentials you’ve provided."},{"id":"01933d40-03e5-777c-a6e6-bf72eb1c8968","type_id":"01933d40-03e5-777c-a6e6-bf72eb1c8968","type":"verification","slug":"bvn","name":"BVN","description":"BVN"}]}},{"id":"01954395-3c36-7007-b755-4562dbd117cf","meta":null,"created_on":"2025-02-26T18:46:48.629Z","created_by_id":"01954395-26e2-7007-b754-ec00c532b7c5","modified_on":"2025-02-26T18:46:48.629Z","modified_by_id":null,"deleted_on":null,"deleted_by_id":null,"tenant_id":"00000000-0000-0000-0000-000000000000","name":"bella Frett","type":"personal","status":"active","restricted":false,"review":null,"allowed_time_periods":null,"allowed_locations":null,"primary_user_id":"01954395-26e2-7007-b754-ec00c532b7c5","tier_id":null,"primary_user":{"id":"01954395-26e2-7007-b754-ec00c532b7c5","meta":null,"created_on":"2025-02-26T18:46:43.169Z","created_by_id":null,"modified_on":"2025-02-26T18:46:59.976Z","modified_by_id":"01954395-26e2-7007-b754-ec00c532b7c5","deleted_on":null,"deleted_by_id":null,"tenant_id":"00000000-0000-0000-0000-000000000000","email":"brail@mailinator.com","status":"active","first_name":"bella","last_name":"Frett","twofa_enabled":false,"last_active":"2025-02-26T18:46:59.977Z","last_ip":"172.71.95.133","allowed_ips":null,"last_timezone":"Europe/Amsterdam","last_location":"Amsterdam","phone":"+2348138096098","review":null,"gender":null,"date_of_birth":null,"cba_id":null,"photo_id":null,"referral_code":"A9A3Y9","referred_by":"019372de-17ef-7cc2-8fc0-43fe11ba042f"},"tier":null}],"meta":{"page":1,"total_pages":21,"total_items":206}}