{"status":"success","data":[{"id":"019544a8-dc7d-7cca-b243-4a903427434d","meta":null,"created_on":"2025-02-26T23:47:47.530Z","created_by_id":null,"modified_on":"2025-02-26T23:47:47.530Z","modified_by_id":null,"deleted_on":null,"deleted_by_id":null,"tenant_id":"00000000-0000-0000-0000-000000000000","configurable":false,"title":"Transaction Failed","body":"Bill payments for {{biller}} in the amount of {{bill_amount}} failed.","variables":["biller","bill_amount"]},{"id":"019544a8-e195-7cca-b243-781ea62ecea6","meta":null,"created_on":"2025-02-26T23:47:47.530Z","created_by_id":null,"modified_on":"2025-02-26T23:47:47.530Z","modified_by_id":null,"deleted_on":null,"deleted_by_id":null,"tenant_id":"00000000-0000-0000-0000-000000000000","configurable":false,"title":"Loan Request","body":"Your loan request of {{loan_amount}} has been approved. The disbursed funds will be available in your account shortly.","variables":["loan_amount"]},{"id":"019544a8-d755-7cca-b243-1a834e04e729","meta":null,"created_on":"2025-02-26T23:47:47.530Z","created_by_id":null,"modified_on":"2025-02-26T23:47:47.530Z","modified_by_id":null,"deleted_on":null,"deleted_by_id":null,"tenant_id":"00000000-0000-0000-0000-000000000000","configurable":false,"title":"Data","body":"Mobile data top-up of {{amount}} to this {{phone_number}} was successful","variables":["amount","phone_number"]},{"id":"019544a8-dac5-7cca-b243-3dbc85def852","meta":null,"created_on":"2025-02-26T23:47:47.530Z","created_by_id":null,"modified_on":"2025-02-26T23:47:47.530Z","modified_by_id":null,"deleted_on":null,"deleted_by_id":null,"tenant_id":"00000000-0000-0000-0000-000000000000","configurable":false,"title":"Electricity Token","body":"Your electricity token {{token}}","variables":["token"]},{"id":"019544a8-de34-7cca-b243-59897041421c","meta":null,"created_on":"2025-02-26T23:47:47.530Z","created_by_id":null,"modified_on":"2025-02-26T23:47:47.530Z","modified_by_id":null,"deleted_on":null,"deleted_by_id":null,"tenant_id":"00000000-0000-0000-0000-000000000000","configurable":false,"title":"Add beneficiary","body":"Your beneficiary {{beneficiary_name}} has been successfully added to your account.","variables":["beneficiary_name"]},{"id":"019544a8-dfe3-7cca-b243-6fb9cc664578","meta":null,"created_on":"2025-02-26T23:47:47.530Z","created_by_id":null,"modified_on":"2025-02-26T23:47:47.530Z","modified_by_id":null,"deleted_on":null,"deleted_by_id":null,"tenant_id":"00000000-0000-0000-0000-000000000000","configurable":false,"title":"Remove beneficiary","body":"Your beneficiary {{beneficiary_name}} has been removed successfully from your account.","variables":["beneficiary_name"]},{"id":"019544a8-d3ed-7cca-b242-f840f96dce14","meta":null,"created_on":"2025-02-26T23:47:47.530Z","created_by_id":null,"modified_on":"2025-02-26T23:47:47.530Z","modified_by_id":null,"deleted_on":null,"deleted_by_id":null,"tenant_id":"00000000-0000-0000-0000-000000000000","configurable":false,"title":"Successful Deposit","body":"Your account has been credited with {{amount}} from  {{sender_name}}{{sender_bank}} {{sender_account_number}}.","variables":["amount","sender_name","sender_bank","sender_account_number"]},{"id":"019544a8-d59b-7cca-b243-08e80519aa17","meta":null,"created_on":"2025-02-26T23:47:47.530Z","created_by_id":null,"modified_on":"2025-02-26T23:47:47.530Z","modified_by_id":null,"deleted_on":null,"deleted_by_id":null,"tenant_id":"00000000-0000-0000-0000-000000000000","configurable":false,"title":"Airtime","body":"Airtime top-up of {{amount}} to this {{phone_number}} was successful","variables":["amount","phone_number"]},{"id":"019544a8-d90c-7cca-b243-2c62a5cad678","meta":null,"created_on":"2025-02-26T23:47:47.530Z","created_by_id":null,"modified_on":"2025-02-26T23:47:47.530Z","modified_by_id":null,"deleted_on":null,"deleted_by_id":null,"tenant_id":"00000000-0000-0000-0000-000000000000","configurable":false,"title":"Bill Payments","body":"Bill payment for {{biller}} in the amount of {{bill_amount}} was successful.","variables":["biller","bill_amount"]},{"id":"019544a8-e34d-7cca-b243-8f4587531c61","meta":null,"created_on":"2025-02-26T23:47:47.530Z","created_by_id":null,"modified_on":"2025-02-26T23:47:47.530Z","modified_by_id":null,"deleted_on":null,"deleted_by_id":null,"tenant_id":"00000000-0000-0000-0000-000000000000","configurable":false,"title":"Loan Request","body":"We regret to inform you that your loan request of {{loan_amount}} has been denied due to {{reason}}. Please review your application and contact support if necessary.","variables":["loan_amount","reason"]}],"meta":{"page":1,"total_pages":11,"total_items":107}}