{"status":"success","data":[{"id":"01965e72-4115-7994-843f-938fca37317d","meta":null,"created_on":"2025-04-22T17:01:08.460Z","created_by_id":"0193d109-a926-7446-abe5-7dafe8b742bd","modified_on":"2025-04-22T17:03:44.493Z","modified_by_id":"0193d109-a926-7446-abe5-7dafe8b742bd","deleted_on":null,"deleted_by_id":null,"tenant_id":"00000000-0000-0000-0000-000000000000","name":"Premium Savings Plan 0fb35783-5a65-41be-bd09-e87b4c5f7b5d CSS","description":"A high-yield savings product with flexible terms.","status":"active","currency":"NGN","type":"structured","no_of_investors":100,"min_amount":"5000.00","interest_rate":"23.00","interest_period":"yearly","interest_compounding_period":"yearly","interest_posting_period":"yearly","cba_id":"182","terms_and_condition_file_id":null,"withholding_tax":1,"pre_closure_penal_interest":2,"min_deposit_term":1,"min_deposit_term_period":"days","max_deposit_term":24,"max_deposit_term_period":"months","min_amount_before_liquidation_approval":0,"frequency":"monthly","certificate_template_id":null},{"id":"01965e6b-a6b8-7bb2-8f8d-9c529810c521","meta":null,"created_on":"2025-04-22T16:53:55.589Z","created_by_id":"0193d109-a926-7446-abe5-7dafe8b742bd","modified_on":"2025-04-22T17:00:40.726Z","modified_by_id":"0193d109-a926-7446-abe5-7dafe8b742bd","deleted_on":null,"deleted_by_id":null,"tenant_id":"00000000-0000-0000-0000-000000000000","name":"Premium Savings Plan d53b9d64-787f-45f2-9c2b-696111719339 RAM","description":"A high-yield savings product with flexible terms.","status":"active","currency":"NGN","type":"fixed","no_of_investors":100,"min_amount":"5000.00","interest_rate":"23.00","interest_period":"yearly","interest_compounding_period":"yearly","interest_posting_period":"yearly","cba_id":"181","terms_and_condition_file_id":null,"withholding_tax":1,"pre_closure_penal_interest":2,"min_deposit_term":1,"min_deposit_term_period":"days","max_deposit_term":24,"max_deposit_term_period":"months","min_amount_before_liquidation_approval":1233,"frequency":null,"certificate_template_id":null},{"id":"01965e69-fac6-7880-b48e-abfd8376a955","meta":null,"created_on":"2025-04-22T16:52:06.035Z","created_by_id":"0193d109-a926-7446-abe5-7dafe8b742bd","modified_on":"2025-04-22T16:52:06.035Z","modified_by_id":null,"deleted_on":null,"deleted_by_id":null,"tenant_id":"00000000-0000-0000-0000-000000000000","name":"New Savings Plan 664cebf4-1f2b-404b-9051-a382e818c1f1","description":"A high-yield savings product with flexible terms.","status":"active","currency":"NGN","type":"custom","no_of_investors":100,"min_amount":"5000.00","interest_rate":"10.00","interest_period":"yearly","interest_compounding_period":"yearly","interest_posting_period":"yearly","cba_id":"179","terms_and_condition_file_id":null,"withholding_tax":1,"pre_closure_penal_interest":2,"min_deposit_term":1,"min_deposit_term_period":"days","max_deposit_term":24,"max_deposit_term_period":"months","min_amount_before_liquidation_approval":0,"frequency":"monthly","certificate_template_id":null},{"id":"01965e69-d863-7880-b48e-a341f07022c4","meta":null,"created_on":"2025-04-22T16:51:57.225Z","created_by_id":"0193d109-a926-7446-abe5-7dafe8b742bd","modified_on":"2025-04-22T16:51:57.225Z","modified_by_id":null,"deleted_on":null,"deleted_by_id":null,"tenant_id":"00000000-0000-0000-0000-000000000000","name":"New Savings Plan a1f9085a-862c-468e-a3a1-827b37c25cf7","description":"A high-yield savings product with flexible terms.","status":"active","currency":"NGN","type":"custom","no_of_investors":100,"min_amount":"5000.00","interest_rate":"10.00","interest_period":"yearly","interest_compounding_period":"yearly","interest_posting_period":"yearly","cba_id":"178","terms_and_condition_file_id":null,"withholding_tax":1,"pre_closure_penal_interest":2,"min_deposit_term":1,"min_deposit_term_period":"days","max_deposit_term":24,"max_deposit_term_period":"months","min_amount_before_liquidation_approval":0,"frequency":"monthly","certificate_template_id":null},{"id":"01965e65-f45a-755a-a8e1-535a8ad9a9be","meta":null,"created_on":"2025-04-22T16:47:42.237Z","created_by_id":"0193d109-a926-7446-abe5-7dafe8b742bd","modified_on":"2025-04-22T16:47:42.237Z","modified_by_id":null,"deleted_on":null,"deleted_by_id":null,"tenant_id":"00000000-0000-0000-0000-000000000000","name":"New Savings Plan 8681b700-24ac-497a-bc28-e4cf1a5887ac","description":"A high-yield savings product with flexible terms.","status":"active","currency":"NGN","type":"custom","no_of_investors":100,"min_amount":"5000.00","interest_rate":"10.00","interest_period":"yearly","interest_compounding_period":"yearly","interest_posting_period":"yearly","cba_id":"174","terms_and_condition_file_id":null,"withholding_tax":1,"pre_closure_penal_interest":2,"min_deposit_term":1,"min_deposit_term_period":"days","max_deposit_term":24,"max_deposit_term_period":"months","min_amount_before_liquidation_approval":0,"frequency":"monthly","certificate_template_id":null},{"id":"01965e2e-2f53-799a-8088-c76b03974553","meta":null,"created_on":"2025-04-22T15:46:47.403Z","created_by_id":"0193d109-a926-7446-abe5-7dafe8b742bd","modified_on":"2025-04-22T15:46:47.403Z","modified_by_id":null,"deleted_on":null,"deleted_by_id":null,"tenant_id":"00000000-0000-0000-0000-000000000000","name":"Premium Savings Plan e688b876-9ca2-430b-9616-b9168ebb056c XML","description":"A high-yield savings product with flexible terms.","status":"active","currency":"NGN","type":"fixed","no_of_investors":100,"min_amount":"5000.00","interest_rate":"10.00","interest_period":"yearly","interest_compounding_period":"yearly","interest_posting_period":"yearly","cba_id":"160","terms_and_condition_file_id":null,"withholding_tax":1,"pre_closure_penal_interest":2,"min_deposit_term":1,"min_deposit_term_period":"days","max_deposit_term":24,"max_deposit_term_period":"months","min_amount_before_liquidation_approval":1233,"frequency":null,"certificate_template_id":null},{"id":"01963efe-27f3-7003-bb73-d4734e36808d","meta":null,"created_on":"2025-04-16T14:26:05.939Z","created_by_id":"0193d109-a926-7446-abe5-7dafe8b742bd","modified_on":"2025-04-16T14:26:05.939Z","modified_by_id":null,"deleted_on":null,"deleted_by_id":null,"tenant_id":"00000000-0000-0000-0000-000000000000","name":"Premium Savings Plan 9f3f8a21-a7c4-49b6-b3ae-93837e812c20 SSL","description":"A high-yield savings product with flexible terms.","status":"active","currency":"NGN","type":"custom","no_of_investors":100,"min_amount":"5000.00","interest_rate":"10.00","interest_period":"yearly","interest_compounding_period":"yearly","interest_posting_period":"yearly","cba_id":"159","terms_and_condition_file_id":null,"withholding_tax":1,"pre_closure_penal_interest":2,"min_deposit_term":1,"min_deposit_term_period":"days","max_deposit_term":24,"max_deposit_term_period":"months","min_amount_before_liquidation_approval":0,"frequency":"monthly","certificate_template_id":null},{"id":"0196245d-ffd6-722a-998e-9d9c15aa2eae","meta":null,"created_on":"2025-04-11T10:21:02.227Z","created_by_id":"0193d109-a926-7446-abe5-7dafe8b742bd","modified_on":"2025-04-11T10:21:02.227Z","modified_by_id":null,"deleted_on":null,"deleted_by_id":null,"tenant_id":"00000000-0000-0000-0000-000000000000","name":"Premium Savings Plan 8f10db84-039a-4728-a65f-a91a4f48643c USB","description":"A high-yield savings product with flexible terms.","status":"active","currency":"NGN","type":"fixed","no_of_investors":100,"min_amount":"5000.00","interest_rate":"10.00","interest_period":"yearly","interest_compounding_period":"yearly","interest_posting_period":"yearly","cba_id":"158","terms_and_condition_file_id":null,"withholding_tax":1,"pre_closure_penal_interest":2,"min_deposit_term":1,"min_deposit_term_period":"days","max_deposit_term":24,"max_deposit_term_period":"months","min_amount_before_liquidation_approval":1233,"frequency":null,"certificate_template_id":"01931742-0781-722b-8de7-6c42b6f4c2eb"},{"id":"01962458-892d-7889-8c43-6ff1ea3440dc","meta":null,"created_on":"2025-04-11T10:15:04.177Z","created_by_id":"0193d109-a926-7446-abe5-7dafe8b742bd","modified_on":"2025-04-11T10:15:04.177Z","modified_by_id":null,"deleted_on":null,"deleted_by_id":null,"tenant_id":"00000000-0000-0000-0000-000000000000","name":"Premium Savings Plan 2fa234ec-df40-4183-a61b-a1ef7dbc3c8e JSON","description":"A high-yield savings product with flexible terms.","status":"active","currency":"NGN","type":"fixed","no_of_investors":100,"min_amount":"5000.00","interest_rate":"10.00","interest_period":"yearly","interest_compounding_period":"yearly","interest_posting_period":"yearly","cba_id":"157","terms_and_condition_file_id":null,"withholding_tax":1,"pre_closure_penal_interest":2,"min_deposit_term":1,"min_deposit_term_period":"days","max_deposit_term":24,"max_deposit_term_period":"months","min_amount_before_liquidation_approval":null,"frequency":null,"certificate_template_id":null},{"id":"01962456-a638-7889-8c43-6689b7c66145","meta":null,"created_on":"2025-04-11T10:13:00.540Z","created_by_id":"0193d109-a926-7446-abe5-7dafe8b742bd","modified_on":"2025-04-16T13:37:57.510Z","modified_by_id":"0193d109-a926-7446-abe5-7dafe8b742bd","deleted_on":null,"deleted_by_id":null,"tenant_id":"00000000-0000-0000-0000-000000000000","name":"Premium Savings Plan 52410161-ea9d-4e3e-b0bd-4c3c2f34040e RAM","description":"A high-yield savings product with flexible terms of payment.","status":"active","currency":"NGN","type":"fixed","no_of_investors":100,"min_amount":"5000.00","interest_rate":"10.00","interest_period":"yearly","interest_compounding_period":"yearly","interest_posting_period":"yearly","cba_id":"156","terms_and_condition_file_id":null,"withholding_tax":1,"pre_closure_penal_interest":2,"min_deposit_term":1,"min_deposit_term_period":"days","max_deposit_term":24,"max_deposit_term_period":"months","min_amount_before_liquidation_approval":0,"frequency":null,"certificate_template_id":null}],"meta":{"page":1,"total_pages":2,"total_items":14}}