{"status":"success","data":[{"id":"019528d0-b981-7330-84a8-913c99e59599","meta":null,"created_on":"2025-02-21T14:02:02.497Z","created_by_id":"01927265-4ed2-79cc-a0e6-e11339a359f3","modified_on":"2025-02-21T14:02:02.497Z","modified_by_id":null,"deleted_on":null,"deleted_by_id":null,"tenant_id":"00000000-0000-0000-0000-000000000000","profile_type":null,"slug":"security-questions","name":"Security Questions","description":"Security Questions","version":1},{"id":"0194b8d1-526e-7bb8-88ef-c83e8c21e149","meta":null,"created_on":"2025-01-30T20:05:13.455Z","created_by_id":"01927265-4ed2-79cc-a0e6-e11339a359f3","modified_on":"2025-01-30T20:05:13.455Z","modified_by_id":null,"deleted_on":null,"deleted_by_id":null,"tenant_id":"00000000-0000-0000-0000-000000000000","profile_type":"business","slug":"onboarding","name":"Onboarding","description":"Adding new user","version":1},{"id":"0194b8d0-975e-7bb8-88ef-baff769d8be5","meta":null,"created_on":"2025-01-30T20:04:25.567Z","created_by_id":"01927265-4ed2-79cc-a0e6-e11339a359f3","modified_on":"2025-01-30T20:04:25.567Z","modified_by_id":null,"deleted_on":null,"deleted_by_id":null,"tenant_id":"00000000-0000-0000-0000-000000000000","profile_type":"business","slug":"cashier","name":"Cashier","description":"test","version":1},{"id":"01948ca4-0621-7bb0-a716-583bce54dc93","meta":null,"created_on":"2025-01-22T06:12:27.296Z","created_by_id":"0192ee9f-7504-7bb3-919d-9fba49ba9e27","modified_on":"2025-01-23T13:02:25.473Z","modified_by_id":"0192ee9f-7504-7bb3-919d-9fba49ba9e27","deleted_on":null,"deleted_by_id":null,"tenant_id":"00000000-0000-0000-0000-000000000000","profile_type":"business","slug":"vat","name":"Test","description":"Form","version":1},{"id":"0193731a-59fe-788a-9877-8bef6d0c2cfc","meta":null,"created_on":"2024-11-28T14:08:47.102Z","created_by_id":null,"modified_on":"2025-01-21T12:44:54.987Z","modified_by_id":"0192ee9f-7504-7bb3-919d-9fba49ba9e27","deleted_on":null,"deleted_by_id":null,"tenant_id":"00000000-0000-0000-0000-000000000000","profile_type":"personal","slug":"personal-information","name":"Personal Information","description":"Provide other personal information (gender, country) and verify your phone number and email address.","version":1},{"id":"019368b2-54d3-7dd8-85d8-1e8eeb915459","meta":null,"created_on":"2024-11-26T13:38:57.875Z","created_by_id":null,"modified_on":"2024-11-26T13:38:57.875Z","modified_by_id":null,"deleted_on":null,"deleted_by_id":null,"tenant_id":"00000000-0000-0000-0000-000000000000","profile_type":"business","slug":"add-directors","name":"Add directors","description":"Update the information of the directors of your business.","version":1},{"id":"019367c5-1c25-7115-b8f2-70b1fbd2115e","meta":null,"created_on":"2024-11-26T09:19:51.334Z","created_by_id":null,"modified_on":"2024-11-26T09:19:51.334Z","modified_by_id":null,"deleted_on":null,"deleted_by_id":null,"tenant_id":"00000000-0000-0000-0000-000000000000","profile_type":"business","slug":"scuml-certificate","name":"SCUML Certificate","description":"SCUML Certificate","version":1},{"id":"019367ba-8336-7115-b8f2-373bddb29090","meta":null,"created_on":"2024-11-26T09:08:16.823Z","created_by_id":null,"modified_on":"2024-11-26T09:08:16.823Z","modified_by_id":null,"deleted_on":null,"deleted_by_id":null,"tenant_id":"00000000-0000-0000-0000-000000000000","profile_type":"personal","slug":"other-pep-relationship","name":"Other PEP Relationship","description":"Other PEP Relationship","version":1},{"id":"019367b2-0af9-7115-b8f1-dc685d92e97f","meta":null,"created_on":"2024-11-26T08:59:01.754Z","created_by_id":null,"modified_on":"2025-01-22T12:32:11.455Z","modified_by_id":"0192ee9f-7504-7bb3-919d-9fba49ba9e27","deleted_on":null,"deleted_by_id":null,"tenant_id":"00000000-0000-0000-0000-000000000000","profile_type":"personal","slug":"enhanced-due-diligence","name":"Enhanced Due Diligence","description":"Enhanced Due Diligence","version":1},{"id":"01933d2f-aa30-7ddd-a344-aa4e37d9f705","meta":null,"created_on":"2024-11-18T02:52:34.224Z","created_by_id":null,"modified_on":"2025-01-21T13:39:18.205Z","modified_by_id":"0192ee9f-7504-7bb3-919d-9fba49ba9e27","deleted_on":null,"deleted_by_id":null,"tenant_id":"00000000-0000-0000-0000-000000000000","profile_type":"personal","slug":"employment-information","name":"Employment information","description":"Provide your employment information as part of requirements to ensure your account accuracy.","version":1}],"meta":{"page":1,"total_pages":2,"total_items":12}}