{"status":"success","data":[{"id":"01952b75-f7ab-7330-84b7-5f56f2acc9fc","meta":null,"created_on":"2025-02-22T02:21:46.283Z","created_by_id":"0194fffc-b707-7ffd-8a49-bade06ffdb55","modified_on":"2025-02-22T02:21:46.283Z","modified_by_id":null,"deleted_on":null,"deleted_by_id":null,"tenant_id":"00000000-0000-0000-0000-000000000000","profile_id":"0194fffd-02d8-7ffd-8a4a-16ddf6002a67","identifier":"13945946-8aca-4a82-bfe2-9731c16a6f8d","status":"pending","type_id":"019318f9-c895-744d-8f65-4636cc26dd1f"},{"id":"019529b9-576c-7330-84b1-d39a9db6452d","meta":null,"created_on":"2025-02-21T18:16:07.276Z","created_by_id":"0194fffc-b707-7ffd-8a49-bade06ffdb55","modified_on":"2025-02-21T18:16:07.276Z","modified_by_id":null,"deleted_on":null,"deleted_by_id":null,"tenant_id":"00000000-0000-0000-0000-000000000000","profile_id":"0194fffd-02d8-7ffd-8a4a-16ddf6002a67","identifier":"21c802cb-f294-4762-81d2-46df78810ccb","status":"pending","type_id":"019318f9-c895-744d-8f65-4636cc26dd1f"},{"id":"019529ad-79e8-7330-84b1-89dd3f84fb54","meta":null,"created_on":"2025-02-21T18:03:09.672Z","created_by_id":"0194fffc-b707-7ffd-8a49-bade06ffdb55","modified_on":"2025-02-21T18:03:09.672Z","modified_by_id":null,"deleted_on":null,"deleted_by_id":null,"tenant_id":"00000000-0000-0000-0000-000000000000","profile_id":"0194fffd-02d8-7ffd-8a4a-16ddf6002a67","identifier":"8988eb07-93e1-4e02-ab88-af884e69dfba","status":"pending","type_id":"019318f9-c895-744d-8f65-4636cc26dd1f"},{"id":"019529ac-8418-7330-84b1-72e0ed9d193b","meta":null,"created_on":"2025-02-21T18:02:06.744Z","created_by_id":"0194fffc-b707-7ffd-8a49-bade06ffdb55","modified_on":"2025-02-21T18:02:06.744Z","modified_by_id":null,"deleted_on":null,"deleted_by_id":null,"tenant_id":"00000000-0000-0000-0000-000000000000","profile_id":"0194fffd-02d8-7ffd-8a4a-16ddf6002a67","identifier":"6fce9a0d-fcd9-43f0-b9a0-5926ddd0107e","status":"pending","type_id":"019318f9-c895-744d-8f65-4636cc26dd1f"},{"id":"019529ab-b4d8-7330-84b1-5d5f840c0f6f","meta":null,"created_on":"2025-02-21T18:01:13.688Z","created_by_id":"0194fffc-b707-7ffd-8a49-bade06ffdb55","modified_on":"2025-02-21T18:01:13.688Z","modified_by_id":null,"deleted_on":null,"deleted_by_id":null,"tenant_id":"00000000-0000-0000-0000-000000000000","profile_id":"0194fffd-02d8-7ffd-8a4a-16ddf6002a67","identifier":"6ead133e-16d9-4793-a3ee-58f15202f902","status":"pending","type_id":"019318f9-c895-744d-8f65-4636cc26dd1f"},{"id":"019529a7-579a-7330-84b1-3315997f2d65","meta":null,"created_on":"2025-02-21T17:56:27.674Z","created_by_id":"0194fffc-b707-7ffd-8a49-bade06ffdb55","modified_on":"2025-02-21T17:56:27.674Z","modified_by_id":null,"deleted_on":null,"deleted_by_id":null,"tenant_id":"00000000-0000-0000-0000-000000000000","profile_id":"0194fffd-02d8-7ffd-8a4a-16ddf6002a67","identifier":"d22fdc45-3ffc-4d32-8572-de56678851af","status":"pending","type_id":"019318f9-c895-744d-8f65-4636cc26dd1f"},{"id":"0195299d-7d0d-7330-84b1-08ad169df8d0","meta":null,"created_on":"2025-02-21T17:45:41.901Z","created_by_id":"0194fffc-b707-7ffd-8a49-bade06ffdb55","modified_on":"2025-02-21T17:45:41.901Z","modified_by_id":null,"deleted_on":null,"deleted_by_id":null,"tenant_id":"00000000-0000-0000-0000-000000000000","profile_id":"0194fffd-02d8-7ffd-8a4a-16ddf6002a67","identifier":"6db98a16-1655-471f-a656-16d38a6b330c","status":"pending","type_id":"019318f9-c895-744d-8f65-4636cc26dd1f"},{"id":"01952999-7fc3-7330-84b0-f322e21e65c3","meta":null,"created_on":"2025-02-21T17:41:20.451Z","created_by_id":"0194fffc-b707-7ffd-8a49-bade06ffdb55","modified_on":"2025-02-21T17:41:20.451Z","modified_by_id":null,"deleted_on":null,"deleted_by_id":null,"tenant_id":"00000000-0000-0000-0000-000000000000","profile_id":"0194fffd-02d8-7ffd-8a4a-16ddf6002a67","identifier":"e969d2d0-2b76-4bd2-be2e-8b9fbb12ec56","status":"pending","type_id":"019318f9-c895-744d-8f65-4636cc26dd1f"},{"id":"01952997-84bf-7330-84b0-de1c280909d5","meta":null,"created_on":"2025-02-21T17:39:10.655Z","created_by_id":"0194fffc-b707-7ffd-8a49-bade06ffdb55","modified_on":"2025-02-21T17:39:10.655Z","modified_by_id":null,"deleted_on":null,"deleted_by_id":null,"tenant_id":"00000000-0000-0000-0000-000000000000","profile_id":"0194fffd-02d8-7ffd-8a4a-16ddf6002a67","identifier":"1f764638-5770-4c14-8e26-8bc83fa6cc68","status":"pending","type_id":"019318f9-c895-744d-8f65-4636cc26dd1f"},{"id":"01952993-6881-7330-84b0-c7b2ec4ed0cf","meta":null,"created_on":"2025-02-21T17:34:41.281Z","created_by_id":"0194fffc-b707-7ffd-8a49-bade06ffdb55","modified_on":"2025-02-21T17:34:41.281Z","modified_by_id":null,"deleted_on":null,"deleted_by_id":null,"tenant_id":"00000000-0000-0000-0000-000000000000","profile_id":"0194fffd-02d8-7ffd-8a4a-16ddf6002a67","identifier":"593b875f-027d-4e1a-953d-35f487336cab","status":"pending","type_id":"019318f9-c895-744d-8f65-4636cc26dd1f"}],"meta":{"page":1,"total_pages":64,"total_items":634}}