{"status":"success","data":[{"id":"01953037-fbd0-7330-84bb-3f955efd720f","meta":null,"created_on":"2025-02-23T00:32:10.193Z","created_by_id":"0193d109-a926-7446-abe5-7dafe8b742bd","modified_on":"2025-02-23T00:37:10.713Z","modified_by_id":"0193d109-a926-7446-abe5-7dafe8b742bd","deleted_on":null,"deleted_by_id":null,"tenant_id":"00000000-0000-0000-0000-000000000000","email":"n@gmail.com","status":"pending","first_name":null,"last_name":null,"twofa_enabled":false,"last_active":"2025-02-23T00:32:10.193Z","last_ip":null,"allowed_ips":null,"last_timezone":null,"last_location":null,"role_id":"0194a673-5ab3-7dd7-aac7-b0ebf3ba61e5","role":{"id":"0194a673-5ab3-7dd7-aac7-b0ebf3ba61e5","meta":null,"created_on":"2025-01-27T06:29:25.299Z","created_by_id":"01927265-4ed2-79cc-a0e6-e11339a359f3","modified_on":"2025-01-27T06:29:25.299Z","modified_by_id":null,"deleted_on":null,"deleted_by_id":null,"name":"Russian","slug":"russian","description":"Brook","status":"active","tenant_id":"00000000-0000-0000-0000-000000000000"}},{"id":"01953033-7282-7330-84bb-2d0d6d74e0ff","meta":null,"created_on":"2025-02-23T00:27:12.899Z","created_by_id":"0193d109-a926-7446-abe5-7dafe8b742bd","modified_on":"2025-02-23T00:27:12.899Z","modified_by_id":null,"deleted_on":null,"deleted_by_id":null,"tenant_id":"00000000-0000-0000-0000-000000000000","email":"tt@gmail.com","status":"pending","first_name":null,"last_name":null,"twofa_enabled":false,"last_active":"2025-02-23T00:27:12.899Z","last_ip":null,"allowed_ips":null,"last_timezone":null,"last_location":null,"role_id":"01951a90-6127-7885-9dd0-1943f4ef80c5","role":{"id":"01951a90-6127-7885-9dd0-1943f4ef80c5","meta":null,"created_on":"2025-02-18T19:37:04.550Z","created_by_id":"01927265-4ed2-79cc-a0e6-e11339a359f3","modified_on":"2025-02-18T19:37:04.550Z","modified_by_id":null,"deleted_on":null,"deleted_by_id":null,"name":"Dispute Checker 1","slug":"dispute-checker-1","description":"Approve disputes","status":"active","tenant_id":"00000000-0000-0000-0000-000000000000"}},{"id":"01953018-8915-7330-84ba-fe08a6f0789a","meta":null,"created_on":"2025-02-22T23:57:49.205Z","created_by_id":"0193d109-a926-7446-abe5-7dafe8b742bd","modified_on":"2025-02-22T23:57:49.205Z","modified_by_id":null,"deleted_on":null,"deleted_by_id":null,"tenant_id":"00000000-0000-0000-0000-000000000000","email":"destinyerhabor6+dev1@gmail.com","status":"pending","first_name":null,"last_name":null,"twofa_enabled":false,"last_active":"2025-02-22T23:57:49.205Z","last_ip":null,"allowed_ips":null,"last_timezone":null,"last_location":null,"role_id":"0194b932-92d0-7bb8-88f2-0bc884cbbed4","role":{"id":"0194b932-92d0-7bb8-88f2-0bc884cbbed4","meta":null,"created_on":"2025-01-30T21:51:26.928Z","created_by_id":"01927265-4ed2-79cc-a0e6-e11339a359f3","modified_on":"2025-01-30T21:51:26.928Z","modified_by_id":null,"deleted_on":null,"deleted_by_id":null,"name":"interface","slug":"interface","description":"system","status":"active","tenant_id":"00000000-0000-0000-0000-000000000000"}},{"id":"01953014-c673-7330-84ba-de63073387f4","meta":null,"created_on":"2025-02-22T23:53:42.714Z","created_by_id":"0193d109-a926-7446-abe5-7dafe8b742bd","modified_on":"2025-02-22T23:53:42.714Z","modified_by_id":null,"deleted_on":null,"deleted_by_id":null,"tenant_id":"00000000-0000-0000-0000-000000000000","email":"destinyerhabor6+dev@gmail.com","status":"pending","first_name":null,"last_name":null,"twofa_enabled":false,"last_active":"2025-02-22T23:53:42.714Z","last_ip":null,"allowed_ips":null,"last_timezone":null,"last_location":null,"role_id":"0194a673-5ab3-7dd7-aac7-b0ebf3ba61e5","role":{"id":"0194a673-5ab3-7dd7-aac7-b0ebf3ba61e5","meta":null,"created_on":"2025-01-27T06:29:25.299Z","created_by_id":"01927265-4ed2-79cc-a0e6-e11339a359f3","modified_on":"2025-01-27T06:29:25.299Z","modified_by_id":null,"deleted_on":null,"deleted_by_id":null,"name":"Russian","slug":"russian","description":"Brook","status":"active","tenant_id":"00000000-0000-0000-0000-000000000000"}},{"id":"01951be3-7317-7885-9dd5-8e57f0db470b","meta":null,"created_on":"2025-02-19T01:47:25.846Z","created_by_id":"01927265-4ed2-79cc-a0e6-e11339a359f3","modified_on":"2025-02-21T15:20:10.773Z","modified_by_id":null,"deleted_on":null,"deleted_by_id":null,"tenant_id":"00000000-0000-0000-0000-000000000000","email":"zino.ref2@mailinator.com","status":"active","first_name":"Grady","last_name":"Zebah","twofa_enabled":false,"last_active":"2025-02-21T15:20:10.771Z","last_ip":"197.234.242.93","allowed_ips":null,"last_timezone":"Africa/Johannesburg","last_location":null,"role_id":"01951a90-6127-7885-9dd0-1943f4ef80c5","role":{"id":"01951a90-6127-7885-9dd0-1943f4ef80c5","meta":null,"created_on":"2025-02-18T19:37:04.550Z","created_by_id":"01927265-4ed2-79cc-a0e6-e11339a359f3","modified_on":"2025-02-18T19:37:04.550Z","modified_by_id":null,"deleted_on":null,"deleted_by_id":null,"name":"Dispute Checker 1","slug":"dispute-checker-1","description":"Approve disputes","status":"active","tenant_id":"00000000-0000-0000-0000-000000000000"}},{"id":"01951bd0-463b-7885-9dd5-18d36bcd9868","meta":null,"created_on":"2025-02-19T01:26:29.179Z","created_by_id":"01927265-4ed2-79cc-a0e6-e11339a359f3","modified_on":"2025-02-23T00:35:25.984Z","modified_by_id":"01927265-4ed2-79cc-a0e6-e11339a359f3","deleted_on":null,"deleted_by_id":null,"tenant_id":"00000000-0000-0000-0000-000000000000","email":"zedcd1-in@yopmail.com","status":"inactive","first_name":null,"last_name":null,"twofa_enabled":false,"last_active":"2025-02-19T01:26:29.179Z","last_ip":null,"allowed_ips":null,"last_timezone":null,"last_location":null,"role_id":"01951a90-6127-7885-9dd0-1943f4ef80c5","role":{"id":"01951a90-6127-7885-9dd0-1943f4ef80c5","meta":null,"created_on":"2025-02-18T19:37:04.550Z","created_by_id":"01927265-4ed2-79cc-a0e6-e11339a359f3","modified_on":"2025-02-18T19:37:04.550Z","modified_by_id":null,"deleted_on":null,"deleted_by_id":null,"name":"Dispute Checker 1","slug":"dispute-checker-1","description":"Approve disputes","status":"active","tenant_id":"00000000-0000-0000-0000-000000000000"}},{"id":"019519ca-9421-7333-b4e3-b64835738020","meta":null,"created_on":"2025-02-18T16:01:01.472Z","created_by_id":"01927265-4ed2-79cc-a0e6-e11339a359f3","modified_on":"2025-02-18T16:01:01.472Z","modified_by_id":null,"deleted_on":null,"deleted_by_id":null,"tenant_id":"00000000-0000-0000-0000-000000000000","email":"azeez@mili.com","status":"pending","first_name":null,"last_name":null,"twofa_enabled":false,"last_active":"2025-02-18T16:01:01.472Z","last_ip":null,"allowed_ips":null,"last_timezone":null,"last_location":null,"role_id":"0194a673-5ab3-7dd7-aac7-b0ebf3ba61e5","role":{"id":"0194a673-5ab3-7dd7-aac7-b0ebf3ba61e5","meta":null,"created_on":"2025-01-27T06:29:25.299Z","created_by_id":"01927265-4ed2-79cc-a0e6-e11339a359f3","modified_on":"2025-01-27T06:29:25.299Z","modified_by_id":null,"deleted_on":null,"deleted_by_id":null,"name":"Russian","slug":"russian","description":"Brook","status":"active","tenant_id":"00000000-0000-0000-0000-000000000000"}},{"id":"019519c9-34e3-7333-b4e3-a0eafe4e0522","meta":null,"created_on":"2025-02-18T15:59:31.555Z","created_by_id":"01927265-4ed2-79cc-a0e6-e11339a359f3","modified_on":"2025-02-18T15:59:31.555Z","modified_by_id":null,"deleted_on":null,"deleted_by_id":null,"tenant_id":"00000000-0000-0000-0000-000000000000","email":"azeez@mule.com","status":"pending","first_name":null,"last_name":null,"twofa_enabled":false,"last_active":"2025-02-18T15:59:31.555Z","last_ip":null,"allowed_ips":null,"last_timezone":null,"last_location":null,"role_id":"0194b895-df4d-7bb8-88eb-a501c0ae8f1d","role":{"id":"0194b895-df4d-7bb8-88eb-a501c0ae8f1d","meta":null,"created_on":"2025-01-30T19:00:17.357Z","created_by_id":"01927265-4ed2-79cc-a0e6-e11339a359f3","modified_on":"2025-01-30T19:00:17.357Z","modified_by_id":null,"deleted_on":null,"deleted_by_id":null,"name":"RAM","slug":"ram","description":"Hat","status":"active","tenant_id":"00000000-0000-0000-0000-000000000000"}},{"id":"0194d201-be98-7bb6-b3f8-b0030818366f","meta":null,"created_on":"2025-02-04T17:28:37.271Z","created_by_id":"01927265-4ed2-79cc-a0e6-e11339a359f3","modified_on":"2025-02-13T00:46:49.394Z","modified_by_id":"0193d109-a926-7446-abe5-7dafe8b742bd","deleted_on":null,"deleted_by_id":null,"tenant_id":"00000000-0000-0000-0000-000000000000","email":"Slayy@yopmail.com","status":"pending","first_name":null,"last_name":null,"twofa_enabled":false,"last_active":"2025-02-04T17:28:37.271Z","last_ip":null,"allowed_ips":null,"last_timezone":null,"last_location":null,"role_id":"0194d518-5291-7bb3-a119-630a16a3d8e8","role":{"id":"0194d518-5291-7bb3-a119-630a16a3d8e8","meta":null,"created_on":"2025-02-05T07:52:08.594Z","created_by_id":"01927265-4ed2-79cc-a0e6-e11339a359f3","modified_on":"2025-02-18T16:30:35.734Z","modified_by_id":"01927265-4ed2-79cc-a0e6-e11339a359f3","deleted_on":null,"deleted_by_id":null,"name":"Dispute Updater","slug":"dispute-updater","description":"Dispute Updater","status":"inactive","tenant_id":"00000000-0000-0000-0000-000000000000"}},{"id":"0194b899-400e-7bb8-88ec-cecb411c4e39","meta":null,"created_on":"2025-01-30T19:03:58.729Z","created_by_id":"01927265-4ed2-79cc-a0e6-e11339a359f3","modified_on":"2025-02-05T07:55:13.889Z","modified_by_id":"01927265-4ed2-79cc-a0e6-e11339a359f3","deleted_on":null,"deleted_by_id":null,"tenant_id":"00000000-0000-0000-0000-000000000000","email":"azeez+2@assurdly.com","status":"active","first_name":"Ibrahim","last_name":"ykr","twofa_enabled":false,"last_active":"2025-02-05T07:55:13.885Z","last_ip":"172.71.241.59","allowed_ips":null,"last_timezone":"Europe/London","last_location":null,"role_id":"0194d518-5291-7bb3-a119-630a16a3d8e8","role":{"id":"0194d518-5291-7bb3-a119-630a16a3d8e8","meta":null,"created_on":"2025-02-05T07:52:08.594Z","created_by_id":"01927265-4ed2-79cc-a0e6-e11339a359f3","modified_on":"2025-02-18T16:30:35.734Z","modified_by_id":"01927265-4ed2-79cc-a0e6-e11339a359f3","deleted_on":null,"deleted_by_id":null,"name":"Dispute Updater","slug":"dispute-updater","description":"Dispute Updater","status":"inactive","tenant_id":"00000000-0000-0000-0000-000000000000"}}],"meta":{"page":1,"total_pages":7,"total_items":66}}