{"status":"success","data":[{"id":"01948032-fb60-7ff1-8d52-a490d4b2fdba","created_on":"2025-01-19T20:13:32.384Z","email":"Eldred@mailinator.com","first_name":null,"last_name":null,"last_active":"2025-01-19T20:13:32.384Z","phone":null,"userProfile":{"id":"01948032-fb63-7ff1-8d52-ae03b329d25d","status":"pending","role_id":"019435d4-2106-7aa1-b636-29de80b54443","role":{"name":"Rustic Soft Gloves","slug":"rustic-soft-gloves"}}},{"id":"01948032-f51a-7ff1-8d52-84e5a9982db4","created_on":"2025-01-19T20:13:30.777Z","email":"Dortha@mailinator.com","first_name":"Ramona","last_name":"Paucek","last_active":"2025-01-19T20:13:30.777Z","phone":null,"userProfile":{"id":"01948032-f51f-7ff1-8d52-8d8d57d28144","status":"active","role_id":"019435d4-2106-7aa1-b636-29de80b54443","role":{"name":"Rustic Soft Gloves","slug":"rustic-soft-gloves"}}},{"id":"01947aef-0eae-722d-b132-ccc69db2d7f0","created_on":"2025-01-18T19:41:14.798Z","email":"Gray@mail.com","first_name":null,"last_name":null,"last_active":"2025-01-18T19:41:14.798Z","phone":null,"userProfile":{"id":"01947aef-0ef0-722d-b132-d43af1c89e19","status":"pending","role_id":"0194390f-3451-7aa1-9609-b7bb23e65f18","role":{"name":"Licensed Steel Gloves","slug":"licensed-steel-gloves"}}},{"id":"0194799f-e242-722d-b131-b165d3749dd3","created_on":"2025-01-18T13:35:08.865Z","email":"destinyerhabor2@gmail.com","first_name":null,"last_name":null,"last_active":"2025-01-18T13:35:08.865Z","phone":null,"userProfile":{"id":"019479b7-14a4-722d-b131-e53997537875","status":"pending","role_id":"01926788-1eaf-7336-86de-89316b9797d9","role":{"name":"Initiator","slug":"initiator"}}},{"id":"0194779e-0699-722d-b130-8816d366e2fc","created_on":"2025-01-18T04:13:52.665Z","email":"destinyerhabor6@gmail.com","first_name":null,"last_name":null,"last_active":"2025-01-18T04:13:52.665Z","phone":null,"userProfile":{"id":"0194799f-14dc-722d-b131-aca193c9e35a","status":"pending","role_id":"01926788-56f8-7336-86de-98a2678c8611","role":{"name":"Authorizer","slug":"authorizer"}}},{"id":"01946808-7023-777b-9e0c-2de1732fd3a5","created_on":"2025-01-15T03:36:11.043Z","email":"Klein@mailinator.com","first_name":"Cornelius","last_name":"Ferry","last_active":"2025-01-19T18:58:16.666Z","phone":null,"userProfile":{"id":"01946808-702b-777b-9e0c-36d7e3825b42","status":"active","role_id":"019435d3-5e27-7aa1-b636-0e6113f9564e","role":{"name":"Handmade Rubber Mouse","slug":"handmade-rubber-mouse"}}},{"id":"019464e3-2002-777b-9e06-612144a03c1d","created_on":"2025-01-14T12:56:34.050Z","email":"test@gmail.com","first_name":null,"last_name":null,"last_active":"2025-01-14T12:56:34.050Z","phone":null,"userProfile":{"id":"019464e3-2008-777b-9e06-6917fe285cd9","status":"pending","role_id":"019435d4-2106-7aa1-b636-29de80b54443","role":{"name":"Rustic Soft Gloves","slug":"rustic-soft-gloves"}}},{"id":"01944c40-1132-777f-a935-bb601297864f","created_on":"2025-01-09T18:07:34.707Z","email":"jothn@gmail.com","first_name":null,"last_name":null,"last_active":"2025-01-09T18:07:34.707Z","phone":null,"userProfile":{"id":"01944c40-1137-777f-a935-c693302fa239","status":"pending","role_id":"019435d1-53b8-7aa1-b635-dec5a3f048ff","role":{"name":"Generic Wooden Ball","slug":"generic-wooden-ball"}}},{"id":"01944bbd-b959-777f-a932-3f9b08b0197f","created_on":"2025-01-09T15:45:12.537Z","email":"mike@mailinator.com","first_name":null,"last_name":null,"last_active":"2025-01-09T15:45:12.537Z","phone":null,"userProfile":{"id":"01944bbd-b961-777f-a932-44593139b25b","status":"pending","role_id":"019435d1-02dd-7aa1-b635-ce8df84783c8","role":{"name":"Sleek Soft Pizza","slug":"sleek-soft-pizza"}}},{"id":"01944bbd-1bfe-777f-a932-2b036ebda4a6","created_on":"2025-01-09T15:44:32.254Z","email":"azeez@mailinator.com","first_name":null,"last_name":null,"last_active":"2025-01-09T15:44:32.254Z","phone":null,"userProfile":{"id":"01944bbd-1c03-777f-a932-356ceb3eb15f","status":"pending","role_id":"019435d1-02dd-7aa1-b635-ce8df84783c8","role":{"name":"Sleek Soft Pizza","slug":"sleek-soft-pizza"}}}],"meta":{"page":1,"total_pages":3,"total_items":23}}