{"status":"success","data":[{"id":"0194b361-aa65-7aaf-88c7-75e0da5a5fac","meta":null,"created_on":"2025-01-29T18:45:09.860Z","created_by_id":"019317a0-b7e5-7eeb-a7eb-bd18cf39a633","modified_on":"2025-01-29T18:45:10.390Z","modified_by_id":"019317a0-b7e5-7eeb-a7eb-bd18cf39a633","deleted_on":null,"deleted_by_id":null,"tenant_id":"00000000-0000-0000-0000-000000000000","account_id":"0193f0e2-ab16-799a-85ae-fa4fbe2990a7","profile_id":"01931947-9fea-744d-8f66-118c138292e3","cba_id":"2166","currency":"NGN","amount":"1800.00","balance_after":null,"reference":"Tmsmufraqps","processor_reference":null,"processor_status":null,"processor_message":null,"status":"success","entry_type":"debit","narration":"Bill payment to waec for 1102003467","transaction_date":"2025-01-29T18:45:09.859Z","transaction_type":"bill-payment","processor":"baxipay","reviewed_on":null,"reviewed_by":null,"batch_id":null,"schedule_id":null,"account":{"id":"0193f0e2-ab16-799a-85ae-fa4fbe2990a7","meta":null,"created_on":"2024-12-23T00:20:07.063Z","created_by_id":null,"modified_on":"2025-01-29T18:44:26.915Z","modified_by_id":"019317a0-b7e5-7eeb-a7eb-bd18cf39a633","deleted_on":null,"deleted_by_id":null,"tenant_id":"00000000-0000-0000-0000-000000000000","name":"Eno","cba_id":"0000000115","status":"active","profile_id":"01931947-9fea-744d-8f66-118c138292e3","account_number":"0000000115","bank_id":"0193324f-cad0-7f86-923b-43fb21ac5b29","ledger_balance":"19519.77","hold_balance":"0.00","available_balance":"19519.77","currency":"NGN","restricted":false},"transfer":null,"disputes":[],"batch":null,"transfer_beneficiary":null,"bill_payment_beneficiary":null},{"id":"0194b361-a6d0-7aaf-88c7-6c79083e900b","meta":null,"created_on":"2025-01-29T18:45:08.944Z","created_by_id":"019317a0-b7e5-7eeb-a7eb-bd18cf39a633","modified_on":"2025-01-29T18:45:09.234Z","modified_by_id":"019317a0-b7e5-7eeb-a7eb-bd18cf39a633","deleted_on":null,"deleted_by_id":null,"tenant_id":"00000000-0000-0000-0000-000000000000","account_id":"0193f0e2-ab16-799a-85ae-fa4fbe2990a7","profile_id":"01931947-9fea-744d-8f66-118c138292e3","cba_id":"2165","currency":"NGN","amount":"2300.00","balance_after":null,"reference":"Tahnrotsvaa","processor_reference":null,"processor_status":null,"processor_message":"Prepaid customer not allowed to process Postpaid transaction","status":"failed","entry_type":"debit","narration":"Bill payment to abuja_electric_postpaid for 07034953306","transaction_date":"2025-01-29T18:45:08.943Z","transaction_type":"bill-payment","processor":"baxipay","reviewed_on":null,"reviewed_by":null,"batch_id":null,"schedule_id":null,"account":{"id":"0193f0e2-ab16-799a-85ae-fa4fbe2990a7","meta":null,"created_on":"2024-12-23T00:20:07.063Z","created_by_id":null,"modified_on":"2025-01-29T18:44:26.915Z","modified_by_id":"019317a0-b7e5-7eeb-a7eb-bd18cf39a633","deleted_on":null,"deleted_by_id":null,"tenant_id":"00000000-0000-0000-0000-000000000000","name":"Eno","cba_id":"0000000115","status":"active","profile_id":"01931947-9fea-744d-8f66-118c138292e3","account_number":"0000000115","bank_id":"0193324f-cad0-7f86-923b-43fb21ac5b29","ledger_balance":"19519.77","hold_balance":"0.00","available_balance":"19519.77","currency":"NGN","restricted":false},"transfer":null,"disputes":[],"batch":null,"transfer_beneficiary":null,"bill_payment_beneficiary":null},{"id":"0194b361-9659-7aaf-88c7-660da19ff21a","meta":null,"created_on":"2025-01-29T18:45:04.729Z","created_by_id":"019317a0-b7e5-7eeb-a7eb-bd18cf39a633","modified_on":"2025-01-29T18:45:05.558Z","modified_by_id":"019317a0-b7e5-7eeb-a7eb-bd18cf39a633","deleted_on":null,"deleted_by_id":null,"tenant_id":"00000000-0000-0000-0000-000000000000","account_id":"0193f0e2-ab16-799a-85ae-fa4fbe2990a7","profile_id":"01931947-9fea-744d-8f66-118c138292e3","cba_id":"2164","currency":"NGN","amount":"900.00","balance_after":null,"reference":"Tnybolgphmp","processor_reference":null,"processor_status":null,"processor_message":"Transaction not found","status":"failed","entry_type":"debit","narration":"Bill payment to gotv for 1102003467","transaction_date":"2025-01-29T18:45:04.728Z","transaction_type":"bill-payment","processor":"baxipay","reviewed_on":null,"reviewed_by":null,"batch_id":null,"schedule_id":null,"account":{"id":"0193f0e2-ab16-799a-85ae-fa4fbe2990a7","meta":null,"created_on":"2024-12-23T00:20:07.063Z","created_by_id":null,"modified_on":"2025-01-29T18:44:26.915Z","modified_by_id":"019317a0-b7e5-7eeb-a7eb-bd18cf39a633","deleted_on":null,"deleted_by_id":null,"tenant_id":"00000000-0000-0000-0000-000000000000","name":"Eno","cba_id":"0000000115","status":"active","profile_id":"01931947-9fea-744d-8f66-118c138292e3","account_number":"0000000115","bank_id":"0193324f-cad0-7f86-923b-43fb21ac5b29","ledger_balance":"19519.77","hold_balance":"0.00","available_balance":"19519.77","currency":"NGN","restricted":false},"transfer":null,"disputes":[],"batch":null,"transfer_beneficiary":null,"bill_payment_beneficiary":null},{"id":"0194b361-8334-7aaf-88c7-588d7c852007","meta":null,"created_on":"2025-01-29T18:44:59.828Z","created_by_id":"019317a0-b7e5-7eeb-a7eb-bd18cf39a633","modified_on":"2025-01-29T18:45:00.988Z","modified_by_id":"019317a0-b7e5-7eeb-a7eb-bd18cf39a633","deleted_on":null,"deleted_by_id":null,"tenant_id":"00000000-0000-0000-0000-000000000000","account_id":"0193f0e2-ab16-799a-85ae-fa4fbe2990a7","profile_id":"01931947-9fea-744d-8f66-118c138292e3","cba_id":"2163","currency":"NGN","amount":"5300.00","balance_after":null,"reference":"Tnblnxgjyjd","processor_reference":null,"processor_status":null,"processor_message":"Transaction not found","status":"failed","entry_type":"debit","narration":"Bill payment to dstv for 1102003467","transaction_date":"2025-01-29T18:44:59.825Z","transaction_type":"bill-payment","processor":"baxipay","reviewed_on":null,"reviewed_by":null,"batch_id":null,"schedule_id":null,"account":{"id":"0193f0e2-ab16-799a-85ae-fa4fbe2990a7","meta":null,"created_on":"2024-12-23T00:20:07.063Z","created_by_id":null,"modified_on":"2025-01-29T18:44:26.915Z","modified_by_id":"019317a0-b7e5-7eeb-a7eb-bd18cf39a633","deleted_on":null,"deleted_by_id":null,"tenant_id":"00000000-0000-0000-0000-000000000000","name":"Eno","cba_id":"0000000115","status":"active","profile_id":"01931947-9fea-744d-8f66-118c138292e3","account_number":"0000000115","bank_id":"0193324f-cad0-7f86-923b-43fb21ac5b29","ledger_balance":"19519.77","hold_balance":"0.00","available_balance":"19519.77","currency":"NGN","restricted":false},"transfer":null,"disputes":[],"batch":null,"transfer_beneficiary":null,"bill_payment_beneficiary":null},{"id":"0194b361-7f42-7aaf-88c7-5219cb9f7367","meta":null,"created_on":"2025-01-29T18:44:58.818Z","created_by_id":"019317a0-b7e5-7eeb-a7eb-bd18cf39a633","modified_on":"2025-01-29T18:44:59.079Z","modified_by_id":"019317a0-b7e5-7eeb-a7eb-bd18cf39a633","deleted_on":null,"deleted_by_id":null,"tenant_id":"00000000-0000-0000-0000-000000000000","account_id":"0193f0e2-ab16-799a-85ae-fa4fbe2990a7","profile_id":"01931947-9fea-744d-8f66-118c138292e3","cba_id":"2162","currency":"NGN","amount":"1800.00","balance_after":null,"reference":"Tmmlfsxofmc","processor_reference":null,"processor_status":null,"processor_message":"ensure you supply a valid accountId","status":"failed","entry_type":"debit","narration":"Bill payment to smile for 11020034671","transaction_date":"2025-01-29T18:44:58.817Z","transaction_type":"bill-payment","processor":"baxipay","reviewed_on":null,"reviewed_by":null,"batch_id":null,"schedule_id":null,"account":{"id":"0193f0e2-ab16-799a-85ae-fa4fbe2990a7","meta":null,"created_on":"2024-12-23T00:20:07.063Z","created_by_id":null,"modified_on":"2025-01-29T18:44:26.915Z","modified_by_id":"019317a0-b7e5-7eeb-a7eb-bd18cf39a633","deleted_on":null,"deleted_by_id":null,"tenant_id":"00000000-0000-0000-0000-000000000000","name":"Eno","cba_id":"0000000115","status":"active","profile_id":"01931947-9fea-744d-8f66-118c138292e3","account_number":"0000000115","bank_id":"0193324f-cad0-7f86-923b-43fb21ac5b29","ledger_balance":"19519.77","hold_balance":"0.00","available_balance":"19519.77","currency":"NGN","restricted":false},"transfer":null,"disputes":[],"batch":null,"transfer_beneficiary":null,"bill_payment_beneficiary":null},{"id":"0194b361-7c1e-7aaf-88c7-4c2ebb7125e0","meta":null,"created_on":"2025-01-29T18:44:58.014Z","created_by_id":"019317a0-b7e5-7eeb-a7eb-bd18cf39a633","modified_on":"2025-01-29T18:44:58.283Z","modified_by_id":"019317a0-b7e5-7eeb-a7eb-bd18cf39a633","deleted_on":null,"deleted_by_id":null,"tenant_id":"00000000-0000-0000-0000-000000000000","account_id":"0193f0e2-ab16-799a-85ae-fa4fbe2990a7","profile_id":"01931947-9fea-744d-8f66-118c138292e3","cba_id":"2161","currency":"NGN","amount":"200.00","balance_after":null,"reference":"Teklzdanoas","processor_reference":null,"processor_status":null,"processor_message":"11020034671 is not a valid phone number","status":"failed","entry_type":"debit","narration":"Bill payment to 9mobile for 11020034671","transaction_date":"2025-01-29T18:44:58.013Z","transaction_type":"bill-payment","processor":"baxipay","reviewed_on":null,"reviewed_by":null,"batch_id":null,"schedule_id":null,"account":{"id":"0193f0e2-ab16-799a-85ae-fa4fbe2990a7","meta":null,"created_on":"2024-12-23T00:20:07.063Z","created_by_id":null,"modified_on":"2025-01-29T18:44:26.915Z","modified_by_id":"019317a0-b7e5-7eeb-a7eb-bd18cf39a633","deleted_on":null,"deleted_by_id":null,"tenant_id":"00000000-0000-0000-0000-000000000000","name":"Eno","cba_id":"0000000115","status":"active","profile_id":"01931947-9fea-744d-8f66-118c138292e3","account_number":"0000000115","bank_id":"0193324f-cad0-7f86-923b-43fb21ac5b29","ledger_balance":"19519.77","hold_balance":"0.00","available_balance":"19519.77","currency":"NGN","restricted":false},"transfer":null,"disputes":[],"batch":null,"transfer_beneficiary":null,"bill_payment_beneficiary":null},{"id":"0194b361-78a2-7aaf-88c7-45c01a52e9e9","meta":null,"created_on":"2025-01-29T18:44:57.122Z","created_by_id":"019317a0-b7e5-7eeb-a7eb-bd18cf39a633","modified_on":"2025-01-29T18:44:57.445Z","modified_by_id":"019317a0-b7e5-7eeb-a7eb-bd18cf39a633","deleted_on":null,"deleted_by_id":null,"tenant_id":"00000000-0000-0000-0000-000000000000","account_id":"0193f0e2-ab16-799a-85ae-fa4fbe2990a7","profile_id":"01931947-9fea-744d-8f66-118c138292e3","cba_id":"2160","currency":"NGN","amount":"50.00","balance_after":null,"reference":"Tsrthysqorn","processor_reference":null,"processor_status":null,"processor_message":"11020034671 is not a valid phone number","status":"failed","entry_type":"debit","narration":"Bill payment to airtel for 11020034671","transaction_date":"2025-01-29T18:44:57.121Z","transaction_type":"bill-payment","processor":"baxipay","reviewed_on":null,"reviewed_by":null,"batch_id":null,"schedule_id":null,"account":{"id":"0193f0e2-ab16-799a-85ae-fa4fbe2990a7","meta":null,"created_on":"2024-12-23T00:20:07.063Z","created_by_id":null,"modified_on":"2025-01-29T18:44:26.915Z","modified_by_id":"019317a0-b7e5-7eeb-a7eb-bd18cf39a633","deleted_on":null,"deleted_by_id":null,"tenant_id":"00000000-0000-0000-0000-000000000000","name":"Eno","cba_id":"0000000115","status":"active","profile_id":"01931947-9fea-744d-8f66-118c138292e3","account_number":"0000000115","bank_id":"0193324f-cad0-7f86-923b-43fb21ac5b29","ledger_balance":"19519.77","hold_balance":"0.00","available_balance":"19519.77","currency":"NGN","restricted":false},"transfer":null,"disputes":[],"batch":null,"transfer_beneficiary":null,"bill_payment_beneficiary":null},{"id":"0194b361-6edc-7aaf-88c7-3a1f73d6812b","meta":null,"created_on":"2025-01-29T18:44:54.619Z","created_by_id":"019317a0-b7e5-7eeb-a7eb-bd18cf39a633","modified_on":"2025-01-29T18:44:54.918Z","modified_by_id":"019317a0-b7e5-7eeb-a7eb-bd18cf39a633","deleted_on":null,"deleted_by_id":null,"tenant_id":"00000000-0000-0000-0000-000000000000","account_id":"0193f0e2-ab16-799a-85ae-fa4fbe2990a7","profile_id":"01931947-9fea-744d-8f66-118c138292e3","cba_id":"2159","currency":"NGN","amount":"100.00","balance_after":null,"reference":"Tyinhxbmqon","processor_reference":null,"processor_status":null,"processor_message":"11020034671 is not a valid phone number","status":"failed","entry_type":"debit","narration":"Bill payment to mtn for 11020034671","transaction_date":"2025-01-29T18:44:54.619Z","transaction_type":"bill-payment","processor":"baxipay","reviewed_on":null,"reviewed_by":null,"batch_id":null,"schedule_id":null,"account":{"id":"0193f0e2-ab16-799a-85ae-fa4fbe2990a7","meta":null,"created_on":"2024-12-23T00:20:07.063Z","created_by_id":null,"modified_on":"2025-01-29T18:44:26.915Z","modified_by_id":"019317a0-b7e5-7eeb-a7eb-bd18cf39a633","deleted_on":null,"deleted_by_id":null,"tenant_id":"00000000-0000-0000-0000-000000000000","name":"Eno","cba_id":"0000000115","status":"active","profile_id":"01931947-9fea-744d-8f66-118c138292e3","account_number":"0000000115","bank_id":"0193324f-cad0-7f86-923b-43fb21ac5b29","ledger_balance":"19519.77","hold_balance":"0.00","available_balance":"19519.77","currency":"NGN","restricted":false},"transfer":null,"disputes":[],"batch":null,"transfer_beneficiary":null,"bill_payment_beneficiary":null},{"id":"0194b361-6a8c-7aaf-88c7-35a6cd3f773c","meta":null,"created_on":"2025-01-29T18:44:53.516Z","created_by_id":"019317a0-b7e5-7eeb-a7eb-bd18cf39a633","modified_on":"2025-01-29T18:44:54.037Z","modified_by_id":"019317a0-b7e5-7eeb-a7eb-bd18cf39a633","deleted_on":null,"deleted_by_id":null,"tenant_id":"00000000-0000-0000-0000-000000000000","account_id":"0193f0e2-ab16-799a-85ae-fa4fbe2990a7","profile_id":"01931947-9fea-744d-8f66-118c138292e3","cba_id":"2158","currency":"NGN","amount":"100.00","balance_after":null,"reference":"Tpnhshjfzym","processor_reference":null,"processor_status":null,"processor_message":null,"status":"success","entry_type":"debit","narration":"Bill payment to smile for 1102003467","transaction_date":"2025-01-29T18:44:53.515Z","transaction_type":"bill-payment","processor":"baxipay","reviewed_on":null,"reviewed_by":null,"batch_id":null,"schedule_id":null,"account":{"id":"0193f0e2-ab16-799a-85ae-fa4fbe2990a7","meta":null,"created_on":"2024-12-23T00:20:07.063Z","created_by_id":null,"modified_on":"2025-01-29T18:44:26.915Z","modified_by_id":"019317a0-b7e5-7eeb-a7eb-bd18cf39a633","deleted_on":null,"deleted_by_id":null,"tenant_id":"00000000-0000-0000-0000-000000000000","name":"Eno","cba_id":"0000000115","status":"active","profile_id":"01931947-9fea-744d-8f66-118c138292e3","account_number":"0000000115","bank_id":"0193324f-cad0-7f86-923b-43fb21ac5b29","ledger_balance":"19519.77","hold_balance":"0.00","available_balance":"19519.77","currency":"NGN","restricted":false},"transfer":null,"disputes":[],"batch":null,"transfer_beneficiary":null,"bill_payment_beneficiary":null},{"id":"0194b361-6584-7aaf-88c7-2cec71f375a7","meta":null,"created_on":"2025-01-29T18:44:52.227Z","created_by_id":"019317a0-b7e5-7eeb-a7eb-bd18cf39a633","modified_on":"2025-01-29T18:44:52.625Z","modified_by_id":"019317a0-b7e5-7eeb-a7eb-bd18cf39a633","deleted_on":null,"deleted_by_id":null,"tenant_id":"00000000-0000-0000-0000-000000000000","account_id":"0193f0e2-ab16-799a-85ae-fa4fbe2990a7","profile_id":"01931947-9fea-744d-8f66-118c138292e3","cba_id":"2157","currency":"NGN","amount":"100.00","balance_after":null,"reference":"Thqjsnszugl","processor_reference":null,"processor_status":null,"processor_message":"1102003467 is not a valid phone number","status":"failed","entry_type":"debit","narration":"Bill payment to 9mobile for 1102003467","transaction_date":"2025-01-29T18:44:52.227Z","transaction_type":"bill-payment","processor":"baxipay","reviewed_on":null,"reviewed_by":null,"batch_id":null,"schedule_id":null,"account":{"id":"0193f0e2-ab16-799a-85ae-fa4fbe2990a7","meta":null,"created_on":"2024-12-23T00:20:07.063Z","created_by_id":null,"modified_on":"2025-01-29T18:44:26.915Z","modified_by_id":"019317a0-b7e5-7eeb-a7eb-bd18cf39a633","deleted_on":null,"deleted_by_id":null,"tenant_id":"00000000-0000-0000-0000-000000000000","name":"Eno","cba_id":"0000000115","status":"active","profile_id":"01931947-9fea-744d-8f66-118c138292e3","account_number":"0000000115","bank_id":"0193324f-cad0-7f86-923b-43fb21ac5b29","ledger_balance":"19519.77","hold_balance":"0.00","available_balance":"19519.77","currency":"NGN","restricted":false},"transfer":null,"disputes":[],"batch":null,"transfer_beneficiary":null,"bill_payment_beneficiary":null}],"meta":{"page":1,"total_pages":153,"total_items":1525}}