{"status":"success","data":[{"id":"01947fef-c780-7ff1-8d50-9dbfc331a794","meta":null,"created_on":"2025-01-19T19:00:08.192Z","created_by_id":"01944a80-f3cb-7881-990d-98798437f1f3","modified_on":"2025-01-19T19:00:08.192Z","modified_by_id":null,"deleted_on":null,"deleted_by_id":null,"tenant_id":"00000000-0000-0000-0000-000000000000","profile_id":"0193a649-e3d0-7881-8b7f-2ef1d89a9aff","status":"pending","command":"TransferCommand","command_data":{"account_id":"0193a699-2f15-7881-8b7f-ae50980bcfad","data":{"account_number":"0000000108","bank_code":"050030","amount":100,"pin":"1234","narration":"","account_name":"Profile","bank_name":"NORTHQUEST"}},"maker_id":"01944a80-f3cb-7881-990d-98798437f1f3","made_on":"2025-01-19T19:00:08.192Z","checker_id":null,"checked_on":null,"maker_checker_id":"0193df18-702c-7ddc-9298-482c857161b9","reason":null},{"id":"01947fef-15b6-7ff1-8d50-909e380ea16c","meta":null,"created_on":"2025-01-19T18:59:22.678Z","created_by_id":"01944a80-f3cb-7881-990d-98798437f1f3","modified_on":"2025-01-19T18:59:22.678Z","modified_by_id":null,"deleted_on":null,"deleted_by_id":null,"tenant_id":"00000000-0000-0000-0000-000000000000","profile_id":"0193a649-e3d0-7881-8b7f-2ef1d89a9aff","status":"pending","command":"TransferCommand","command_data":{"account_id":"0193a699-2f15-7881-8b7f-ae50980bcfad","data":{"account_number":"0000000108","bank_code":"050030","amount":100,"pin":"1234","narration":"","account_name":"Profile","bank_name":"NORTHQUEST"}},"maker_id":"01944a80-f3cb-7881-990d-98798437f1f3","made_on":"2025-01-19T18:59:22.677Z","checker_id":null,"checked_on":null,"maker_checker_id":"0193df18-702c-7ddc-9298-482c857161b9","reason":null},{"id":"01947fee-d674-7ff1-8d50-8a7e61a16492","meta":null,"created_on":"2025-01-19T18:59:06.484Z","created_by_id":"01944a80-f3cb-7881-990d-98798437f1f3","modified_on":"2025-01-19T18:59:06.484Z","modified_by_id":null,"deleted_on":null,"deleted_by_id":null,"tenant_id":"00000000-0000-0000-0000-000000000000","profile_id":"0193a649-e3d0-7881-8b7f-2ef1d89a9aff","status":"pending","command":"TransferCommand","command_data":{"account_id":"0193a699-2f15-7881-8b7f-ae50980bcfad","data":{"account_number":"0000000108","bank_code":"050030","amount":100,"pin":"1234","narration":"","account_name":"Profile","bank_name":"NORTHQUEST"}},"maker_id":"01944a80-f3cb-7881-990d-98798437f1f3","made_on":"2025-01-19T18:59:06.483Z","checker_id":null,"checked_on":null,"maker_checker_id":"0193df18-702c-7ddc-9298-482c857161b9","reason":null},{"id":"01945e1a-5cca-7554-958e-631c8f826912","meta":null,"created_on":"2025-01-13T05:19:33.579Z","created_by_id":null,"modified_on":"2025-01-13T05:19:33.579Z","modified_by_id":null,"deleted_on":null,"deleted_by_id":null,"tenant_id":"00000000-0000-0000-0000-000000000000","profile_id":"0193a649-e3d0-7881-8b7f-2ef1d89a9aff","status":"pending","command":"PayBillPaymentCommand","command_data":{"categoryId":"databundle","billerId":"mtn","data":{"account_number":"11020034671","amount":100,"option_id":"100","pin":"1234","account_id":"0193a699-2f15-7881-8b7f-ae50980bcfad"}},"maker_id":"01944a80-f3cb-7881-990d-98798437f1f3","made_on":"2025-01-13T05:19:33.578Z","checker_id":null,"checked_on":null,"maker_checker_id":"0193df18-702c-7ddc-9298-482c857161b9","reason":null},{"id":"01945e1a-5a6d-7554-958e-5d7a112b3d05","meta":null,"created_on":"2025-01-13T05:19:32.973Z","created_by_id":null,"modified_on":"2025-01-13T05:19:32.973Z","modified_by_id":null,"deleted_on":null,"deleted_by_id":null,"tenant_id":"00000000-0000-0000-0000-000000000000","profile_id":"0193a649-e3d0-7881-8b7f-2ef1d89a9aff","status":"pending","command":"PayBillPaymentCommand","command_data":{"categoryId":"airtime","billerId":"smile","data":{"account_number":"1102003467","amount":100,"pin":"1234","account_id":"0193a699-2f15-7881-8b7f-ae50980bcfad"}},"maker_id":"01944a80-f3cb-7881-990d-98798437f1f3","made_on":"2025-01-13T05:19:32.972Z","checker_id":null,"checked_on":null,"maker_checker_id":"0193df18-702c-7ddc-9298-482c857161b9","reason":null},{"id":"01945e1a-57cf-7554-958e-5158080edf3a","meta":null,"created_on":"2025-01-13T05:19:32.303Z","created_by_id":null,"modified_on":"2025-01-13T05:19:32.303Z","modified_by_id":null,"deleted_on":null,"deleted_by_id":null,"tenant_id":"00000000-0000-0000-0000-000000000000","profile_id":"0193a649-e3d0-7881-8b7f-2ef1d89a9aff","status":"pending","command":"PayBillPaymentCommand","command_data":{"categoryId":"airtime","billerId":"9mobile","data":{"account_number":"1102003467","amount":100,"pin":"1234","account_id":"0193a699-2f15-7881-8b7f-ae50980bcfad"}},"maker_id":"01944a80-f3cb-7881-990d-98798437f1f3","made_on":"2025-01-13T05:19:32.302Z","checker_id":null,"checked_on":null,"maker_checker_id":"0193df18-702c-7ddc-9298-482c857161b9","reason":null},{"id":"01945e1a-5561-7554-958e-4a19e1026c80","meta":null,"created_on":"2025-01-13T05:19:31.681Z","created_by_id":null,"modified_on":"2025-01-13T05:19:31.681Z","modified_by_id":null,"deleted_on":null,"deleted_by_id":null,"tenant_id":"00000000-0000-0000-0000-000000000000","profile_id":"0193a649-e3d0-7881-8b7f-2ef1d89a9aff","status":"pending","command":"PayBillPaymentCommand","command_data":{"categoryId":"airtime","billerId":"airtel","data":{"account_number":"1102003467","amount":100,"pin":"1234","account_id":"0193a699-2f15-7881-8b7f-ae50980bcfad"}},"maker_id":"01944a80-f3cb-7881-990d-98798437f1f3","made_on":"2025-01-13T05:19:31.680Z","checker_id":null,"checked_on":null,"maker_checker_id":"0193df18-702c-7ddc-9298-482c857161b9","reason":null},{"id":"01945e1a-4ff8-7554-958e-3c4da21b3454","meta":null,"created_on":"2025-01-13T05:19:30.297Z","created_by_id":null,"modified_on":"2025-01-13T05:19:30.297Z","modified_by_id":null,"deleted_on":null,"deleted_by_id":null,"tenant_id":"00000000-0000-0000-0000-000000000000","profile_id":"0193a649-e3d0-7881-8b7f-2ef1d89a9aff","status":"pending","command":"PayBillPaymentCommand","command_data":{"categoryId":"airtime","billerId":"mtn","data":{"account_number":"7918852161","amount":100,"pin":"1234","account_id":"0193a699-2f15-7881-8b7f-ae50980bcfad"}},"maker_id":"01944a80-f3cb-7881-990d-98798437f1f3","made_on":"2025-01-13T05:19:30.295Z","checker_id":null,"checked_on":null,"maker_checker_id":"0193df18-702c-7ddc-9298-482c857161b9","reason":null},{"id":"01945e19-cc9e-7554-958e-2c7f276fecd8","meta":null,"created_on":"2025-01-13T05:18:56.671Z","created_by_id":null,"modified_on":"2025-01-13T05:18:56.671Z","modified_by_id":null,"deleted_on":null,"deleted_by_id":null,"tenant_id":"00000000-0000-0000-0000-000000000000","profile_id":"0193a649-e3d0-7881-8b7f-2ef1d89a9aff","status":"pending","command":"TransferCommand","command_data":{"account_id":"0193a699-2f15-7881-8b7f-ae50980bcfad","data":{"account_number":"1780004070","bank_code":"999998","amount":100.23,"narration":"Sodiq","pin":"1234","bank_name":"Northquest Finance","account_name":"Mike Jacob"}},"maker_id":"01944a80-f3cb-7881-990d-98798437f1f3","made_on":"2025-01-13T05:18:56.669Z","checker_id":null,"checked_on":null,"maker_checker_id":"0193df18-702c-7ddc-9298-482c857161b9","reason":null},{"id":"0194527d-b068-7aa0-b317-cc5f1479c8c9","meta":null,"created_on":"2025-01-10T23:12:36.457Z","created_by_id":null,"modified_on":"2025-01-10T23:12:36.457Z","modified_by_id":null,"deleted_on":null,"deleted_by_id":null,"tenant_id":"00000000-0000-0000-0000-000000000000","profile_id":"0193a649-e3d0-7881-8b7f-2ef1d89a9aff","status":"pending","command":"PayBillPaymentCommand","command_data":{"categoryId":"airtime","billerId":"mtn","data":{"account_number":"7918852161","amount":100,"pin":"1234","account_id":"0193f0e2-ab16-799a-85ae-fa4fbe2990a7"}},"maker_id":"01944a80-f3cb-7881-990d-98798437f1f3","made_on":"2025-01-10T23:12:36.456Z","checker_id":null,"checked_on":null,"maker_checker_id":"0193df18-702c-7ddc-9298-482c857161b9","reason":null}],"meta":{"page":1,"total_pages":2,"total_items":13}}