{"status":"success","data":[{"id":"019289f1-8d87-766b-8bff-1ee5c22d9add","meta":null,"created_on":"2024-10-14T07:32:42.240Z","created_by":null,"modified_on":"2024-10-14T07:32:42.240Z","modified_by":null,"deleted_on":null,"deleted_by":null,"tenant_id":"00000000-0000-0000-0000-000000000000","profile_type":null,"name":"Proof of address","description":"Proof of address","enabled":true,"required":true},{"id":"0192d2f7-468a-7aac-8d59-19fe3f1dad7b","meta":null,"created_on":"2024-10-28T11:51:13.800Z","created_by":null,"modified_on":"2024-10-28T11:51:13.800Z","modified_by":null,"deleted_on":null,"deleted_by":null,"tenant_id":"00000000-0000-0000-0000-000000000000","profile_type":null,"name":"Business document","description":"document type","enabled":true,"required":true},{"id":"0192f2a4-ca56-7cc3-9e93-2f88c5ab082d","meta":null,"created_on":"2024-11-03T15:28:58.965Z","created_by":null,"modified_on":"2024-11-03T15:28:58.965Z","modified_by":null,"deleted_on":null,"deleted_by":null,"tenant_id":"00000000-0000-0000-0000-000000000000","profile_type":null,"name":"Voter document","description":"Voters document","enabled":true,"required":false},{"id":"01933d1c-b704-7ddd-a344-750b3344040e","meta":null,"created_on":"2024-11-18T02:31:52.323Z","created_by":null,"modified_on":"2024-11-18T02:31:52.323Z","modified_by":null,"deleted_on":null,"deleted_by":null,"tenant_id":"00000000-0000-0000-0000-000000000000","profile_type":"personal","name":"International Passport","description":"Upload a photo of the front page of your national passport.","enabled":true,"required":false},{"id":"01933d1d-cfbc-7ddd-a344-7ab060497945","meta":null,"created_on":"2024-11-18T02:33:04.187Z","created_by":null,"modified_on":"2024-11-18T02:33:04.187Z","modified_by":null,"deleted_on":null,"deleted_by":null,"tenant_id":"00000000-0000-0000-0000-000000000000","profile_type":"personal","name":"National ID card","description":"Upload a photo of your national ID card.","enabled":true,"required":false},{"id":"01933d1e-507d-7ddd-a344-85601bd113ca","meta":null,"created_on":"2024-11-18T02:33:37.144Z","created_by":null,"modified_on":"2024-11-18T02:33:37.144Z","modified_by":null,"deleted_on":null,"deleted_by":null,"tenant_id":"00000000-0000-0000-0000-000000000000","profile_type":"personal","name":"Driver’s License","description":"Upload a photo of your driver’s license.","enabled":true,"required":false},{"id":"019367a8-5cbc-7115-b8f1-b95501201701","meta":null,"created_on":"2024-11-26T08:48:27.325Z","created_by":null,"modified_on":"2024-11-26T08:48:27.325Z","modified_by":null,"deleted_on":null,"deleted_by":null,"tenant_id":"00000000-0000-0000-0000-000000000000","profile_type":"personal","name":"Identification Document","description":"Identification Document","enabled":true,"required":true},{"id":"01936d3d-abaf-755c-bc30-d3f9a6d73656","meta":null,"created_on":"2024-11-27T10:49:38.479Z","created_by":null,"modified_on":"2024-11-27T10:49:38.479Z","modified_by":null,"deleted_on":null,"deleted_by":null,"tenant_id":"00000000-0000-0000-0000-000000000000","profile_type":"personal","name":"Test Document","description":"Upload a photo of your driver’s license.","enabled":true,"required":false},{"id":"019372b9-b89a-7ddd-9480-7418432e65f7","meta":null,"created_on":"2024-11-28T12:23:14.543Z","created_by":null,"modified_on":"2024-11-28T12:23:14.543Z","modified_by":null,"deleted_on":null,"deleted_by":null,"tenant_id":"00000000-0000-0000-0000-000000000000","profile_type":null,"name":"Proof of address","description":"Proof of address","enabled":false,"required":true},{"id":"0193734f-649a-7dd0-bd72-6a05c530259b","meta":null,"created_on":"2024-11-28T15:06:43.226Z","created_by":null,"modified_on":"2024-11-28T15:06:43.226Z","modified_by":null,"deleted_on":null,"deleted_by":null,"tenant_id":"00000000-0000-0000-0000-000000000000","profile_type":"personal","name":"Test Document","description":"Proof of address","enabled":false,"required":true}],"meta":{"page":1,"total_pages":3,"total_items":28}}