{"status":"success","data":[{"id":"0192cc0f-bd83-700c-a5b9-691965d489a3","meta":null,"created_on":"2024-10-27T03:40:36.612Z","created_by":null,"modified_on":"2024-10-27T03:40:36.612Z","modified_by":null,"deleted_on":null,"deleted_by":null,"tenant_id":"00000000-0000-0000-0000-000000000000","first_name":null,"last_name":null,"email":"azeez@assurdly.com","twofa_enabled":false,"status":"pending","role_id":"019295e4-b39f-7dd9-892d-46959f7d679d","last_active":"2024-11-18T13:33:47.068Z","last_ip":null,"last_time_zone":null,"role":{"id":"019295e4-b39f-7dd9-892d-46959f7d679d","meta":null,"created_on":"2024-10-16T15:14:06.278Z","created_by":null,"modified_on":"2024-11-10T16:10:00.176Z","modified_by":null,"deleted_on":null,"deleted_by":null,"name":"Manager","slug":"manager","description":"Manager","status":"active","tenant_id":"00000000-0000-0000-0000-000000000000"}},{"id":"0192b629-157f-7001-b197-d3698a989e02","meta":null,"created_on":"2024-10-22T21:36:38.783Z","created_by":null,"modified_on":"2024-12-19T09:40:44.567Z","modified_by":null,"deleted_on":null,"deleted_by":null,"tenant_id":"00000000-0000-0000-0000-000000000000","first_name":"Gambo","last_name":"Yusuf","email":"gambo1@yopmail.com","twofa_enabled":false,"status":"active","role_id":"019295e4-b39f-7dd9-892d-46959f7d679d","last_active":"2024-12-18T15:01:26.659Z","last_ip":"::ffff:10.0.3.166","last_time_zone":null,"role":{"id":"019295e4-b39f-7dd9-892d-46959f7d679d","meta":null,"created_on":"2024-10-16T15:14:06.278Z","created_by":null,"modified_on":"2024-11-10T16:10:00.176Z","modified_by":null,"deleted_on":null,"deleted_by":null,"name":"Manager","slug":"manager","description":"Manager","status":"active","tenant_id":"00000000-0000-0000-0000-000000000000"}},{"id":"0192fc22-5387-7dd6-9699-d069b8d9a7f8","meta":null,"created_on":"2024-11-05T11:42:40.964Z","created_by":null,"modified_on":"2024-11-05T11:42:40.964Z","modified_by":null,"deleted_on":null,"deleted_by":null,"tenant_id":"00000000-0000-0000-0000-000000000000","first_name":null,"last_name":null,"email":"+1yayahmohammed@gmail.com","twofa_enabled":false,"status":"pending","role_id":"019295e4-b39f-7dd9-892d-46959f7d679d","last_active":"2024-11-18T13:33:47.068Z","last_ip":null,"last_time_zone":null,"role":{"id":"019295e4-b39f-7dd9-892d-46959f7d679d","meta":null,"created_on":"2024-10-16T15:14:06.278Z","created_by":null,"modified_on":"2024-11-10T16:10:00.176Z","modified_by":null,"deleted_on":null,"deleted_by":null,"name":"Manager","slug":"manager","description":"Manager","status":"active","tenant_id":"00000000-0000-0000-0000-000000000000"}},{"id":"019295ec-639f-7dd9-892d-7523fc743f21","meta":null,"created_on":"2024-10-16T15:22:30.175Z","created_by":null,"modified_on":"2024-12-22T16:35:36.715Z","modified_by":null,"deleted_on":null,"deleted_by":null,"tenant_id":"00000000-0000-0000-0000-000000000000","first_name":"Sodssiq","last_name":"Dare","email":"darehorla@gmail.com","twofa_enabled":false,"status":"active","role_id":"019295e4-b39f-7dd9-892d-46959f7d679d","last_active":"2024-11-18T13:33:47.068Z","last_ip":null,"last_time_zone":null,"role":{"id":"019295e4-b39f-7dd9-892d-46959f7d679d","meta":null,"created_on":"2024-10-16T15:14:06.278Z","created_by":null,"modified_on":"2024-11-10T16:10:00.176Z","modified_by":null,"deleted_on":null,"deleted_by":null,"name":"Manager","slug":"manager","description":"Manager","status":"active","tenant_id":"00000000-0000-0000-0000-000000000000"}},{"id":"01930702-70f6-7331-97b6-a79abf51b6eb","meta":null,"created_on":"2024-11-07T14:23:40.790Z","created_by":null,"modified_on":"2024-12-22T16:37:27.096Z","modified_by":null,"deleted_on":null,"deleted_by":null,"tenant_id":"00000000-0000-0000-0000-000000000000","first_name":null,"last_name":null,"email":"+2yayahmohammed@gmail.com","twofa_enabled":false,"status":"active","role_id":"019368c0-b0c3-7dd8-85d9-107ddde1f539","last_active":"2024-11-18T13:33:47.068Z","last_ip":null,"last_time_zone":null,"role":{"id":"019368c0-b0c3-7dd8-85d9-107ddde1f539","meta":null,"created_on":"2024-11-26T13:54:38.915Z","created_by":null,"modified_on":"2024-11-26T13:54:38.915Z","modified_by":null,"deleted_on":null,"deleted_by":null,"name":"test user permission","slug":"test-user-permission","description":"Approver","status":"active","tenant_id":"00000000-0000-0000-0000-000000000000"}},{"id":"0192f1c6-0692-722b-844a-8c49eda85658","meta":null,"created_on":"2024-11-03T11:25:39.857Z","created_by":null,"modified_on":"2024-11-03T11:25:39.857Z","modified_by":null,"deleted_on":null,"deleted_by":null,"tenant_id":"00000000-0000-0000-0000-000000000000","first_name":null,"last_name":null,"email":"yahyahridwan665@gmail.com","twofa_enabled":false,"status":"pending","role_id":"01927265-d8bc-7195-996f-e131d5e13339","last_active":"2024-11-18T13:33:47.068Z","last_ip":null,"last_time_zone":null,"role":{"id":"01927265-d8bc-7195-996f-e131d5e13339","meta":null,"created_on":"2024-12-02T20:59:05.761Z","created_by":null,"modified_on":"2024-12-02T20:59:05.761Z","modified_by":null,"deleted_on":null,"deleted_by":null,"name":"Admin","slug":"admin","description":"","status":"active","tenant_id":null}},{"id":"01931f2f-8260-700b-8890-4575664166ab","meta":null,"created_on":"2024-11-12T07:03:47.553Z","created_by":null,"modified_on":"2024-11-12T07:03:47.553Z","modified_by":null,"deleted_on":null,"deleted_by":null,"tenant_id":"00000000-0000-0000-0000-000000000000","first_name":null,"last_name":null,"email":"+3yayahmohammed@gmail.com","twofa_enabled":false,"status":"pending","role_id":"01927265-d8bc-7195-996f-e131d5e13339","last_active":"2024-11-18T13:33:47.068Z","last_ip":null,"last_time_zone":null,"role":{"id":"01927265-d8bc-7195-996f-e131d5e13339","meta":null,"created_on":"2024-12-02T20:59:05.761Z","created_by":null,"modified_on":"2024-12-02T20:59:05.761Z","modified_by":null,"deleted_on":null,"deleted_by":null,"name":"Admin","slug":"admin","description":"","status":"active","tenant_id":null}},{"id":"0192b5f0-430d-7001-b197-cf10d0444b4b","meta":null,"created_on":"2024-10-22T20:34:34.892Z","created_by":null,"modified_on":"2024-12-22T20:07:24.000Z","modified_by":null,"deleted_on":null,"deleted_by":null,"tenant_id":"00000000-0000-0000-0000-000000000000","first_name":"Wunmi","last_name":"Ade","email":"gambo@yopmail.com","twofa_enabled":false,"status":"active","role_id":"01927265-d8bc-7195-996f-e131d5e13339","last_active":"2024-12-16T20:05:24.465Z","last_ip":"::ffff:10.0.3.166","last_time_zone":null,"role":{"id":"01927265-d8bc-7195-996f-e131d5e13339","meta":null,"created_on":"2024-12-02T20:59:05.761Z","created_by":null,"modified_on":"2024-12-02T20:59:05.761Z","modified_by":null,"deleted_on":null,"deleted_by":null,"name":"Admin","slug":"admin","description":"","status":"active","tenant_id":null}},{"id":"0192ee9f-7504-7bb3-919d-9fba49ba9e27","meta":null,"created_on":"2024-11-02T20:44:40.526Z","created_by":null,"modified_on":"2024-12-22T21:42:25.999Z","modified_by":null,"deleted_on":null,"deleted_by":null,"tenant_id":"00000000-0000-0000-0000-000000000000","first_name":"Yayah","last_name":"Mohammed","email":"yayahmohammed@gmail.com","twofa_enabled":false,"status":"active","role_id":"0192ee9e-e003-7bb3-919d-179cc4ee470b","last_active":"2024-12-22T21:42:25.994Z","last_ip":"::ffff:10.0.3.166","last_time_zone":null,"role":{"id":"0192ee9e-e003-7bb3-919d-179cc4ee470b","meta":null,"created_on":"2024-11-02T20:44:02.432Z","created_by":null,"modified_on":"2024-11-07T15:08:27.289Z","modified_by":null,"deleted_on":null,"deleted_by":null,"name":"Frontend Admin","slug":"frontend-admin","description":"Frontend Admin","status":"active","tenant_id":"00000000-0000-0000-0000-000000000000"}},{"id":"01927265-4ed2-79cc-a0e6-e11339a359f3","meta":null,"created_on":"2024-10-09T17:49:49.700Z","created_by":null,"modified_on":"2024-12-23T08:20:16.567Z","modified_by":null,"deleted_on":null,"deleted_by":null,"tenant_id":"00000000-0000-0000-0000-000000000000","first_name":"Sodiq","last_name":"Dare","email":"sodiq@google.com","twofa_enabled":false,"status":"active","role_id":"01927265-d8bc-7195-996f-e131d5e13339","last_active":"2024-12-23T08:20:16.562Z","last_ip":"::ffff:10.0.1.30","last_time_zone":null,"role":{"id":"01927265-d8bc-7195-996f-e131d5e13339","meta":null,"created_on":"2024-12-02T20:59:05.761Z","created_by":null,"modified_on":"2024-12-02T20:59:05.761Z","modified_by":null,"deleted_on":null,"deleted_by":null,"name":"Admin","slug":"admin","description":"","status":"active","tenant_id":null}}],"meta":{"page":1,"total_pages":4,"total_items":39}}