{"status":"success","data":[{"id":"019439bd-88b8-7dd3-97f4-807620266d1e","meta":null,"created_on":"2025-01-06T03:51:50.200Z","created_by":"019372de-17ef-7cc2-8fc0-43fe11ba042f","modified_on":"2025-01-06T03:51:52.534Z","modified_by":null,"deleted_on":null,"deleted_by":null,"tenant_id":"00000000-0000-0000-0000-000000000000","account_id":"0193a699-2f15-7881-8b7f-ae50980bcfad","profile_id":"0193a649-e3d0-7881-8b7f-2ef1d89a9aff","cba_id":"1543","currency":"NGN","amount":"10.00","reference":"Tdooowwvknc","processor_reference":null,"processor_status":null,"processor_message":null,"status":"success","entry_type":"debit","narration":"Sodiq","transaction_date":"2025-01-06T03:51:50.200Z","transaction_type":"fee","processor":"cba","reviewed_on":null,"reviewed_by":null,"batch_id":null,"schedule_id":null,"transfer":null,"transfer_beneficiary":null,"bill_payment_beneficiary":null,"disputes":[],"batch":null,"account":{"id":"0193a699-2f15-7881-8b7f-ae50980bcfad","meta":null,"created_on":"2024-12-08T14:07:57.204Z","created_by":null,"modified_on":"2025-01-06T03:51:46.911Z","modified_by":null,"deleted_on":null,"deleted_by":null,"tenant_id":"00000000-0000-0000-0000-000000000000","name":"expenses","cba_id":"0000000074","profile_id":"0193a649-e3d0-7881-8b7f-2ef1d89a9aff","account_number":"0000000074","bank_id":"0193324f-cad0-7f86-923b-43fb21ac5b29","ledger_balance":"1008376.78","hold_balance":"0.00","available_balance":"1008376.78","currency":"NGN","restricted":false}},{"id":"019439bd-88b7-7dd3-97f4-78ceccba669e","meta":null,"created_on":"2025-01-06T03:51:50.199Z","created_by":"019372de-17ef-7cc2-8fc0-43fe11ba042f","modified_on":"2025-01-06T03:51:51.160Z","modified_by":null,"deleted_on":null,"deleted_by":null,"tenant_id":"00000000-0000-0000-0000-000000000000","account_id":"0193a699-2f15-7881-8b7f-ae50980bcfad","profile_id":"0193a649-e3d0-7881-8b7f-2ef1d89a9aff","cba_id":"1541","currency":"NGN","amount":"10.00","reference":"Tfhwychknnm","processor_reference":null,"processor_status":null,"processor_message":null,"status":"success","entry_type":"debit","narration":"Sodiq","transaction_date":"2025-01-06T03:51:50.199Z","transaction_type":"fee","processor":"cba","reviewed_on":null,"reviewed_by":null,"batch_id":null,"schedule_id":null,"transfer":null,"transfer_beneficiary":null,"bill_payment_beneficiary":null,"disputes":[],"batch":null,"account":{"id":"0193a699-2f15-7881-8b7f-ae50980bcfad","meta":null,"created_on":"2024-12-08T14:07:57.204Z","created_by":null,"modified_on":"2025-01-06T03:51:46.911Z","modified_by":null,"deleted_on":null,"deleted_by":null,"tenant_id":"00000000-0000-0000-0000-000000000000","name":"expenses","cba_id":"0000000074","profile_id":"0193a649-e3d0-7881-8b7f-2ef1d89a9aff","account_number":"0000000074","bank_id":"0193324f-cad0-7f86-923b-43fb21ac5b29","ledger_balance":"1008376.78","hold_balance":"0.00","available_balance":"1008376.78","currency":"NGN","restricted":false}},{"id":"019439bd-889f-7dd3-97f4-6328c2129e29","meta":null,"created_on":"2025-01-06T03:51:50.089Z","created_by":"019372de-17ef-7cc2-8fc0-43fe11ba042f","modified_on":"2025-01-06T03:51:52.528Z","modified_by":null,"deleted_on":null,"deleted_by":null,"tenant_id":"00000000-0000-0000-0000-000000000000","account_id":"0193a699-2f15-7881-8b7f-ae50980bcfad","profile_id":"0193a649-e3d0-7881-8b7f-2ef1d89a9aff","cba_id":"1542","currency":"NGN","amount":"10.00","reference":"Tdooowwvknc","processor_reference":null,"processor_status":null,"processor_message":null,"status":"success","entry_type":"debit","narration":"Sodiq","transaction_date":"2025-01-06T03:51:50.175Z","transaction_type":"transfer","processor":"nip","reviewed_on":null,"reviewed_by":null,"batch_id":"019439bd-8849-7dd3-97f4-54f8aa3ee20c","schedule_id":null,"transfer":{"id":"019439bd-88a3-7dd3-97f4-75711251e0a3","meta":null,"created_on":"2025-01-06T03:51:50.089Z","created_by":"019372de-17ef-7cc2-8fc0-43fe11ba042f","modified_on":"2025-01-06T03:51:50.089Z","modified_by":null,"deleted_on":null,"deleted_by":null,"tenant_id":"00000000-0000-0000-0000-000000000000","bank_code":"999998","bank_name":"vee test","bank_logo":"https://lendstack-s3.s3.us-east-2.amazonaws.com/bank_logos/035.png","account_name":"Ake Mobolaji & Temabo","account_number":"1780004070","profile_id":"0193a649-e3d0-7881-8b7f-2ef1d89a9aff","transaction_id":"019439bd-889f-7dd3-97f4-6328c2129e29","account_id":"0193a699-2f15-7881-8b7f-ae50980bcfad"},"transfer_beneficiary":null,"bill_payment_beneficiary":null,"disputes":[],"batch":{"id":"019439bd-8849-7dd3-97f4-54f8aa3ee20c","meta":null,"created_on":"2025-01-06T03:51:50.089Z","created_by":"019372de-17ef-7cc2-8fc0-43fe11ba042f","modified_on":"2025-01-06T03:51:50.089Z","modified_by":null,"deleted_on":null,"deleted_by":null,"tenant_id":"00000000-0000-0000-0000-000000000000","status":"approved"},"account":{"id":"0193a699-2f15-7881-8b7f-ae50980bcfad","meta":null,"created_on":"2024-12-08T14:07:57.204Z","created_by":null,"modified_on":"2025-01-06T03:51:46.911Z","modified_by":null,"deleted_on":null,"deleted_by":null,"tenant_id":"00000000-0000-0000-0000-000000000000","name":"expenses","cba_id":"0000000074","profile_id":"0193a649-e3d0-7881-8b7f-2ef1d89a9aff","account_number":"0000000074","bank_id":"0193324f-cad0-7f86-923b-43fb21ac5b29","ledger_balance":"1008376.78","hold_balance":"0.00","available_balance":"1008376.78","currency":"NGN","restricted":false}},{"id":"019439bd-8853-7dd3-97f4-594908e6bbc2","meta":null,"created_on":"2025-01-06T03:51:50.089Z","created_by":"019372de-17ef-7cc2-8fc0-43fe11ba042f","modified_on":"2025-01-06T03:51:51.156Z","modified_by":null,"deleted_on":null,"deleted_by":null,"tenant_id":"00000000-0000-0000-0000-000000000000","account_id":"0193a699-2f15-7881-8b7f-ae50980bcfad","profile_id":"0193a649-e3d0-7881-8b7f-2ef1d89a9aff","cba_id":"1540","currency":"NGN","amount":"10.00","reference":"Tfhwychknnm","processor_reference":null,"processor_status":null,"processor_message":null,"status":"success","entry_type":"debit","narration":"Sodiq","transaction_date":"2025-01-06T03:51:50.098Z","transaction_type":"transfer","processor":"nip","reviewed_on":null,"reviewed_by":null,"batch_id":"019439bd-8849-7dd3-97f4-54f8aa3ee20c","schedule_id":null,"transfer":{"id":"019439bd-88a2-7dd3-97f4-6a91a3ce73c0","meta":null,"created_on":"2025-01-06T03:51:50.089Z","created_by":"019372de-17ef-7cc2-8fc0-43fe11ba042f","modified_on":"2025-01-06T03:51:50.089Z","modified_by":null,"deleted_on":null,"deleted_by":null,"tenant_id":"00000000-0000-0000-0000-000000000000","bank_code":"999998","bank_name":"vee test","bank_logo":"https://lendstack-s3.s3.us-east-2.amazonaws.com/bank_logos/035.png","account_name":"Ake Mobolaji & Temabo","account_number":"1780004070","profile_id":"0193a649-e3d0-7881-8b7f-2ef1d89a9aff","transaction_id":"019439bd-8853-7dd3-97f4-594908e6bbc2","account_id":"0193a699-2f15-7881-8b7f-ae50980bcfad"},"transfer_beneficiary":null,"bill_payment_beneficiary":null,"disputes":[],"batch":{"id":"019439bd-8849-7dd3-97f4-54f8aa3ee20c","meta":null,"created_on":"2025-01-06T03:51:50.089Z","created_by":"019372de-17ef-7cc2-8fc0-43fe11ba042f","modified_on":"2025-01-06T03:51:50.089Z","modified_by":null,"deleted_on":null,"deleted_by":null,"tenant_id":"00000000-0000-0000-0000-000000000000","status":"approved"},"account":{"id":"0193a699-2f15-7881-8b7f-ae50980bcfad","meta":null,"created_on":"2024-12-08T14:07:57.204Z","created_by":null,"modified_on":"2025-01-06T03:51:46.911Z","modified_by":null,"deleted_on":null,"deleted_by":null,"tenant_id":"00000000-0000-0000-0000-000000000000","name":"expenses","cba_id":"0000000074","profile_id":"0193a649-e3d0-7881-8b7f-2ef1d89a9aff","account_number":"0000000074","bank_id":"0193324f-cad0-7f86-923b-43fb21ac5b29","ledger_balance":"1008376.78","hold_balance":"0.00","available_balance":"1008376.78","currency":"NGN","restricted":false}},{"id":"019439bd-8199-7dd3-97f4-4a2e52e96e97","meta":null,"created_on":"2025-01-06T03:51:48.378Z","created_by":"019372de-17ef-7cc2-8fc0-43fe11ba042f","modified_on":"2025-01-06T03:51:49.124Z","modified_by":null,"deleted_on":null,"deleted_by":null,"tenant_id":"00000000-0000-0000-0000-000000000000","account_id":"0193a699-2f15-7881-8b7f-ae50980bcfad","profile_id":"0193a649-e3d0-7881-8b7f-2ef1d89a9aff","cba_id":"1539","currency":"NGN","amount":"10.00","reference":"Tebjvxarhhr","processor_reference":null,"processor_status":null,"processor_message":null,"status":"success","entry_type":"debit","narration":"Sodiq","transaction_date":"2025-01-06T03:51:48.377Z","transaction_type":"fee","processor":"cba","reviewed_on":null,"reviewed_by":null,"batch_id":null,"schedule_id":null,"transfer":null,"transfer_beneficiary":null,"bill_payment_beneficiary":null,"disputes":[],"batch":null,"account":{"id":"0193a699-2f15-7881-8b7f-ae50980bcfad","meta":null,"created_on":"2024-12-08T14:07:57.204Z","created_by":null,"modified_on":"2025-01-06T03:51:46.911Z","modified_by":null,"deleted_on":null,"deleted_by":null,"tenant_id":"00000000-0000-0000-0000-000000000000","name":"expenses","cba_id":"0000000074","profile_id":"0193a649-e3d0-7881-8b7f-2ef1d89a9aff","account_number":"0000000074","bank_id":"0193324f-cad0-7f86-923b-43fb21ac5b29","ledger_balance":"1008376.78","hold_balance":"0.00","available_balance":"1008376.78","currency":"NGN","restricted":false}},{"id":"019439bd-8139-7dd3-97f4-3d62ecf4864d","meta":null,"created_on":"2025-01-06T03:51:48.281Z","created_by":"019372de-17ef-7cc2-8fc0-43fe11ba042f","modified_on":"2025-01-06T03:51:49.120Z","modified_by":null,"deleted_on":null,"deleted_by":null,"tenant_id":"00000000-0000-0000-0000-000000000000","account_id":"0193a699-2f15-7881-8b7f-ae50980bcfad","profile_id":"0193a649-e3d0-7881-8b7f-2ef1d89a9aff","cba_id":"1538","currency":"NGN","amount":"100.23","reference":"Tebjvxarhhr","processor_reference":null,"processor_status":null,"processor_message":null,"status":"success","entry_type":"debit","narration":"Sodiq","transaction_date":"2025-01-06T03:51:48.197Z","transaction_type":"transfer","processor":"nip","reviewed_on":null,"reviewed_by":null,"batch_id":null,"schedule_id":null,"transfer":{"id":"019439bd-813e-7dd3-97f4-436409f5d1a5","meta":null,"created_on":"2025-01-06T03:51:48.281Z","created_by":"019372de-17ef-7cc2-8fc0-43fe11ba042f","modified_on":"2025-01-06T03:51:48.281Z","modified_by":null,"deleted_on":null,"deleted_by":null,"tenant_id":"00000000-0000-0000-0000-000000000000","bank_code":"999998","bank_name":"vee test","bank_logo":"https://lendstack-s3.s3.us-east-2.amazonaws.com/bank_logos/035.png","account_name":"Ake Mobolaji & Temabo","account_number":"1780004070","profile_id":"0193a649-e3d0-7881-8b7f-2ef1d89a9aff","transaction_id":"019439bd-8139-7dd3-97f4-3d62ecf4864d","account_id":"0193a699-2f15-7881-8b7f-ae50980bcfad"},"transfer_beneficiary":null,"bill_payment_beneficiary":null,"disputes":[],"batch":null,"account":{"id":"0193a699-2f15-7881-8b7f-ae50980bcfad","meta":null,"created_on":"2024-12-08T14:07:57.204Z","created_by":null,"modified_on":"2025-01-06T03:51:46.911Z","modified_by":null,"deleted_on":null,"deleted_by":null,"tenant_id":"00000000-0000-0000-0000-000000000000","name":"expenses","cba_id":"0000000074","profile_id":"0193a649-e3d0-7881-8b7f-2ef1d89a9aff","account_number":"0000000074","bank_id":"0193324f-cad0-7f86-923b-43fb21ac5b29","ledger_balance":"1008376.78","hold_balance":"0.00","available_balance":"1008376.78","currency":"NGN","restricted":false}},{"id":"019439bd-7545-7dd3-97f4-32187a55641d","meta":null,"created_on":"2025-01-06T03:51:45.221Z","created_by":"019372de-17ef-7cc2-8fc0-43fe11ba042f","modified_on":"2025-01-06T03:51:46.355Z","modified_by":null,"deleted_on":null,"deleted_by":null,"tenant_id":"00000000-0000-0000-0000-000000000000","account_id":"0193a699-2f15-7881-8b7f-ae50980bcfad","profile_id":"0193a649-e3d0-7881-8b7f-2ef1d89a9aff","cba_id":"1537","currency":"NGN","amount":"100.00","reference":"Tvochrenqpn","processor_reference":null,"processor_status":null,"processor_message":null,"status":"success","entry_type":"debit","narration":"Bill payment to mtn for 7918852161","transaction_date":"2025-01-06T03:51:45.219Z","transaction_type":"bill-payment","processor":"baxipay","reviewed_on":null,"reviewed_by":null,"batch_id":null,"schedule_id":null,"transfer":null,"transfer_beneficiary":null,"bill_payment_beneficiary":null,"disputes":[],"batch":null,"account":{"id":"0193a699-2f15-7881-8b7f-ae50980bcfad","meta":null,"created_on":"2024-12-08T14:07:57.204Z","created_by":null,"modified_on":"2025-01-06T03:51:46.911Z","modified_by":null,"deleted_on":null,"deleted_by":null,"tenant_id":"00000000-0000-0000-0000-000000000000","name":"expenses","cba_id":"0000000074","profile_id":"0193a649-e3d0-7881-8b7f-2ef1d89a9aff","account_number":"0000000074","bank_id":"0193324f-cad0-7f86-923b-43fb21ac5b29","ledger_balance":"1008376.78","hold_balance":"0.00","available_balance":"1008376.78","currency":"NGN","restricted":false}},{"id":"019439bd-3122-7dd3-97f3-5c9c3b8f56c4","meta":null,"created_on":"2025-01-06T03:51:27.778Z","created_by":"019372de-17ef-7cc2-8fc0-43fe11ba042f","modified_on":"2025-01-06T03:51:30.453Z","modified_by":null,"deleted_on":null,"deleted_by":null,"tenant_id":"00000000-0000-0000-0000-000000000000","account_id":"0193a699-2f15-7881-8b7f-ae50980bcfad","profile_id":"0193a649-e3d0-7881-8b7f-2ef1d89a9aff","cba_id":"1536","currency":"NGN","amount":"10.00","reference":"Tffhadhwuja","processor_reference":null,"processor_status":null,"processor_message":null,"status":"success","entry_type":"debit","narration":"Sodiq","transaction_date":"2025-01-06T03:51:27.777Z","transaction_type":"fee","processor":"cba","reviewed_on":null,"reviewed_by":null,"batch_id":null,"schedule_id":null,"transfer":null,"transfer_beneficiary":null,"bill_payment_beneficiary":null,"disputes":[],"batch":null,"account":{"id":"0193a699-2f15-7881-8b7f-ae50980bcfad","meta":null,"created_on":"2024-12-08T14:07:57.204Z","created_by":null,"modified_on":"2025-01-06T03:51:46.911Z","modified_by":null,"deleted_on":null,"deleted_by":null,"tenant_id":"00000000-0000-0000-0000-000000000000","name":"expenses","cba_id":"0000000074","profile_id":"0193a649-e3d0-7881-8b7f-2ef1d89a9aff","account_number":"0000000074","bank_id":"0193324f-cad0-7f86-923b-43fb21ac5b29","ledger_balance":"1008376.78","hold_balance":"0.00","available_balance":"1008376.78","currency":"NGN","restricted":false}},{"id":"019439bd-3121-7dd3-97f3-511e917a5a80","meta":null,"created_on":"2025-01-06T03:51:27.778Z","created_by":"019372de-17ef-7cc2-8fc0-43fe11ba042f","modified_on":"2025-01-06T03:51:29.489Z","modified_by":null,"deleted_on":null,"deleted_by":null,"tenant_id":"00000000-0000-0000-0000-000000000000","account_id":"0193a699-2f15-7881-8b7f-ae50980bcfad","profile_id":"0193a649-e3d0-7881-8b7f-2ef1d89a9aff","cba_id":"1534","currency":"NGN","amount":"10.00","reference":"Ttvbsmlowra","processor_reference":null,"processor_status":null,"processor_message":null,"status":"success","entry_type":"debit","narration":"Sodiq","transaction_date":"2025-01-06T03:51:27.776Z","transaction_type":"fee","processor":"cba","reviewed_on":null,"reviewed_by":null,"batch_id":null,"schedule_id":null,"transfer":null,"transfer_beneficiary":null,"bill_payment_beneficiary":null,"disputes":[],"batch":null,"account":{"id":"0193a699-2f15-7881-8b7f-ae50980bcfad","meta":null,"created_on":"2024-12-08T14:07:57.204Z","created_by":null,"modified_on":"2025-01-06T03:51:46.911Z","modified_by":null,"deleted_on":null,"deleted_by":null,"tenant_id":"00000000-0000-0000-0000-000000000000","name":"expenses","cba_id":"0000000074","profile_id":"0193a649-e3d0-7881-8b7f-2ef1d89a9aff","account_number":"0000000074","bank_id":"0193324f-cad0-7f86-923b-43fb21ac5b29","ledger_balance":"1008376.78","hold_balance":"0.00","available_balance":"1008376.78","currency":"NGN","restricted":false}},{"id":"019439bd-30c0-7dd3-97f3-3c2d689250b8","meta":null,"created_on":"2025-01-06T03:51:27.514Z","created_by":"019372de-17ef-7cc2-8fc0-43fe11ba042f","modified_on":"2025-01-06T03:51:30.448Z","modified_by":null,"deleted_on":null,"deleted_by":null,"tenant_id":"00000000-0000-0000-0000-000000000000","account_id":"0193a699-2f15-7881-8b7f-ae50980bcfad","profile_id":"0193a649-e3d0-7881-8b7f-2ef1d89a9aff","cba_id":"1535","currency":"NGN","amount":"10.00","reference":"Tffhadhwuja","processor_reference":null,"processor_status":null,"processor_message":null,"status":"success","entry_type":"debit","narration":"Sodiq","transaction_date":"2025-01-06T03:51:27.680Z","transaction_type":"transfer","processor":"nip","reviewed_on":null,"reviewed_by":null,"batch_id":"019439bd-301a-7dd3-97f3-2ddcbefae6a2","schedule_id":null,"transfer":{"id":"019439bd-30c5-7dd3-97f3-4bb63b55a292","meta":null,"created_on":"2025-01-06T03:51:27.514Z","created_by":"019372de-17ef-7cc2-8fc0-43fe11ba042f","modified_on":"2025-01-06T03:51:27.514Z","modified_by":null,"deleted_on":null,"deleted_by":null,"tenant_id":"00000000-0000-0000-0000-000000000000","bank_code":"999998","bank_name":"vee test","bank_logo":"https://lendstack-s3.s3.us-east-2.amazonaws.com/bank_logos/035.png","account_name":"Ake Mobolaji & Temabo","account_number":"1780004070","profile_id":"0193a649-e3d0-7881-8b7f-2ef1d89a9aff","transaction_id":"019439bd-30c0-7dd3-97f3-3c2d689250b8","account_id":"0193a699-2f15-7881-8b7f-ae50980bcfad"},"transfer_beneficiary":null,"bill_payment_beneficiary":null,"disputes":[],"batch":{"id":"019439bd-301a-7dd3-97f3-2ddcbefae6a2","meta":null,"created_on":"2025-01-06T03:51:27.514Z","created_by":"019372de-17ef-7cc2-8fc0-43fe11ba042f","modified_on":"2025-01-06T03:51:27.514Z","modified_by":null,"deleted_on":null,"deleted_by":null,"tenant_id":"00000000-0000-0000-0000-000000000000","status":"approved"},"account":{"id":"0193a699-2f15-7881-8b7f-ae50980bcfad","meta":null,"created_on":"2024-12-08T14:07:57.204Z","created_by":null,"modified_on":"2025-01-06T03:51:46.911Z","modified_by":null,"deleted_on":null,"deleted_by":null,"tenant_id":"00000000-0000-0000-0000-000000000000","name":"expenses","cba_id":"0000000074","profile_id":"0193a649-e3d0-7881-8b7f-2ef1d89a9aff","account_number":"0000000074","bank_id":"0193324f-cad0-7f86-923b-43fb21ac5b29","ledger_balance":"1008376.78","hold_balance":"0.00","available_balance":"1008376.78","currency":"NGN","restricted":false}}],"meta":{"page":1,"total_pages":31,"total_items":309}}