{"status":"success","data":[{"id":"019439bd-69b5-7dd3-97f4-1de806732776","created_on":"2025-01-06T03:51:42.261Z","first_name":null,"last_name":null,"email":"Arvel@mailinator.com","phone":null,"last_active":"2025-01-06T03:51:42.261Z","userProfile":{"id":"019439bd-69b9-7dd3-97f4-240a08080eeb","status":"pending","role_id":"019435cb-8e7d-7aa1-b635-ad7f79da04bf","role":{"name":"Intelligent Rubber Computer","slug":"intelligent-rubber-computer"}}},{"id":"019439bd-645c-7dd3-97f3-fa1283cb861c","created_on":"2025-01-06T03:51:40.892Z","first_name":"Earl","last_name":"Cruickshank","email":"Rodolfo@mailinator.com","phone":null,"last_active":"2025-01-06T03:51:40.892Z","userProfile":{"id":"019439bd-6461-7dd3-97f4-07a1ada56fd0","status":"active","role_id":"019435cb-8e7d-7aa1-b635-ad7f79da04bf","role":{"name":"Intelligent Rubber Computer","slug":"intelligent-rubber-computer"}}},{"id":"019435eb-0965-7994-b9f7-1672c02fbbd9","created_on":"2025-01-05T10:03:03.397Z","first_name":null,"last_name":null,"email":"Sincere@mailinator.com","phone":null,"last_active":"2025-01-05T10:03:03.397Z","userProfile":{"id":"019435eb-096b-7994-b9f7-1f5c3868066e","status":"pending","role_id":"019435cb-8e7d-7aa1-b635-ad7f79da04bf","role":{"name":"Intelligent Rubber Computer","slug":"intelligent-rubber-computer"}}},{"id":"019435ea-d50b-7994-b9f7-06b92a04f51f","created_on":"2025-01-05T10:02:49.995Z","first_name":null,"last_name":null,"email":"Tatyana@mailinator.com","phone":null,"last_active":"2025-01-05T10:02:49.995Z","userProfile":{"id":"019435ea-d50f-7994-b9f7-0b10913082fa","status":"pending","role_id":"019435cb-8e7d-7aa1-b635-ad7f79da04bf","role":{"name":"Intelligent Rubber Computer","slug":"intelligent-rubber-computer"}}},{"id":"019435e8-d866-7994-b9f6-f4f0c9972df9","created_on":"2025-01-05T10:00:39.781Z","first_name":null,"last_name":null,"email":"Alfred@mailinator.com","phone":null,"last_active":"2025-01-05T10:00:39.781Z","userProfile":{"id":"019435e8-d871-7994-b9f6-f9e67b369c50","status":"pending","role_id":"019435cb-8e7d-7aa1-b635-ad7f79da04bf","role":{"name":"Intelligent Rubber Computer","slug":"intelligent-rubber-computer"}}},{"id":"019429a8-0d5a-7339-8ff3-2795128769da","created_on":"2025-01-03T00:54:26.906Z","first_name":null,"last_name":null,"email":"invitedUser3@mailinator.com","phone":null,"last_active":"2025-01-03T00:54:26.906Z","userProfile":{"id":"019429a8-0d8e-7339-8ff3-2c2cf6cec359","status":"pending","role_id":"0193db10-15de-7443-b5ef-dd5c807480a8","role":{"name":"Intern tester","slug":"intern-tester"}}},{"id":"019426ac-eb05-7ccf-bd52-88d996f21e06","created_on":"2025-01-02T11:00:54.149Z","first_name":null,"last_name":null,"email":"memb@mailinator.com","phone":null,"last_active":"2025-01-02T11:00:54.149Z","userProfile":{"id":"019426ac-eb0a-7ccf-bd52-973e64072794","status":"pending","role_id":"01926788-1eaf-7336-86de-89316b9797d9","role":{"name":"Initiator","slug":"initiator"}}},{"id":"019414c3-a965-7aa3-a1b1-e679545381a7","created_on":"2024-12-29T23:32:34.790Z","first_name":null,"last_name":null,"email":"Ola123@gmail.com","phone":null,"last_active":"2024-12-29T23:32:34.790Z","userProfile":{"id":"019414c3-a9c9-7aa3-a1b1-eeb2dd4acae9","status":"pending","role_id":"01926788-704b-7336-86de-a5f24f6e9083","role":{"name":"Owner","slug":"owner"}}},{"id":"0193de45-6bd7-7ddc-9295-99ab46743e21","created_on":"2024-12-19T09:35:11.831Z","first_name":"Sunday","last_name":"Testing","email":"Calista@mailinator.com","phone":null,"last_active":"2025-01-05T20:48:33.115Z","userProfile":{"id":"0193de5a-18ea-7ddc-9295-f4bcba9a36f5","status":"active","role_id":"01926788-1eaf-7336-86de-89316b9797d9","role":{"name":"Initiator","slug":"initiator"}}},{"id":"019372de-17ef-7cc2-8fc0-43fe11ba042f","created_on":"2024-11-28T13:02:58.029Z","first_name":"Sunday","last_name":"Testing","email":"Ismael@mailinator.com","phone":"+2349055755671","last_active":"2025-01-06T03:51:39.230Z","userProfile":{"id":"0193a649-e3d7-7881-8b7f-353dff30db39","status":"active","role_id":"01926788-704b-7336-86de-a5f24f6e9083","role":{"name":"Owner","slug":"owner"}}}],"meta":{"page":1,"total_pages":2,"total_items":11}}