{"status":"success","data":[{"id":"0195f50d-c8b9-7887-ab13-30a17a7db325","meta":null,"created_on":"2025-04-02T05:51:16.153Z","created_by_id":"0195d26a-2323-711c-8833-9e3f99ed4f85","modified_on":"2025-04-02T05:52:21.972Z","modified_by_id":"0195d26a-2323-711c-8833-9e3f99ed4f85","deleted_on":null,"deleted_by_id":null,"tenant_id":"00000000-0000-0000-0000-000000000000","account_id":"0195d26b-5331-711c-8834-39e9ecc3f5c1","profile_id":"0195d26a-45cb-711c-8833-b628ce71be8a","cba_id":"4140","currency":"NGN","amount":"10.00","balance_after":"999649.54","reference":"T4TJJSKL4LJY","processor_reference":null,"processor_status":null,"processor_message":null,"status":"success","entry_type":"debit","narration":"Sodiq","transaction_date":"2025-04-02T05:51:16.151Z","transaction_type":"fee","processor":"cba","reviewed_on":null,"reviewed_by":null,"batch_id":null,"schedule_id":null,"account":{"id":"0195d26b-5331-711c-8834-39e9ecc3f5c1","meta":null,"created_on":"2025-03-26T12:26:43.889Z","created_by_id":"0195d26a-2323-711c-8833-9e3f99ed4f85","modified_on":"2025-04-02T06:22:46.335Z","modified_by_id":"019372de-17ef-7cc2-8fc0-43fe11ba042f","deleted_on":null,"deleted_by_id":null,"tenant_id":"00000000-0000-0000-0000-000000000000","name":"IBRAHIM AZEEZ","type":"account","cba_id":"9058893837","status":"active","profile_id":"0195d26a-45cb-711c-8833-b628ce71be8a","account_number":"9058893837","bank_id":"0193324f-cad0-7f86-923b-43fb21ac5b29","ledger_balance":999649.54,"hold_balance":0,"available_balance":999649.54,"currency":"NGN","restricted":false},"transfer":null,"disputes":[{"id":"0195f50e-ca14-7887-ab15-8f97acff1c37","meta":null,"created_on":"2025-04-02T05:52:22.037Z","created_by_id":"0195d26a-2323-711c-8833-9e3f99ed4f85","modified_on":"2025-04-02T05:52:22.037Z","modified_by_id":null,"deleted_on":null,"deleted_by_id":null,"tenant_id":"00000000-0000-0000-0000-000000000000","file_id":"0194462d-2cbc-788e-b49e-8f0163251b62","transaction_id":"0195f50d-c8b9-7887-ab13-30a17a7db325","status":"pending","note":"egbami, e no dey work","comment":null,"reviewed_on":null,"reviewed_by":null,"profile_id":"0195d26a-45cb-711c-8833-b628ce71be8a"}],"batch":null,"transfer_beneficiary":null,"bill_payment_beneficiary":null},{"id":"0195f50d-c8b8-7887-ab13-2d75f3afb99e","meta":null,"created_on":"2025-04-02T05:51:16.151Z","created_by_id":"0195d26a-2323-711c-8833-9e3f99ed4f85","modified_on":"2025-04-02T05:51:17.547Z","modified_by_id":"0195d26a-2323-711c-8833-9e3f99ed4f85","deleted_on":null,"deleted_by_id":null,"tenant_id":"00000000-0000-0000-0000-000000000000","account_id":"0195d26b-5331-711c-8834-39e9ecc3f5c1","profile_id":"0195d26a-45cb-711c-8833-b628ce71be8a","cba_id":"4139","currency":"NGN","amount":"10.00","balance_after":null,"reference":"TWQM8B7FYUWF","processor_reference":null,"processor_status":null,"processor_message":null,"status":"success","entry_type":"debit","narration":"Sodiq","transaction_date":"2025-04-02T05:51:16.148Z","transaction_type":"fee","processor":"cba","reviewed_on":null,"reviewed_by":null,"batch_id":null,"schedule_id":null,"account":{"id":"0195d26b-5331-711c-8834-39e9ecc3f5c1","meta":null,"created_on":"2025-03-26T12:26:43.889Z","created_by_id":"0195d26a-2323-711c-8833-9e3f99ed4f85","modified_on":"2025-04-02T06:22:46.249Z","modified_by_id":"019372de-17ef-7cc2-8fc0-43fe11ba042f","deleted_on":null,"deleted_by_id":null,"tenant_id":"00000000-0000-0000-0000-000000000000","name":"IBRAHIM AZEEZ","type":"account","cba_id":"9058893837","status":"active","profile_id":"0195d26a-45cb-711c-8833-b628ce71be8a","account_number":"9058893837","bank_id":"0193324f-cad0-7f86-923b-43fb21ac5b29","ledger_balance":999649.54,"hold_balance":0,"available_balance":999649.54,"currency":"NGN","restricted":false},"transfer":null,"disputes":[],"batch":null,"transfer_beneficiary":null,"bill_payment_beneficiary":null},{"id":"0195f50d-c7e7-7887-ab13-088f2c9c3f5f","meta":null,"created_on":"2025-04-02T05:51:15.645Z","created_by_id":"0195d26a-2323-711c-8833-9e3f99ed4f85","modified_on":"2025-04-02T05:51:17.538Z","modified_by_id":"0195d26a-2323-711c-8833-9e3f99ed4f85","deleted_on":null,"deleted_by_id":null,"tenant_id":"00000000-0000-0000-0000-000000000000","account_id":"0195d26b-5331-711c-8834-39e9ecc3f5c1","profile_id":"0195d26a-45cb-711c-8833-b628ce71be8a","cba_id":"4137","currency":"NGN","amount":"10.00","balance_after":null,"reference":"TWQM8B7FYUWF","processor_reference":"MOCK_SESSION_ID_67890","processor_status":"success","processor_message":"Transfer Successful","status":"success","entry_type":"debit","narration":"Sodiq","transaction_date":"2025-04-02T05:51:15.943Z","transaction_type":"transfer","processor":"nip","reviewed_on":null,"reviewed_by":null,"batch_id":"0195f50d-c6d1-7887-ab12-fe1686a24d7a","schedule_id":null,"account":{"id":"0195d26b-5331-711c-8834-39e9ecc3f5c1","meta":null,"created_on":"2025-03-26T12:26:43.889Z","created_by_id":"0195d26a-2323-711c-8833-9e3f99ed4f85","modified_on":"2025-04-02T06:22:46.444Z","modified_by_id":"019372de-17ef-7cc2-8fc0-43fe11ba042f","deleted_on":null,"deleted_by_id":null,"tenant_id":"00000000-0000-0000-0000-000000000000","name":"IBRAHIM AZEEZ","type":"account","cba_id":"9058893837","status":"active","profile_id":"0195d26a-45cb-711c-8833-b628ce71be8a","account_number":"9058893837","bank_id":"0193324f-cad0-7f86-923b-43fb21ac5b29","ledger_balance":999649.54,"hold_balance":0,"available_balance":999649.54,"currency":"NGN","restricted":false},"transfer":{"id":"0195f50d-c7ea-7887-ab13-1f44d923d6c0","meta":null,"created_on":"2025-04-02T05:51:15.645Z","created_by_id":"0195d26a-2323-711c-8833-9e3f99ed4f85","modified_on":"2025-04-02T05:51:15.645Z","modified_by_id":null,"deleted_on":null,"deleted_by_id":null,"tenant_id":"00000000-0000-0000-0000-000000000000","bank_code":"999998","bank_name":"vee test","bank_logo":"https://lendstack-s3.s3.us-east-2.amazonaws.com/bank_logos/035.png","account_name":"John Doe","account_number":"1780004070","profile_id":"0195d26a-45cb-711c-8833-b628ce71be8a","transaction_id":"0195f50d-c7e7-7887-ab13-088f2c9c3f5f","account_id":"0195d26b-5331-711c-8834-39e9ecc3f5c1"},"disputes":[],"batch":{"id":"0195f50d-c6d1-7887-ab12-fe1686a24d7a","meta":null,"created_on":"2025-04-02T05:51:15.645Z","created_by_id":"0195d26a-2323-711c-8833-9e3f99ed4f85","modified_on":"2025-04-02T05:51:15.645Z","modified_by_id":null,"deleted_on":null,"deleted_by_id":null,"tenant_id":"00000000-0000-0000-0000-000000000000","status":"approved","name":null},"transfer_beneficiary":null,"bill_payment_beneficiary":null},{"id":"0195f50d-c72c-7887-ab13-013b2116ee15","meta":null,"created_on":"2025-04-02T05:51:15.645Z","created_by_id":"0195d26a-2323-711c-8833-9e3f99ed4f85","modified_on":"2025-04-02T05:51:17.942Z","modified_by_id":"0195d26a-2323-711c-8833-9e3f99ed4f85","deleted_on":null,"deleted_by_id":null,"tenant_id":"00000000-0000-0000-0000-000000000000","account_id":"0195d26b-5331-711c-8834-39e9ecc3f5c1","profile_id":"0195d26a-45cb-711c-8833-b628ce71be8a","cba_id":"4138","currency":"NGN","amount":"10.00","balance_after":null,"reference":"T4TJJSKL4LJY","processor_reference":"MOCK_SESSION_ID_67890","processor_status":"success","processor_message":"Transfer Successful","status":"success","entry_type":"debit","narration":"Sodiq","transaction_date":"2025-04-02T05:51:15.756Z","transaction_type":"transfer","processor":"nip","reviewed_on":null,"reviewed_by":null,"batch_id":"0195f50d-c6d1-7887-ab12-fe1686a24d7a","schedule_id":null,"account":{"id":"0195d26b-5331-711c-8834-39e9ecc3f5c1","meta":null,"created_on":"2025-03-26T12:26:43.889Z","created_by_id":"0195d26a-2323-711c-8833-9e3f99ed4f85","modified_on":"2025-04-02T06:22:46.443Z","modified_by_id":"019372de-17ef-7cc2-8fc0-43fe11ba042f","deleted_on":null,"deleted_by_id":null,"tenant_id":"00000000-0000-0000-0000-000000000000","name":"IBRAHIM AZEEZ","type":"account","cba_id":"9058893837","status":"active","profile_id":"0195d26a-45cb-711c-8833-b628ce71be8a","account_number":"9058893837","bank_id":"0193324f-cad0-7f86-923b-43fb21ac5b29","ledger_balance":999649.54,"hold_balance":0,"available_balance":999649.54,"currency":"NGN","restricted":false},"transfer":{"id":"0195f50d-c7ea-7887-ab13-174bbade6cd3","meta":null,"created_on":"2025-04-02T05:51:15.645Z","created_by_id":"0195d26a-2323-711c-8833-9e3f99ed4f85","modified_on":"2025-04-02T05:51:15.645Z","modified_by_id":null,"deleted_on":null,"deleted_by_id":null,"tenant_id":"00000000-0000-0000-0000-000000000000","bank_code":"999998","bank_name":"vee test","bank_logo":"https://lendstack-s3.s3.us-east-2.amazonaws.com/bank_logos/035.png","account_name":"John Doe","account_number":"1780004070","profile_id":"0195d26a-45cb-711c-8833-b628ce71be8a","transaction_id":"0195f50d-c72c-7887-ab13-013b2116ee15","account_id":"0195d26b-5331-711c-8834-39e9ecc3f5c1"},"disputes":[],"batch":{"id":"0195f50d-c6d1-7887-ab12-fe1686a24d7a","meta":null,"created_on":"2025-04-02T05:51:15.645Z","created_by_id":"0195d26a-2323-711c-8833-9e3f99ed4f85","modified_on":"2025-04-02T05:51:15.645Z","modified_by_id":null,"deleted_on":null,"deleted_by_id":null,"tenant_id":"00000000-0000-0000-0000-000000000000","status":"approved","name":null},"transfer_beneficiary":null,"bill_payment_beneficiary":null},{"id":"0195f50d-b7e3-7887-ab12-d797a6b61cc4","meta":null,"created_on":"2025-04-02T05:51:11.839Z","created_by_id":"0195d26a-2323-711c-8833-9e3f99ed4f85","modified_on":"2025-04-02T05:51:12.644Z","modified_by_id":"0195d26a-2323-711c-8833-9e3f99ed4f85","deleted_on":null,"deleted_by_id":null,"tenant_id":"00000000-0000-0000-0000-000000000000","account_id":"0195d26b-5331-711c-8834-39e9ecc3f5c1","profile_id":"0195d26a-45cb-711c-8833-b628ce71be8a","cba_id":"4136","currency":"NGN","amount":"10.00","balance_after":null,"reference":"TR93UI83RIML","processor_reference":null,"processor_status":null,"processor_message":null,"status":"success","entry_type":"debit","narration":"Sodiq","transaction_date":"2025-04-02T05:51:11.837Z","transaction_type":"fee","processor":"cba","reviewed_on":null,"reviewed_by":null,"batch_id":null,"schedule_id":null,"account":{"id":"0195d26b-5331-711c-8834-39e9ecc3f5c1","meta":null,"created_on":"2025-03-26T12:26:43.889Z","created_by_id":"0195d26a-2323-711c-8833-9e3f99ed4f85","modified_on":"2025-04-02T06:22:46.571Z","modified_by_id":"019372de-17ef-7cc2-8fc0-43fe11ba042f","deleted_on":null,"deleted_by_id":null,"tenant_id":"00000000-0000-0000-0000-000000000000","name":"IBRAHIM AZEEZ","type":"account","cba_id":"9058893837","status":"active","profile_id":"0195d26a-45cb-711c-8833-b628ce71be8a","account_number":"9058893837","bank_id":"0193324f-cad0-7f86-923b-43fb21ac5b29","ledger_balance":999649.54,"hold_balance":0,"available_balance":999649.54,"currency":"NGN","restricted":false},"transfer":null,"disputes":[],"batch":null,"transfer_beneficiary":null,"bill_payment_beneficiary":null},{"id":"0195f50d-b776-7887-ab12-c339a910db4d","meta":null,"created_on":"2025-04-02T05:51:11.734Z","created_by_id":"0195d26a-2323-711c-8833-9e3f99ed4f85","modified_on":"2025-04-02T05:51:12.559Z","modified_by_id":"0195d26a-2323-711c-8833-9e3f99ed4f85","deleted_on":null,"deleted_by_id":null,"tenant_id":"00000000-0000-0000-0000-000000000000","account_id":"0195d26b-5331-711c-8834-39e9ecc3f5c1","profile_id":"0195d26a-45cb-711c-8833-b628ce71be8a","cba_id":"4135","currency":"NGN","amount":"100.23","balance_after":null,"reference":"TR93UI83RIML","processor_reference":"MOCK_SESSION_ID_67890","processor_status":"success","processor_message":"Transfer Successful","status":"success","entry_type":"debit","narration":"Sodiq","transaction_date":"2025-04-02T05:51:11.655Z","transaction_type":"transfer","processor":"nip","reviewed_on":null,"reviewed_by":null,"batch_id":null,"schedule_id":null,"account":{"id":"0195d26b-5331-711c-8834-39e9ecc3f5c1","meta":null,"created_on":"2025-03-26T12:26:43.889Z","created_by_id":"0195d26a-2323-711c-8833-9e3f99ed4f85","modified_on":"2025-04-02T06:22:46.573Z","modified_by_id":"019372de-17ef-7cc2-8fc0-43fe11ba042f","deleted_on":null,"deleted_by_id":null,"tenant_id":"00000000-0000-0000-0000-000000000000","name":"IBRAHIM AZEEZ","type":"account","cba_id":"9058893837","status":"active","profile_id":"0195d26a-45cb-711c-8833-b628ce71be8a","account_number":"9058893837","bank_id":"0193324f-cad0-7f86-923b-43fb21ac5b29","ledger_balance":999649.54,"hold_balance":0,"available_balance":999649.54,"currency":"NGN","restricted":false},"transfer":{"id":"0195f50d-b77d-7887-ab12-cb18a9d93b31","meta":null,"created_on":"2025-04-02T05:51:11.734Z","created_by_id":"0195d26a-2323-711c-8833-9e3f99ed4f85","modified_on":"2025-04-02T05:51:11.734Z","modified_by_id":null,"deleted_on":null,"deleted_by_id":null,"tenant_id":"00000000-0000-0000-0000-000000000000","bank_code":"000014","bank_name":"Access Bank","bank_logo":"https://lendstack-s3.s3.us-east-2.amazonaws.com/bank_logos/044.png","account_name":"John Doe","account_number":"1780004070","profile_id":"0195d26a-45cb-711c-8833-b628ce71be8a","transaction_id":"0195f50d-b776-7887-ab12-c339a910db4d","account_id":"0195d26b-5331-711c-8834-39e9ecc3f5c1"},"disputes":[],"batch":null,"transfer_beneficiary":null,"bill_payment_beneficiary":null},{"id":"0195f4d6-7203-7553-b03b-e0a95bfb3489","meta":null,"created_on":"2025-04-02T04:50:49.475Z","created_by_id":"0195d26a-2323-711c-8833-9e3f99ed4f85","modified_on":"2025-04-02T04:50:49.929Z","modified_by_id":"0195d26a-2323-711c-8833-9e3f99ed4f85","deleted_on":null,"deleted_by_id":null,"tenant_id":"00000000-0000-0000-0000-000000000000","account_id":"0195d26b-5331-711c-8834-39e9ecc3f5c1","profile_id":"0195d26a-45cb-711c-8833-b628ce71be8a","cba_id":"4134","currency":"NGN","amount":"10.00","balance_after":null,"reference":"TKNP0BQMJ202","processor_reference":null,"processor_status":null,"processor_message":null,"status":"success","entry_type":"debit","narration":"Sodiq","transaction_date":"2025-04-02T04:50:49.474Z","transaction_type":"fee","processor":"cba","reviewed_on":null,"reviewed_by":null,"batch_id":null,"schedule_id":null,"account":{"id":"0195d26b-5331-711c-8834-39e9ecc3f5c1","meta":null,"created_on":"2025-03-26T12:26:43.889Z","created_by_id":"0195d26a-2323-711c-8833-9e3f99ed4f85","modified_on":"2025-04-02T06:22:46.651Z","modified_by_id":"019372de-17ef-7cc2-8fc0-43fe11ba042f","deleted_on":null,"deleted_by_id":null,"tenant_id":"00000000-0000-0000-0000-000000000000","name":"IBRAHIM AZEEZ","type":"account","cba_id":"9058893837","status":"active","profile_id":"0195d26a-45cb-711c-8833-b628ce71be8a","account_number":"9058893837","bank_id":"0193324f-cad0-7f86-923b-43fb21ac5b29","ledger_balance":999649.54,"hold_balance":0,"available_balance":999649.54,"currency":"NGN","restricted":false},"transfer":null,"disputes":[],"batch":null,"transfer_beneficiary":null,"bill_payment_beneficiary":null},{"id":"0195f4d6-71d5-7553-b03b-d456d9c2573b","meta":null,"created_on":"2025-04-02T04:50:49.429Z","created_by_id":"0195d26a-2323-711c-8833-9e3f99ed4f85","modified_on":"2025-04-02T04:50:49.922Z","modified_by_id":"0195d26a-2323-711c-8833-9e3f99ed4f85","deleted_on":null,"deleted_by_id":null,"tenant_id":"00000000-0000-0000-0000-000000000000","account_id":"0195d26b-5331-711c-8834-39e9ecc3f5c1","profile_id":"0195d26a-45cb-711c-8833-b628ce71be8a","cba_id":"4133","currency":"NGN","amount":"100.23","balance_after":null,"reference":"TKNP0BQMJ202","processor_reference":"MOCK_SESSION_ID_67890","processor_status":"success","processor_message":"Transfer Successful","status":"success","entry_type":"debit","narration":"Sodiq","transaction_date":"2025-04-02T04:50:49.428Z","transaction_type":"transfer","processor":"nip","reviewed_on":null,"reviewed_by":null,"batch_id":null,"schedule_id":null,"account":{"id":"0195d26b-5331-711c-8834-39e9ecc3f5c1","meta":null,"created_on":"2025-03-26T12:26:43.889Z","created_by_id":"0195d26a-2323-711c-8833-9e3f99ed4f85","modified_on":"2025-04-02T06:22:46.442Z","modified_by_id":"019372de-17ef-7cc2-8fc0-43fe11ba042f","deleted_on":null,"deleted_by_id":null,"tenant_id":"00000000-0000-0000-0000-000000000000","name":"IBRAHIM AZEEZ","type":"account","cba_id":"9058893837","status":"active","profile_id":"0195d26a-45cb-711c-8833-b628ce71be8a","account_number":"9058893837","bank_id":"0193324f-cad0-7f86-923b-43fb21ac5b29","ledger_balance":999649.54,"hold_balance":0,"available_balance":999649.54,"currency":"NGN","restricted":false},"transfer":{"id":"0195f4d6-71dc-7553-b03b-dc561841d9d4","meta":null,"created_on":"2025-04-02T04:50:49.429Z","created_by_id":"0195d26a-2323-711c-8833-9e3f99ed4f85","modified_on":"2025-04-02T04:50:49.429Z","modified_by_id":null,"deleted_on":null,"deleted_by_id":null,"tenant_id":"00000000-0000-0000-0000-000000000000","bank_code":"000014","bank_name":"Access Bank","bank_logo":"https://lendstack-s3.s3.us-east-2.amazonaws.com/bank_logos/044.png","account_name":"John Doe","account_number":"1780004070","profile_id":"0195d26a-45cb-711c-8833-b628ce71be8a","transaction_id":"0195f4d6-71d5-7553-b03b-d456d9c2573b","account_id":"0195d26b-5331-711c-8834-39e9ecc3f5c1"},"disputes":[],"batch":null,"transfer_beneficiary":null,"bill_payment_beneficiary":null},{"id":"0195dc6b-fdfb-7003-9cee-372c463768f3","meta":null,"created_on":"2025-03-28T11:03:39.766Z","created_by_id":"01956c2a-fb8c-7229-a16f-663de9471c71","modified_on":"2025-03-28T11:03:39.766Z","modified_by_id":null,"deleted_on":null,"deleted_by_id":null,"tenant_id":"00000000-0000-0000-0000-000000000000","account_id":"0195d26b-5331-711c-8834-39e9ecc3f5c1","profile_id":"0195d26a-45cb-711c-8833-b628ce71be8a","cba_id":null,"currency":"NGN","amount":"1000.00","balance_after":null,"reference":"T54J82AGTAWE","processor_reference":null,"processor_status":null,"processor_message":null,"status":"success","entry_type":"credit","narration":"Tet","transaction_date":"2025-03-28T11:03:39.108Z","transaction_type":"funding","processor":"cba","reviewed_on":null,"reviewed_by":null,"batch_id":null,"schedule_id":null,"account":{"id":"0195d26b-5331-711c-8834-39e9ecc3f5c1","meta":null,"created_on":"2025-03-26T12:26:43.889Z","created_by_id":"0195d26a-2323-711c-8833-9e3f99ed4f85","modified_on":"2025-04-02T06:22:46.567Z","modified_by_id":"019372de-17ef-7cc2-8fc0-43fe11ba042f","deleted_on":null,"deleted_by_id":null,"tenant_id":"00000000-0000-0000-0000-000000000000","name":"IBRAHIM AZEEZ","type":"account","cba_id":"9058893837","status":"active","profile_id":"0195d26a-45cb-711c-8833-b628ce71be8a","account_number":"9058893837","bank_id":"0193324f-cad0-7f86-923b-43fb21ac5b29","ledger_balance":999649.54,"hold_balance":0,"available_balance":999649.54,"currency":"NGN","restricted":false},"transfer":null,"disputes":[],"batch":null,"transfer_beneficiary":null,"bill_payment_beneficiary":null},{"id":"0195d545-1c69-766d-825e-d070057d15c9","meta":null,"created_on":"2025-03-27T01:43:51.145Z","created_by_id":"0195d26a-2323-711c-8833-9e3f99ed4f85","modified_on":"2025-03-27T01:43:51.397Z","modified_by_id":"0195d26a-2323-711c-8833-9e3f99ed4f85","deleted_on":null,"deleted_by_id":null,"tenant_id":"00000000-0000-0000-0000-000000000000","account_id":"0195d26b-5331-711c-8834-39e9ecc3f5c1","profile_id":"0195d26a-45cb-711c-8833-b628ce71be8a","cba_id":null,"currency":"NGN","amount":"0.20","balance_after":null,"reference":"TDP6GMRCCJ0W","processor_reference":null,"processor_status":null,"processor_message":null,"status":"failed","entry_type":"debit","narration":"bulk transfer","transaction_date":"2025-03-27T01:43:51.145Z","transaction_type":"fee","processor":"cba","reviewed_on":null,"reviewed_by":null,"batch_id":null,"schedule_id":null,"account":{"id":"0195d26b-5331-711c-8834-39e9ecc3f5c1","meta":null,"created_on":"2025-03-26T12:26:43.889Z","created_by_id":"0195d26a-2323-711c-8833-9e3f99ed4f85","modified_on":"2025-04-02T06:22:46.244Z","modified_by_id":"019372de-17ef-7cc2-8fc0-43fe11ba042f","deleted_on":null,"deleted_by_id":null,"tenant_id":"00000000-0000-0000-0000-000000000000","name":"IBRAHIM AZEEZ","type":"account","cba_id":"9058893837","status":"active","profile_id":"0195d26a-45cb-711c-8833-b628ce71be8a","account_number":"9058893837","bank_id":"0193324f-cad0-7f86-923b-43fb21ac5b29","ledger_balance":999649.54,"hold_balance":0,"available_balance":999649.54,"currency":"NGN","restricted":false},"transfer":null,"disputes":[],"batch":null,"transfer_beneficiary":null,"bill_payment_beneficiary":null}],"meta":{"page":1,"total_pages":3,"total_items":22}}