{"status":"success","data":[{"id":"019439f0-cc11-722f-8214-8ed22d59c3d8","meta":null,"created_on":"2025-01-06T04:47:49.778Z","created_by":"019372de-17ef-7cc2-8fc0-43fe11ba042f","modified_on":"2025-01-06T04:47:53.136Z","modified_by":null,"deleted_on":null,"deleted_by":null,"tenant_id":"00000000-0000-0000-0000-000000000000","account_id":"0193a699-2f15-7881-8b7f-ae50980bcfad","profile_id":"0193a649-e3d0-7881-8b7f-2ef1d89a9aff","cba_id":"1585","currency":"NGN","amount":"29300.00","reference":"Tieeqdrspaz","processor_reference":null,"processor_status":null,"processor_message":null,"status":"success","entry_type":"debit","narration":"Bill payment to dstv for 1102003467","transaction_date":"2025-01-06T04:47:49.777Z","transaction_type":"bill-payment","processor":"baxipay","reviewed_on":null,"reviewed_by":null,"batch_id":null,"schedule_id":null,"transfer":null,"transfer_beneficiary":null,"bill_payment_beneficiary":null,"disputes":[],"batch":null,"account":{"id":"0193a699-2f15-7881-8b7f-ae50980bcfad","meta":null,"created_on":"2024-12-08T14:07:57.204Z","created_by":null,"modified_on":"2025-01-06T04:46:46.613Z","modified_by":null,"deleted_on":null,"deleted_by":null,"tenant_id":"00000000-0000-0000-0000-000000000000","name":"expenses","cba_id":"0000000074","profile_id":"0193a649-e3d0-7881-8b7f-2ef1d89a9aff","account_number":"0000000074","bank_id":"0193324f-cad0-7f86-923b-43fb21ac5b29","ledger_balance":"961926.32","hold_balance":"0.00","available_balance":"961926.32","currency":"NGN","restricted":false}},{"id":"019439f0-c62e-722f-8214-853e98092f22","meta":null,"created_on":"2025-01-06T04:47:48.270Z","created_by":"019372de-17ef-7cc2-8fc0-43fe11ba042f","modified_on":"2025-01-06T04:47:49.353Z","modified_by":null,"deleted_on":null,"deleted_by":null,"tenant_id":"00000000-0000-0000-0000-000000000000","account_id":"0193a699-2f15-7881-8b7f-ae50980bcfad","profile_id":"0193a649-e3d0-7881-8b7f-2ef1d89a9aff","cba_id":"1584","currency":"NGN","amount":"1800.00","reference":"Tstasjxbjlz","processor_reference":null,"processor_status":null,"processor_message":null,"status":"success","entry_type":"debit","narration":"Bill payment to waec for 1102003467","transaction_date":"2025-01-06T04:47:48.269Z","transaction_type":"bill-payment","processor":"baxipay","reviewed_on":null,"reviewed_by":null,"batch_id":null,"schedule_id":null,"transfer":null,"transfer_beneficiary":null,"bill_payment_beneficiary":null,"disputes":[],"batch":null,"account":{"id":"0193a699-2f15-7881-8b7f-ae50980bcfad","meta":null,"created_on":"2024-12-08T14:07:57.204Z","created_by":null,"modified_on":"2025-01-06T04:46:46.613Z","modified_by":null,"deleted_on":null,"deleted_by":null,"tenant_id":"00000000-0000-0000-0000-000000000000","name":"expenses","cba_id":"0000000074","profile_id":"0193a649-e3d0-7881-8b7f-2ef1d89a9aff","account_number":"0000000074","bank_id":"0193324f-cad0-7f86-923b-43fb21ac5b29","ledger_balance":"961926.32","hold_balance":"0.00","available_balance":"961926.32","currency":"NGN","restricted":false}},{"id":"019439f0-bb83-722f-8214-783f723577b1","meta":null,"created_on":"2025-01-06T04:47:45.539Z","created_by":"019372de-17ef-7cc2-8fc0-43fe11ba042f","modified_on":"2025-01-06T04:47:46.433Z","modified_by":null,"deleted_on":null,"deleted_by":null,"tenant_id":"00000000-0000-0000-0000-000000000000","account_id":"0193a699-2f15-7881-8b7f-ae50980bcfad","profile_id":"0193a649-e3d0-7881-8b7f-2ef1d89a9aff","cba_id":"1583","currency":"NGN","amount":"2300.00","reference":"Tcwwcjyuuaz","processor_reference":null,"processor_status":null,"processor_message":"","status":"failed","entry_type":"debit","narration":"Bill payment to abuja_electric_postpaid for 07034953306","transaction_date":"2025-01-06T04:47:45.538Z","transaction_type":"bill-payment","processor":"baxipay","reviewed_on":null,"reviewed_by":null,"batch_id":null,"schedule_id":null,"transfer":null,"transfer_beneficiary":null,"bill_payment_beneficiary":null,"disputes":[],"batch":null,"account":{"id":"0193a699-2f15-7881-8b7f-ae50980bcfad","meta":null,"created_on":"2024-12-08T14:07:57.204Z","created_by":null,"modified_on":"2025-01-06T04:46:46.613Z","modified_by":null,"deleted_on":null,"deleted_by":null,"tenant_id":"00000000-0000-0000-0000-000000000000","name":"expenses","cba_id":"0000000074","profile_id":"0193a649-e3d0-7881-8b7f-2ef1d89a9aff","account_number":"0000000074","bank_id":"0193324f-cad0-7f86-923b-43fb21ac5b29","ledger_balance":"961926.32","hold_balance":"0.00","available_balance":"961926.32","currency":"NGN","restricted":false}},{"id":"019439f0-8045-722f-8214-66a39502ff32","meta":null,"created_on":"2025-01-06T04:47:30.373Z","created_by":"019372de-17ef-7cc2-8fc0-43fe11ba042f","modified_on":"2025-01-06T04:47:42.079Z","modified_by":null,"deleted_on":null,"deleted_by":null,"tenant_id":"00000000-0000-0000-0000-000000000000","account_id":"0193a699-2f15-7881-8b7f-ae50980bcfad","profile_id":"0193a649-e3d0-7881-8b7f-2ef1d89a9aff","cba_id":"1582","currency":"NGN","amount":"900.00","reference":"Tcajmzyiftw","processor_reference":null,"processor_status":null,"processor_message":null,"status":"success","entry_type":"debit","narration":"Bill payment to gotv for 1102003467","transaction_date":"2025-01-06T04:47:30.372Z","transaction_type":"bill-payment","processor":"baxipay","reviewed_on":null,"reviewed_by":null,"batch_id":null,"schedule_id":null,"transfer":null,"transfer_beneficiary":null,"bill_payment_beneficiary":null,"disputes":[],"batch":null,"account":{"id":"0193a699-2f15-7881-8b7f-ae50980bcfad","meta":null,"created_on":"2024-12-08T14:07:57.204Z","created_by":null,"modified_on":"2025-01-06T04:46:46.613Z","modified_by":null,"deleted_on":null,"deleted_by":null,"tenant_id":"00000000-0000-0000-0000-000000000000","name":"expenses","cba_id":"0000000074","profile_id":"0193a649-e3d0-7881-8b7f-2ef1d89a9aff","account_number":"0000000074","bank_id":"0193324f-cad0-7f86-923b-43fb21ac5b29","ledger_balance":"961926.32","hold_balance":"0.00","available_balance":"961926.32","currency":"NGN","restricted":false}},{"id":"019439f0-73cc-722f-8214-58c05b8cc95c","meta":null,"created_on":"2025-01-06T04:47:27.180Z","created_by":"019372de-17ef-7cc2-8fc0-43fe11ba042f","modified_on":"2025-01-06T04:47:28.679Z","modified_by":null,"deleted_on":null,"deleted_by":null,"tenant_id":"00000000-0000-0000-0000-000000000000","account_id":"0193a699-2f15-7881-8b7f-ae50980bcfad","profile_id":"0193a649-e3d0-7881-8b7f-2ef1d89a9aff","cba_id":"1581","currency":"NGN","amount":"5300.00","reference":"Tvlgzzlcket","processor_reference":null,"processor_status":null,"processor_message":null,"status":"success","entry_type":"debit","narration":"Bill payment to dstv for 1102003467","transaction_date":"2025-01-06T04:47:27.178Z","transaction_type":"bill-payment","processor":"baxipay","reviewed_on":null,"reviewed_by":null,"batch_id":null,"schedule_id":null,"transfer":null,"transfer_beneficiary":null,"bill_payment_beneficiary":null,"disputes":[],"batch":null,"account":{"id":"0193a699-2f15-7881-8b7f-ae50980bcfad","meta":null,"created_on":"2024-12-08T14:07:57.204Z","created_by":null,"modified_on":"2025-01-06T04:46:46.613Z","modified_by":null,"deleted_on":null,"deleted_by":null,"tenant_id":"00000000-0000-0000-0000-000000000000","name":"expenses","cba_id":"0000000074","profile_id":"0193a649-e3d0-7881-8b7f-2ef1d89a9aff","account_number":"0000000074","bank_id":"0193324f-cad0-7f86-923b-43fb21ac5b29","ledger_balance":"961926.32","hold_balance":"0.00","available_balance":"961926.32","currency":"NGN","restricted":false}},{"id":"019439f0-7040-722f-8214-53c87590a5f7","meta":null,"created_on":"2025-01-06T04:47:26.273Z","created_by":"019372de-17ef-7cc2-8fc0-43fe11ba042f","modified_on":"2025-01-06T04:47:26.802Z","modified_by":null,"deleted_on":null,"deleted_by":null,"tenant_id":"00000000-0000-0000-0000-000000000000","account_id":"0193a699-2f15-7881-8b7f-ae50980bcfad","profile_id":"0193a649-e3d0-7881-8b7f-2ef1d89a9aff","cba_id":"1580","currency":"NGN","amount":"1800.00","reference":"Tpsswkbiakc","processor_reference":null,"processor_status":null,"processor_message":null,"status":"success","entry_type":"debit","narration":"Bill payment to smile for 11020034671","transaction_date":"2025-01-06T04:47:26.272Z","transaction_type":"bill-payment","processor":"baxipay","reviewed_on":null,"reviewed_by":null,"batch_id":null,"schedule_id":null,"transfer":null,"transfer_beneficiary":null,"bill_payment_beneficiary":null,"disputes":[],"batch":null,"account":{"id":"0193a699-2f15-7881-8b7f-ae50980bcfad","meta":null,"created_on":"2024-12-08T14:07:57.204Z","created_by":null,"modified_on":"2025-01-06T04:46:46.613Z","modified_by":null,"deleted_on":null,"deleted_by":null,"tenant_id":"00000000-0000-0000-0000-000000000000","name":"expenses","cba_id":"0000000074","profile_id":"0193a649-e3d0-7881-8b7f-2ef1d89a9aff","account_number":"0000000074","bank_id":"0193324f-cad0-7f86-923b-43fb21ac5b29","ledger_balance":"961926.32","hold_balance":"0.00","available_balance":"961926.32","currency":"NGN","restricted":false}},{"id":"019439f0-6bb8-722f-8214-4942e7c85167","meta":null,"created_on":"2025-01-06T04:47:25.111Z","created_by":"019372de-17ef-7cc2-8fc0-43fe11ba042f","modified_on":"2025-01-06T04:47:25.862Z","modified_by":null,"deleted_on":null,"deleted_by":null,"tenant_id":"00000000-0000-0000-0000-000000000000","account_id":"0193a699-2f15-7881-8b7f-ae50980bcfad","profile_id":"0193a649-e3d0-7881-8b7f-2ef1d89a9aff","cba_id":"1579","currency":"NGN","amount":"200.00","reference":"Tgwjtbhdjes","processor_reference":null,"processor_status":null,"processor_message":null,"status":"success","entry_type":"debit","narration":"Bill payment to 9mobile for 11020034671","transaction_date":"2025-01-06T04:47:25.110Z","transaction_type":"bill-payment","processor":"baxipay","reviewed_on":null,"reviewed_by":null,"batch_id":null,"schedule_id":null,"transfer":null,"transfer_beneficiary":null,"bill_payment_beneficiary":null,"disputes":[],"batch":null,"account":{"id":"0193a699-2f15-7881-8b7f-ae50980bcfad","meta":null,"created_on":"2024-12-08T14:07:57.204Z","created_by":null,"modified_on":"2025-01-06T04:46:46.613Z","modified_by":null,"deleted_on":null,"deleted_by":null,"tenant_id":"00000000-0000-0000-0000-000000000000","name":"expenses","cba_id":"0000000074","profile_id":"0193a649-e3d0-7881-8b7f-2ef1d89a9aff","account_number":"0000000074","bank_id":"0193324f-cad0-7f86-923b-43fb21ac5b29","ledger_balance":"961926.32","hold_balance":"0.00","available_balance":"961926.32","currency":"NGN","restricted":false}},{"id":"019439f0-66de-722f-8214-4219ddd1f4dd","meta":null,"created_on":"2025-01-06T04:47:23.870Z","created_by":"019372de-17ef-7cc2-8fc0-43fe11ba042f","modified_on":"2025-01-06T04:47:24.610Z","modified_by":null,"deleted_on":null,"deleted_by":null,"tenant_id":"00000000-0000-0000-0000-000000000000","account_id":"0193a699-2f15-7881-8b7f-ae50980bcfad","profile_id":"0193a649-e3d0-7881-8b7f-2ef1d89a9aff","cba_id":"1578","currency":"NGN","amount":"50.00","reference":"Tphbwzzwtsw","processor_reference":null,"processor_status":null,"processor_message":null,"status":"success","entry_type":"debit","narration":"Bill payment to airtel for 11020034671","transaction_date":"2025-01-06T04:47:23.869Z","transaction_type":"bill-payment","processor":"baxipay","reviewed_on":null,"reviewed_by":null,"batch_id":null,"schedule_id":null,"transfer":null,"transfer_beneficiary":null,"bill_payment_beneficiary":null,"disputes":[],"batch":null,"account":{"id":"0193a699-2f15-7881-8b7f-ae50980bcfad","meta":null,"created_on":"2024-12-08T14:07:57.204Z","created_by":null,"modified_on":"2025-01-06T04:46:46.613Z","modified_by":null,"deleted_on":null,"deleted_by":null,"tenant_id":"00000000-0000-0000-0000-000000000000","name":"expenses","cba_id":"0000000074","profile_id":"0193a649-e3d0-7881-8b7f-2ef1d89a9aff","account_number":"0000000074","bank_id":"0193324f-cad0-7f86-923b-43fb21ac5b29","ledger_balance":"961926.32","hold_balance":"0.00","available_balance":"961926.32","currency":"NGN","restricted":false}},{"id":"019439f0-5f8f-722f-8214-3a55b4bf936a","meta":null,"created_on":"2025-01-06T04:47:22.000Z","created_by":"019372de-17ef-7cc2-8fc0-43fe11ba042f","modified_on":"2025-01-06T04:47:22.770Z","modified_by":null,"deleted_on":null,"deleted_by":null,"tenant_id":"00000000-0000-0000-0000-000000000000","account_id":"0193a699-2f15-7881-8b7f-ae50980bcfad","profile_id":"0193a649-e3d0-7881-8b7f-2ef1d89a9aff","cba_id":"1577","currency":"NGN","amount":"100.00","reference":"Twrkkxofezw","processor_reference":null,"processor_status":null,"processor_message":null,"status":"success","entry_type":"debit","narration":"Bill payment to mtn for 11020034671","transaction_date":"2025-01-06T04:47:21.998Z","transaction_type":"bill-payment","processor":"baxipay","reviewed_on":null,"reviewed_by":null,"batch_id":null,"schedule_id":null,"transfer":null,"transfer_beneficiary":null,"bill_payment_beneficiary":null,"disputes":[],"batch":null,"account":{"id":"0193a699-2f15-7881-8b7f-ae50980bcfad","meta":null,"created_on":"2024-12-08T14:07:57.204Z","created_by":null,"modified_on":"2025-01-06T04:46:46.613Z","modified_by":null,"deleted_on":null,"deleted_by":null,"tenant_id":"00000000-0000-0000-0000-000000000000","name":"expenses","cba_id":"0000000074","profile_id":"0193a649-e3d0-7881-8b7f-2ef1d89a9aff","account_number":"0000000074","bank_id":"0193324f-cad0-7f86-923b-43fb21ac5b29","ledger_balance":"961926.32","hold_balance":"0.00","available_balance":"961926.32","currency":"NGN","restricted":false}},{"id":"019439f0-5c17-722f-8214-32046b368bcd","meta":null,"created_on":"2025-01-06T04:47:21.111Z","created_by":"019372de-17ef-7cc2-8fc0-43fe11ba042f","modified_on":"2025-01-06T04:47:21.612Z","modified_by":null,"deleted_on":null,"deleted_by":null,"tenant_id":"00000000-0000-0000-0000-000000000000","account_id":"0193a699-2f15-7881-8b7f-ae50980bcfad","profile_id":"0193a649-e3d0-7881-8b7f-2ef1d89a9aff","cba_id":"1576","currency":"NGN","amount":"100.00","reference":"Tbdhktswqxq","processor_reference":null,"processor_status":null,"processor_message":null,"status":"success","entry_type":"debit","narration":"Bill payment to smile for 1102003467","transaction_date":"2025-01-06T04:47:21.110Z","transaction_type":"bill-payment","processor":"baxipay","reviewed_on":null,"reviewed_by":null,"batch_id":null,"schedule_id":null,"transfer":null,"transfer_beneficiary":null,"bill_payment_beneficiary":null,"disputes":[],"batch":null,"account":{"id":"0193a699-2f15-7881-8b7f-ae50980bcfad","meta":null,"created_on":"2024-12-08T14:07:57.204Z","created_by":null,"modified_on":"2025-01-06T04:46:46.613Z","modified_by":null,"deleted_on":null,"deleted_by":null,"tenant_id":"00000000-0000-0000-0000-000000000000","name":"expenses","cba_id":"0000000074","profile_id":"0193a649-e3d0-7881-8b7f-2ef1d89a9aff","account_number":"0000000074","bank_id":"0193324f-cad0-7f86-923b-43fb21ac5b29","ledger_balance":"961926.32","hold_balance":"0.00","available_balance":"961926.32","currency":"NGN","restricted":false}}],"meta":{"page":1,"total_pages":36,"total_items":351}}