{"status":"success","data":[{"id":"0196d949-0d1d-722a-a744-a8659c439e8b","meta":null,"created_on":"2025-05-16T13:29:25.615Z","created_by_id":"01925343-fbc8-7886-abfb-41c8746fc8ce","modified_on":"2025-05-16T17:00:06.561Z","modified_by_id":"019372de-17ef-7cc2-8fc0-43fe11ba042f","deleted_on":null,"deleted_by_id":null,"tenant_id":"00000000-0000-0000-0000-000000000000","profile_id":"0193a649-e3d0-7881-8b7f-2ef1d89a9aff","name":"Women Empowerment Loan","product_id":"0196b57d-d58f-7bba-bcb5-64c2fb41eead","account_id":"0193a699-2f15-7881-8b7f-ae50980bcfad","is_fixed":true,"allow_top_up":false,"cba_id":"609","deposit":"500.00","interest_earned":"0.21","balance":"500.00","end_date":"2025-05-17T13:29:18.816Z","start_date":"2025-05-16T13:29:18.816Z","periodic_amount":500,"interest_rate":"10.00","interest_period":"yearly","tenor_value":1,"tenor_period":"days","interest_compounding_period":"yearly","interest_posting_period":"yearly","status":"active","frequency":null,"card_id":null,"mandate_id":null,"auto_maturity_action":"withdraw"},{"id":"0196d945-e050-7448-8492-3ff04d8f9a57","meta":null,"created_on":"2025-05-16T13:25:57.456Z","created_by_id":"019372de-17ef-7cc2-8fc0-43fe11ba042f","modified_on":"2025-05-16T17:00:06.807Z","modified_by_id":"019372de-17ef-7cc2-8fc0-43fe11ba042f","deleted_on":null,"deleted_by_id":null,"tenant_id":"00000000-0000-0000-0000-000000000000","profile_id":"0193a649-e3d0-7881-8b7f-2ef1d89a9aff","name":"Test product","product_id":"0196d4c6-d2c9-7448-8491-2ae6cdd79093","account_id":"0193a699-2f15-7881-8b7f-ae50980bcfad","is_fixed":true,"allow_top_up":false,"cba_id":"608","deposit":"10000.00","interest_earned":"4.11","balance":"10000.00","end_date":"2025-05-26T13:25:52.376Z","start_date":"2025-05-16T13:25:52.376Z","periodic_amount":10000,"interest_rate":"10.00","interest_period":"yearly","tenor_value":10,"tenor_period":"days","interest_compounding_period":"yearly","interest_posting_period":"yearly","status":"active","frequency":null,"card_id":null,"mandate_id":null,"auto_maturity_action":"withdraw"},{"id":"0196d943-785f-722a-a744-7bca0a5dec7d","meta":null,"created_on":"2025-05-16T13:23:19.897Z","created_by_id":"01925343-fbc8-7886-abfb-41c8746fc8ce","modified_on":"2025-05-16T17:00:07.052Z","modified_by_id":"019372de-17ef-7cc2-8fc0-43fe11ba042f","deleted_on":null,"deleted_by_id":null,"tenant_id":"00000000-0000-0000-0000-000000000000","profile_id":"0193a649-e3d0-7881-8b7f-2ef1d89a9aff","name":"Women Empowerment Loan","product_id":"0196b57d-d58f-7bba-bcb5-64c2fb41eead","account_id":"01951065-f30c-7bbe-8a30-3eee60a72183","is_fixed":true,"allow_top_up":false,"cba_id":"607","deposit":"500.00","interest_earned":"0.21","balance":"500.00","end_date":"2025-06-14T13:23:16.536Z","start_date":"2025-05-16T13:23:16.536Z","periodic_amount":500,"interest_rate":"10.00","interest_period":"yearly","tenor_value":29,"tenor_period":"days","interest_compounding_period":"yearly","interest_posting_period":"yearly","status":"active","frequency":null,"card_id":null,"mandate_id":null,"auto_maturity_action":"withdraw"},{"id":"0196d4db-3aa2-7448-8491-868e5875accc","meta":null,"created_on":"2025-05-15T16:50:59.362Z","created_by_id":"019372de-17ef-7cc2-8fc0-43fe11ba042f","modified_on":"2025-05-16T17:00:07.345Z","modified_by_id":"019372de-17ef-7cc2-8fc0-43fe11ba042f","deleted_on":null,"deleted_by_id":null,"tenant_id":"00000000-0000-0000-0000-000000000000","profile_id":"0193a649-e3d0-7881-8b7f-2ef1d89a9aff","name":"Test product","product_id":"0196d4c6-d2c9-7448-8491-2ae6cdd79093","account_id":"0193a699-2f15-7881-8b7f-ae50980bcfad","is_fixed":true,"allow_top_up":false,"cba_id":"606","deposit":"10000.00","interest_earned":"8.22","balance":"10000.00","end_date":"2025-05-25T16:50:54.259Z","start_date":"2025-05-15T16:50:54.259Z","periodic_amount":10000,"interest_rate":"10.00","interest_period":"yearly","tenor_value":10,"tenor_period":"days","interest_compounding_period":"yearly","interest_posting_period":"yearly","status":"active","frequency":null,"card_id":null,"mandate_id":null,"auto_maturity_action":"withdraw"},{"id":"0196d315-a70d-7885-8301-83f8fff38b0f","meta":null,"created_on":"2025-05-15T08:35:33.773Z","created_by_id":"019372de-17ef-7cc2-8fc0-43fe11ba042f","modified_on":"2025-05-16T17:00:07.570Z","modified_by_id":"019372de-17ef-7cc2-8fc0-43fe11ba042f","deleted_on":null,"deleted_by_id":null,"tenant_id":"00000000-0000-0000-0000-000000000000","profile_id":"0193a649-e3d0-7881-8b7f-2ef1d89a9aff","name":"omo","product_id":"0196cbc7-cf59-7aa1-a925-7c8dcdf1102a","account_id":"0193a699-2f15-7881-8b7f-ae50980bcfad","is_fixed":false,"allow_top_up":false,"cba_id":"602","deposit":"4000.00","interest_earned":"0.00","balance":"4000.00","end_date":"2025-06-15T08:35:32.518Z","start_date":"2025-05-15T08:35:32.518Z","periodic_amount":4000,"interest_rate":"11.00","interest_period":"yearly","tenor_value":1,"tenor_period":"months","interest_compounding_period":"yearly","interest_posting_period":"yearly","status":"active","frequency":null,"card_id":null,"mandate_id":null,"auto_maturity_action":"withdraw"},{"id":"0196d30d-dda1-7885-8301-41fb8c5be151","meta":null,"created_on":"2025-05-15T08:27:03.458Z","created_by_id":"019372de-17ef-7cc2-8fc0-43fe11ba042f","modified_on":"2025-05-16T17:00:06.652Z","modified_by_id":"019372de-17ef-7cc2-8fc0-43fe11ba042f","deleted_on":null,"deleted_by_id":null,"tenant_id":"00000000-0000-0000-0000-000000000000","profile_id":"0193a649-e3d0-7881-8b7f-2ef1d89a9aff","name":"Stuff","product_id":"0196cbc7-cf59-7aa1-a925-7c8dcdf1102a","account_id":"0193a699-2f15-7881-8b7f-ae50980bcfad","is_fixed":false,"allow_top_up":false,"cba_id":"601","deposit":"4000.00","interest_earned":"0.00","balance":"4000.00","end_date":"2025-06-15T08:27:02.087Z","start_date":"2025-05-15T08:27:02.087Z","periodic_amount":4000,"interest_rate":"11.00","interest_period":"yearly","tenor_value":1,"tenor_period":"months","interest_compounding_period":"yearly","interest_posting_period":"yearly","status":"active","frequency":null,"card_id":null,"mandate_id":null,"auto_maturity_action":"withdraw"},{"id":"0196d2fc-e167-799f-9eeb-11fe41c5ee23","meta":null,"created_on":"2025-05-15T08:08:30.272Z","created_by_id":"01925343-fbc8-7886-abfb-41c8746fc8ce","modified_on":"2025-05-16T17:00:06.974Z","modified_by_id":"019372de-17ef-7cc2-8fc0-43fe11ba042f","deleted_on":null,"deleted_by_id":null,"tenant_id":"00000000-0000-0000-0000-000000000000","profile_id":"0193a649-e3d0-7881-8b7f-2ef1d89a9aff","name":"Women Empowerment Loan","product_id":"0196b57d-d58f-7bba-bcb5-64c2fb41eead","account_id":"01951065-f30c-7bbe-8a30-3eee60a72183","is_fixed":true,"allow_top_up":false,"cba_id":"600","deposit":"500.00","interest_earned":"0.41","balance":"500.00","end_date":"2025-06-13T08:08:27.937Z","start_date":"2025-05-15T08:08:27.937Z","periodic_amount":500,"interest_rate":"10.00","interest_period":"yearly","tenor_value":29,"tenor_period":"days","interest_compounding_period":"yearly","interest_posting_period":"yearly","status":"active","frequency":null,"card_id":null,"mandate_id":null,"auto_maturity_action":"withdraw"},{"id":"0196cf08-f08c-7aa1-a927-00f395f981ac","meta":null,"created_on":"2025-05-14T13:43:11.756Z","created_by_id":"019372de-17ef-7cc2-8fc0-43fe11ba042f","modified_on":"2025-05-16T17:00:07.143Z","modified_by_id":"019372de-17ef-7cc2-8fc0-43fe11ba042f","deleted_on":null,"deleted_by_id":null,"tenant_id":"00000000-0000-0000-0000-000000000000","profile_id":"0193a649-e3d0-7881-8b7f-2ef1d89a9aff","name":"sharp","product_id":"0196b57d-d58f-7bba-bcb5-64c2fb41eead","account_id":"0193a699-2f15-7881-8b7f-ae50980bcfad","is_fixed":true,"allow_top_up":false,"cba_id":"594","deposit":"100000.00","interest_earned":"123.29","balance":"100000.00","end_date":"2025-08-22T13:43:08.901Z","start_date":"2025-05-14T13:43:08.901Z","periodic_amount":100000,"interest_rate":"10.00","interest_period":"yearly","tenor_value":100,"tenor_period":"days","interest_compounding_period":"yearly","interest_posting_period":"yearly","status":"active","frequency":null,"card_id":null,"mandate_id":null,"auto_maturity_action":"withdraw"},{"id":"0196ca68-2be1-7eee-a90d-e2f7e4ff1de4","meta":null,"created_on":"2025-05-13T16:09:06.742Z","created_by_id":"01925343-fbc8-7886-abfb-41c8746fc8ce","modified_on":"2025-05-16T14:51:27.513Z","modified_by_id":"01927265-4ed2-79cc-a0e6-e11339a359f3","deleted_on":null,"deleted_by_id":null,"tenant_id":"00000000-0000-0000-0000-000000000000","profile_id":"0193a649-e3d0-7881-8b7f-2ef1d89a9aff","name":"Women Empowerment Loan","product_id":"0196b57d-d58f-7bba-bcb5-64c2fb41eead","account_id":"01951065-f30c-7bbe-8a30-3eee60a72183","is_fixed":true,"allow_top_up":false,"cba_id":"593","deposit":"500.00","interest_earned":"0.00","balance":"0.00","end_date":"2025-06-11T16:09:04.393Z","start_date":"2025-05-13T16:09:04.393Z","periodic_amount":500,"interest_rate":"10.00","interest_period":"yearly","tenor_value":29,"tenor_period":"days","interest_compounding_period":"yearly","interest_posting_period":"yearly","status":"closed","frequency":null,"card_id":null,"mandate_id":null,"auto_maturity_action":"withdraw"},{"id":"0196c39e-58b4-700b-92c0-0e0bf83c3031","meta":null,"created_on":"2025-05-12T08:30:56.744Z","created_by_id":"01925343-fbc8-7886-abfb-41c8746fc8ce","modified_on":"2025-05-16T17:00:07.392Z","modified_by_id":"019372de-17ef-7cc2-8fc0-43fe11ba042f","deleted_on":null,"deleted_by_id":null,"tenant_id":"00000000-0000-0000-0000-000000000000","profile_id":"0193a649-e3d0-7881-8b7f-2ef1d89a9aff","name":"Women Empowerment Loan","product_id":"0196ab83-3217-7ff4-8b54-ea2f79a13044","account_id":"01951065-f30c-7bbe-8a30-3eee60a72183","is_fixed":true,"allow_top_up":false,"cba_id":"588","deposit":"500.00","interest_earned":"1.03","balance":"500.00","end_date":"2025-06-10T08:30:53.661Z","start_date":"2025-05-12T08:30:53.661Z","periodic_amount":500,"interest_rate":"10.00","interest_period":"yearly","tenor_value":29,"tenor_period":"days","interest_compounding_period":"yearly","interest_posting_period":"yearly","status":"active","frequency":null,"card_id":null,"mandate_id":null,"auto_maturity_action":"withdraw"}],"meta":{"page":1,"total_pages":6,"total_items":54}}