{"status":"success","data":[{"id":"0196da6d-7cdc-7448-8495-9718285d3d59","meta":null,"created_on":"2025-05-16T18:48:50.647Z","created_by_id":null,"modified_on":"2025-05-16T18:48:50.647Z","modified_by_id":null,"deleted_on":null,"deleted_by_id":null,"tenant_id":"00000000-0000-0000-0000-000000000000","user_id":"019372de-17ef-7cc2-8fc0-43fe11ba042f","status":"pending","referree_id":"0196da6d-7c77-7448-8495-8f5be8ba3522","referree_earning":"233.33","referrer_earning":"100.32","user":{"id":"019372de-17ef-7cc2-8fc0-43fe11ba042f","meta":{},"created_on":"2024-11-28T13:02:58.029Z","created_by_id":null,"modified_on":"2025-05-16T18:49:12.960Z","modified_by_id":"019372de-17ef-7cc2-8fc0-43fe11ba042f","deleted_on":null,"deleted_by_id":null,"tenant_id":"00000000-0000-0000-0000-000000000000","email":"ismael@mailinator.com","status":"active","first_name":"Sunday","last_name":"Testing","twofa_enabled":false,"last_active":"2025-05-16T18:49:12.959Z","last_login":"2025-05-16T18:48:08.952Z","last_ip":"23.98.189.83","allowed_ips":null,"last_timezone":"America/Chicago","last_location":"San Antonio","phone":"+2348089722636","review":null,"gender":"male","date_of_birth":null,"cba_id":"31","photo_id":null,"referral_code":"7LD1QN","referred_by":null},"referree":{"id":"0196da6d-7c77-7448-8495-8f5be8ba3522","meta":null,"created_on":"2025-05-16T18:48:50.550Z","created_by_id":null,"modified_on":"2025-05-16T18:48:50.748Z","modified_by_id":null,"deleted_on":null,"deleted_by_id":null,"tenant_id":"00000000-0000-0000-0000-000000000000","email":"GeorgetteLarsonDirect@mailinator.com","status":"active","first_name":"Baumbach","last_name":"Annetta","twofa_enabled":false,"last_active":"2025-05-16T18:48:50.550Z","last_login":"2025-05-16T18:48:50.748Z","last_ip":"52.234.46.156","allowed_ips":null,"last_timezone":"America/Los_Angeles","last_location":"San Jose","phone":null,"review":null,"gender":null,"date_of_birth":null,"cba_id":null,"photo_id":null,"referral_code":"XVCAJU","referred_by":"019372de-17ef-7cc2-8fc0-43fe11ba042f"},"events":[]},{"id":"0196da6c-d545-7448-8493-b3718820179e","meta":null,"created_on":"2025-05-16T18:48:07.750Z","created_by_id":null,"modified_on":"2025-05-16T18:48:07.750Z","modified_by_id":null,"deleted_on":null,"deleted_by_id":null,"tenant_id":"00000000-0000-0000-0000-000000000000","user_id":"019372de-17ef-7cc2-8fc0-43fe11ba042f","status":"pending","referree_id":"0196da6c-d53e-7448-8493-af844d5ecaff","referree_earning":"233.33","referrer_earning":"100.32","user":{"id":"019372de-17ef-7cc2-8fc0-43fe11ba042f","meta":{},"created_on":"2024-11-28T13:02:58.029Z","created_by_id":null,"modified_on":"2025-05-16T18:49:12.960Z","modified_by_id":"019372de-17ef-7cc2-8fc0-43fe11ba042f","deleted_on":null,"deleted_by_id":null,"tenant_id":"00000000-0000-0000-0000-000000000000","email":"ismael@mailinator.com","status":"active","first_name":"Sunday","last_name":"Testing","twofa_enabled":false,"last_active":"2025-05-16T18:49:12.959Z","last_login":"2025-05-16T18:48:08.952Z","last_ip":"23.98.189.83","allowed_ips":null,"last_timezone":"America/Chicago","last_location":"San Antonio","phone":"+2348089722636","review":null,"gender":"male","date_of_birth":null,"cba_id":"31","photo_id":null,"referral_code":"7LD1QN","referred_by":null},"referree":{"id":"0196da6c-d53e-7448-8493-af844d5ecaff","meta":null,"created_on":"2025-05-16T18:48:07.742Z","created_by_id":null,"modified_on":"2025-05-16T18:48:07.765Z","modified_by_id":null,"deleted_on":null,"deleted_by_id":null,"tenant_id":"00000000-0000-0000-0000-000000000000","email":"GracieUllrichplatformsa@mailinator.com","status":"active","first_name":"Thompson","last_name":"Adrien","twofa_enabled":false,"last_active":"2025-05-16T18:48:07.742Z","last_login":"2025-05-16T18:48:07.765Z","last_ip":"23.98.189.83","allowed_ips":null,"last_timezone":"America/Chicago","last_location":"San Antonio","phone":null,"review":null,"gender":null,"date_of_birth":null,"cba_id":null,"photo_id":null,"referral_code":"CGZKMR","referred_by":"019372de-17ef-7cc2-8fc0-43fe11ba042f"},"events":[]},{"id":"0196d020-713e-7aa1-a92b-3cde11c7c9cc","meta":null,"created_on":"2025-05-14T18:48:29.247Z","created_by_id":null,"modified_on":"2025-05-14T18:48:29.247Z","modified_by_id":null,"deleted_on":null,"deleted_by_id":null,"tenant_id":"00000000-0000-0000-0000-000000000000","user_id":"019372de-17ef-7cc2-8fc0-43fe11ba042f","status":"pending","referree_id":"0196d020-7137-7aa1-a92b-345a21b886a9","referree_earning":"233.33","referrer_earning":"100.32","user":{"id":"019372de-17ef-7cc2-8fc0-43fe11ba042f","meta":{},"created_on":"2024-11-28T13:02:58.029Z","created_by_id":null,"modified_on":"2025-05-16T18:49:12.960Z","modified_by_id":"019372de-17ef-7cc2-8fc0-43fe11ba042f","deleted_on":null,"deleted_by_id":null,"tenant_id":"00000000-0000-0000-0000-000000000000","email":"ismael@mailinator.com","status":"active","first_name":"Sunday","last_name":"Testing","twofa_enabled":false,"last_active":"2025-05-16T18:49:12.959Z","last_login":"2025-05-16T18:48:08.952Z","last_ip":"23.98.189.83","allowed_ips":null,"last_timezone":"America/Chicago","last_location":"San Antonio","phone":"+2348089722636","review":null,"gender":"male","date_of_birth":null,"cba_id":"31","photo_id":null,"referral_code":"7LD1QN","referred_by":null},"referree":{"id":"0196d020-7137-7aa1-a92b-345a21b886a9","meta":null,"created_on":"2025-05-14T18:48:29.165Z","created_by_id":null,"modified_on":"2025-05-14T18:48:29.258Z","modified_by_id":null,"deleted_on":null,"deleted_by_id":null,"tenant_id":"00000000-0000-0000-0000-000000000000","email":"CedrickBeckerIndiana@mailinator.com","status":"active","first_name":"Reilly","last_name":"Aileen","twofa_enabled":false,"last_active":"2025-05-14T18:48:29.165Z","last_login":"2025-05-14T18:48:29.258Z","last_ip":"52.155.62.0","allowed_ips":null,"last_timezone":"America/Los_Angeles","last_location":"San Jose","phone":null,"review":null,"gender":null,"date_of_birth":null,"cba_id":null,"photo_id":null,"referral_code":"0LVKFD","referred_by":"019372de-17ef-7cc2-8fc0-43fe11ba042f"},"events":[]},{"id":"0196d01d-30d2-7aa1-a927-e4f2e278504d","meta":null,"created_on":"2025-05-14T18:44:56.147Z","created_by_id":null,"modified_on":"2025-05-14T18:44:56.147Z","modified_by_id":null,"deleted_on":null,"deleted_by_id":null,"tenant_id":"00000000-0000-0000-0000-000000000000","user_id":"019372de-17ef-7cc2-8fc0-43fe11ba042f","status":"pending","referree_id":"0196d01d-30cb-7aa1-a927-da5741cdee43","referree_earning":"233.33","referrer_earning":"100.32","user":{"id":"019372de-17ef-7cc2-8fc0-43fe11ba042f","meta":{},"created_on":"2024-11-28T13:02:58.029Z","created_by_id":null,"modified_on":"2025-05-16T18:49:12.960Z","modified_by_id":"019372de-17ef-7cc2-8fc0-43fe11ba042f","deleted_on":null,"deleted_by_id":null,"tenant_id":"00000000-0000-0000-0000-000000000000","email":"ismael@mailinator.com","status":"active","first_name":"Sunday","last_name":"Testing","twofa_enabled":false,"last_active":"2025-05-16T18:49:12.959Z","last_login":"2025-05-16T18:48:08.952Z","last_ip":"23.98.189.83","allowed_ips":null,"last_timezone":"America/Chicago","last_location":"San Antonio","phone":"+2348089722636","review":null,"gender":"male","date_of_birth":null,"cba_id":"31","photo_id":null,"referral_code":"7LD1QN","referred_by":null},"referree":{"id":"0196d01d-30cb-7aa1-a927-da5741cdee43","meta":null,"created_on":"2025-05-14T18:44:56.065Z","created_by_id":null,"modified_on":"2025-05-14T18:44:56.157Z","modified_by_id":null,"deleted_on":null,"deleted_by_id":null,"tenant_id":"00000000-0000-0000-0000-000000000000","email":"ChristopherMitchellprogramw@mailinator.com","status":"active","first_name":"Reichel","last_name":"Eleanore","twofa_enabled":false,"last_active":"2025-05-14T18:44:56.065Z","last_login":"2025-05-14T18:44:56.157Z","last_ip":"20.169.14.23","allowed_ips":null,"last_timezone":"America/Phoenix","last_location":"Phoenix","phone":null,"review":null,"gender":null,"date_of_birth":null,"cba_id":null,"photo_id":null,"referral_code":"YZMIM0","referred_by":"019372de-17ef-7cc2-8fc0-43fe11ba042f"},"events":[]},{"id":"0196c104-dc33-7000-bf0b-9237b6d3da37","meta":null,"created_on":"2025-05-11T20:24:03.379Z","created_by_id":null,"modified_on":"2025-05-11T20:24:03.379Z","modified_by_id":null,"deleted_on":null,"deleted_by_id":null,"tenant_id":"00000000-0000-0000-0000-000000000000","user_id":"019372de-17ef-7cc2-8fc0-43fe11ba042f","status":"pending","referree_id":"0196c104-dbe4-7000-bf0b-8f350df71b81","referree_earning":"233.33","referrer_earning":"100.32","user":{"id":"019372de-17ef-7cc2-8fc0-43fe11ba042f","meta":{},"created_on":"2024-11-28T13:02:58.029Z","created_by_id":null,"modified_on":"2025-05-16T18:49:12.960Z","modified_by_id":"019372de-17ef-7cc2-8fc0-43fe11ba042f","deleted_on":null,"deleted_by_id":null,"tenant_id":"00000000-0000-0000-0000-000000000000","email":"ismael@mailinator.com","status":"active","first_name":"Sunday","last_name":"Testing","twofa_enabled":false,"last_active":"2025-05-16T18:49:12.959Z","last_login":"2025-05-16T18:48:08.952Z","last_ip":"23.98.189.83","allowed_ips":null,"last_timezone":"America/Chicago","last_location":"San Antonio","phone":"+2348089722636","review":null,"gender":"male","date_of_birth":null,"cba_id":"31","photo_id":null,"referral_code":"7LD1QN","referred_by":null},"referree":{"id":"0196c104-dbe4-7000-bf0b-8f350df71b81","meta":null,"created_on":"2025-05-11T20:24:03.300Z","created_by_id":null,"modified_on":"2025-05-11T20:24:03.393Z","modified_by_id":null,"deleted_on":null,"deleted_by_id":null,"tenant_id":"00000000-0000-0000-0000-000000000000","email":"LoyalWeimannBerkshire3@mailinator.com","status":"active","first_name":"Cummerata","last_name":"Adrien","twofa_enabled":false,"last_active":"2025-05-11T20:24:03.300Z","last_login":"2025-05-11T20:24:03.393Z","last_ip":"52.160.161.178","allowed_ips":null,"last_timezone":"America/Los_Angeles","last_location":"San Jose","phone":null,"review":null,"gender":null,"date_of_birth":null,"cba_id":null,"photo_id":null,"referral_code":"61UM0X","referred_by":"019372de-17ef-7cc2-8fc0-43fe11ba042f"},"events":[]},{"id":"0196c0f7-855d-7000-bf0b-59fd73b63039","meta":null,"created_on":"2025-05-11T20:09:29.180Z","created_by_id":null,"modified_on":"2025-05-11T20:09:29.180Z","modified_by_id":null,"deleted_on":null,"deleted_by_id":null,"tenant_id":"00000000-0000-0000-0000-000000000000","user_id":"019372de-17ef-7cc2-8fc0-43fe11ba042f","status":"pending","referree_id":"0196c0f7-8510-7000-bf0b-55182cf20637","referree_earning":"233.33","referrer_earning":"100.32","user":{"id":"019372de-17ef-7cc2-8fc0-43fe11ba042f","meta":{},"created_on":"2024-11-28T13:02:58.029Z","created_by_id":null,"modified_on":"2025-05-16T18:49:12.960Z","modified_by_id":"019372de-17ef-7cc2-8fc0-43fe11ba042f","deleted_on":null,"deleted_by_id":null,"tenant_id":"00000000-0000-0000-0000-000000000000","email":"ismael@mailinator.com","status":"active","first_name":"Sunday","last_name":"Testing","twofa_enabled":false,"last_active":"2025-05-16T18:49:12.959Z","last_login":"2025-05-16T18:48:08.952Z","last_ip":"23.98.189.83","allowed_ips":null,"last_timezone":"America/Chicago","last_location":"San Antonio","phone":"+2348089722636","review":null,"gender":"male","date_of_birth":null,"cba_id":"31","photo_id":null,"referral_code":"7LD1QN","referred_by":null},"referree":{"id":"0196c0f7-8510-7000-bf0b-55182cf20637","meta":null,"created_on":"2025-05-11T20:09:29.103Z","created_by_id":null,"modified_on":"2025-05-11T20:09:29.196Z","modified_by_id":null,"deleted_on":null,"deleted_by_id":null,"tenant_id":"00000000-0000-0000-0000-000000000000","email":"MeganeWeimannsensor@mailinator.com","status":"active","first_name":"Miller","last_name":"Telly","twofa_enabled":false,"last_active":"2025-05-11T20:09:29.103Z","last_login":"2025-05-11T20:09:29.196Z","last_ip":"20.172.29.204","allowed_ips":null,"last_timezone":"America/Phoenix","last_location":"Phoenix","phone":null,"review":null,"gender":null,"date_of_birth":null,"cba_id":null,"photo_id":null,"referral_code":"THDHBA","referred_by":"019372de-17ef-7cc2-8fc0-43fe11ba042f"},"events":[]},{"id":"0196b660-95c7-7bba-bcbc-2d48d0758c44","meta":null,"created_on":"2025-05-09T18:48:25.288Z","created_by_id":null,"modified_on":"2025-05-09T18:48:25.288Z","modified_by_id":null,"deleted_on":null,"deleted_by_id":null,"tenant_id":"00000000-0000-0000-0000-000000000000","user_id":"019372de-17ef-7cc2-8fc0-43fe11ba042f","status":"pending","referree_id":"0196b660-9564-7bba-bcbc-240ba83ee451","referree_earning":"233.33","referrer_earning":"100.32","user":{"id":"019372de-17ef-7cc2-8fc0-43fe11ba042f","meta":{},"created_on":"2024-11-28T13:02:58.029Z","created_by_id":null,"modified_on":"2025-05-16T18:49:12.960Z","modified_by_id":"019372de-17ef-7cc2-8fc0-43fe11ba042f","deleted_on":null,"deleted_by_id":null,"tenant_id":"00000000-0000-0000-0000-000000000000","email":"ismael@mailinator.com","status":"active","first_name":"Sunday","last_name":"Testing","twofa_enabled":false,"last_active":"2025-05-16T18:49:12.959Z","last_login":"2025-05-16T18:48:08.952Z","last_ip":"23.98.189.83","allowed_ips":null,"last_timezone":"America/Chicago","last_location":"San Antonio","phone":"+2348089722636","review":null,"gender":"male","date_of_birth":null,"cba_id":"31","photo_id":null,"referral_code":"7LD1QN","referred_by":null},"referree":{"id":"0196b660-9564-7bba-bcbc-240ba83ee451","meta":null,"created_on":"2025-05-09T18:48:25.187Z","created_by_id":null,"modified_on":"2025-05-09T18:48:25.379Z","modified_by_id":null,"deleted_on":null,"deleted_by_id":null,"tenant_id":"00000000-0000-0000-0000-000000000000","email":"JustineBergnaumHandmade@mailinator.com","status":"active","first_name":"Block","last_name":"Antonetta","twofa_enabled":false,"last_active":"2025-05-09T18:48:25.187Z","last_login":"2025-05-09T18:48:25.379Z","last_ip":"20.39.61.200","allowed_ips":null,"last_timezone":"America/New_York","last_location":"Tappahannock","phone":null,"review":null,"gender":null,"date_of_birth":null,"cba_id":null,"photo_id":null,"referral_code":"22WVH3","referred_by":"019372de-17ef-7cc2-8fc0-43fe11ba042f"},"events":[]},{"id":"0196b660-040d-7bba-bcb9-f9926e371ad4","meta":null,"created_on":"2025-05-09T18:47:47.982Z","created_by_id":null,"modified_on":"2025-05-09T18:47:47.982Z","modified_by_id":null,"deleted_on":null,"deleted_by_id":null,"tenant_id":"00000000-0000-0000-0000-000000000000","user_id":"019372de-17ef-7cc2-8fc0-43fe11ba042f","status":"pending","referree_id":"0196b660-03b8-7bba-bcb9-f2a2e4afe9ee","referree_earning":"233.33","referrer_earning":"100.32","user":{"id":"019372de-17ef-7cc2-8fc0-43fe11ba042f","meta":{},"created_on":"2024-11-28T13:02:58.029Z","created_by_id":null,"modified_on":"2025-05-16T18:49:12.960Z","modified_by_id":"019372de-17ef-7cc2-8fc0-43fe11ba042f","deleted_on":null,"deleted_by_id":null,"tenant_id":"00000000-0000-0000-0000-000000000000","email":"ismael@mailinator.com","status":"active","first_name":"Sunday","last_name":"Testing","twofa_enabled":false,"last_active":"2025-05-16T18:49:12.959Z","last_login":"2025-05-16T18:48:08.952Z","last_ip":"23.98.189.83","allowed_ips":null,"last_timezone":"America/Chicago","last_location":"San Antonio","phone":"+2348089722636","review":null,"gender":"male","date_of_birth":null,"cba_id":"31","photo_id":null,"referral_code":"7LD1QN","referred_by":null},"referree":{"id":"0196b660-03b8-7bba-bcb9-f2a2e4afe9ee","meta":null,"created_on":"2025-05-09T18:47:47.897Z","created_by_id":null,"modified_on":"2025-05-09T18:47:47.998Z","modified_by_id":null,"deleted_on":null,"deleted_by_id":null,"tenant_id":"00000000-0000-0000-0000-000000000000","email":"PatHanddepositt@mailinator.com","status":"active","first_name":"Wolff","last_name":"Forrest","twofa_enabled":false,"last_active":"2025-05-09T18:47:47.897Z","last_login":"2025-05-09T18:47:47.998Z","last_ip":"20.161.78.217","allowed_ips":null,"last_timezone":"America/New_York","last_location":"Boydton","phone":null,"review":null,"gender":null,"date_of_birth":null,"cba_id":null,"photo_id":null,"referral_code":"Z6TAZB","referred_by":"019372de-17ef-7cc2-8fc0-43fe11ba042f"},"events":[]},{"id":"0196ac14-1e04-7cca-bb5e-622ab78ac919","meta":null,"created_on":"2025-05-07T18:48:41.732Z","created_by_id":null,"modified_on":"2025-05-07T18:48:41.732Z","modified_by_id":null,"deleted_on":null,"deleted_by_id":null,"tenant_id":"00000000-0000-0000-0000-000000000000","user_id":"019372de-17ef-7cc2-8fc0-43fe11ba042f","status":"pending","referree_id":"0196ac14-1dfe-7cca-bb5e-5e56a7c25229","referree_earning":"233.33","referrer_earning":"100.32","user":{"id":"019372de-17ef-7cc2-8fc0-43fe11ba042f","meta":{},"created_on":"2024-11-28T13:02:58.029Z","created_by_id":null,"modified_on":"2025-05-16T18:49:12.960Z","modified_by_id":"019372de-17ef-7cc2-8fc0-43fe11ba042f","deleted_on":null,"deleted_by_id":null,"tenant_id":"00000000-0000-0000-0000-000000000000","email":"ismael@mailinator.com","status":"active","first_name":"Sunday","last_name":"Testing","twofa_enabled":false,"last_active":"2025-05-16T18:49:12.959Z","last_login":"2025-05-16T18:48:08.952Z","last_ip":"23.98.189.83","allowed_ips":null,"last_timezone":"America/Chicago","last_location":"San Antonio","phone":"+2348089722636","review":null,"gender":"male","date_of_birth":null,"cba_id":"31","photo_id":null,"referral_code":"7LD1QN","referred_by":null},"referree":{"id":"0196ac14-1dfe-7cca-bb5e-5e56a7c25229","meta":null,"created_on":"2025-05-07T18:48:41.726Z","created_by_id":null,"modified_on":"2025-05-07T18:48:41.745Z","modified_by_id":null,"deleted_on":null,"deleted_by_id":null,"tenant_id":"00000000-0000-0000-0000-000000000000","email":"MaybellTrompArchitect@mailinator.com","status":"active","first_name":"Koelpin","last_name":"Antonia","twofa_enabled":false,"last_active":"2025-05-07T18:48:41.726Z","last_login":"2025-05-07T18:48:41.745Z","last_ip":"20.25.193.74","allowed_ips":null,"last_timezone":"America/Chicago","last_location":"Chicago","phone":null,"review":null,"gender":null,"date_of_birth":null,"cba_id":null,"photo_id":null,"referral_code":"DV8J4I","referred_by":"019372de-17ef-7cc2-8fc0-43fe11ba042f"},"events":[]},{"id":"0196ac10-ea1c-7cca-bb5a-d8a733da6841","meta":null,"created_on":"2025-05-07T18:45:11.836Z","created_by_id":null,"modified_on":"2025-05-07T18:45:11.836Z","modified_by_id":null,"deleted_on":null,"deleted_by_id":null,"tenant_id":"00000000-0000-0000-0000-000000000000","user_id":"019372de-17ef-7cc2-8fc0-43fe11ba042f","status":"pending","referree_id":"0196ac10-ea11-7cca-bb5a-d39adf74dc24","referree_earning":"233.33","referrer_earning":"100.32","user":{"id":"019372de-17ef-7cc2-8fc0-43fe11ba042f","meta":{},"created_on":"2024-11-28T13:02:58.029Z","created_by_id":null,"modified_on":"2025-05-16T18:49:12.960Z","modified_by_id":"019372de-17ef-7cc2-8fc0-43fe11ba042f","deleted_on":null,"deleted_by_id":null,"tenant_id":"00000000-0000-0000-0000-000000000000","email":"ismael@mailinator.com","status":"active","first_name":"Sunday","last_name":"Testing","twofa_enabled":false,"last_active":"2025-05-16T18:49:12.959Z","last_login":"2025-05-16T18:48:08.952Z","last_ip":"23.98.189.83","allowed_ips":null,"last_timezone":"America/Chicago","last_location":"San Antonio","phone":"+2348089722636","review":null,"gender":"male","date_of_birth":null,"cba_id":"31","photo_id":null,"referral_code":"7LD1QN","referred_by":null},"referree":{"id":"0196ac10-ea11-7cca-bb5a-d39adf74dc24","meta":null,"created_on":"2025-05-07T18:45:11.825Z","created_by_id":null,"modified_on":"2025-05-07T18:45:11.926Z","modified_by_id":null,"deleted_on":null,"deleted_by_id":null,"tenant_id":"00000000-0000-0000-0000-000000000000","email":"OwenSchillerClothingd@mailinator.com","status":"active","first_name":"Towne","last_name":"Kareem","twofa_enabled":false,"last_active":"2025-05-07T18:45:11.825Z","last_login":"2025-05-07T18:45:11.926Z","last_ip":"52.234.38.90","allowed_ips":null,"last_timezone":"America/Los_Angeles","last_location":"San Jose","phone":null,"review":null,"gender":null,"date_of_birth":null,"cba_id":null,"photo_id":null,"referral_code":"5BJ3X3","referred_by":"019372de-17ef-7cc2-8fc0-43fe11ba042f"},"events":[]}],"meta":{"page":1,"total_pages":11,"total_items":101}}