{"status":"success","data":[{"id":"019541ed-8e64-7888-aabc-1dd0f96d2404","meta":null,"created_on":"2025-02-26T11:04:02.405Z","created_by_id":"019372de-17ef-7cc2-8fc0-43fe11ba042f","modified_on":"2025-02-26T11:04:06.123Z","modified_by_id":"019372de-17ef-7cc2-8fc0-43fe11ba042f","deleted_on":null,"deleted_by_id":null,"tenant_id":"00000000-0000-0000-0000-000000000000","account_id":"0193a699-2f15-7881-8b7f-ae50980bcfad","profile_id":"0193a649-e3d0-7881-8b7f-2ef1d89a9aff","cba_id":"3533","currency":"NGN","amount":"10.00","balance_after":null,"reference":"T0IWQK2LZFL4","processor_reference":null,"processor_status":null,"processor_message":null,"status":"success","entry_type":"debit","narration":"","transaction_date":"2025-02-26T11:04:02.404Z","transaction_type":"fee","processor":"cba","reviewed_on":null,"reviewed_by":null,"batch_id":null,"schedule_id":null,"account":{"id":"0193a699-2f15-7881-8b7f-ae50980bcfad","meta":null,"created_on":"2024-12-08T14:07:57.204Z","created_by_id":null,"modified_on":"2025-02-26T18:47:29.812Z","modified_by_id":"019372de-17ef-7cc2-8fc0-43fe11ba042f","deleted_on":null,"deleted_by_id":null,"tenant_id":"00000000-0000-0000-0000-000000000000","name":"expenses","type":"account","cba_id":"0000000074","status":"active","profile_id":"0193a649-e3d0-7881-8b7f-2ef1d89a9aff","account_number":"0000000074","bank_id":"0193324f-cad0-7f86-923b-43fb21ac5b29","ledger_balance":709894081.44,"hold_balance":0,"available_balance":709894081.44,"currency":"NGN","restricted":false},"transfer":null,"disputes":[],"batch":null,"transfer_beneficiary":null,"bill_payment_beneficiary":null},{"id":"019541ed-8e51-7888-aabc-0cbbcd3e690f","meta":null,"created_on":"2025-02-26T11:04:02.385Z","created_by_id":"019372de-17ef-7cc2-8fc0-43fe11ba042f","modified_on":"2025-02-26T11:04:02.385Z","modified_by_id":"019372de-17ef-7cc2-8fc0-43fe11ba042f","deleted_on":null,"deleted_by_id":null,"tenant_id":"00000000-0000-0000-0000-000000000000","account_id":"0193a699-2f15-7881-8b7f-ae50980bcfad","profile_id":"0193a649-e3d0-7881-8b7f-2ef1d89a9aff","cba_id":"480","currency":"NGN","amount":"10000.00","balance_after":null,"reference":"T0IWQK2LZFL4","processor_reference":null,"processor_status":null,"processor_message":null,"status":"processing","entry_type":"debit","narration":"","transaction_date":"2025-02-26T11:04:02.318Z","transaction_type":"transfer","processor":"nip","reviewed_on":null,"reviewed_by":null,"batch_id":null,"schedule_id":null,"account":{"id":"0193a699-2f15-7881-8b7f-ae50980bcfad","meta":null,"created_on":"2024-12-08T14:07:57.204Z","created_by_id":null,"modified_on":"2025-02-26T18:47:29.816Z","modified_by_id":"019372de-17ef-7cc2-8fc0-43fe11ba042f","deleted_on":null,"deleted_by_id":null,"tenant_id":"00000000-0000-0000-0000-000000000000","name":"expenses","type":"account","cba_id":"0000000074","status":"active","profile_id":"0193a649-e3d0-7881-8b7f-2ef1d89a9aff","account_number":"0000000074","bank_id":"0193324f-cad0-7f86-923b-43fb21ac5b29","ledger_balance":709894081.44,"hold_balance":0,"available_balance":709894081.44,"currency":"NGN","restricted":false},"transfer":{"id":"019541ed-8e58-7888-aabc-10a313d97032","meta":null,"created_on":"2025-02-26T11:04:02.385Z","created_by_id":"019372de-17ef-7cc2-8fc0-43fe11ba042f","modified_on":"2025-02-26T11:04:02.385Z","modified_by_id":null,"deleted_on":null,"deleted_by_id":null,"tenant_id":"00000000-0000-0000-0000-000000000000","bank_code":"050030","bank_name":"NORTHQUEST FINANCE COMPANY LIMITED ","bank_logo":"https://cdn.prod.website-files.com/67342b6ac3243e10a48bee9d/673b02614b7fc0a77c0172b2_NorthQuest%20Finance%20%20Logo-p-500.png","account_name":"Fred Teslim","account_number":"8138092311","profile_id":"0193a649-e3d0-7881-8b7f-2ef1d89a9aff","transaction_id":"019541ed-8e51-7888-aabc-0cbbcd3e690f","account_id":"0193a699-2f15-7881-8b7f-ae50980bcfad"},"disputes":[],"batch":null,"transfer_beneficiary":null,"bill_payment_beneficiary":null},{"id":"01953f38-f8a1-7111-8e58-a8fb54372f21","meta":null,"created_on":"2025-02-25T22:27:33.153Z","created_by_id":"019372de-17ef-7cc2-8fc0-43fe11ba042f","modified_on":"2025-02-25T22:27:35.913Z","modified_by_id":"019372de-17ef-7cc2-8fc0-43fe11ba042f","deleted_on":null,"deleted_by_id":null,"tenant_id":"00000000-0000-0000-0000-000000000000","account_id":"0193a699-2f15-7881-8b7f-ae50980bcfad","profile_id":"0193a649-e3d0-7881-8b7f-2ef1d89a9aff","cba_id":"3532","currency":"NGN","amount":"10.00","balance_after":null,"reference":"T10REU2GG0YS","processor_reference":null,"processor_status":null,"processor_message":null,"status":"success","entry_type":"debit","narration":"","transaction_date":"2025-02-25T22:27:33.152Z","transaction_type":"fee","processor":"cba","reviewed_on":null,"reviewed_by":null,"batch_id":null,"schedule_id":null,"account":{"id":"0193a699-2f15-7881-8b7f-ae50980bcfad","meta":null,"created_on":"2024-12-08T14:07:57.204Z","created_by_id":null,"modified_on":"2025-02-26T18:47:29.878Z","modified_by_id":"019372de-17ef-7cc2-8fc0-43fe11ba042f","deleted_on":null,"deleted_by_id":null,"tenant_id":"00000000-0000-0000-0000-000000000000","name":"expenses","type":"account","cba_id":"0000000074","status":"active","profile_id":"0193a649-e3d0-7881-8b7f-2ef1d89a9aff","account_number":"0000000074","bank_id":"0193324f-cad0-7f86-923b-43fb21ac5b29","ledger_balance":709894081.44,"hold_balance":0,"available_balance":709894081.44,"currency":"NGN","restricted":false},"transfer":null,"disputes":[],"batch":null,"transfer_beneficiary":null,"bill_payment_beneficiary":null},{"id":"01953f38-f894-7111-8e58-9e4ff9005114","meta":null,"created_on":"2025-02-25T22:27:33.140Z","created_by_id":"019372de-17ef-7cc2-8fc0-43fe11ba042f","modified_on":"2025-02-25T22:27:35.906Z","modified_by_id":"019372de-17ef-7cc2-8fc0-43fe11ba042f","deleted_on":null,"deleted_by_id":null,"tenant_id":"00000000-0000-0000-0000-000000000000","account_id":"0193a699-2f15-7881-8b7f-ae50980bcfad","profile_id":"0193a649-e3d0-7881-8b7f-2ef1d89a9aff","cba_id":"3531","currency":"NGN","amount":"3000.00","balance_after":null,"reference":"T10REU2GG0YS","processor_reference":null,"processor_status":null,"processor_message":null,"status":"success","entry_type":"debit","narration":"","transaction_date":"2025-02-25T22:27:33.123Z","transaction_type":"transfer","processor":"nip","reviewed_on":null,"reviewed_by":null,"batch_id":null,"schedule_id":null,"account":{"id":"0193a699-2f15-7881-8b7f-ae50980bcfad","meta":null,"created_on":"2024-12-08T14:07:57.204Z","created_by_id":null,"modified_on":"2025-02-26T18:47:29.880Z","modified_by_id":"019372de-17ef-7cc2-8fc0-43fe11ba042f","deleted_on":null,"deleted_by_id":null,"tenant_id":"00000000-0000-0000-0000-000000000000","name":"expenses","type":"account","cba_id":"0000000074","status":"active","profile_id":"0193a649-e3d0-7881-8b7f-2ef1d89a9aff","account_number":"0000000074","bank_id":"0193324f-cad0-7f86-923b-43fb21ac5b29","ledger_balance":709894081.44,"hold_balance":0,"available_balance":709894081.44,"currency":"NGN","restricted":false},"transfer":{"id":"01953f38-f898-7111-8e58-a71deb86b15f","meta":null,"created_on":"2025-02-25T22:27:33.140Z","created_by_id":"019372de-17ef-7cc2-8fc0-43fe11ba042f","modified_on":"2025-02-25T22:27:33.140Z","modified_by_id":null,"deleted_on":null,"deleted_by_id":null,"tenant_id":"00000000-0000-0000-0000-000000000000","bank_code":"000007","bank_name":"Fidelity Bank","bank_logo":"https://lendstack-s3.s3.us-east-2.amazonaws.com/bank_logos/070.png","account_name":"John Doe","account_number":"1234567899","profile_id":"0193a649-e3d0-7881-8b7f-2ef1d89a9aff","transaction_id":"01953f38-f894-7111-8e58-9e4ff9005114","account_id":"0193a699-2f15-7881-8b7f-ae50980bcfad"},"disputes":[],"batch":null,"transfer_beneficiary":null,"bill_payment_beneficiary":null},{"id":"01953f32-468d-7111-8e58-4ca2797f7b1d","meta":null,"created_on":"2025-02-25T22:20:14.349Z","created_by_id":"019372de-17ef-7cc2-8fc0-43fe11ba042f","modified_on":"2025-02-25T22:20:17.909Z","modified_by_id":"019372de-17ef-7cc2-8fc0-43fe11ba042f","deleted_on":null,"deleted_by_id":null,"tenant_id":"00000000-0000-0000-0000-000000000000","account_id":"0193a699-2f15-7881-8b7f-ae50980bcfad","profile_id":"0193a649-e3d0-7881-8b7f-2ef1d89a9aff","cba_id":"3530","currency":"NGN","amount":"10.00","balance_after":null,"reference":"TTR6K8GV231F","processor_reference":null,"processor_status":null,"processor_message":null,"status":"success","entry_type":"debit","narration":"","transaction_date":"2025-02-25T22:20:14.348Z","transaction_type":"fee","processor":"cba","reviewed_on":null,"reviewed_by":null,"batch_id":null,"schedule_id":null,"account":{"id":"0193a699-2f15-7881-8b7f-ae50980bcfad","meta":null,"created_on":"2024-12-08T14:07:57.204Z","created_by_id":null,"modified_on":"2025-02-26T18:47:29.862Z","modified_by_id":"019372de-17ef-7cc2-8fc0-43fe11ba042f","deleted_on":null,"deleted_by_id":null,"tenant_id":"00000000-0000-0000-0000-000000000000","name":"expenses","type":"account","cba_id":"0000000074","status":"active","profile_id":"0193a649-e3d0-7881-8b7f-2ef1d89a9aff","account_number":"0000000074","bank_id":"0193324f-cad0-7f86-923b-43fb21ac5b29","ledger_balance":709894081.44,"hold_balance":0,"available_balance":709894081.44,"currency":"NGN","restricted":false},"transfer":null,"disputes":[],"batch":null,"transfer_beneficiary":null,"bill_payment_beneficiary":null},{"id":"01953f32-4680-7111-8e58-323005dcaaf3","meta":null,"created_on":"2025-02-25T22:20:14.336Z","created_by_id":"019372de-17ef-7cc2-8fc0-43fe11ba042f","modified_on":"2025-02-25T22:20:17.905Z","modified_by_id":"019372de-17ef-7cc2-8fc0-43fe11ba042f","deleted_on":null,"deleted_by_id":null,"tenant_id":"00000000-0000-0000-0000-000000000000","account_id":"0193a699-2f15-7881-8b7f-ae50980bcfad","profile_id":"0193a649-e3d0-7881-8b7f-2ef1d89a9aff","cba_id":"3529","currency":"NGN","amount":"5000.00","balance_after":null,"reference":"TTR6K8GV231F","processor_reference":null,"processor_status":null,"processor_message":null,"status":"success","entry_type":"debit","narration":"","transaction_date":"2025-02-25T22:20:14.327Z","transaction_type":"transfer","processor":"nip","reviewed_on":null,"reviewed_by":null,"batch_id":null,"schedule_id":null,"account":{"id":"0193a699-2f15-7881-8b7f-ae50980bcfad","meta":null,"created_on":"2024-12-08T14:07:57.204Z","created_by_id":null,"modified_on":"2025-02-26T18:47:29.889Z","modified_by_id":"019372de-17ef-7cc2-8fc0-43fe11ba042f","deleted_on":null,"deleted_by_id":null,"tenant_id":"00000000-0000-0000-0000-000000000000","name":"expenses","type":"account","cba_id":"0000000074","status":"active","profile_id":"0193a649-e3d0-7881-8b7f-2ef1d89a9aff","account_number":"0000000074","bank_id":"0193324f-cad0-7f86-923b-43fb21ac5b29","ledger_balance":709894081.44,"hold_balance":0,"available_balance":709894081.44,"currency":"NGN","restricted":false},"transfer":{"id":"01953f32-4684-7111-8e58-3ddeba345da6","meta":null,"created_on":"2025-02-25T22:20:14.336Z","created_by_id":"019372de-17ef-7cc2-8fc0-43fe11ba042f","modified_on":"2025-02-25T22:20:14.336Z","modified_by_id":null,"deleted_on":null,"deleted_by_id":null,"tenant_id":"00000000-0000-0000-0000-000000000000","bank_code":"000014","bank_name":"Access Bank","bank_logo":"https://lendstack-s3.s3.us-east-2.amazonaws.com/bank_logos/044.png","account_name":"John Doe","account_number":"5680166012","profile_id":"0193a649-e3d0-7881-8b7f-2ef1d89a9aff","transaction_id":"01953f32-4680-7111-8e58-323005dcaaf3","account_id":"0193a699-2f15-7881-8b7f-ae50980bcfad"},"disputes":[],"batch":null,"transfer_beneficiary":{"id":"01953f32-4687-7111-8e58-45910d5fa9aa","meta":null,"created_on":"2025-02-25T22:20:14.336Z","created_by_id":"019372de-17ef-7cc2-8fc0-43fe11ba042f","modified_on":"2025-02-25T22:20:14.336Z","modified_by_id":null,"deleted_on":null,"deleted_by_id":null,"tenant_id":"00000000-0000-0000-0000-000000000000","transaction_id":"01953f32-4680-7111-8e58-323005dcaaf3","beneficiary_id":"0194b87c-20fa-7bb8-88ea-631daa0e36cb","beneficiary":{"id":"0194b87c-20fa-7bb8-88ea-631daa0e36cb","meta":null,"created_on":"2025-01-30T18:32:10.234Z","created_by_id":"019372de-17ef-7cc2-8fc0-43fe11ba042f","modified_on":"2025-01-30T18:32:10.234Z","modified_by_id":null,"deleted_on":null,"deleted_by_id":null,"tenant_id":"00000000-0000-0000-0000-000000000000","bank_code":"000014","bank_name":"Access Bank","account_number":"5680166012","account_name":"John Doe","profile_id":"0193a649-e3d0-7881-8b7f-2ef1d89a9aff"}},"bill_payment_beneficiary":null},{"id":"01953f28-0005-7111-8e57-f49028658e2e","meta":null,"created_on":"2025-02-25T22:09:00.933Z","created_by_id":"019372de-17ef-7cc2-8fc0-43fe11ba042f","modified_on":"2025-02-25T22:09:05.597Z","modified_by_id":"019372de-17ef-7cc2-8fc0-43fe11ba042f","deleted_on":null,"deleted_by_id":null,"tenant_id":"00000000-0000-0000-0000-000000000000","account_id":"0193a699-2f15-7881-8b7f-ae50980bcfad","profile_id":"0193a649-e3d0-7881-8b7f-2ef1d89a9aff","cba_id":"3528","currency":"NGN","amount":"10.00","balance_after":null,"reference":"T3AR2JGZ7KZ5","processor_reference":null,"processor_status":null,"processor_message":null,"status":"success","entry_type":"debit","narration":"bulk transfer","transaction_date":"2025-02-25T22:09:00.932Z","transaction_type":"fee","processor":"cba","reviewed_on":null,"reviewed_by":null,"batch_id":null,"schedule_id":null,"account":{"id":"0193a699-2f15-7881-8b7f-ae50980bcfad","meta":null,"created_on":"2024-12-08T14:07:57.204Z","created_by_id":null,"modified_on":"2025-02-26T18:47:29.886Z","modified_by_id":"019372de-17ef-7cc2-8fc0-43fe11ba042f","deleted_on":null,"deleted_by_id":null,"tenant_id":"00000000-0000-0000-0000-000000000000","name":"expenses","type":"account","cba_id":"0000000074","status":"active","profile_id":"0193a649-e3d0-7881-8b7f-2ef1d89a9aff","account_number":"0000000074","bank_id":"0193324f-cad0-7f86-923b-43fb21ac5b29","ledger_balance":709894081.44,"hold_balance":0,"available_balance":709894081.44,"currency":"NGN","restricted":false},"transfer":null,"disputes":[],"batch":null,"transfer_beneficiary":null,"bill_payment_beneficiary":null},{"id":"01953f27-ffa9-7111-8e57-dd82bb641f09","meta":null,"created_on":"2025-02-25T22:09:00.840Z","created_by_id":"019372de-17ef-7cc2-8fc0-43fe11ba042f","modified_on":"2025-02-25T22:09:05.584Z","modified_by_id":"019372de-17ef-7cc2-8fc0-43fe11ba042f","deleted_on":null,"deleted_by_id":null,"tenant_id":"00000000-0000-0000-0000-000000000000","account_id":"0193a699-2f15-7881-8b7f-ae50980bcfad","profile_id":"0193a649-e3d0-7881-8b7f-2ef1d89a9aff","cba_id":"3527","currency":"NGN","amount":"2000.00","balance_after":null,"reference":"T3AR2JGZ7KZ5","processor_reference":null,"processor_status":null,"processor_message":null,"status":"success","entry_type":"debit","narration":"bulk transfer","transaction_date":"2025-02-25T22:09:00.833Z","transaction_type":"transfer","processor":"nip","reviewed_on":null,"reviewed_by":null,"batch_id":null,"schedule_id":null,"account":{"id":"0193a699-2f15-7881-8b7f-ae50980bcfad","meta":null,"created_on":"2024-12-08T14:07:57.204Z","created_by_id":null,"modified_on":"2025-02-26T18:47:29.891Z","modified_by_id":"019372de-17ef-7cc2-8fc0-43fe11ba042f","deleted_on":null,"deleted_by_id":null,"tenant_id":"00000000-0000-0000-0000-000000000000","name":"expenses","type":"account","cba_id":"0000000074","status":"active","profile_id":"0193a649-e3d0-7881-8b7f-2ef1d89a9aff","account_number":"0000000074","bank_id":"0193324f-cad0-7f86-923b-43fb21ac5b29","ledger_balance":709894081.44,"hold_balance":0,"available_balance":709894081.44,"currency":"NGN","restricted":false},"transfer":{"id":"01953f27-fff7-7111-8e57-e1a90850f7eb","meta":null,"created_on":"2025-02-25T22:09:00.840Z","created_by_id":"019372de-17ef-7cc2-8fc0-43fe11ba042f","modified_on":"2025-02-25T22:09:00.840Z","modified_by_id":null,"deleted_on":null,"deleted_by_id":null,"tenant_id":"00000000-0000-0000-0000-000000000000","bank_code":"000014","bank_name":"Access Bank","bank_logo":"https://lendstack-s3.s3.us-east-2.amazonaws.com/bank_logos/044.png","account_name":"John Doe","account_number":"5680166012","profile_id":"0193a649-e3d0-7881-8b7f-2ef1d89a9aff","transaction_id":"01953f27-ffa9-7111-8e57-dd82bb641f09","account_id":"0193a699-2f15-7881-8b7f-ae50980bcfad"},"disputes":[],"batch":null,"transfer_beneficiary":{"id":"01953f27-fffb-7111-8e57-ea819a0ddfdd","meta":null,"created_on":"2025-02-25T22:09:00.840Z","created_by_id":"019372de-17ef-7cc2-8fc0-43fe11ba042f","modified_on":"2025-02-25T22:09:00.840Z","modified_by_id":null,"deleted_on":null,"deleted_by_id":null,"tenant_id":"00000000-0000-0000-0000-000000000000","transaction_id":"01953f27-ffa9-7111-8e57-dd82bb641f09","beneficiary_id":"0194b87c-20fa-7bb8-88ea-631daa0e36cb","beneficiary":{"id":"0194b87c-20fa-7bb8-88ea-631daa0e36cb","meta":null,"created_on":"2025-01-30T18:32:10.234Z","created_by_id":"019372de-17ef-7cc2-8fc0-43fe11ba042f","modified_on":"2025-01-30T18:32:10.234Z","modified_by_id":null,"deleted_on":null,"deleted_by_id":null,"tenant_id":"00000000-0000-0000-0000-000000000000","bank_code":"000014","bank_name":"Access Bank","account_number":"5680166012","account_name":"John Doe","profile_id":"0193a649-e3d0-7881-8b7f-2ef1d89a9aff"}},"bill_payment_beneficiary":null},{"id":"01953d9f-0760-7776-9757-6eb9f77fae59","meta":null,"created_on":"2025-02-25T14:59:47.098Z","created_by_id":"019372de-17ef-7cc2-8fc0-43fe11ba042f","modified_on":"2025-02-25T14:59:47.098Z","modified_by_id":null,"deleted_on":null,"deleted_by_id":null,"tenant_id":"00000000-0000-0000-0000-000000000000","account_id":"0193a699-2f15-7881-8b7f-ae50980bcfad","profile_id":"0193a649-e3d0-7881-8b7f-2ef1d89a9aff","cba_id":null,"currency":"NGN","amount":"100.00","balance_after":null,"reference":"Tgsgtnvcsrn","processor_reference":null,"processor_status":null,"processor_message":null,"status":"processing","entry_type":"debit","narration":"","transaction_date":"2025-02-25T14:59:47.168Z","transaction_type":"transfer","processor":"nip","reviewed_on":null,"reviewed_by":null,"batch_id":"01953d9f-071b-7776-9757-6255006adf31","schedule_id":null,"account":{"id":"0193a699-2f15-7881-8b7f-ae50980bcfad","meta":null,"created_on":"2024-12-08T14:07:57.204Z","created_by_id":null,"modified_on":"2025-02-26T18:47:29.958Z","modified_by_id":"019372de-17ef-7cc2-8fc0-43fe11ba042f","deleted_on":null,"deleted_by_id":null,"tenant_id":"00000000-0000-0000-0000-000000000000","name":"expenses","type":"account","cba_id":"0000000074","status":"active","profile_id":"0193a649-e3d0-7881-8b7f-2ef1d89a9aff","account_number":"0000000074","bank_id":"0193324f-cad0-7f86-923b-43fb21ac5b29","ledger_balance":709894081.44,"hold_balance":0,"available_balance":709894081.44,"currency":"NGN","restricted":false},"transfer":{"id":"01953d9f-0766-7776-9757-7256195c92bc","meta":null,"created_on":"2025-02-25T14:59:47.098Z","created_by_id":"019372de-17ef-7cc2-8fc0-43fe11ba042f","modified_on":"2025-02-25T14:59:47.098Z","modified_by_id":null,"deleted_on":null,"deleted_by_id":null,"tenant_id":"00000000-0000-0000-0000-000000000000","bank_code":"000014","bank_name":"Access Bank","bank_logo":"https://lendstack-s3.s3.us-east-2.amazonaws.com/bank_logos/044.png","account_name":"John Doe","account_number":"0008563215","profile_id":"0193a649-e3d0-7881-8b7f-2ef1d89a9aff","transaction_id":"01953d9f-0760-7776-9757-6eb9f77fae59","account_id":"0193a699-2f15-7881-8b7f-ae50980bcfad"},"disputes":[],"batch":{"id":"01953d9f-071b-7776-9757-6255006adf31","meta":null,"created_on":"2025-02-25T14:59:47.098Z","created_by_id":"019372de-17ef-7cc2-8fc0-43fe11ba042f","modified_on":"2025-02-25T14:59:47.098Z","modified_by_id":null,"deleted_on":null,"deleted_by_id":null,"tenant_id":"00000000-0000-0000-0000-000000000000","status":"approved","name":null},"transfer_beneficiary":null,"bill_payment_beneficiary":null},{"id":"01953d8e-acb0-7776-9755-bd803a5f7a37","meta":null,"created_on":"2025-02-25T14:41:55.374Z","created_by_id":"019372de-17ef-7cc2-8fc0-43fe11ba042f","modified_on":"2025-02-25T14:41:58.910Z","modified_by_id":"019372de-17ef-7cc2-8fc0-43fe11ba042f","deleted_on":null,"deleted_by_id":null,"tenant_id":"00000000-0000-0000-0000-000000000000","account_id":"0193a699-2f15-7881-8b7f-ae50980bcfad","profile_id":"0193a649-e3d0-7881-8b7f-2ef1d89a9aff","cba_id":"3508","currency":"NGN","amount":"10.00","balance_after":null,"reference":"Taooglgijdf","processor_reference":null,"processor_status":null,"processor_message":null,"status":"success","entry_type":"debit","narration":"","transaction_date":"2025-02-25T14:41:55.374Z","transaction_type":"fee","processor":"cba","reviewed_on":null,"reviewed_by":null,"batch_id":null,"schedule_id":null,"account":{"id":"0193a699-2f15-7881-8b7f-ae50980bcfad","meta":null,"created_on":"2024-12-08T14:07:57.204Z","created_by_id":null,"modified_on":"2025-02-26T18:47:29.946Z","modified_by_id":"019372de-17ef-7cc2-8fc0-43fe11ba042f","deleted_on":null,"deleted_by_id":null,"tenant_id":"00000000-0000-0000-0000-000000000000","name":"expenses","type":"account","cba_id":"0000000074","status":"active","profile_id":"0193a649-e3d0-7881-8b7f-2ef1d89a9aff","account_number":"0000000074","bank_id":"0193324f-cad0-7f86-923b-43fb21ac5b29","ledger_balance":709894081.44,"hold_balance":0,"available_balance":709894081.44,"currency":"NGN","restricted":false},"transfer":null,"disputes":[],"batch":null,"transfer_beneficiary":null,"bill_payment_beneficiary":null}],"meta":{"page":1,"total_pages":93,"total_items":924}}