{"status":"success","data":[{"id":"01953d42-8bf4-7776-973e-1552c596d3c9","meta":null,"created_on":"2025-02-25T13:18:46.260Z","created_by_id":"019372de-17ef-7cc2-8fc0-43fe11ba042f","modified_on":"2025-02-25T13:20:02.914Z","modified_by_id":"019372de-17ef-7cc2-8fc0-43fe11ba042f","deleted_on":null,"deleted_by_id":null,"tenant_id":"00000000-0000-0000-0000-000000000000","profile_id":"0193a649-e3d0-7881-8b7f-2ef1d89a9aff","status":"approved","command":"TransferCommand","command_data":{"account_id":"0193a699-2f15-7881-8b7f-ae50980bcfad","data":{"account_number":"0000000432","bank_code":"050030","amount":20000,"pin":"1234","narration":"","account_name":"Profile","bank_name":"NORTHQUEST"}},"maker_id":"019372de-17ef-7cc2-8fc0-43fe11ba042f","made_on":"2025-02-25T13:18:46.260Z","checker_id":"019372de-17ef-7cc2-8fc0-43fe11ba042f","checked_on":null,"maker_checker_id":"0193df18-702c-7ddc-9298-482c857161b9","reason":null},{"id":"01953d2e-950b-7776-973a-60f74b166c1d","meta":null,"created_on":"2025-02-25T12:56:57.866Z","created_by_id":"019372de-17ef-7cc2-8fc0-43fe11ba042f","modified_on":"2025-02-25T12:56:57.866Z","modified_by_id":null,"deleted_on":null,"deleted_by_id":null,"tenant_id":"00000000-0000-0000-0000-000000000000","profile_id":"0193a649-e3d0-7881-8b7f-2ef1d89a9aff","status":"pending","command":"ScheduleBillPaymentCommand","command_data":{"data":{"type":"bill-payment","start_date":"2025-02-26T00:00:00.000Z","amount":500,"frequency":"daily","category_id":"airtime","account_number":"09030253741","account_id":"0193a699-2f15-7881-8b7f-ae50980bcfad","biller_id":"mtn","pin":"1234","logo_url":"https://baxi-biller-pod-images.s3.eu-west-1.amazonaws.com/images/mtn.png","end_date":"2025-02-27T00:00:00.000Z"}},"maker_id":"019372de-17ef-7cc2-8fc0-43fe11ba042f","made_on":"2025-02-25T12:56:57.865Z","checker_id":null,"checked_on":null,"maker_checker_id":"0193df18-702c-7ddc-9298-482c857161b9","reason":null},{"id":"01953d2d-3f3a-7776-973a-5da73e25baee","meta":null,"created_on":"2025-02-25T12:55:30.362Z","created_by_id":"019372de-17ef-7cc2-8fc0-43fe11ba042f","modified_on":"2025-02-25T12:55:30.362Z","modified_by_id":null,"deleted_on":null,"deleted_by_id":null,"tenant_id":"00000000-0000-0000-0000-000000000000","profile_id":"0193a649-e3d0-7881-8b7f-2ef1d89a9aff","status":"pending","command":"ScheduleBillPaymentCommand","command_data":{"data":{"type":"bill-payment","start_date":"2025-02-26T00:00:00.000Z","amount":500,"frequency":"daily","category_id":"airtime","account_number":"09030253741","account_id":"0193a699-2f15-7881-8b7f-ae50980bcfad","biller_id":"mtn","pin":"1234","logo_url":"https://baxi-biller-pod-images.s3.eu-west-1.amazonaws.com/images/mtn.png","end_date":"2025-02-27T00:00:00.000Z"}},"maker_id":"019372de-17ef-7cc2-8fc0-43fe11ba042f","made_on":"2025-02-25T12:55:30.361Z","checker_id":null,"checked_on":null,"maker_checker_id":"0193df18-702c-7ddc-9298-482c857161b9","reason":null},{"id":"01953d2c-9168-7776-973a-54d98458c3f9","meta":null,"created_on":"2025-02-25T12:54:45.862Z","created_by_id":"019372de-17ef-7cc2-8fc0-43fe11ba042f","modified_on":"2025-02-25T12:54:45.862Z","modified_by_id":null,"deleted_on":null,"deleted_by_id":null,"tenant_id":"00000000-0000-0000-0000-000000000000","profile_id":"0193a649-e3d0-7881-8b7f-2ef1d89a9aff","status":"pending","command":"ScheduleBillPaymentCommand","command_data":{"data":{"type":"bill-payment","start_date":"2025-02-26T00:00:00.000Z","amount":500,"frequency":"daily","category_id":"airtime","account_number":"09030253741","account_id":"0193a699-2f15-7881-8b7f-ae50980bcfad","biller_id":"mtn","pin":"1234","logo_url":"https://baxi-biller-pod-images.s3.eu-west-1.amazonaws.com/images/mtn.png","end_date":"2025-02-27T00:00:00.000Z"}},"maker_id":"019372de-17ef-7cc2-8fc0-43fe11ba042f","made_on":"2025-02-25T12:54:45.861Z","checker_id":null,"checked_on":null,"maker_checker_id":"0193df18-702c-7ddc-9298-482c857161b9","reason":null},{"id":"01953d29-6942-7776-973a-2eb6b46b4809","meta":null,"created_on":"2025-02-25T12:51:18.978Z","created_by_id":"019372de-17ef-7cc2-8fc0-43fe11ba042f","modified_on":"2025-02-25T12:51:18.978Z","modified_by_id":null,"deleted_on":null,"deleted_by_id":null,"tenant_id":"00000000-0000-0000-0000-000000000000","profile_id":"0193a649-e3d0-7881-8b7f-2ef1d89a9aff","status":"pending","command":"PayBillPaymentCommand","command_data":{"categoryId":"airtime","billerId":"mtn","data":{"account_number":"09030253741","amount":500,"pin":"1234","account_id":"0193a699-2f15-7881-8b7f-ae50980bcfad","logo_url":"https://baxi-biller-pod-images.s3.eu-west-1.amazonaws.com/images/mtn.png"}},"maker_id":"019372de-17ef-7cc2-8fc0-43fe11ba042f","made_on":"2025-02-25T12:51:18.978Z","checker_id":null,"checked_on":null,"maker_checker_id":"0193df18-702c-7ddc-9298-482c857161b9","reason":null},{"id":"01953d09-db99-733b-86b7-fd5d5d172ec1","meta":null,"created_on":"2025-02-25T12:16:51.097Z","created_by_id":"019372de-17ef-7cc2-8fc0-43fe11ba042f","modified_on":"2025-02-25T12:16:51.097Z","modified_by_id":null,"deleted_on":null,"deleted_by_id":null,"tenant_id":"00000000-0000-0000-0000-000000000000","profile_id":"0193a649-e3d0-7881-8b7f-2ef1d89a9aff","status":"pending","command":"TransferCommand","command_data":{"account_id":"01951f87-391a-7aa2-a9dd-7c543ab757a9","data":{"account_number":"0112345678","amount":10,"bank_code":"082","pin":"1234"}},"maker_id":"019372de-17ef-7cc2-8fc0-43fe11ba042f","made_on":"2025-02-25T12:16:51.096Z","checker_id":null,"checked_on":null,"maker_checker_id":"0193df18-702c-7ddc-9298-482c857161b9","reason":null},{"id":"01953d08-6def-733b-86b7-bb9feeaddaea","meta":null,"created_on":"2025-02-25T12:15:17.487Z","created_by_id":"019372de-17ef-7cc2-8fc0-43fe11ba042f","modified_on":"2025-02-25T12:15:17.487Z","modified_by_id":null,"deleted_on":null,"deleted_by_id":null,"tenant_id":"00000000-0000-0000-0000-000000000000","profile_id":"0193a649-e3d0-7881-8b7f-2ef1d89a9aff","status":"pending","command":"TransferCommand","command_data":{"account_id":"0193a699-2f15-7881-8b7f-ae50980bcfad","data":{"account_number":"8139354433","amount":100,"bank_code":"050030","pin":"1234"}},"maker_id":"019372de-17ef-7cc2-8fc0-43fe11ba042f","made_on":"2025-02-25T12:15:17.487Z","checker_id":null,"checked_on":null,"maker_checker_id":"0193df18-702c-7ddc-9298-482c857161b9","reason":null},{"id":"01953cff-675f-733b-86b7-77a0364cdddc","meta":null,"created_on":"2025-02-25T12:05:25.984Z","created_by_id":"019372de-17ef-7cc2-8fc0-43fe11ba042f","modified_on":"2025-02-25T12:05:25.984Z","modified_by_id":null,"deleted_on":null,"deleted_by_id":null,"tenant_id":"00000000-0000-0000-0000-000000000000","profile_id":"0193a649-e3d0-7881-8b7f-2ef1d89a9aff","status":"pending","command":"PayBillPaymentCommand","command_data":{"categoryId":"airtime","billerId":"mtn","data":{"account_number":"09055755671","amount":2000,"option_id":"","pin":"1234","account_id":"0193a699-2f15-7881-8b7f-ae50980bcfad","account_name":"expenses"}},"maker_id":"019372de-17ef-7cc2-8fc0-43fe11ba042f","made_on":"2025-02-25T12:05:25.983Z","checker_id":null,"checked_on":null,"maker_checker_id":"0193df18-702c-7ddc-9298-482c857161b9","reason":null},{"id":"01953cfe-0e07-733b-86b7-3f79d0078fdf","meta":null,"created_on":"2025-02-25T12:03:57.575Z","created_by_id":"019372de-17ef-7cc2-8fc0-43fe11ba042f","modified_on":"2025-02-25T12:03:57.575Z","modified_by_id":null,"deleted_on":null,"deleted_by_id":null,"tenant_id":"00000000-0000-0000-0000-000000000000","profile_id":"0193a649-e3d0-7881-8b7f-2ef1d89a9aff","status":"pending","command":"TransferCommand","command_data":{"account_id":"0193a699-2f15-7881-8b7f-ae50980bcfad","data":{"account_number":"0000000074","amount":1000,"bank_code":"050030","pin":"1234"}},"maker_id":"019372de-17ef-7cc2-8fc0-43fe11ba042f","made_on":"2025-02-25T12:03:57.574Z","checker_id":null,"checked_on":null,"maker_checker_id":"0193df18-702c-7ddc-9298-482c857161b9","reason":null},{"id":"019536b8-22bf-7ccb-8a60-4999a8a244b1","meta":null,"created_on":"2025-02-24T06:49:52.063Z","created_by_id":"019372de-17ef-7cc2-8fc0-43fe11ba042f","modified_on":"2025-02-24T06:50:19.559Z","modified_by_id":"019372de-17ef-7cc2-8fc0-43fe11ba042f","deleted_on":null,"deleted_by_id":null,"tenant_id":"00000000-0000-0000-0000-000000000000","profile_id":"0193a649-e3d0-7881-8b7f-2ef1d89a9aff","status":"approved","command":"TransferCommand","command_data":{"account_id":"0193a699-2f15-7881-8b7f-ae50980bcfad","data":{"account_number":"9015660264","bank_code":"050030","amount":100000,"pin":"1234","narration":"Tests","account_name":"Clare Zeeyknow","bank_name":"NORTHQUEST"}},"maker_id":"019372de-17ef-7cc2-8fc0-43fe11ba042f","made_on":"2025-02-24T06:49:52.062Z","checker_id":"019372de-17ef-7cc2-8fc0-43fe11ba042f","checked_on":null,"maker_checker_id":"0193df18-702c-7ddc-9298-482c857161b9","reason":null}],"meta":{"page":1,"total_pages":48,"total_items":476}}