{"status":"success","data":[{"id":"0195fc85-8e82-7887-ab37-99e227af12ec","meta":{"rc-number":"0000000","business-name":"Neem","business-email":"hi@neem.co","business-phone":"+2349055755613","business-types":"Sole Proprietorship","business-address":"LAGOS, NIGERIA, LAGOS, Ibeju-Lekki, LAGOS"},"created_on":"2025-04-03T16:39:26.084Z","created_by_id":"0195fc84-c556-7887-ab37-850d7747490f","modified_on":"2025-04-03T16:39:26.084Z","modified_by_id":null,"deleted_on":null,"deleted_by_id":null,"tenant_id":"00000000-0000-0000-0000-000000000000","name":"","type":"business","status":"active","restricted":false,"review":null,"allowed_time_periods":null,"allowed_locations":null,"primary_user_id":"0195fc84-c556-7887-ab37-850d7747490f","tier_id":null,"primary_user":{"id":"0195fc84-c556-7887-ab37-850d7747490f","meta":null,"created_on":"2025-04-03T16:38:34.584Z","created_by_id":null,"modified_on":"2025-04-03T16:42:58.226Z","modified_by_id":"0195fc84-c556-7887-ab37-850d7747490f","deleted_on":null,"deleted_by_id":null,"tenant_id":"00000000-0000-0000-0000-000000000000","email":"baller@mailinator.com","status":"active","first_name":"Azeez","last_name":"Ibrahim","twofa_enabled":false,"last_active":"2025-04-03T16:42:58.224Z","last_ip":"162.158.23.200","allowed_ips":null,"last_timezone":"Europe/Paris","last_location":"Marseille","phone":"+2349066233261","review":null,"gender":null,"date_of_birth":null,"cba_id":null,"photo_id":null,"referral_code":"54LUM7","referred_by":null,"has_pin":false,"has_password":false},"tier":null},{"id":"0195fb63-f223-7887-ab30-ce6b407b432c","meta":null,"created_on":"2025-04-03T11:23:06.146Z","created_by_id":"019372de-17ef-7cc2-8fc0-43fe11ba042f","modified_on":"2025-04-03T11:23:06.146Z","modified_by_id":null,"deleted_on":null,"deleted_by_id":null,"tenant_id":"00000000-0000-0000-0000-000000000000","name":"Pagac Inc Business","type":"business","status":"active","restricted":false,"review":null,"allowed_time_periods":null,"allowed_locations":null,"primary_user_id":"019372de-17ef-7cc2-8fc0-43fe11ba042f","tier_id":null,"primary_user":{"id":"019372de-17ef-7cc2-8fc0-43fe11ba042f","meta":{},"created_on":"2024-11-28T13:02:58.029Z","created_by_id":null,"modified_on":"2025-04-04T18:03:49.807Z","modified_by_id":"019372de-17ef-7cc2-8fc0-43fe11ba042f","deleted_on":null,"deleted_by_id":null,"tenant_id":"00000000-0000-0000-0000-000000000000","email":"ismael@mailinator.com","status":"active","first_name":"Sunday","last_name":"Testing","twofa_enabled":false,"last_active":"2025-04-04T16:58:16.730Z","last_ip":"::1","allowed_ips":null,"last_timezone":"Europe/Paris","last_location":"Columbus","phone":"+2349055755671","review":null,"gender":"male","date_of_birth":null,"cba_id":"31","photo_id":null,"referral_code":"7LD1QN","referred_by":null,"has_pin":false,"has_password":false},"tier":null},{"id":"0195f7d4-ce41-7887-ab2a-beea8b78e08a","meta":null,"created_on":"2025-04-02T18:47:53.661Z","created_by_id":"0195d26a-2323-711c-8833-9e3f99ed4f85","modified_on":"2025-04-02T18:47:53.661Z","modified_by_id":null,"deleted_on":null,"deleted_by_id":null,"tenant_id":"00000000-0000-0000-0000-000000000000","name":"Padberg, Frami and Jakubowski Business","type":"business","status":"active","restricted":false,"review":null,"allowed_time_periods":null,"allowed_locations":null,"primary_user_id":"0195d26a-2323-711c-8833-9e3f99ed4f85","tier_id":null,"primary_user":{"id":"0195d26a-2323-711c-8833-9e3f99ed4f85","meta":null,"created_on":"2025-03-26T12:25:26.050Z","created_by_id":null,"modified_on":"2025-04-02T18:49:09.931Z","modified_by_id":"0195d26a-2323-711c-8833-9e3f99ed4f85","deleted_on":null,"deleted_by_id":null,"tenant_id":"00000000-0000-0000-0000-000000000000","email":"boom@mailinator.com","status":"active","first_name":"Ibrahim","last_name":"Azeez","twofa_enabled":false,"last_active":"2025-04-02T18:49:09.934Z","last_ip":"162.158.186.230","allowed_ips":null,"last_timezone":"America/Los_Angeles","last_location":"","phone":"+2349058893837","review":null,"gender":"male","date_of_birth":"2001-06-16","cba_id":"140","photo_id":"0195d26a-e0b1-711c-8834-089bb7f9010d","referral_code":"PJ5R4O","referred_by":null,"has_pin":false,"has_password":false},"tier":null},{"id":"0195f7d2-1b84-7887-ab26-9a5fd5b8ce2f","meta":null,"created_on":"2025-04-02T18:44:56.832Z","created_by_id":"019372de-17ef-7cc2-8fc0-43fe11ba042f","modified_on":"2025-04-02T18:44:56.832Z","modified_by_id":null,"deleted_on":null,"deleted_by_id":null,"tenant_id":"00000000-0000-0000-0000-000000000000","name":"Terry, Rau and Streich Business","type":"business","status":"active","restricted":false,"review":null,"allowed_time_periods":null,"allowed_locations":null,"primary_user_id":"019372de-17ef-7cc2-8fc0-43fe11ba042f","tier_id":null,"primary_user":{"id":"019372de-17ef-7cc2-8fc0-43fe11ba042f","meta":{},"created_on":"2024-11-28T13:02:58.029Z","created_by_id":null,"modified_on":"2025-04-04T18:03:49.807Z","modified_by_id":"019372de-17ef-7cc2-8fc0-43fe11ba042f","deleted_on":null,"deleted_by_id":null,"tenant_id":"00000000-0000-0000-0000-000000000000","email":"ismael@mailinator.com","status":"active","first_name":"Sunday","last_name":"Testing","twofa_enabled":false,"last_active":"2025-04-04T16:58:16.730Z","last_ip":"::1","allowed_ips":null,"last_timezone":"Europe/Paris","last_location":"Columbus","phone":"+2349055755671","review":null,"gender":"male","date_of_birth":null,"cba_id":"31","photo_id":null,"referral_code":"7LD1QN","referred_by":null,"has_pin":false,"has_password":false},"tier":null},{"id":"0195f7ca-5a7f-7887-ab25-6094f98eab34","meta":{"rc-number":"0000000","business-name":"Neem","business-email":"hi@neem.co","business-phone":"+23409055755671","business-types":"Partnership","business-address":"LAGOS, NIGERIA, LAGOS, Ibeju-Lekki, LAGOS"},"created_on":"2025-04-02T18:36:28.666Z","created_by_id":"0195573e-3a19-7dd1-9966-7b756b042953","modified_on":"2025-04-02T18:36:28.666Z","modified_by_id":null,"deleted_on":null,"deleted_by_id":null,"tenant_id":"00000000-0000-0000-0000-000000000000","name":"","type":"business","status":"active","restricted":false,"review":null,"allowed_time_periods":null,"allowed_locations":null,"primary_user_id":"0195573e-3a19-7dd1-9966-7b756b042953","tier_id":null,"primary_user":{"id":"0195573e-3a19-7dd1-9966-7b756b042953","meta":null,"created_on":"2025-03-02T14:24:10.777Z","created_by_id":null,"modified_on":"2025-04-04T09:26:38.999Z","modified_by_id":"0195573e-3a19-7dd1-9966-7b756b042953","deleted_on":null,"deleted_by_id":null,"tenant_id":"00000000-0000-0000-0000-000000000000","email":"azeez+89@assurdly.com","status":"active","first_name":"Ibrahim","last_name":"Azeez","twofa_enabled":false,"last_active":"2025-04-04T09:26:38.995Z","last_ip":"162.158.22.238","allowed_ips":null,"last_timezone":"Europe/Paris","last_location":"Marseille","phone":"+2349055755699","review":null,"gender":"male","date_of_birth":"2001-06-16","cba_id":"103","photo_id":"0195f78f-bb58-7887-ab24-f559cf0c8b90","referral_code":"M6AL7D","referred_by":null,"has_pin":false,"has_password":false},"tier":null},{"id":"0195f52a-838a-7887-ab19-cc84763e8e42","meta":null,"created_on":"2025-04-02T06:22:38.986Z","created_by_id":"0195d26a-2323-711c-8833-9e3f99ed4f85","modified_on":"2025-04-02T06:22:38.986Z","modified_by_id":null,"deleted_on":null,"deleted_by_id":null,"tenant_id":"00000000-0000-0000-0000-000000000000","name":"Lindgren, VonRueden and O'Kon Business","type":"business","status":"active","restricted":false,"review":null,"allowed_time_periods":null,"allowed_locations":null,"primary_user_id":"0195d26a-2323-711c-8833-9e3f99ed4f85","tier_id":null,"primary_user":{"id":"0195d26a-2323-711c-8833-9e3f99ed4f85","meta":null,"created_on":"2025-03-26T12:25:26.050Z","created_by_id":null,"modified_on":"2025-04-02T18:49:09.931Z","modified_by_id":"0195d26a-2323-711c-8833-9e3f99ed4f85","deleted_on":null,"deleted_by_id":null,"tenant_id":"00000000-0000-0000-0000-000000000000","email":"boom@mailinator.com","status":"active","first_name":"Ibrahim","last_name":"Azeez","twofa_enabled":false,"last_active":"2025-04-02T18:49:09.934Z","last_ip":"162.158.186.230","allowed_ips":null,"last_timezone":"America/Los_Angeles","last_location":"","phone":"+2349058893837","review":null,"gender":"male","date_of_birth":"2001-06-16","cba_id":"140","photo_id":"0195d26a-e0b1-711c-8834-089bb7f9010d","referral_code":"PJ5R4O","referred_by":null,"has_pin":false,"has_password":false},"tier":null},{"id":"0195f51d-293d-7887-ab16-c1453cf6070a","meta":null,"created_on":"2025-04-02T06:08:03.900Z","created_by_id":"019372de-17ef-7cc2-8fc0-43fe11ba042f","modified_on":"2025-04-02T06:08:03.900Z","modified_by_id":null,"deleted_on":null,"deleted_by_id":null,"tenant_id":"00000000-0000-0000-0000-000000000000","name":"Goodwin Group Business","type":"business","status":"active","restricted":false,"review":null,"allowed_time_periods":null,"allowed_locations":null,"primary_user_id":"019372de-17ef-7cc2-8fc0-43fe11ba042f","tier_id":null,"primary_user":{"id":"019372de-17ef-7cc2-8fc0-43fe11ba042f","meta":{},"created_on":"2024-11-28T13:02:58.029Z","created_by_id":null,"modified_on":"2025-04-04T18:03:49.807Z","modified_by_id":"019372de-17ef-7cc2-8fc0-43fe11ba042f","deleted_on":null,"deleted_by_id":null,"tenant_id":"00000000-0000-0000-0000-000000000000","email":"ismael@mailinator.com","status":"active","first_name":"Sunday","last_name":"Testing","twofa_enabled":false,"last_active":"2025-04-04T16:58:16.730Z","last_ip":"::1","allowed_ips":null,"last_timezone":"Europe/Paris","last_location":"Columbus","phone":"+2349055755671","review":null,"gender":"male","date_of_birth":null,"cba_id":"31","photo_id":null,"referral_code":"7LD1QN","referred_by":null,"has_pin":false,"has_password":false},"tier":null},{"id":"0195f50d-4ecb-7887-ab11-bf612de28433","meta":null,"created_on":"2025-04-02T05:50:44.940Z","created_by_id":"0195d26a-2323-711c-8833-9e3f99ed4f85","modified_on":"2025-04-02T05:50:44.940Z","modified_by_id":null,"deleted_on":null,"deleted_by_id":null,"tenant_id":"00000000-0000-0000-0000-000000000000","name":"Gleason Inc Business","type":"business","status":"active","restricted":false,"review":null,"allowed_time_periods":null,"allowed_locations":null,"primary_user_id":"0195d26a-2323-711c-8833-9e3f99ed4f85","tier_id":null,"primary_user":{"id":"0195d26a-2323-711c-8833-9e3f99ed4f85","meta":null,"created_on":"2025-03-26T12:25:26.050Z","created_by_id":null,"modified_on":"2025-04-02T18:49:09.931Z","modified_by_id":"0195d26a-2323-711c-8833-9e3f99ed4f85","deleted_on":null,"deleted_by_id":null,"tenant_id":"00000000-0000-0000-0000-000000000000","email":"boom@mailinator.com","status":"active","first_name":"Ibrahim","last_name":"Azeez","twofa_enabled":false,"last_active":"2025-04-02T18:49:09.934Z","last_ip":"162.158.186.230","allowed_ips":null,"last_timezone":"America/Los_Angeles","last_location":"","phone":"+2349058893837","review":null,"gender":"male","date_of_birth":"2001-06-16","cba_id":"140","photo_id":"0195d26a-e0b1-711c-8834-089bb7f9010d","referral_code":"PJ5R4O","referred_by":null,"has_pin":false,"has_password":false},"tier":null},{"id":"0195f50d-4385-7887-ab11-73ed4013c9d3","meta":null,"created_on":"2025-04-02T05:50:42.053Z","created_by_id":"019372de-17ef-7cc2-8fc0-43fe11ba042f","modified_on":"2025-04-02T05:50:42.053Z","modified_by_id":null,"deleted_on":null,"deleted_by_id":null,"tenant_id":"00000000-0000-0000-0000-000000000000","name":"O'Keefe and Sons Business","type":"business","status":"active","restricted":false,"review":null,"allowed_time_periods":null,"allowed_locations":null,"primary_user_id":"019372de-17ef-7cc2-8fc0-43fe11ba042f","tier_id":null,"primary_user":{"id":"019372de-17ef-7cc2-8fc0-43fe11ba042f","meta":{},"created_on":"2024-11-28T13:02:58.029Z","created_by_id":null,"modified_on":"2025-04-04T18:03:49.807Z","modified_by_id":"019372de-17ef-7cc2-8fc0-43fe11ba042f","deleted_on":null,"deleted_by_id":null,"tenant_id":"00000000-0000-0000-0000-000000000000","email":"ismael@mailinator.com","status":"active","first_name":"Sunday","last_name":"Testing","twofa_enabled":false,"last_active":"2025-04-04T16:58:16.730Z","last_ip":"::1","allowed_ips":null,"last_timezone":"Europe/Paris","last_location":"Columbus","phone":"+2349055755671","review":null,"gender":"male","date_of_birth":null,"cba_id":"31","photo_id":null,"referral_code":"7LD1QN","referred_by":null,"has_pin":false,"has_password":false},"tier":null},{"id":"0195cf8d-72ea-7bb0-a50e-4aef0668a5ca","meta":{"rc-number":"123456789","business-name":"Test","business-email":"test@gmail.com","business-phone":"+2348123234345","business-types":"Sole Proprietorship","business-address":"Lagos"},"created_on":"2025-03-25T23:05:08.584Z","created_by_id":"019317a0-b7e5-7eeb-a7eb-bd18cf39a633","modified_on":"2025-03-25T23:05:08.584Z","modified_by_id":null,"deleted_on":null,"deleted_by_id":null,"tenant_id":"00000000-0000-0000-0000-000000000000","name":"","type":"business","status":"active","restricted":false,"review":null,"allowed_time_periods":null,"allowed_locations":null,"primary_user_id":"019317a0-b7e5-7eeb-a7eb-bd18cf39a633","tier_id":null,"primary_user":{"id":"019317a0-b7e5-7eeb-a7eb-bd18cf39a633","meta":{},"created_on":"2024-11-10T19:50:29.093Z","created_by_id":null,"modified_on":"2025-04-04T18:31:33.422Z","modified_by_id":"019317a0-b7e5-7eeb-a7eb-bd18cf39a633","deleted_on":null,"deleted_by_id":null,"tenant_id":"00000000-0000-0000-0000-000000000000","email":"mikeangel@mailinator.com","status":"active","first_name":"Mike","last_name":"Angelo","twofa_enabled":false,"last_active":"2025-04-04T18:31:33.421Z","last_ip":"172.71.232.63","allowed_ips":null,"last_timezone":"America/Sao_Paulo","last_location":"São Paulo","phone":"+234(0)9055755671","review":null,"gender":"male","date_of_birth":"1990-01-01","cba_id":"19","photo_id":"0195afbb-ecca-788b-a91c-8a2ead0f8556","referral_code":"AZVBZI","referred_by":null,"has_pin":false,"has_password":false},"tier":null}],"meta":{"page":1,"total_pages":20,"total_items":199}}