{"status":"success","data":[{"id":"01965a70-c160-7ee1-bc26-acd3ff2e69cd","meta":null,"created_on":"2025-04-21T22:21:01.378Z","created_by_id":"0193d109-a926-7446-abe5-7dafe8b742bd","modified_on":"2025-04-21T22:21:01.378Z","modified_by_id":null,"deleted_on":null,"deleted_by_id":null,"tenant_id":"00000000-0000-0000-0000-000000000000","name":"Demo2","description":"This is the demo Product","currency":"NGN","profile_type":"personal","payment_methods":["card"],"payment_model":"reducing","disbursement_method":"account","collection_methods":["manual"],"interest_rate":"2.00","interest_period":"flat","min_amount":"1.00","max_amount":"1000.00","frequency":"daily","min_tenor_value":1,"min_tenor_period":"days","max_tenor_value":7,"max_tenor_period":"weeks","status":"active","cba_id":"62","offer_letter_template_id":"01931742-0781-722b-8de7-6c42b6f4c2ea"},{"id":"01965a6b-a9f4-7772-bbcb-2f5c08b9cddf","meta":null,"created_on":"2025-04-21T22:15:27.688Z","created_by_id":"0193d109-a926-7446-abe5-7dafe8b742bd","modified_on":"2025-04-21T22:15:27.688Z","modified_by_id":null,"deleted_on":null,"deleted_by_id":null,"tenant_id":"00000000-0000-0000-0000-000000000000","name":"Demo","description":"This is the demo Product","currency":"NGN","profile_type":"personal","payment_methods":["card"],"payment_model":"straight","disbursement_method":"account","collection_methods":["manual"],"interest_rate":"2.00","interest_period":"flat","min_amount":"1.00","max_amount":"1000.00","frequency":"daily","min_tenor_value":1,"min_tenor_period":"days","max_tenor_value":7,"max_tenor_period":"weeks","status":"active","cba_id":"60","offer_letter_template_id":"01931742-0781-722b-8de7-6c42b6f4c2ea"},{"id":"01965a47-a29a-755c-8a21-e9c93e29dc41","meta":null,"created_on":"2025-04-21T21:36:06.480Z","created_by_id":"0193d109-a926-7446-abe5-7dafe8b742bd","modified_on":"2025-04-21T21:36:06.480Z","modified_by_id":null,"deleted_on":null,"deleted_by_id":null,"tenant_id":"00000000-0000-0000-0000-000000000000","name":"Another Demo Product","description":"This is the demo Product","currency":"NGN","profile_type":"personal","payment_methods":["card"],"payment_model":"straight","disbursement_method":"account","collection_methods":["manual"],"interest_rate":"2.00","interest_period":"flat","min_amount":"1.00","max_amount":"1000.00","frequency":"daily","min_tenor_value":1,"min_tenor_period":"days","max_tenor_value":7,"max_tenor_period":"weeks","status":"active","cba_id":"59","offer_letter_template_id":"01931742-0781-722b-8de7-6c42b6f4c2ea"},{"id":"019653bb-68d5-722d-aded-8a1a37e30951","meta":null,"created_on":"2025-04-20T15:05:13.173Z","created_by_id":"01927265-4ed2-79cc-a0e6-e11339a359f3","modified_on":"2025-04-20T17:15:20.619Z","modified_by_id":"01927265-4ed2-79cc-a0e6-e11339a359f3","deleted_on":null,"deleted_by_id":null,"tenant_id":"00000000-0000-0000-0000-000000000000","name":"Example Loan","description":"Example description","currency":"NGN","profile_type":"personal","payment_methods":["card","account"],"payment_model":"straight","disbursement_method":"account","collection_methods":["manual","automatic"],"interest_rate":"4.00","interest_period":"months","min_amount":"250000.00","max_amount":"1500000.00","frequency":"monthly","min_tenor_value":2,"min_tenor_period":"weeks","max_tenor_value":4,"max_tenor_period":"weeks","status":"active","cba_id":null,"offer_letter_template_id":"01931742-0781-722b-8de7-6c42b6f4c2ea"},{"id":"0196392c-df76-7bb6-aacb-06a822de7834","meta":null,"created_on":"2025-04-15T11:19:24.279Z","created_by_id":"01927265-4ed2-79cc-a0e6-e11339a359f3","modified_on":"2025-04-20T16:59:55.964Z","modified_by_id":"01927265-4ed2-79cc-a0e6-e11339a359f3","deleted_on":null,"deleted_by_id":null,"tenant_id":"00000000-0000-0000-0000-000000000000","name":"Women Loan","description":"To empower market women","currency":"NGN","profile_type":"personal","payment_methods":["mandate"],"payment_model":"straight","disbursement_method":"funds-transfer","collection_methods":["manual"],"interest_rate":"20.00","interest_period":"flat","min_amount":"300000.00","max_amount":"500000.00","frequency":"monthly","min_tenor_value":80,"min_tenor_period":"days","max_tenor_value":90,"max_tenor_period":"days","status":"active","cba_id":null,"offer_letter_template_id":"01931742-0781-722b-8de7-6c42b6f4c2ea"},{"id":"01962073-31a8-7774-b03a-73cb842534f7","meta":null,"created_on":"2025-04-10T16:05:42.440Z","created_by_id":"01927265-4ed2-79cc-a0e6-e11339a359f3","modified_on":"2025-04-20T17:05:25.664Z","modified_by_id":"01927265-4ed2-79cc-a0e6-e11339a359f3","deleted_on":null,"deleted_by_id":null,"tenant_id":"00000000-0000-0000-0000-000000000000","name":"Exam Loan","description":"To support students","currency":"NGN","profile_type":"personal","payment_methods":["card"],"payment_model":"straight","disbursement_method":"funds-transfer","collection_methods":["manual"],"interest_rate":"10.00","interest_period":"flat","min_amount":"30000.00","max_amount":"50000.00","frequency":"monthly","min_tenor_value":7,"min_tenor_period":"days","max_tenor_value":30,"max_tenor_period":"days","status":"active","cba_id":null,"offer_letter_template_id":"01931742-0781-722b-8de7-6c42b6f4c2ea"},{"id":"01961faa-2158-7aa9-8b96-60ce50ea544c","meta":null,"created_on":"2025-04-10T12:26:05.528Z","created_by_id":"01927265-4ed2-79cc-a0e6-e11339a359f3","modified_on":"2025-04-13T22:12:48.901Z","modified_by_id":"01927265-4ed2-79cc-a0e6-e11339a359f3","deleted_on":null,"deleted_by_id":null,"tenant_id":"00000000-0000-0000-0000-000000000000","name":"Student Loan","description":"To support students","currency":"NGN","profile_type":"personal","payment_methods":["card"],"payment_model":"straight","disbursement_method":"account","collection_methods":["manual"],"interest_rate":"5.00","interest_period":"flat","min_amount":"20000.00","max_amount":"50000.00","frequency":"monthly","min_tenor_value":3,"min_tenor_period":"months","max_tenor_value":6,"max_tenor_period":"months","status":"active","cba_id":null,"offer_letter_template_id":"01931742-0781-722b-8de7-6c42b6f4c2ea"},{"id":"019601af-55a9-7eeb-9121-cbb91f23db3f","meta":null,"created_on":"2025-04-04T16:43:10.121Z","created_by_id":"01927265-4ed2-79cc-a0e6-e11339a359f3","modified_on":"2025-04-07T12:05:10.110Z","modified_by_id":"01927265-4ed2-79cc-a0e6-e11339a359f3","deleted_on":null,"deleted_by_id":null,"tenant_id":"00000000-0000-0000-0000-000000000000","name":"Test name","description":"Test description","currency":"NGN","profile_type":"personal","payment_methods":["card"],"payment_model":"straight","disbursement_method":"account","collection_methods":["manual"],"interest_rate":"50.00","interest_period":"months","min_amount":"20000.00","max_amount":"40000.00","frequency":"monthly","min_tenor_value":1,"min_tenor_period":"months","max_tenor_value":4,"max_tenor_period":"months","status":"active","cba_id":null,"offer_letter_template_id":"01931742-0781-722b-8de7-6c42b6f4c2ea"},{"id":"0196017e-5083-7eeb-9120-e9aab327316c","meta":null,"created_on":"2025-04-04T15:49:37.539Z","created_by_id":"01927265-4ed2-79cc-a0e6-e11339a359f3","modified_on":"2025-04-04T15:49:37.539Z","modified_by_id":null,"deleted_on":null,"deleted_by_id":null,"tenant_id":"00000000-0000-0000-0000-000000000000","name":"Bless up","description":"Herer is the description","currency":"NGN","profile_type":"personal","payment_methods":["card"],"payment_model":"reducing","disbursement_method":"funds-transfer","collection_methods":["automatic"],"interest_rate":"30.00","interest_period":"months","min_amount":"20000.00","max_amount":"50000.00","frequency":"monthly","min_tenor_value":1,"min_tenor_period":"months","max_tenor_value":4,"max_tenor_period":"months","status":"active","cba_id":null,"offer_letter_template_id":"01931742-0781-722b-8de7-6c42b6f4c2ea"},{"id":"01960155-ee3a-7eeb-911f-7e4a78202ec4","meta":null,"created_on":"2025-04-04T15:05:30.938Z","created_by_id":"01927265-4ed2-79cc-a0e6-e11339a359f3","modified_on":"2025-04-04T15:05:30.938Z","modified_by_id":null,"deleted_on":null,"deleted_by_id":null,"tenant_id":"00000000-0000-0000-0000-000000000000","name":"New def","description":"Here is a new def","currency":"NGN","profile_type":"personal","payment_methods":["account"],"payment_model":"reducing","disbursement_method":"account","collection_methods":["automatic"],"interest_rate":"40.00","interest_period":"months","min_amount":"100000.00","max_amount":"500000.00","frequency":"monthly","min_tenor_value":1,"min_tenor_period":"weeks","max_tenor_value":8,"max_tenor_period":"weeks","status":"active","cba_id":null,"offer_letter_template_id":"01931742-0781-722b-8de7-6c42b6f4c2ea"}],"meta":{"page":1,"total_pages":2,"total_items":18}}