{"status":"success","data":[{"id":"01964434-2fd7-7003-bb7e-0635674dae87","meta":{"recipients":[{"amount":5512,"bank_code":"000014","bank_name":"Access Bank","narration":"test","account_name":"John Doe","account_number":"4718148512"}]},"created_on":"2025-04-17T14:43:12.983Z","created_by_id":"019372de-17ef-7cc2-8fc0-43fe11ba042f","modified_on":"2025-04-24T23:00:00.358Z","modified_by_id":null,"deleted_on":null,"deleted_by_id":null,"tenant_id":"00000000-0000-0000-0000-000000000000","frequency":"daily","type":"transfer","start_date":"2025-04-19T23:00:00.000Z","next_run_date":"2025-04-25T23:00:00.000Z","end_date":"2025-04-25T22:59:59.999Z","status":"active","amount":"0.00","profile_id":"0193a649-e3d0-7881-8b7f-2ef1d89a9aff","account_id":"0193a699-2f15-7881-8b7f-ae50980bcfad","user":{"id":"019372de-17ef-7cc2-8fc0-43fe11ba042f","meta":{},"created_on":"2024-11-28T13:02:58.029Z","created_by_id":null,"modified_on":"2025-04-25T01:29:03.619Z","modified_by_id":"019372de-17ef-7cc2-8fc0-43fe11ba042f","deleted_on":null,"deleted_by_id":null,"tenant_id":"00000000-0000-0000-0000-000000000000","email":"ismael@mailinator.com","status":"active","first_name":"Sunday","last_name":"Testing","twofa_enabled":false,"last_active":"2025-04-25T01:28:56.210Z","last_login":null,"last_ip":"52.137.190.97","allowed_ips":null,"last_timezone":"America/Los_Angeles","last_location":"San Jose","phone":"+2348089722636","review":null,"gender":"male","date_of_birth":null,"cba_id":"31","photo_id":null,"referral_code":"7LD1QN","referred_by":null}},{"id":"01964426-c37d-7003-bb7d-30c26a13e367","meta":{"recipients":[{"amount":1500,"bank_code":"000014","bank_name":"Access Bank","narration":"tet","account_name":"John Doe","account_number":"3639362612"}]},"created_on":"2025-04-17T14:28:33.278Z","created_by_id":"019372de-17ef-7cc2-8fc0-43fe11ba042f","modified_on":"2025-04-24T14:30:00.216Z","modified_by_id":null,"deleted_on":null,"deleted_by_id":null,"tenant_id":"00000000-0000-0000-0000-000000000000","frequency":"daily","type":"transfer","start_date":"2025-04-17T14:28:33.660Z","next_run_date":"2025-04-24T14:28:33.660Z","end_date":"2025-04-23T22:59:59.999Z","status":"completed","amount":"0.00","profile_id":"0193a649-e3d0-7881-8b7f-2ef1d89a9aff","account_id":"0193a699-2f15-7881-8b7f-ae50980bcfad","user":{"id":"019372de-17ef-7cc2-8fc0-43fe11ba042f","meta":{},"created_on":"2024-11-28T13:02:58.029Z","created_by_id":null,"modified_on":"2025-04-25T01:29:03.619Z","modified_by_id":"019372de-17ef-7cc2-8fc0-43fe11ba042f","deleted_on":null,"deleted_by_id":null,"tenant_id":"00000000-0000-0000-0000-000000000000","email":"ismael@mailinator.com","status":"active","first_name":"Sunday","last_name":"Testing","twofa_enabled":false,"last_active":"2025-04-25T01:28:56.210Z","last_login":null,"last_ip":"52.137.190.97","allowed_ips":null,"last_timezone":"America/Los_Angeles","last_location":"San Jose","phone":"+2348089722636","review":null,"gender":"male","date_of_birth":null,"cba_id":"31","photo_id":null,"referral_code":"7LD1QN","referred_by":null}},{"id":"01964425-d6a4-7003-bb7d-0dace338ff6a","meta":{"recipients":[{"amount":130000,"bank_code":"000014","bank_name":"Access Bank","narration":"test","account_name":"John Doe","account_number":"1485088712"}]},"created_on":"2025-04-17T14:27:32.645Z","created_by_id":"019372de-17ef-7cc2-8fc0-43fe11ba042f","modified_on":"2025-04-17T14:30:00.314Z","modified_by_id":null,"deleted_on":null,"deleted_by_id":null,"tenant_id":"00000000-0000-0000-0000-000000000000","frequency":"once","type":"transfer","start_date":"2025-04-16T15:29:00.000Z","next_run_date":"2025-04-16T15:29:00.000Z","end_date":"2025-04-16T15:29:00.000Z","status":"completed","amount":"0.00","profile_id":"0193a649-e3d0-7881-8b7f-2ef1d89a9aff","account_id":"0193a699-2f15-7881-8b7f-ae50980bcfad","user":{"id":"019372de-17ef-7cc2-8fc0-43fe11ba042f","meta":{},"created_on":"2024-11-28T13:02:58.029Z","created_by_id":null,"modified_on":"2025-04-25T01:29:03.619Z","modified_by_id":"019372de-17ef-7cc2-8fc0-43fe11ba042f","deleted_on":null,"deleted_by_id":null,"tenant_id":"00000000-0000-0000-0000-000000000000","email":"ismael@mailinator.com","status":"active","first_name":"Sunday","last_name":"Testing","twofa_enabled":false,"last_active":"2025-04-25T01:28:56.210Z","last_login":null,"last_ip":"52.137.190.97","allowed_ips":null,"last_timezone":"America/Los_Angeles","last_location":"San Jose","phone":"+2348089722636","review":null,"gender":"male","date_of_birth":null,"cba_id":"31","photo_id":null,"referral_code":"7LD1QN","referred_by":null}},{"id":"01964406-1c0a-7003-bb7c-0edca68b9210","meta":{"recipients":[{"amount":500000,"bank_code":"000014","bank_name":"Access Bank","narration":"test","account_name":"John Doe","account_number":"3639362612"}]},"created_on":"2025-04-17T13:52:53.259Z","created_by_id":"019372de-17ef-7cc2-8fc0-43fe11ba042f","modified_on":"2025-04-17T14:00:00.588Z","modified_by_id":null,"deleted_on":null,"deleted_by_id":null,"tenant_id":"00000000-0000-0000-0000-000000000000","frequency":"once","type":"transfer","start_date":"2025-04-16T14:54:00.000Z","next_run_date":"2025-04-16T14:54:00.000Z","end_date":"2025-04-16T14:54:00.000Z","status":"completed","amount":"0.00","profile_id":"0193a649-e3d0-7881-8b7f-2ef1d89a9aff","account_id":"0193a699-2f15-7881-8b7f-ae50980bcfad","user":{"id":"019372de-17ef-7cc2-8fc0-43fe11ba042f","meta":{},"created_on":"2024-11-28T13:02:58.029Z","created_by_id":null,"modified_on":"2025-04-25T01:29:03.619Z","modified_by_id":"019372de-17ef-7cc2-8fc0-43fe11ba042f","deleted_on":null,"deleted_by_id":null,"tenant_id":"00000000-0000-0000-0000-000000000000","email":"ismael@mailinator.com","status":"active","first_name":"Sunday","last_name":"Testing","twofa_enabled":false,"last_active":"2025-04-25T01:28:56.210Z","last_login":null,"last_ip":"52.137.190.97","allowed_ips":null,"last_timezone":"America/Los_Angeles","last_location":"San Jose","phone":"+2348089722636","review":null,"gender":"male","date_of_birth":null,"cba_id":"31","photo_id":null,"referral_code":"7LD1QN","referred_by":null}},{"id":"019643fd-12e6-7003-bb7b-e4a3b5ea79dd","meta":{"recipients":[{"amount":350000,"bank_code":"000014","bank_name":"Access Bank","narration":"test","account_name":"John Doe","account_number":"5028534512"}]},"created_on":"2025-04-17T13:43:01.095Z","created_by_id":"019372de-17ef-7cc2-8fc0-43fe11ba042f","modified_on":"2025-04-17T13:50:00.249Z","modified_by_id":null,"deleted_on":null,"deleted_by_id":null,"tenant_id":"00000000-0000-0000-0000-000000000000","frequency":"once","type":"transfer","start_date":"2025-04-16T14:44:00.000Z","next_run_date":"2025-04-16T14:44:00.000Z","end_date":"2025-04-16T14:44:00.000Z","status":"completed","amount":"0.00","profile_id":"0193a649-e3d0-7881-8b7f-2ef1d89a9aff","account_id":"0193a699-2f15-7881-8b7f-ae50980bcfad","user":{"id":"019372de-17ef-7cc2-8fc0-43fe11ba042f","meta":{},"created_on":"2024-11-28T13:02:58.029Z","created_by_id":null,"modified_on":"2025-04-25T01:29:03.619Z","modified_by_id":"019372de-17ef-7cc2-8fc0-43fe11ba042f","deleted_on":null,"deleted_by_id":null,"tenant_id":"00000000-0000-0000-0000-000000000000","email":"ismael@mailinator.com","status":"active","first_name":"Sunday","last_name":"Testing","twofa_enabled":false,"last_active":"2025-04-25T01:28:56.210Z","last_login":null,"last_ip":"52.137.190.97","allowed_ips":null,"last_timezone":"America/Los_Angeles","last_location":"San Jose","phone":"+2348089722636","review":null,"gender":"male","date_of_birth":null,"cba_id":"31","photo_id":null,"referral_code":"7LD1QN","referred_by":null}},{"id":"019643f7-894b-7003-bb7b-681d92d14b14","meta":{"recipients":[{"amount":7000,"bank_code":"000014","bank_name":"Access Bank","narration":"test","account_name":"John Doe","account_number":"4718148512"}]},"created_on":"2025-04-17T13:36:58.188Z","created_by_id":"019372de-17ef-7cc2-8fc0-43fe11ba042f","modified_on":"2025-04-17T13:40:00.250Z","modified_by_id":null,"deleted_on":null,"deleted_by_id":null,"tenant_id":"00000000-0000-0000-0000-000000000000","frequency":"once","type":"transfer","start_date":"2025-04-16T14:38:00.000Z","next_run_date":"2025-04-16T14:38:00.000Z","end_date":"2025-04-16T14:38:00.000Z","status":"completed","amount":"0.00","profile_id":"0193a649-e3d0-7881-8b7f-2ef1d89a9aff","account_id":"0193a699-2f15-7881-8b7f-ae50980bcfad","user":{"id":"019372de-17ef-7cc2-8fc0-43fe11ba042f","meta":{},"created_on":"2024-11-28T13:02:58.029Z","created_by_id":null,"modified_on":"2025-04-25T01:29:03.619Z","modified_by_id":"019372de-17ef-7cc2-8fc0-43fe11ba042f","deleted_on":null,"deleted_by_id":null,"tenant_id":"00000000-0000-0000-0000-000000000000","email":"ismael@mailinator.com","status":"active","first_name":"Sunday","last_name":"Testing","twofa_enabled":false,"last_active":"2025-04-25T01:28:56.210Z","last_login":null,"last_ip":"52.137.190.97","allowed_ips":null,"last_timezone":"America/Los_Angeles","last_location":"San Jose","phone":"+2348089722636","review":null,"gender":"male","date_of_birth":null,"cba_id":"31","photo_id":null,"referral_code":"7LD1QN","referred_by":null}},{"id":"019643e6-7cd5-7003-bb7b-413892783edb","meta":{"recipients":[{"amount":3000,"bank_code":"000014","bank_name":"Access Bank","narration":"bbb","account_name":"John Doe","account_number":"4718148512"}]},"created_on":"2025-04-17T13:18:20.886Z","created_by_id":"019372de-17ef-7cc2-8fc0-43fe11ba042f","modified_on":"2025-04-17T13:20:00.267Z","modified_by_id":null,"deleted_on":null,"deleted_by_id":null,"tenant_id":"00000000-0000-0000-0000-000000000000","frequency":"once","type":"transfer","start_date":"2025-04-16T14:20:00.000Z","next_run_date":"2025-04-16T14:20:00.000Z","end_date":"2025-04-16T14:20:00.000Z","status":"completed","amount":"0.00","profile_id":"0193a649-e3d0-7881-8b7f-2ef1d89a9aff","account_id":"0193a699-2f15-7881-8b7f-ae50980bcfad","user":{"id":"019372de-17ef-7cc2-8fc0-43fe11ba042f","meta":{},"created_on":"2024-11-28T13:02:58.029Z","created_by_id":null,"modified_on":"2025-04-25T01:29:03.619Z","modified_by_id":"019372de-17ef-7cc2-8fc0-43fe11ba042f","deleted_on":null,"deleted_by_id":null,"tenant_id":"00000000-0000-0000-0000-000000000000","email":"ismael@mailinator.com","status":"active","first_name":"Sunday","last_name":"Testing","twofa_enabled":false,"last_active":"2025-04-25T01:28:56.210Z","last_login":null,"last_ip":"52.137.190.97","allowed_ips":null,"last_timezone":"America/Los_Angeles","last_location":"San Jose","phone":"+2348089722636","review":null,"gender":"male","date_of_birth":null,"cba_id":"31","photo_id":null,"referral_code":"7LD1QN","referred_by":null}},{"id":"019643c0-a74f-7003-bb7b-0c29de32dcd6","meta":{"recipients":[{"amount":20000,"bank_code":"000014","bank_name":"Access Bank","narration":"test","account_name":"John Doe","account_number":"4817194712"}]},"created_on":"2025-04-17T12:37:01.391Z","created_by_id":"019372de-17ef-7cc2-8fc0-43fe11ba042f","modified_on":"2025-04-17T13:40:00.222Z","modified_by_id":null,"deleted_on":null,"deleted_by_id":null,"tenant_id":"00000000-0000-0000-0000-000000000000","frequency":"once","type":"transfer","start_date":"2025-04-17T13:38:00.000Z","next_run_date":"2025-04-17T13:38:00.000Z","end_date":"2025-04-17T13:38:00.000Z","status":"completed","amount":"0.00","profile_id":"0193a649-e3d0-7881-8b7f-2ef1d89a9aff","account_id":"0193a699-2f15-7881-8b7f-ae50980bcfad","user":{"id":"019372de-17ef-7cc2-8fc0-43fe11ba042f","meta":{},"created_on":"2024-11-28T13:02:58.029Z","created_by_id":null,"modified_on":"2025-04-25T01:29:03.619Z","modified_by_id":"019372de-17ef-7cc2-8fc0-43fe11ba042f","deleted_on":null,"deleted_by_id":null,"tenant_id":"00000000-0000-0000-0000-000000000000","email":"ismael@mailinator.com","status":"active","first_name":"Sunday","last_name":"Testing","twofa_enabled":false,"last_active":"2025-04-25T01:28:56.210Z","last_login":null,"last_ip":"52.137.190.97","allowed_ips":null,"last_timezone":"America/Los_Angeles","last_location":"San Jose","phone":"+2348089722636","review":null,"gender":"male","date_of_birth":null,"cba_id":"31","photo_id":null,"referral_code":"7LD1QN","referred_by":null}},{"id":"019642a3-f837-7003-bb79-70b87251f5f7","meta":{"recipients":[{"amount":3000,"bank_code":"000014","bank_name":"Access Bank","narration":"sdqwsdqw","account_name":"John Doe","account_number":"1435561712"}]},"created_on":"2025-04-17T07:26:04.344Z","created_by_id":"019372de-17ef-7cc2-8fc0-43fe11ba042f","modified_on":"2025-04-17T08:30:00.342Z","modified_by_id":null,"deleted_on":null,"deleted_by_id":null,"tenant_id":"00000000-0000-0000-0000-000000000000","frequency":"once","type":"transfer","start_date":"2025-04-17T08:29:00.000Z","next_run_date":"2025-04-17T08:29:00.000Z","end_date":"2025-04-17T08:29:00.000Z","status":"completed","amount":"0.00","profile_id":"0193a649-e3d0-7881-8b7f-2ef1d89a9aff","account_id":"0193a699-2f15-7881-8b7f-ae50980bcfad","user":{"id":"019372de-17ef-7cc2-8fc0-43fe11ba042f","meta":{},"created_on":"2024-11-28T13:02:58.029Z","created_by_id":null,"modified_on":"2025-04-25T01:29:03.619Z","modified_by_id":"019372de-17ef-7cc2-8fc0-43fe11ba042f","deleted_on":null,"deleted_by_id":null,"tenant_id":"00000000-0000-0000-0000-000000000000","email":"ismael@mailinator.com","status":"active","first_name":"Sunday","last_name":"Testing","twofa_enabled":false,"last_active":"2025-04-25T01:28:56.210Z","last_login":null,"last_ip":"52.137.190.97","allowed_ips":null,"last_timezone":"America/Los_Angeles","last_location":"San Jose","phone":"+2348089722636","review":null,"gender":"male","date_of_birth":null,"cba_id":"31","photo_id":null,"referral_code":"7LD1QN","referred_by":null}},{"id":"019642a2-765e-7003-bb79-39c9ecede18a","meta":{"recipients":[{"amount":3000,"bank_code":"000014","bank_name":"Access Bank","narration":"KJSKS","account_name":"John Doe","account_number":"4718148512"}]},"created_on":"2025-04-17T07:24:25.567Z","created_by_id":"019372de-17ef-7cc2-8fc0-43fe11ba042f","modified_on":"2025-04-17T08:30:00.334Z","modified_by_id":null,"deleted_on":null,"deleted_by_id":null,"tenant_id":"00000000-0000-0000-0000-000000000000","frequency":"once","type":"transfer","start_date":"2025-04-17T08:29:00.000Z","next_run_date":"2025-04-17T08:29:00.000Z","end_date":"2025-04-17T08:29:00.000Z","status":"completed","amount":"0.00","profile_id":"0193a649-e3d0-7881-8b7f-2ef1d89a9aff","account_id":"0193a699-2f15-7881-8b7f-ae50980bcfad","user":{"id":"019372de-17ef-7cc2-8fc0-43fe11ba042f","meta":{},"created_on":"2024-11-28T13:02:58.029Z","created_by_id":null,"modified_on":"2025-04-25T01:29:03.619Z","modified_by_id":"019372de-17ef-7cc2-8fc0-43fe11ba042f","deleted_on":null,"deleted_by_id":null,"tenant_id":"00000000-0000-0000-0000-000000000000","email":"ismael@mailinator.com","status":"active","first_name":"Sunday","last_name":"Testing","twofa_enabled":false,"last_active":"2025-04-25T01:28:56.210Z","last_login":null,"last_ip":"52.137.190.97","allowed_ips":null,"last_timezone":"America/Los_Angeles","last_location":"San Jose","phone":"+2348089722636","review":null,"gender":"male","date_of_birth":null,"cba_id":"31","photo_id":null,"referral_code":"7LD1QN","referred_by":null}}],"meta":{"page":1,"total_pages":2,"total_items":11}}