{"status":"success","data":[{"id":"01958aeb-e763-7992-b596-6829974c26b0","meta":{"rc-number":"4567876","business-name":"leep","business-email":"neem@yopmail.com","business-phone":"+23438096578","business-types":"Partnership","business-address":"2 kene street"},"created_on":"2025-03-12T15:14:30.883Z","created_by_id":"01958ada-1435-7992-b595-6aae5801cdfc","modified_on":"2025-03-12T15:14:30.883Z","modified_by_id":null,"deleted_on":null,"deleted_by_id":null,"tenant_id":"00000000-0000-0000-0000-000000000000","name":"","type":"business","status":"active","restricted":false,"review":null,"allowed_time_periods":null,"allowed_locations":null,"primary_user_id":"01958ada-1435-7992-b595-6aae5801cdfc","tier_id":null,"primary_user":{"id":"01958ada-1435-7992-b595-6aae5801cdfc","meta":null,"created_on":"2025-03-12T14:55:02.709Z","created_by_id":null,"modified_on":"2025-03-12T15:55:06.325Z","modified_by_id":"01958ada-1435-7992-b595-6aae5801cdfc","deleted_on":null,"deleted_by_id":null,"tenant_id":"00000000-0000-0000-0000-000000000000","email":"fratn@yopmail.com","status":"active","first_name":"Adex","last_name":"Frett","twofa_enabled":false,"last_active":"2025-03-12T15:55:06.324Z","last_ip":"141.101.98.202","allowed_ips":null,"last_timezone":"Europe/London","last_location":"London","phone":"+2348138096234","review":null,"gender":null,"date_of_birth":null,"cba_id":null,"photo_id":null,"referral_code":"VBES8O","referred_by":null,"has_pin":false,"has_password":false},"tier":null},{"id":"01958aea-5122-7992-b595-ff4c4c1aaaa4","meta":{"rc-number":"4567876","business-name":"Faill","business-email":"frill@yopmail.com","business-phone":"+23438098989","business-types":"Corporation","business-address":"2 kene street"},"created_on":"2025-03-12T15:12:46.882Z","created_by_id":"01958acd-e187-7992-b593-2c37c48aa97c","modified_on":"2025-03-12T15:12:46.882Z","modified_by_id":null,"deleted_on":null,"deleted_by_id":null,"tenant_id":"00000000-0000-0000-0000-000000000000","name":"","type":"business","status":"active","restricted":false,"review":null,"allowed_time_periods":null,"allowed_locations":null,"primary_user_id":"01958acd-e187-7992-b593-2c37c48aa97c","tier_id":null,"primary_user":{"id":"01958acd-e187-7992-b593-2c37c48aa97c","meta":null,"created_on":"2025-03-12T14:41:43.303Z","created_by_id":null,"modified_on":"2025-03-12T15:41:53.010Z","modified_by_id":"0195708b-4335-711a-acaa-0ea3b8ce50c8","deleted_on":null,"deleted_by_id":null,"tenant_id":"00000000-0000-0000-0000-000000000000","email":"fraan@yopmail.com","status":"active","first_name":"Fred","last_name":"Frett","twofa_enabled":false,"last_active":"2025-03-12T15:13:10.266Z","last_ip":"172.71.182.157","allowed_ips":null,"last_timezone":"Europe/Amsterdam","last_location":"Amsterdam","phone":"+2348138096112","review":null,"gender":"female","date_of_birth":"1994-06-20","cba_id":"133","photo_id":null,"referral_code":"5P74P4","referred_by":null,"has_pin":false,"has_password":false},"tier":null},{"id":"01958777-01d2-7665-bf13-835bbb8e21c6","meta":{"rc-number":"1234567890","business-name":"Yisau Enterprises","business-email":"hacksaw@gmail.com","business-phone":"+23408123884234","business-types":"Joint Venture","business-address":"High-rise Block B"},"created_on":"2025-03-11T23:07:58.290Z","created_by_id":"0195876f-b972-7665-bf12-fc04d3da8a09","modified_on":"2025-03-11T23:07:58.290Z","modified_by_id":null,"deleted_on":null,"deleted_by_id":null,"tenant_id":"00000000-0000-0000-0000-000000000000","name":"Profile","type":"business","status":"active","restricted":false,"review":null,"allowed_time_periods":null,"allowed_locations":null,"primary_user_id":"0195876f-b972-7665-bf12-fc04d3da8a09","tier_id":null,"primary_user":{"id":"0195876f-b972-7665-bf12-fc04d3da8a09","meta":null,"created_on":"2025-03-11T23:00:01.003Z","created_by_id":null,"modified_on":"2025-03-12T11:17:30.474Z","modified_by_id":"0195876f-b972-7665-bf12-fc04d3da8a09","deleted_on":null,"deleted_by_id":null,"tenant_id":"00000000-0000-0000-0000-000000000000","email":"hacksaw@gmail.com","status":"active","first_name":"Hack","last_name":"Saw","twofa_enabled":false,"last_active":"2025-03-12T11:17:30.469Z","last_ip":"172.71.241.103","allowed_ips":null,"last_timezone":"Europe/London","last_location":"London","phone":"+2348123444098","review":null,"gender":"male","date_of_birth":"1999-07-05","cba_id":"131","photo_id":null,"referral_code":"JKCQ9N","referred_by":null,"has_pin":false,"has_password":false},"tier":null},{"id":"019585ed-33cb-7665-bf10-d2ce741c727a","meta":{"rc-number":"RC123456","business-name":"Sole Proprietor","business-email":"olami@gmail.com","business-phone":"+2348032214532","business-types":"Sole Proprietorship","business-address":"20 moshood road"},"created_on":"2025-03-11T15:57:49.898Z","created_by_id":"019585e8-1ee3-7665-bf10-10a0fd919041","modified_on":"2025-03-11T15:57:49.898Z","modified_by_id":null,"deleted_on":null,"deleted_by_id":null,"tenant_id":"00000000-0000-0000-0000-000000000000","name":"Profile","type":"business","status":"active","restricted":false,"review":null,"allowed_time_periods":null,"allowed_locations":null,"primary_user_id":"019585e8-1ee3-7665-bf10-10a0fd919041","tier_id":null,"primary_user":{"id":"019585e8-1ee3-7665-bf10-10a0fd919041","meta":null,"created_on":"2025-03-11T15:52:16.867Z","created_by_id":null,"modified_on":"2025-03-11T16:00:53.512Z","modified_by_id":"019585e8-1ee3-7665-bf10-10a0fd919041","deleted_on":null,"deleted_by_id":null,"tenant_id":"00000000-0000-0000-0000-000000000000","email":"samvic@mailinator.com","status":"active","first_name":"Samuel","last_name":"Victoria","twofa_enabled":false,"last_active":"2025-03-11T16:00:53.511Z","last_ip":"172.71.98.61","allowed_ips":null,"last_timezone":"Europe/Amsterdam","last_location":"Amsterdam","phone":"+2348134040000","review":null,"gender":null,"date_of_birth":null,"cba_id":null,"photo_id":null,"referral_code":"P78KVF","referred_by":"019372de-17ef-7cc2-8fc0-43fe11ba042f","has_pin":false,"has_password":false},"tier":null},{"id":"019585e9-10bc-7665-bf10-6d49b005c610","meta":{"rc-number":"RC123456","business-name":"Sole Proprietor","business-email":"samvic@gmail.com","business-phone":"+2348032214000","business-types":"Corporation","business-address":"20 od r"},"created_on":"2025-03-11T15:53:18.780Z","created_by_id":"019585e8-1ee3-7665-bf10-10a0fd919041","modified_on":"2025-03-11T15:53:18.780Z","modified_by_id":null,"deleted_on":null,"deleted_by_id":null,"tenant_id":"00000000-0000-0000-0000-000000000000","name":"Profile","type":"business","status":"active","restricted":false,"review":null,"allowed_time_periods":null,"allowed_locations":null,"primary_user_id":"019585e8-1ee3-7665-bf10-10a0fd919041","tier_id":null,"primary_user":{"id":"019585e8-1ee3-7665-bf10-10a0fd919041","meta":null,"created_on":"2025-03-11T15:52:16.867Z","created_by_id":null,"modified_on":"2025-03-11T16:00:53.512Z","modified_by_id":"019585e8-1ee3-7665-bf10-10a0fd919041","deleted_on":null,"deleted_by_id":null,"tenant_id":"00000000-0000-0000-0000-000000000000","email":"samvic@mailinator.com","status":"active","first_name":"Samuel","last_name":"Victoria","twofa_enabled":false,"last_active":"2025-03-11T16:00:53.511Z","last_ip":"172.71.98.61","allowed_ips":null,"last_timezone":"Europe/Amsterdam","last_location":"Amsterdam","phone":"+2348134040000","review":null,"gender":null,"date_of_birth":null,"cba_id":null,"photo_id":null,"referral_code":"P78KVF","referred_by":"019372de-17ef-7cc2-8fc0-43fe11ba042f","has_pin":false,"has_password":false},"tier":null},{"id":"019585dc-c7c0-7665-bf0f-0c8a6c21a814","meta":{"rc-number":"RC123456","business-name":"Sole Proprietor","business-email":"olami@gmail.com","business-phone":"+2348032214566","business-types":"Sole Proprietorship","business-address":"20 od road"},"created_on":"2025-03-11T15:39:53.638Z","created_by_id":"019585dc-3614-7665-bf0e-b4d4440be8ee","modified_on":"2025-03-11T15:39:53.638Z","modified_by_id":null,"deleted_on":null,"deleted_by_id":null,"tenant_id":"00000000-0000-0000-0000-000000000000","name":"Profile","type":"business","status":"active","restricted":false,"review":null,"allowed_time_periods":null,"allowed_locations":null,"primary_user_id":"019585dc-3614-7665-bf0e-b4d4440be8ee","tier_id":null,"primary_user":{"id":"019585dc-3614-7665-bf0e-b4d4440be8ee","meta":null,"created_on":"2025-03-11T15:39:16.371Z","created_by_id":null,"modified_on":"2025-03-11T15:49:42.774Z","modified_by_id":"019585dc-3614-7665-bf0e-b4d4440be8ee","deleted_on":null,"deleted_by_id":null,"tenant_id":"00000000-0000-0000-0000-000000000000","email":"olami@mailinator.com","status":"active","first_name":"Olayemi","last_name":"bok","twofa_enabled":false,"last_active":"2025-03-11T15:49:42.773Z","last_ip":"172.71.102.225","allowed_ips":null,"last_timezone":"Europe/Amsterdam","last_location":"Amsterdam","phone":"+2348031888008","review":null,"gender":null,"date_of_birth":null,"cba_id":null,"photo_id":null,"referral_code":"W9T6Y2","referred_by":"019372de-17ef-7cc2-8fc0-43fe11ba042f","has_pin":false,"has_password":false},"tier":null},{"id":"0195858a-1ca1-7665-bf0d-b7516d6e8367","meta":{"rc-number":"rerr","business-name":"Sodiq","business-email":"email@email.com","business-phone":"+23408149583661","business-types":"Partnership","business-address":"Ikeja"},"created_on":"2025-03-11T14:09:35.904Z","created_by_id":"01925343-fbc8-7886-abfb-41c8746fc8ce","modified_on":"2025-03-11T14:09:35.904Z","modified_by_id":null,"deleted_on":null,"deleted_by_id":null,"tenant_id":"00000000-0000-0000-0000-000000000000","name":"Profile","type":"business","status":"active","restricted":false,"review":null,"allowed_time_periods":null,"allowed_locations":null,"primary_user_id":"01925343-fbc8-7886-abfb-41c8746fc8ce","tier_id":null,"primary_user":{"id":"01925343-fbc8-7886-abfb-41c8746fc8ce","meta":null,"created_on":"2024-10-03T16:43:37.286Z","created_by_id":null,"modified_on":"2025-03-11T14:09:35.889Z","modified_by_id":"01925343-fbc8-7886-abfb-41c8746fc8ce","deleted_on":null,"deleted_by_id":null,"tenant_id":"00000000-0000-0000-0000-000000000000","email":"darehorla@gmail.com","status":"active","first_name":"Sodiq","last_name":"Dare","twofa_enabled":false,"last_active":"2025-03-11T14:09:35.888Z","last_ip":"172.68.186.77","allowed_ips":null,"last_timezone":"Africa/Johannesburg","last_location":"Cape Town","phone":"+2348149583662","review":null,"gender":"male","date_of_birth":"2002-05-28","cba_id":null,"photo_id":null,"referral_code":"27HJX1","referred_by":null,"has_pin":false,"has_password":false},"tier":null},{"id":"019584a9-55c2-7662-a73b-b191b99491e1","meta":{"rc-number":"0000000","business-name":"Neem","business-email":"hi@neem.co","business-phone":"+23409055755671","business-types":"Corporation","business-address":"LAGOS, NIGERIA, LAGOS, Ibeju-Lekki, LAGOS"},"created_on":"2025-03-11T10:04:04.864Z","created_by_id":"01958493-97db-7bb0-a40e-57b8d9122b35","modified_on":"2025-03-11T10:04:04.864Z","modified_by_id":null,"deleted_on":null,"deleted_by_id":null,"tenant_id":"00000000-0000-0000-0000-000000000000","name":"Profile","type":"business","status":"active","restricted":false,"review":null,"allowed_time_periods":null,"allowed_locations":null,"primary_user_id":"01958493-97db-7bb0-a40e-57b8d9122b35","tier_id":null,"primary_user":{"id":"01958493-97db-7bb0-a40e-57b8d9122b35","meta":null,"created_on":"2025-03-11T09:40:20.059Z","created_by_id":null,"modified_on":"2025-03-11T12:14:30.790Z","modified_by_id":"01958493-97db-7bb0-a40e-57b8d9122b35","deleted_on":null,"deleted_by_id":null,"tenant_id":"00000000-0000-0000-0000-000000000000","email":"lamba@mailinator.com","status":"active","first_name":"Ibrahim","last_name":"Azeez","twofa_enabled":false,"last_active":"2025-03-11T12:14:30.789Z","last_ip":"197.234.242.160","allowed_ips":null,"last_timezone":"Africa/Johannesburg","last_location":"Johannesburg","phone":"+2349055558893","review":null,"gender":null,"date_of_birth":null,"cba_id":null,"photo_id":null,"referral_code":"23M0IC","referred_by":null,"has_pin":false,"has_password":false},"tier":null},{"id":"01958494-abf2-7bb0-a40e-96cfe34e662d","meta":{"rc-number":"0000000","business-name":"Neem","business-email":"hi@neem.co","business-types":"Limited Liability Partnership (LLP)","business-address":"LAGOS, NIGERIA, LAGOS, Ibeju-Lekki, LAGOS"},"created_on":"2025-03-11T09:41:30.738Z","created_by_id":"01958494-4b3a-7bb0-a40e-794726df0428","modified_on":"2025-03-11T09:41:30.738Z","modified_by_id":null,"deleted_on":null,"deleted_by_id":null,"tenant_id":"00000000-0000-0000-0000-000000000000","name":"Profile","type":"business","status":"active","restricted":false,"review":null,"allowed_time_periods":null,"allowed_locations":null,"primary_user_id":"01958494-4b3a-7bb0-a40e-794726df0428","tier_id":null,"primary_user":{"id":"01958494-4b3a-7bb0-a40e-794726df0428","meta":null,"created_on":"2025-03-11T09:41:05.978Z","created_by_id":null,"modified_on":"2025-03-11T16:37:48.273Z","modified_by_id":"01958494-4b3a-7bb0-a40e-794726df0428","deleted_on":null,"deleted_by_id":null,"tenant_id":"00000000-0000-0000-0000-000000000000","email":"ben@topmail.com","status":"active","first_name":"Ronald","last_name":"Benson","twofa_enabled":false,"last_active":"2025-03-11T16:37:48.272Z","last_ip":"172.68.234.225","allowed_ips":null,"last_timezone":"Asia/Bangkok","last_location":"Bangkok","phone":"+2349066344215","review":null,"gender":null,"date_of_birth":null,"cba_id":null,"photo_id":null,"referral_code":"F5PHS1","referred_by":null,"has_pin":false,"has_password":false},"tier":null},{"id":"01958491-84b6-7bb0-a40e-1ec3cef04ab1","meta":{"rc-number":"0000000","business-name":"Neem","business-email":"hi@neem.co","business-types":"Partnership","business-address":"LAGOS, NIGERIA, LAGOS, Ibeju-Lekki, LAGOS"},"created_on":"2025-03-11T09:38:04.085Z","created_by_id":"01958490-f221-7bb0-a40e-07d9cfd10083","modified_on":"2025-03-11T09:38:04.085Z","modified_by_id":null,"deleted_on":null,"deleted_by_id":null,"tenant_id":"00000000-0000-0000-0000-000000000000","name":"Profile","type":"business","status":"active","restricted":false,"review":null,"allowed_time_periods":null,"allowed_locations":null,"primary_user_id":"01958490-f221-7bb0-a40e-07d9cfd10083","tier_id":null,"primary_user":{"id":"01958490-f221-7bb0-a40e-07d9cfd10083","meta":null,"created_on":"2025-03-11T09:37:26.561Z","created_by_id":null,"modified_on":"2025-03-11T09:38:30.703Z","modified_by_id":"01958490-f221-7bb0-a40e-07d9cfd10083","deleted_on":null,"deleted_by_id":null,"tenant_id":"00000000-0000-0000-0000-000000000000","email":"malam@mailinator.com","status":"active","first_name":"Korope","last_name":"Malam","twofa_enabled":false,"last_active":"2025-03-11T09:38:30.700Z","last_ip":"197.234.242.158","allowed_ips":null,"last_timezone":"Africa/Johannesburg","last_location":"Johannesburg","phone":"+2349066355364","review":null,"gender":null,"date_of_birth":null,"cba_id":null,"photo_id":null,"referral_code":"2VA0W9","referred_by":null,"has_pin":false,"has_password":false},"tier":null}],"meta":{"page":1,"total_pages":17,"total_items":169}}