{"status":"success","data":[{"id":"0195708b-4335-711a-acaa-0ea3b8ce50c8","meta":null,"created_on":"2025-03-07T12:18:49.780Z","created_by_id":"01927265-4ed2-79cc-a0e6-e11339a359f3","modified_on":"2025-03-12T17:37:44.789Z","modified_by_id":null,"deleted_on":null,"deleted_by_id":null,"tenant_id":"00000000-0000-0000-0000-000000000000","email":"fred@yopmail.com","status":"active","first_name":"Feee","last_name":"faith","twofa_enabled":false,"last_active":"2025-03-12T17:37:44.787Z","last_ip":"172.71.95.24","allowed_ips":null,"last_timezone":"Europe/Amsterdam","last_location":null,"role_id":"019565fb-39d9-7aa8-9c09-58b126e99bf3","role":{"id":"019565fb-39d9-7aa8-9c09-58b126e99bf3","meta":null,"created_on":"2025-03-05T11:05:18.040Z","created_by_id":"01927265-4ed2-79cc-a0e6-e11339a359f3","modified_on":"2025-03-05T11:05:18.040Z","modified_by_id":null,"deleted_on":null,"deleted_by_id":null,"name":"Everything","slug":"everything","description":"Everything","status":"active","tenant_id":"00000000-0000-0000-0000-000000000000"},"has_pin":false,"has_password":false},{"id":"01953018-8915-7330-84ba-fe08a6f0789a","meta":null,"created_on":"2025-02-22T23:57:49.205Z","created_by_id":"0193d109-a926-7446-abe5-7dafe8b742bd","modified_on":"2025-02-22T23:57:49.205Z","modified_by_id":null,"deleted_on":null,"deleted_by_id":null,"tenant_id":"00000000-0000-0000-0000-000000000000","email":"destinyerhabor6+dev1@gmail.com","status":"pending","first_name":null,"last_name":null,"twofa_enabled":false,"last_active":"2025-02-22T23:57:49.205Z","last_ip":null,"allowed_ips":null,"last_timezone":null,"last_location":null,"role_id":"0194b932-92d0-7bb8-88f2-0bc884cbbed4","role":{"id":"0194b932-92d0-7bb8-88f2-0bc884cbbed4","meta":null,"created_on":"2025-01-30T21:51:26.928Z","created_by_id":"01927265-4ed2-79cc-a0e6-e11339a359f3","modified_on":"2025-01-30T21:51:26.928Z","modified_by_id":null,"deleted_on":null,"deleted_by_id":null,"name":"interface","slug":"interface","description":"system","status":"active","tenant_id":"00000000-0000-0000-0000-000000000000"},"has_pin":false,"has_password":false},{"id":"01953014-c673-7330-84ba-de63073387f4","meta":null,"created_on":"2025-02-22T23:53:42.714Z","created_by_id":"0193d109-a926-7446-abe5-7dafe8b742bd","modified_on":"2025-02-22T23:53:42.714Z","modified_by_id":null,"deleted_on":null,"deleted_by_id":null,"tenant_id":"00000000-0000-0000-0000-000000000000","email":"destinyerhabor6+dev@gmail.com","status":"pending","first_name":null,"last_name":null,"twofa_enabled":false,"last_active":"2025-02-22T23:53:42.714Z","last_ip":null,"allowed_ips":null,"last_timezone":null,"last_location":null,"role_id":"0194a673-5ab3-7dd7-aac7-b0ebf3ba61e5","role":{"id":"0194a673-5ab3-7dd7-aac7-b0ebf3ba61e5","meta":null,"created_on":"2025-01-27T06:29:25.299Z","created_by_id":"01927265-4ed2-79cc-a0e6-e11339a359f3","modified_on":"2025-01-27T06:29:25.299Z","modified_by_id":null,"deleted_on":null,"deleted_by_id":null,"name":"Russian","slug":"russian","description":"Brook","status":"active","tenant_id":"00000000-0000-0000-0000-000000000000"},"has_pin":false,"has_password":false},{"id":"01951be3-7317-7885-9dd5-8e57f0db470b","meta":null,"created_on":"2025-02-19T01:47:25.846Z","created_by_id":"01927265-4ed2-79cc-a0e6-e11339a359f3","modified_on":"2025-02-23T21:52:19.718Z","modified_by_id":null,"deleted_on":null,"deleted_by_id":null,"tenant_id":"00000000-0000-0000-0000-000000000000","email":"zino.ref2@mailinator.com","status":"active","first_name":"Grady","last_name":"Zebah","twofa_enabled":false,"last_active":"2025-02-23T21:52:19.714Z","last_ip":"172.71.26.139","allowed_ips":null,"last_timezone":"America/New_York","last_location":null,"role_id":"01951a90-6127-7885-9dd0-1943f4ef80c5","role":{"id":"01951a90-6127-7885-9dd0-1943f4ef80c5","meta":null,"created_on":"2025-02-18T19:37:04.550Z","created_by_id":"01927265-4ed2-79cc-a0e6-e11339a359f3","modified_on":"2025-02-18T19:37:04.550Z","modified_by_id":null,"deleted_on":null,"deleted_by_id":null,"name":"Dispute Checker 1","slug":"dispute-checker-1","description":"Approve disputes","status":"active","tenant_id":"00000000-0000-0000-0000-000000000000"},"has_pin":false,"has_password":false},{"id":"01951bd0-463b-7885-9dd5-18d36bcd9868","meta":null,"created_on":"2025-02-19T01:26:29.179Z","created_by_id":"01927265-4ed2-79cc-a0e6-e11339a359f3","modified_on":"2025-02-23T00:35:25.984Z","modified_by_id":"01927265-4ed2-79cc-a0e6-e11339a359f3","deleted_on":null,"deleted_by_id":null,"tenant_id":"00000000-0000-0000-0000-000000000000","email":"zedcd1-in@yopmail.com","status":"inactive","first_name":null,"last_name":null,"twofa_enabled":false,"last_active":"2025-02-19T01:26:29.179Z","last_ip":null,"allowed_ips":null,"last_timezone":null,"last_location":null,"role_id":"01951a90-6127-7885-9dd0-1943f4ef80c5","role":{"id":"01951a90-6127-7885-9dd0-1943f4ef80c5","meta":null,"created_on":"2025-02-18T19:37:04.550Z","created_by_id":"01927265-4ed2-79cc-a0e6-e11339a359f3","modified_on":"2025-02-18T19:37:04.550Z","modified_by_id":null,"deleted_on":null,"deleted_by_id":null,"name":"Dispute Checker 1","slug":"dispute-checker-1","description":"Approve disputes","status":"active","tenant_id":"00000000-0000-0000-0000-000000000000"},"has_pin":false,"has_password":false},{"id":"019519c9-34e3-7333-b4e3-a0eafe4e0522","meta":null,"created_on":"2025-02-18T15:59:31.555Z","created_by_id":"01927265-4ed2-79cc-a0e6-e11339a359f3","modified_on":"2025-02-18T15:59:31.555Z","modified_by_id":null,"deleted_on":null,"deleted_by_id":null,"tenant_id":"00000000-0000-0000-0000-000000000000","email":"azeez@mule.com","status":"pending","first_name":null,"last_name":null,"twofa_enabled":false,"last_active":"2025-02-18T15:59:31.555Z","last_ip":null,"allowed_ips":null,"last_timezone":null,"last_location":null,"role_id":"0194b895-df4d-7bb8-88eb-a501c0ae8f1d","role":{"id":"0194b895-df4d-7bb8-88eb-a501c0ae8f1d","meta":null,"created_on":"2025-01-30T19:00:17.357Z","created_by_id":"01927265-4ed2-79cc-a0e6-e11339a359f3","modified_on":"2025-01-30T19:00:17.357Z","modified_by_id":null,"deleted_on":null,"deleted_by_id":null,"name":"RAM","slug":"ram","description":"Hat","status":"active","tenant_id":"00000000-0000-0000-0000-000000000000"},"has_pin":false,"has_password":false},{"id":"0194d201-be98-7bb6-b3f8-b0030818366f","meta":null,"created_on":"2025-02-04T17:28:37.271Z","created_by_id":"01927265-4ed2-79cc-a0e6-e11339a359f3","modified_on":"2025-02-13T00:46:49.394Z","modified_by_id":"0193d109-a926-7446-abe5-7dafe8b742bd","deleted_on":null,"deleted_by_id":null,"tenant_id":"00000000-0000-0000-0000-000000000000","email":"Slayy@yopmail.com","status":"pending","first_name":null,"last_name":null,"twofa_enabled":false,"last_active":"2025-02-04T17:28:37.271Z","last_ip":null,"allowed_ips":null,"last_timezone":null,"last_location":null,"role_id":"0194d518-5291-7bb3-a119-630a16a3d8e8","role":{"id":"0194d518-5291-7bb3-a119-630a16a3d8e8","meta":null,"created_on":"2025-02-05T07:52:08.594Z","created_by_id":"01927265-4ed2-79cc-a0e6-e11339a359f3","modified_on":"2025-02-18T16:30:35.734Z","modified_by_id":"01927265-4ed2-79cc-a0e6-e11339a359f3","deleted_on":null,"deleted_by_id":null,"name":"Dispute Updater","slug":"dispute-updater","description":"Dispute Updater","status":"inactive","tenant_id":"00000000-0000-0000-0000-000000000000"},"has_pin":false,"has_password":false},{"id":"0194b899-400e-7bb8-88ec-cecb411c4e39","meta":null,"created_on":"2025-01-30T19:03:58.729Z","created_by_id":"01927265-4ed2-79cc-a0e6-e11339a359f3","modified_on":"2025-02-05T07:55:13.889Z","modified_by_id":"01927265-4ed2-79cc-a0e6-e11339a359f3","deleted_on":null,"deleted_by_id":null,"tenant_id":"00000000-0000-0000-0000-000000000000","email":"azeez+2@assurdly.com","status":"active","first_name":"Ibrahim","last_name":"ykr","twofa_enabled":false,"last_active":"2025-02-05T07:55:13.885Z","last_ip":"172.71.241.59","allowed_ips":null,"last_timezone":"Europe/London","last_location":null,"role_id":"0194d518-5291-7bb3-a119-630a16a3d8e8","role":{"id":"0194d518-5291-7bb3-a119-630a16a3d8e8","meta":null,"created_on":"2025-02-05T07:52:08.594Z","created_by_id":"01927265-4ed2-79cc-a0e6-e11339a359f3","modified_on":"2025-02-18T16:30:35.734Z","modified_by_id":"01927265-4ed2-79cc-a0e6-e11339a359f3","deleted_on":null,"deleted_by_id":null,"name":"Dispute Updater","slug":"dispute-updater","description":"Dispute Updater","status":"inactive","tenant_id":"00000000-0000-0000-0000-000000000000"},"has_pin":false,"has_password":false},{"id":"0194b895-e8b2-7bb8-88ec-285341127951","meta":null,"created_on":"2025-01-30T19:00:19.762Z","created_by_id":"01927265-4ed2-79cc-a0e6-e11339a359f3","modified_on":"2025-01-30T19:00:21.138Z","modified_by_id":null,"deleted_on":null,"deleted_by_id":null,"tenant_id":"00000000-0000-0000-0000-000000000000","email":"Jillian49@hotmail.com","status":"active","first_name":"Kavon","last_name":"Boehm","twofa_enabled":false,"last_active":"2025-01-30T19:00:19.762Z","last_ip":null,"allowed_ips":null,"last_timezone":null,"last_location":null,"role_id":"019295e4-b39f-7dd9-892d-46959f7d679d","role":{"id":"019295e4-b39f-7dd9-892d-46959f7d679d","meta":null,"created_on":"2024-10-16T15:14:06.278Z","created_by_id":null,"modified_on":"2024-11-10T16:10:00.176Z","modified_by_id":null,"deleted_on":null,"deleted_by_id":null,"name":"Manager","slug":"manager","description":"Manager","status":"active","tenant_id":"00000000-0000-0000-0000-000000000000"},"has_pin":false,"has_password":false},{"id":"0194b6a7-951d-7aab-9415-707ba2b33755","meta":null,"created_on":"2025-01-30T10:00:23.580Z","created_by_id":"01927265-4ed2-79cc-a0e6-e11339a359f3","modified_on":"2025-01-30T19:00:19.490Z","modified_by_id":"01927265-4ed2-79cc-a0e6-e11339a359f3","deleted_on":null,"deleted_by_id":null,"tenant_id":"00000000-0000-0000-0000-000000000000","email":"menajayne@yahoo.com","status":"inactive","first_name":null,"last_name":null,"twofa_enabled":false,"last_active":"2025-01-30T10:00:23.580Z","last_ip":null,"allowed_ips":null,"last_timezone":null,"last_location":null,"role_id":"01927265-d8bc-7195-996f-e131d5e13339","role":{"id":"01927265-d8bc-7195-996f-e131d5e13339","meta":null,"created_on":"2024-12-02T20:59:05.761Z","created_by_id":null,"modified_on":"2024-12-02T20:59:05.761Z","modified_by_id":null,"deleted_on":null,"deleted_by_id":null,"name":"Admin","slug":"admin","description":"","status":"active","tenant_id":null},"has_pin":false,"has_password":false}],"meta":{"page":1,"total_pages":7,"total_items":64}}