{"status":"success","data":[{"id":"019464f8-9f47-777b-9e06-dc054d12b5af","meta":null,"created_on":"2025-01-14T13:20:02.887Z","created_by":null,"modified_on":"2025-01-14T13:20:02.887Z","modified_by":null,"deleted_on":null,"deleted_by":null,"tenant_id":"00000000-0000-0000-0000-000000000000","first_name":null,"last_name":null,"email":"ekemenaj@gmail.com","twofa_enabled":false,"status":"pending","role_id":"01927265-d8bc-7195-996f-e131d5e13339","last_active":"2025-01-14T13:20:02.887Z","last_ip":null,"last_timezone":null,"role":{"id":"01927265-d8bc-7195-996f-e131d5e13339","meta":null,"created_on":"2024-12-02T20:59:05.761Z","created_by":null,"modified_on":"2024-12-02T20:59:05.761Z","modified_by":null,"deleted_on":null,"deleted_by":null,"name":"Admin","slug":"admin","description":"","status":"active","tenant_id":null}},{"id":"019464eb-fe65-777b-9e06-96fe20bc8c06","meta":null,"created_on":"2025-01-14T13:06:15.269Z","created_by":null,"modified_on":"2025-01-14T13:06:58.540Z","modified_by":null,"deleted_on":null,"deleted_by":null,"tenant_id":"00000000-0000-0000-0000-000000000000","first_name":"Adere","last_name":"brain","email":"sling@yopmail.com","twofa_enabled":false,"status":"active","role_id":"01945e2a-92c9-7554-9591-68196fe6209f","last_active":"2025-01-14T13:06:15.269Z","last_ip":null,"last_timezone":null,"role":{"id":"01945e2a-92c9-7554-9591-68196fe6209f","meta":null,"created_on":"2025-01-13T05:37:15.977Z","created_by":null,"modified_on":"2025-01-13T05:37:15.977Z","modified_by":null,"deleted_on":null,"deleted_by":null,"name":"implement","slug":"implement","description":"Tunnel","status":"active","tenant_id":"00000000-0000-0000-0000-000000000000"}},{"id":"01945ed1-2370-7ee7-9fcc-07fcd81826e6","meta":null,"created_on":"2025-01-13T08:39:11.984Z","created_by":null,"modified_on":"2025-01-14T15:32:01.268Z","modified_by":null,"deleted_on":null,"deleted_by":null,"tenant_id":"00000000-0000-0000-0000-000000000000","first_name":"Jayne","last_name":"Mena","email":"janet@assurdly.com","twofa_enabled":false,"status":"active","role_id":"01927265-d8bc-7195-996f-e131d5e13339","last_active":"2025-01-13T14:34:49.482Z","last_ip":"172.68.186.155","last_timezone":"Africa/Johannesburg","role":{"id":"01927265-d8bc-7195-996f-e131d5e13339","meta":null,"created_on":"2024-12-02T20:59:05.761Z","created_by":null,"modified_on":"2024-12-02T20:59:05.761Z","modified_by":null,"deleted_on":null,"deleted_by":null,"name":"Admin","slug":"admin","description":"","status":"active","tenant_id":null}},{"id":"01945ece-eeff-788f-b9ec-705e5199b59f","meta":null,"created_on":"2025-01-13T08:36:47.487Z","created_by":null,"modified_on":"2025-01-13T08:37:04.292Z","modified_by":null,"deleted_on":null,"deleted_by":null,"tenant_id":"00000000-0000-0000-0000-000000000000","first_name":null,"last_name":null,"email":"test@gmail.com","twofa_enabled":false,"status":"active","role_id":"01927265-d8bc-7195-996f-e131d5e13339","last_active":"2025-01-13T08:36:47.487Z","last_ip":null,"last_timezone":null,"role":{"id":"01927265-d8bc-7195-996f-e131d5e13339","meta":null,"created_on":"2024-12-02T20:59:05.761Z","created_by":null,"modified_on":"2024-12-02T20:59:05.761Z","modified_by":null,"deleted_on":null,"deleted_by":null,"name":"Admin","slug":"admin","description":"","status":"active","tenant_id":null}},{"id":"01945e47-8cee-7554-9595-317d48fd063d","meta":null,"created_on":"2025-01-13T06:08:55.022Z","created_by":null,"modified_on":"2025-01-13T06:08:56.092Z","modified_by":null,"deleted_on":null,"deleted_by":null,"tenant_id":"00000000-0000-0000-0000-000000000000","first_name":"Eldon","last_name":"Kassulke","email":"Claudine_Bartell49@gmail.com","twofa_enabled":false,"status":"active","role_id":"019295e4-b39f-7dd9-892d-46959f7d679d","last_active":"2025-01-13T06:08:55.022Z","last_ip":null,"last_timezone":null,"role":{"id":"019295e4-b39f-7dd9-892d-46959f7d679d","meta":null,"created_on":"2024-10-16T15:14:06.278Z","created_by":null,"modified_on":"2024-11-10T16:10:00.176Z","modified_by":null,"deleted_on":null,"deleted_by":null,"name":"Manager","slug":"manager","description":"Manager","status":"active","tenant_id":"00000000-0000-0000-0000-000000000000"}},{"id":"01945e32-ac49-7554-9592-a9ff72f7f968","meta":null,"created_on":"2025-01-13T05:46:06.794Z","created_by":null,"modified_on":"2025-01-13T05:48:19.133Z","modified_by":null,"deleted_on":null,"deleted_by":null,"tenant_id":"00000000-0000-0000-0000-000000000000","first_name":"Pamela","last_name":"Kilback","email":"Scottie97@hotmail.com","twofa_enabled":false,"status":"inactive","role_id":"019295e4-b39f-7dd9-892d-46959f7d679d","last_active":"2025-01-13T05:46:06.794Z","last_ip":null,"last_timezone":null,"role":{"id":"019295e4-b39f-7dd9-892d-46959f7d679d","meta":null,"created_on":"2024-10-16T15:14:06.278Z","created_by":null,"modified_on":"2024-11-10T16:10:00.176Z","modified_by":null,"deleted_on":null,"deleted_by":null,"name":"Manager","slug":"manager","description":"Manager","status":"active","tenant_id":"00000000-0000-0000-0000-000000000000"}},{"id":"01945e2d-a7fa-7554-9592-955004070054","meta":null,"created_on":"2025-01-13T05:40:38.010Z","created_by":null,"modified_on":"2025-01-13T05:41:26.776Z","modified_by":null,"deleted_on":null,"deleted_by":null,"tenant_id":"00000000-0000-0000-0000-000000000000","first_name":"Christian","last_name":"Konopelski","email":"Margarette14@hotmail.com","twofa_enabled":false,"status":"active","role_id":"019295e4-b39f-7dd9-892d-46959f7d679d","last_active":"2025-01-13T05:40:38.010Z","last_ip":null,"last_timezone":null,"role":{"id":"019295e4-b39f-7dd9-892d-46959f7d679d","meta":null,"created_on":"2024-10-16T15:14:06.278Z","created_by":null,"modified_on":"2024-11-10T16:10:00.176Z","modified_by":null,"deleted_on":null,"deleted_by":null,"name":"Manager","slug":"manager","description":"Manager","status":"active","tenant_id":"00000000-0000-0000-0000-000000000000"}},{"id":"01945e2c-1b68-7554-9592-7c92f2397cb7","meta":null,"created_on":"2025-01-13T05:38:56.489Z","created_by":null,"modified_on":"2025-01-13T05:38:56.489Z","modified_by":null,"deleted_on":null,"deleted_by":null,"tenant_id":"00000000-0000-0000-0000-000000000000","first_name":null,"last_name":null,"email":"Berry90@gmail.com","twofa_enabled":false,"status":"pending","role_id":"019295e4-b39f-7dd9-892d-46959f7d679d","last_active":"2025-01-13T05:38:56.489Z","last_ip":null,"last_timezone":null,"role":{"id":"019295e4-b39f-7dd9-892d-46959f7d679d","meta":null,"created_on":"2024-10-16T15:14:06.278Z","created_by":null,"modified_on":"2024-11-10T16:10:00.176Z","modified_by":null,"deleted_on":null,"deleted_by":null,"name":"Manager","slug":"manager","description":"Manager","status":"active","tenant_id":"00000000-0000-0000-0000-000000000000"}},{"id":"01944c07-4dd0-777f-a934-4cfc1b447eab","meta":null,"created_on":"2025-01-09T17:05:34.672Z","created_by":null,"modified_on":"2025-01-09T17:16:10.950Z","modified_by":null,"deleted_on":null,"deleted_by":null,"tenant_id":"00000000-0000-0000-0000-000000000000","first_name":"Kobe","last_name":"Kobe","email":"morgan+1@assurdly.com","twofa_enabled":false,"status":"active","role_id":"019311aa-f7df-7cca-a550-a941c7c94d0a","last_active":"2025-01-09T17:08:58.158Z","last_ip":"::ffff:10.0.3.166","last_timezone":null,"role":{"id":"019311aa-f7df-7cca-a550-a941c7c94d0a","meta":null,"created_on":"2024-11-09T16:03:57.533Z","created_by":null,"modified_on":"2024-11-09T16:03:57.533Z","modified_by":null,"deleted_on":null,"deleted_by":null,"name":"New Role test","slug":"new-role-test","description":"New Role test","status":"active","tenant_id":"00000000-0000-0000-0000-000000000000"}},{"id":"01942b99-ca29-7eea-9486-778b937b8893","meta":null,"created_on":"2025-01-03T09:58:06.633Z","created_by":null,"modified_on":"2025-01-03T10:12:38.534Z","modified_by":null,"deleted_on":null,"deleted_by":null,"tenant_id":"00000000-0000-0000-0000-000000000000","first_name":"Feee","last_name":"sod","email":"frank@yopmail.com","twofa_enabled":false,"status":"active","role_id":"019295e4-b39f-7dd9-892d-46959f7d679d","last_active":"2025-01-03T10:12:38.529Z","last_ip":"::ffff:10.0.1.174","last_timezone":null,"role":{"id":"019295e4-b39f-7dd9-892d-46959f7d679d","meta":null,"created_on":"2024-10-16T15:14:06.278Z","created_by":null,"modified_on":"2024-11-10T16:10:00.176Z","modified_by":null,"deleted_on":null,"deleted_by":null,"name":"Manager","slug":"manager","description":"Manager","status":"active","tenant_id":"00000000-0000-0000-0000-000000000000"}}],"meta":{"page":1,"total_pages":5,"total_items":49}}