{"status":"success","data":[{"id":"0195afbc-8d70-788b-a91d-7add0a64ba8d","meta":null,"created_on":"2025-03-19T18:48:44.656Z","created_by_id":"019317a0-b7e5-7eeb-a7eb-bd18cf39a633","modified_on":"2025-03-19T18:48:48.088Z","modified_by_id":"019317a0-b7e5-7eeb-a7eb-bd18cf39a633","deleted_on":null,"deleted_by_id":null,"tenant_id":"00000000-0000-0000-0000-000000000000","account_id":"0193f0e2-ab16-799a-85ae-fa4fbe2990a7","profile_id":"01931947-9fea-744d-8f66-118c138292e3","cba_id":"3866","currency":"NGN","amount":"900.00","balance_after":null,"reference":"TAPWQ4MWQAJC","processor_reference":null,"processor_status":null,"processor_message":"Transaction not found","status":"failed","entry_type":"debit","narration":"Bill payment to gotv for 1102003467","transaction_date":"2025-03-19T18:48:44.656Z","transaction_type":"bill-payment","processor":"baxipay","reviewed_on":null,"reviewed_by":null,"batch_id":null,"schedule_id":null,"account":{"id":"0193f0e2-ab16-799a-85ae-fa4fbe2990a7","meta":null,"created_on":"2024-12-23T00:20:07.063Z","created_by_id":null,"modified_on":"2025-03-19T18:48:44.650Z","modified_by_id":"019317a0-b7e5-7eeb-a7eb-bd18cf39a633","deleted_on":null,"deleted_by_id":null,"tenant_id":"00000000-0000-0000-0000-000000000000","name":"Eno","type":"account","cba_id":"0000000115","status":"active","profile_id":"01931947-9fea-744d-8f66-118c138292e3","account_number":"0000000115","bank_id":"0193324f-cad0-7f86-923b-43fb21ac5b29","ledger_balance":"1296.40","hold_balance":"0.00","available_balance":"1296.40","currency":"NGN","restricted":false},"transfer":null,"disputes":[],"batch":null,"transfer_beneficiary":null,"bill_payment_beneficiary":null},{"id":"0195afbc-7ef9-788b-a91d-72786cff57cc","meta":null,"created_on":"2025-03-19T18:48:40.953Z","created_by_id":"019317a0-b7e5-7eeb-a7eb-bd18cf39a633","modified_on":"2025-03-19T18:48:41.597Z","modified_by_id":"019317a0-b7e5-7eeb-a7eb-bd18cf39a633","deleted_on":null,"deleted_by_id":null,"tenant_id":"00000000-0000-0000-0000-000000000000","account_id":"0193f0e2-ab16-799a-85ae-fa4fbe2990a7","profile_id":"01931947-9fea-744d-8f66-118c138292e3","cba_id":"3865","currency":"NGN","amount":"200.00","balance_after":null,"reference":"TCZ4VMRXLACM","processor_reference":null,"processor_status":null,"processor_message":"11020034671 is not a valid phone number","status":"failed","entry_type":"debit","narration":"Bill payment to 9mobile for 11020034671","transaction_date":"2025-03-19T18:48:40.953Z","transaction_type":"bill-payment","processor":"baxipay","reviewed_on":null,"reviewed_by":null,"batch_id":null,"schedule_id":null,"account":{"id":"0193f0e2-ab16-799a-85ae-fa4fbe2990a7","meta":null,"created_on":"2024-12-23T00:20:07.063Z","created_by_id":null,"modified_on":"2025-03-19T18:48:44.650Z","modified_by_id":"019317a0-b7e5-7eeb-a7eb-bd18cf39a633","deleted_on":null,"deleted_by_id":null,"tenant_id":"00000000-0000-0000-0000-000000000000","name":"Eno","type":"account","cba_id":"0000000115","status":"active","profile_id":"01931947-9fea-744d-8f66-118c138292e3","account_number":"0000000115","bank_id":"0193324f-cad0-7f86-923b-43fb21ac5b29","ledger_balance":"1296.40","hold_balance":"0.00","available_balance":"1296.40","currency":"NGN","restricted":false},"transfer":null,"disputes":[],"batch":null,"transfer_beneficiary":null,"bill_payment_beneficiary":null},{"id":"0195afbc-796c-788b-a91d-6dde5d1643fe","meta":null,"created_on":"2025-03-19T18:48:39.531Z","created_by_id":"019317a0-b7e5-7eeb-a7eb-bd18cf39a633","modified_on":"2025-03-19T18:48:40.118Z","modified_by_id":"019317a0-b7e5-7eeb-a7eb-bd18cf39a633","deleted_on":null,"deleted_by_id":null,"tenant_id":"00000000-0000-0000-0000-000000000000","account_id":"0193f0e2-ab16-799a-85ae-fa4fbe2990a7","profile_id":"01931947-9fea-744d-8f66-118c138292e3","cba_id":"3864","currency":"NGN","amount":"50.00","balance_after":null,"reference":"TKL91AUXDQFP","processor_reference":null,"processor_status":null,"processor_message":"11020034671 is not a valid phone number","status":"failed","entry_type":"debit","narration":"Bill payment to airtel for 11020034671","transaction_date":"2025-03-19T18:48:39.531Z","transaction_type":"bill-payment","processor":"baxipay","reviewed_on":null,"reviewed_by":null,"batch_id":null,"schedule_id":null,"account":{"id":"0193f0e2-ab16-799a-85ae-fa4fbe2990a7","meta":null,"created_on":"2024-12-23T00:20:07.063Z","created_by_id":null,"modified_on":"2025-03-19T18:48:44.650Z","modified_by_id":"019317a0-b7e5-7eeb-a7eb-bd18cf39a633","deleted_on":null,"deleted_by_id":null,"tenant_id":"00000000-0000-0000-0000-000000000000","name":"Eno","type":"account","cba_id":"0000000115","status":"active","profile_id":"01931947-9fea-744d-8f66-118c138292e3","account_number":"0000000115","bank_id":"0193324f-cad0-7f86-923b-43fb21ac5b29","ledger_balance":"1296.40","hold_balance":"0.00","available_balance":"1296.40","currency":"NGN","restricted":false},"transfer":null,"disputes":[],"batch":null,"transfer_beneficiary":null,"bill_payment_beneficiary":null},{"id":"0195afbc-6bc1-788b-a91d-61c095f2bd4a","meta":null,"created_on":"2025-03-19T18:48:36.033Z","created_by_id":"019317a0-b7e5-7eeb-a7eb-bd18cf39a633","modified_on":"2025-03-19T18:48:36.732Z","modified_by_id":"019317a0-b7e5-7eeb-a7eb-bd18cf39a633","deleted_on":null,"deleted_by_id":null,"tenant_id":"00000000-0000-0000-0000-000000000000","account_id":"0193f0e2-ab16-799a-85ae-fa4fbe2990a7","profile_id":"01931947-9fea-744d-8f66-118c138292e3","cba_id":"3863","currency":"NGN","amount":"100.00","balance_after":null,"reference":"T95NSG0VNABC","processor_reference":null,"processor_status":null,"processor_message":"11020034671 is not a valid phone number","status":"failed","entry_type":"debit","narration":"Bill payment to mtn for 11020034671","transaction_date":"2025-03-19T18:48:36.031Z","transaction_type":"bill-payment","processor":"baxipay","reviewed_on":null,"reviewed_by":null,"batch_id":null,"schedule_id":null,"account":{"id":"0193f0e2-ab16-799a-85ae-fa4fbe2990a7","meta":null,"created_on":"2024-12-23T00:20:07.063Z","created_by_id":null,"modified_on":"2025-03-19T18:48:44.650Z","modified_by_id":"019317a0-b7e5-7eeb-a7eb-bd18cf39a633","deleted_on":null,"deleted_by_id":null,"tenant_id":"00000000-0000-0000-0000-000000000000","name":"Eno","type":"account","cba_id":"0000000115","status":"active","profile_id":"01931947-9fea-744d-8f66-118c138292e3","account_number":"0000000115","bank_id":"0193324f-cad0-7f86-923b-43fb21ac5b29","ledger_balance":"1296.40","hold_balance":"0.00","available_balance":"1296.40","currency":"NGN","restricted":false},"transfer":null,"disputes":[],"batch":null,"transfer_beneficiary":null,"bill_payment_beneficiary":null},{"id":"0195afbc-632c-788b-a91d-5cb8bb7e2d5d","meta":null,"created_on":"2025-03-19T18:48:33.835Z","created_by_id":"019317a0-b7e5-7eeb-a7eb-bd18cf39a633","modified_on":"2025-03-19T18:48:34.637Z","modified_by_id":"019317a0-b7e5-7eeb-a7eb-bd18cf39a633","deleted_on":null,"deleted_by_id":null,"tenant_id":"00000000-0000-0000-0000-000000000000","account_id":"0193f0e2-ab16-799a-85ae-fa4fbe2990a7","profile_id":"01931947-9fea-744d-8f66-118c138292e3","cba_id":"3862","currency":"NGN","amount":"100.00","balance_after":null,"reference":"TPWFHO0O3N8C","processor_reference":null,"processor_status":null,"processor_message":"ensure you supply a valid accountId","status":"failed","entry_type":"debit","narration":"Bill payment to smile for 1102003467","transaction_date":"2025-03-19T18:48:33.835Z","transaction_type":"bill-payment","processor":"baxipay","reviewed_on":null,"reviewed_by":null,"batch_id":null,"schedule_id":null,"account":{"id":"0193f0e2-ab16-799a-85ae-fa4fbe2990a7","meta":null,"created_on":"2024-12-23T00:20:07.063Z","created_by_id":null,"modified_on":"2025-03-19T18:48:44.650Z","modified_by_id":"019317a0-b7e5-7eeb-a7eb-bd18cf39a633","deleted_on":null,"deleted_by_id":null,"tenant_id":"00000000-0000-0000-0000-000000000000","name":"Eno","type":"account","cba_id":"0000000115","status":"active","profile_id":"01931947-9fea-744d-8f66-118c138292e3","account_number":"0000000115","bank_id":"0193324f-cad0-7f86-923b-43fb21ac5b29","ledger_balance":"1296.40","hold_balance":"0.00","available_balance":"1296.40","currency":"NGN","restricted":false},"transfer":null,"disputes":[],"batch":null,"transfer_beneficiary":null,"bill_payment_beneficiary":null},{"id":"0195afbc-5b5f-788b-a91d-53f98523b0f8","meta":null,"created_on":"2025-03-19T18:48:31.838Z","created_by_id":"019317a0-b7e5-7eeb-a7eb-bd18cf39a633","modified_on":"2025-03-19T18:48:32.630Z","modified_by_id":"019317a0-b7e5-7eeb-a7eb-bd18cf39a633","deleted_on":null,"deleted_by_id":null,"tenant_id":"00000000-0000-0000-0000-000000000000","account_id":"0193f0e2-ab16-799a-85ae-fa4fbe2990a7","profile_id":"01931947-9fea-744d-8f66-118c138292e3","cba_id":"3861","currency":"NGN","amount":"100.00","balance_after":null,"reference":"THJAAZAH42ZZ","processor_reference":null,"processor_status":null,"processor_message":"01102003467 is not a valid phone number","status":"failed","entry_type":"debit","narration":"Bill payment to 9mobile for 1102003467","transaction_date":"2025-03-19T18:48:31.838Z","transaction_type":"bill-payment","processor":"baxipay","reviewed_on":null,"reviewed_by":null,"batch_id":null,"schedule_id":null,"account":{"id":"0193f0e2-ab16-799a-85ae-fa4fbe2990a7","meta":null,"created_on":"2024-12-23T00:20:07.063Z","created_by_id":null,"modified_on":"2025-03-19T18:48:44.650Z","modified_by_id":"019317a0-b7e5-7eeb-a7eb-bd18cf39a633","deleted_on":null,"deleted_by_id":null,"tenant_id":"00000000-0000-0000-0000-000000000000","name":"Eno","type":"account","cba_id":"0000000115","status":"active","profile_id":"01931947-9fea-744d-8f66-118c138292e3","account_number":"0000000115","bank_id":"0193324f-cad0-7f86-923b-43fb21ac5b29","ledger_balance":"1296.40","hold_balance":"0.00","available_balance":"1296.40","currency":"NGN","restricted":false},"transfer":null,"disputes":[],"batch":null,"transfer_beneficiary":null,"bill_payment_beneficiary":null},{"id":"0195afbc-5521-788b-a91d-4b13cdd3f2b1","meta":null,"created_on":"2025-03-19T18:48:30.240Z","created_by_id":"019317a0-b7e5-7eeb-a7eb-bd18cf39a633","modified_on":"2025-03-19T18:48:30.877Z","modified_by_id":"019317a0-b7e5-7eeb-a7eb-bd18cf39a633","deleted_on":null,"deleted_by_id":null,"tenant_id":"00000000-0000-0000-0000-000000000000","account_id":"0193f0e2-ab16-799a-85ae-fa4fbe2990a7","profile_id":"01931947-9fea-744d-8f66-118c138292e3","cba_id":"3860","currency":"NGN","amount":"100.00","balance_after":null,"reference":"T3VR048MGD60","processor_reference":null,"processor_status":null,"processor_message":"01102003467 is not a valid phone number","status":"failed","entry_type":"debit","narration":"Bill payment to airtel for 1102003467","transaction_date":"2025-03-19T18:48:30.240Z","transaction_type":"bill-payment","processor":"baxipay","reviewed_on":null,"reviewed_by":null,"batch_id":null,"schedule_id":null,"account":{"id":"0193f0e2-ab16-799a-85ae-fa4fbe2990a7","meta":null,"created_on":"2024-12-23T00:20:07.063Z","created_by_id":null,"modified_on":"2025-03-19T18:48:44.650Z","modified_by_id":"019317a0-b7e5-7eeb-a7eb-bd18cf39a633","deleted_on":null,"deleted_by_id":null,"tenant_id":"00000000-0000-0000-0000-000000000000","name":"Eno","type":"account","cba_id":"0000000115","status":"active","profile_id":"01931947-9fea-744d-8f66-118c138292e3","account_number":"0000000115","bank_id":"0193324f-cad0-7f86-923b-43fb21ac5b29","ledger_balance":"1296.40","hold_balance":"0.00","available_balance":"1296.40","currency":"NGN","restricted":false},"transfer":null,"disputes":[],"batch":null,"transfer_beneficiary":null,"bill_payment_beneficiary":null},{"id":"0195afbc-4842-788b-a91d-14b1322b8a58","meta":null,"created_on":"2025-03-19T18:48:26.946Z","created_by_id":"019317a0-b7e5-7eeb-a7eb-bd18cf39a633","modified_on":"2025-03-19T18:48:28.533Z","modified_by_id":"019317a0-b7e5-7eeb-a7eb-bd18cf39a633","deleted_on":null,"deleted_by_id":null,"tenant_id":"00000000-0000-0000-0000-000000000000","account_id":"0193f0e2-ab16-799a-85ae-fa4fbe2990a7","profile_id":"01931947-9fea-744d-8f66-118c138292e3","cba_id":"3859","currency":"NGN","amount":"100.00","balance_after":null,"reference":"TE9KD92AR5YS","processor_reference":null,"processor_status":null,"processor_message":"01102003467 is not a valid phone number","status":"failed","entry_type":"debit","narration":"Bill payment to glo for 1102003467","transaction_date":"2025-03-19T18:48:26.946Z","transaction_type":"bill-payment","processor":"baxipay","reviewed_on":null,"reviewed_by":null,"batch_id":null,"schedule_id":null,"account":{"id":"0193f0e2-ab16-799a-85ae-fa4fbe2990a7","meta":null,"created_on":"2024-12-23T00:20:07.063Z","created_by_id":null,"modified_on":"2025-03-19T18:48:44.650Z","modified_by_id":"019317a0-b7e5-7eeb-a7eb-bd18cf39a633","deleted_on":null,"deleted_by_id":null,"tenant_id":"00000000-0000-0000-0000-000000000000","name":"Eno","type":"account","cba_id":"0000000115","status":"active","profile_id":"01931947-9fea-744d-8f66-118c138292e3","account_number":"0000000115","bank_id":"0193324f-cad0-7f86-923b-43fb21ac5b29","ledger_balance":"1296.40","hold_balance":"0.00","available_balance":"1296.40","currency":"NGN","restricted":false},"transfer":null,"disputes":[],"batch":null,"transfer_beneficiary":null,"bill_payment_beneficiary":null},{"id":"0195afbc-2514-788b-a91d-080476eb39b9","meta":null,"created_on":"2025-03-19T18:48:17.928Z","created_by_id":"019317a0-b7e5-7eeb-a7eb-bd18cf39a633","modified_on":"2025-03-19T18:48:18.949Z","modified_by_id":"019317a0-b7e5-7eeb-a7eb-bd18cf39a633","deleted_on":null,"deleted_by_id":null,"tenant_id":"00000000-0000-0000-0000-000000000000","account_id":"0193f0e2-ab16-799a-85ae-fa4fbe2990a7","profile_id":"01931947-9fea-744d-8f66-118c138292e3","cba_id":"3858","currency":"NGN","amount":"100.00","balance_after":null,"reference":"TZZZFUI55IEB","processor_reference":null,"processor_status":null,"processor_message":"07918852161 is not a valid phone number","status":"failed","entry_type":"debit","narration":"Bill payment to mtn for 7918852161","transaction_date":"2025-03-19T18:48:17.928Z","transaction_type":"bill-payment","processor":"baxipay","reviewed_on":null,"reviewed_by":null,"batch_id":null,"schedule_id":null,"account":{"id":"0193f0e2-ab16-799a-85ae-fa4fbe2990a7","meta":null,"created_on":"2024-12-23T00:20:07.063Z","created_by_id":null,"modified_on":"2025-03-19T18:48:44.650Z","modified_by_id":"019317a0-b7e5-7eeb-a7eb-bd18cf39a633","deleted_on":null,"deleted_by_id":null,"tenant_id":"00000000-0000-0000-0000-000000000000","name":"Eno","type":"account","cba_id":"0000000115","status":"active","profile_id":"01931947-9fea-744d-8f66-118c138292e3","account_number":"0000000115","bank_id":"0193324f-cad0-7f86-923b-43fb21ac5b29","ledger_balance":"1296.40","hold_balance":"0.00","available_balance":"1296.40","currency":"NGN","restricted":false},"transfer":null,"disputes":[],"batch":null,"transfer_beneficiary":null,"bill_payment_beneficiary":null},{"id":"0195afbb-bf17-788b-a91b-e5a18d269705","meta":null,"created_on":"2025-03-19T18:47:51.830Z","created_by_id":"019317a0-b7e5-7eeb-a7eb-bd18cf39a633","modified_on":"2025-03-19T18:47:54.247Z","modified_by_id":"019317a0-b7e5-7eeb-a7eb-bd18cf39a633","deleted_on":null,"deleted_by_id":null,"tenant_id":"00000000-0000-0000-0000-000000000000","account_id":"0193f0e2-ab16-799a-85ae-fa4fbe2990a7","profile_id":"01931947-9fea-744d-8f66-118c138292e3","cba_id":"3856","currency":"NGN","amount":"10.00","balance_after":null,"reference":"T6RFO15UN5V5","processor_reference":null,"processor_status":null,"processor_message":null,"status":"success","entry_type":"debit","narration":"Sodiq","transaction_date":"2025-03-19T18:47:51.830Z","transaction_type":"fee","processor":"cba","reviewed_on":null,"reviewed_by":null,"batch_id":null,"schedule_id":null,"account":{"id":"0193f0e2-ab16-799a-85ae-fa4fbe2990a7","meta":null,"created_on":"2024-12-23T00:20:07.063Z","created_by_id":null,"modified_on":"2025-03-19T18:48:44.650Z","modified_by_id":"019317a0-b7e5-7eeb-a7eb-bd18cf39a633","deleted_on":null,"deleted_by_id":null,"tenant_id":"00000000-0000-0000-0000-000000000000","name":"Eno","type":"account","cba_id":"0000000115","status":"active","profile_id":"01931947-9fea-744d-8f66-118c138292e3","account_number":"0000000115","bank_id":"0193324f-cad0-7f86-923b-43fb21ac5b29","ledger_balance":"1296.40","hold_balance":"0.00","available_balance":"1296.40","currency":"NGN","restricted":false},"transfer":null,"disputes":[],"batch":null,"transfer_beneficiary":null,"bill_payment_beneficiary":null}],"meta":{"page":1,"total_pages":194,"total_items":1937}}