{"status":"success","data":[{"id":"01945e47-88e0-7554-9594-afb0d4e370c7","meta":null,"created_on":"2025-01-13T06:08:53.984Z","created_by":null,"modified_on":"2025-01-13T06:08:53.984Z","modified_by":null,"deleted_on":null,"deleted_by":null,"name":"deposit","slug":"deposit","description":"modular","status":"active","tenant_id":"00000000-0000-0000-0000-000000000000","userCount":0,"user_count":0},{"id":"01945e2b-41cc-7554-9591-f3f3a36d09bb","meta":null,"created_on":"2025-01-13T05:38:00.770Z","created_by":null,"modified_on":"2025-01-13T05:38:00.770Z","modified_by":null,"deleted_on":null,"deleted_by":null,"name":"China","slug":"china","description":"Mauritius","status":"active","tenant_id":"00000000-0000-0000-0000-000000000000","userCount":0,"user_count":0},{"id":"01945e2a-92c9-7554-9591-68196fe6209f","meta":null,"created_on":"2025-01-13T05:37:15.977Z","created_by":null,"modified_on":"2025-01-13T05:37:15.977Z","modified_by":null,"deleted_on":null,"deleted_by":null,"name":"implement","slug":"implement","description":"Tunnel","status":"active","tenant_id":"00000000-0000-0000-0000-000000000000","userCount":1,"user_count":1},{"id":"01945e29-8557-7554-9590-e06ac19e57f7","meta":null,"created_on":"2025-01-13T05:36:06.999Z","created_by":null,"modified_on":"2025-01-13T05:36:06.999Z","modified_by":null,"deleted_on":null,"deleted_by":null,"name":"Islands","slug":"islands","description":"black","status":"active","tenant_id":"00000000-0000-0000-0000-000000000000","userCount":0,"user_count":0},{"id":"019423c7-9254-777b-b0d2-dd01a10c46c3","meta":null,"created_on":"2025-01-01T21:31:09.266Z","created_by":null,"modified_on":"2025-01-09T15:42:08.717Z","modified_by":null,"deleted_on":null,"deleted_by":null,"name":"Vat 2","slug":"vat-2","description":"Test Rolle","status":"active","tenant_id":"00000000-0000-0000-0000-000000000000","userCount":0,"user_count":0},{"id":"0194073a-3ba9-7666-863e-ac53d031fd86","meta":null,"created_on":"2024-12-27T08:27:24.452Z","created_by":null,"modified_on":"2024-12-27T08:27:24.452Z","modified_by":null,"deleted_on":null,"deleted_by":null,"name":"admin Approver","slug":"admin-approver","description":"Approver","status":"active","tenant_id":"00000000-0000-0000-0000-000000000000","userCount":0,"user_count":0},{"id":"0193df46-d097-7ddc-9299-673f662cb3f7","meta":null,"created_on":"2024-12-19T14:16:20.374Z","created_by":null,"modified_on":"2025-01-01T21:39:18.390Z","modified_by":null,"deleted_on":null,"deleted_by":null,"name":"Dread","slug":"dread","description":"JustTestingg sdsd","status":"active","tenant_id":"00000000-0000-0000-0000-000000000000","userCount":0,"user_count":0},{"id":"01927265-d8bc-7195-996f-e131d5e13339","meta":null,"created_on":"2024-12-02T20:59:05.761Z","created_by":null,"modified_on":"2024-12-02T20:59:05.761Z","modified_by":null,"deleted_on":null,"deleted_by":null,"name":"Admin","slug":"admin","description":"","status":"active","tenant_id":null,"userCount":15,"user_count":15},{"id":"019368c0-b0c3-7dd8-85d9-107ddde1f539","meta":null,"created_on":"2024-11-26T13:54:38.915Z","created_by":null,"modified_on":"2025-01-01T21:39:01.279Z","modified_by":null,"deleted_on":null,"deleted_by":null,"name":"test user permission","slug":"test-user-permission","description":"Approver","status":"active","tenant_id":"00000000-0000-0000-0000-000000000000","userCount":4,"user_count":4},{"id":"019368b0-3295-7dd8-85d7-909406e80d9a","meta":null,"created_on":"2024-11-26T13:36:38.036Z","created_by":null,"modified_on":"2024-12-05T11:20:35.768Z","modified_by":null,"deleted_on":null,"deleted_by":null,"name":"admin manager","slug":"admin-manager","description":"Approver","status":"active","tenant_id":"00000000-0000-0000-0000-000000000000","userCount":2,"user_count":2}],"meta":{"page":1,"total_pages":2,"total_items":14}}