{"status":"success","data":[{"id":"0193e2de-3b75-7ccf-aea0-6d09de2f9b72","meta":null,"created_on":"2024-12-20T07:00:35.318Z","created_by":"019317a0-b7e5-7eeb-a7eb-bd18cf39a633","modified_on":"2024-12-20T07:00:39.594Z","modified_by":null,"deleted_on":null,"deleted_by":null,"tenant_id":"00000000-0000-0000-0000-000000000000","account_id":"019390f5-db96-7335-b5bb-74eac1376a9c","profile_id":"01931947-9fea-744d-8f66-118c138292e3","cba_id":"1083","currency":"NGN","amount":"500.00","reference":"Tjqwvorweur","processor_reference":null,"processor_status":null,"processor_message":null,"status":"success","entry_type":"debit","narration":"Bill payment to 9mobile for 00000000000","transaction_date":"2024-12-20T07:00:35.316Z","transaction_type":"bill-payment","processor":"baxipay","reviewed_on":null,"reviewed_by":null,"batch_id":null,"schedule_id":null,"transfer":null,"transfer_beneficiary":null,"bill_payment_beneficiary":null,"disputes":[],"batch":null,"account":{"id":"019390f5-db96-7335-b5bb-74eac1376a9c","meta":null,"created_on":"2024-12-04T09:17:31.925Z","created_by":null,"modified_on":"2024-12-19T20:33:58.122Z","modified_by":null,"deleted_on":null,"deleted_by":null,"tenant_id":"00000000-0000-0000-0000-000000000000","name":"Travel","cba_id":"0000000040","profile_id":"01931947-9fea-744d-8f66-118c138292e3","account_number":"0000000040","ledger_balance":"640630.09","hold_balance":"0.00","available_balance":"640630.09","currency":"NGN","restricted":false}},{"id":"0193dfca-7b3d-7001-b224-804edab946f9","meta":null,"created_on":"2024-12-19T16:40:09.276Z","created_by":"019317a0-b7e5-7eeb-a7eb-bd18cf39a633","modified_on":"2024-12-19T16:40:11.171Z","modified_by":null,"deleted_on":null,"deleted_by":null,"tenant_id":"00000000-0000-0000-0000-000000000000","account_id":"019390f5-db96-7335-b5bb-74eac1376a9c","profile_id":"01931947-9fea-744d-8f66-118c138292e3","cba_id":"1066","currency":"NGN","amount":"500.00","reference":"Tamizcfleak","processor_reference":null,"processor_status":null,"processor_message":null,"status":"success","entry_type":"debit","narration":"Bill payment to eko_electric_prepaid for 012345678901","transaction_date":"2024-12-19T16:40:09.275Z","transaction_type":"bill-payment","processor":"baxipay","reviewed_on":null,"reviewed_by":null,"batch_id":null,"schedule_id":null,"transfer":null,"transfer_beneficiary":null,"bill_payment_beneficiary":null,"disputes":[],"batch":null,"account":{"id":"019390f5-db96-7335-b5bb-74eac1376a9c","meta":null,"created_on":"2024-12-04T09:17:31.925Z","created_by":null,"modified_on":"2024-12-19T20:33:58.122Z","modified_by":null,"deleted_on":null,"deleted_by":null,"tenant_id":"00000000-0000-0000-0000-000000000000","name":"Travel","cba_id":"0000000040","profile_id":"01931947-9fea-744d-8f66-118c138292e3","account_number":"0000000040","ledger_balance":"640630.09","hold_balance":"0.00","available_balance":"640630.09","currency":"NGN","restricted":false}},{"id":"0193dfa1-3132-7223-a9c5-02057d11ec24","meta":null,"created_on":"2024-12-19T15:55:03.346Z","created_by":"019317a0-b7e5-7eeb-a7eb-bd18cf39a633","modified_on":"2024-12-19T15:55:04.973Z","modified_by":null,"deleted_on":null,"deleted_by":null,"tenant_id":"00000000-0000-0000-0000-000000000000","account_id":"019390f5-db96-7335-b5bb-74eac1376a9c","profile_id":"01931947-9fea-744d-8f66-118c138292e3","cba_id":"1065","currency":"NGN","amount":"200.00","reference":"Tleodyyfppc","processor_reference":null,"processor_status":null,"processor_message":null,"status":"success","entry_type":"debit","narration":"Bill payment to 9mobile for 09055755671","transaction_date":"2024-12-19T15:55:03.345Z","transaction_type":"bill-payment","processor":"baxipay","reviewed_on":null,"reviewed_by":null,"batch_id":null,"schedule_id":null,"transfer":null,"transfer_beneficiary":null,"bill_payment_beneficiary":null,"disputes":[],"batch":null,"account":{"id":"019390f5-db96-7335-b5bb-74eac1376a9c","meta":null,"created_on":"2024-12-04T09:17:31.925Z","created_by":null,"modified_on":"2024-12-19T20:33:58.122Z","modified_by":null,"deleted_on":null,"deleted_by":null,"tenant_id":"00000000-0000-0000-0000-000000000000","name":"Travel","cba_id":"0000000040","profile_id":"01931947-9fea-744d-8f66-118c138292e3","account_number":"0000000040","ledger_balance":"640630.09","hold_balance":"0.00","available_balance":"640630.09","currency":"NGN","restricted":false}},{"id":"0193df9d-d767-7223-a9c4-fd6db45604d4","meta":null,"created_on":"2024-12-19T15:51:23.751Z","created_by":"019317a0-b7e5-7eeb-a7eb-bd18cf39a633","modified_on":"2024-12-19T15:51:25.550Z","modified_by":null,"deleted_on":null,"deleted_by":null,"tenant_id":"00000000-0000-0000-0000-000000000000","account_id":"019390f5-db96-7335-b5bb-74eac1376a9c","profile_id":"01931947-9fea-744d-8f66-118c138292e3","cba_id":"1064","currency":"NGN","amount":"1800.00","reference":"Tmsbvgptjvc","processor_reference":null,"processor_status":null,"processor_message":null,"status":"success","entry_type":"debit","narration":"Bill payment to waec for 01234567895","transaction_date":"2024-12-19T15:51:23.750Z","transaction_type":"bill-payment","processor":"baxipay","reviewed_on":null,"reviewed_by":null,"batch_id":null,"schedule_id":null,"transfer":null,"transfer_beneficiary":null,"bill_payment_beneficiary":null,"disputes":[],"batch":null,"account":{"id":"019390f5-db96-7335-b5bb-74eac1376a9c","meta":null,"created_on":"2024-12-04T09:17:31.925Z","created_by":null,"modified_on":"2024-12-19T20:33:58.122Z","modified_by":null,"deleted_on":null,"deleted_by":null,"tenant_id":"00000000-0000-0000-0000-000000000000","name":"Travel","cba_id":"0000000040","profile_id":"01931947-9fea-744d-8f66-118c138292e3","account_number":"0000000040","ledger_balance":"640630.09","hold_balance":"0.00","available_balance":"640630.09","currency":"NGN","restricted":false}},{"id":"0193de27-851e-7ddc-9295-26b2c05e0037","meta":null,"created_on":"2024-12-19T09:02:32.222Z","created_by":"019317a0-b7e5-7eeb-a7eb-bd18cf39a633","modified_on":"2024-12-19T09:02:33.483Z","modified_by":null,"deleted_on":null,"deleted_by":null,"tenant_id":"00000000-0000-0000-0000-000000000000","account_id":"0193912b-6f5e-7335-b5bc-3302dcc08103","profile_id":"01931947-9fea-744d-8f66-118c138292e3","cba_id":"1061","currency":"NGN","amount":"50.00","reference":"Tmnsfamelpt","processor_reference":null,"processor_status":null,"processor_message":null,"status":"success","entry_type":"debit","narration":"Bill payment to airtel for 09055755671","transaction_date":"2024-12-19T09:02:32.221Z","transaction_type":"bill-payment","processor":"baxipay","reviewed_on":null,"reviewed_by":null,"batch_id":null,"schedule_id":null,"transfer":null,"transfer_beneficiary":null,"bill_payment_beneficiary":null,"disputes":[],"batch":null,"account":{"id":"0193912b-6f5e-7335-b5bc-3302dcc08103","meta":null,"created_on":"2024-12-04T10:16:03.166Z","created_by":null,"modified_on":"2024-12-20T18:38:29.644Z","modified_by":null,"deleted_on":null,"deleted_by":null,"tenant_id":"00000000-0000-0000-0000-000000000000","name":"Education","cba_id":"0000000041","profile_id":"01931947-9fea-744d-8f66-118c138292e3","account_number":"0000000041","ledger_balance":"17.61","hold_balance":"0.00","available_balance":"17.61","currency":"NGN","restricted":false}},{"id":"0193dad8-0ec1-7aa3-88d3-d7b7bcac21b6","meta":null,"created_on":"2024-12-18T17:36:52.930Z","created_by":"019317a0-b7e5-7eeb-a7eb-bd18cf39a633","modified_on":"2024-12-18T17:36:56.448Z","modified_by":null,"deleted_on":null,"deleted_by":null,"tenant_id":"00000000-0000-0000-0000-000000000000","account_id":"019390f5-db96-7335-b5bb-74eac1376a9c","profile_id":"01931947-9fea-744d-8f66-118c138292e3","cba_id":"1050","currency":"NGN","amount":"1200.00","reference":"Txtrxhilcgs","processor_reference":null,"processor_status":null,"processor_message":null,"status":"success","entry_type":"debit","narration":"Bill payment to mtn for 09030253741","transaction_date":"2024-12-18T17:36:52.928Z","transaction_type":"bill-payment","processor":"baxipay","reviewed_on":null,"reviewed_by":null,"batch_id":null,"schedule_id":null,"transfer":null,"transfer_beneficiary":null,"bill_payment_beneficiary":null,"disputes":[],"batch":null,"account":{"id":"019390f5-db96-7335-b5bb-74eac1376a9c","meta":null,"created_on":"2024-12-04T09:17:31.925Z","created_by":null,"modified_on":"2024-12-19T20:33:58.122Z","modified_by":null,"deleted_on":null,"deleted_by":null,"tenant_id":"00000000-0000-0000-0000-000000000000","name":"Travel","cba_id":"0000000040","profile_id":"01931947-9fea-744d-8f66-118c138292e3","account_number":"0000000040","ledger_balance":"640630.09","hold_balance":"0.00","available_balance":"640630.09","currency":"NGN","restricted":false}},{"id":"0193da76-3dab-7aa3-88d2-8d0ff6c118ed","meta":null,"created_on":"2024-12-18T15:50:02.411Z","created_by":"019317a0-b7e5-7eeb-a7eb-bd18cf39a633","modified_on":"2024-12-18T15:50:04.038Z","modified_by":null,"deleted_on":null,"deleted_by":null,"tenant_id":"00000000-0000-0000-0000-000000000000","account_id":"019390f5-db96-7335-b5bb-74eac1376a9c","profile_id":"01931947-9fea-744d-8f66-118c138292e3","cba_id":"1049","currency":"NGN","amount":"500.00","reference":"Tbsckgwpyys","processor_reference":null,"processor_status":null,"processor_message":null,"status":"success","entry_type":"debit","narration":"Bill payment to glo for 909808090","transaction_date":"2024-12-18T15:50:02.399Z","transaction_type":"bill-payment","processor":"baxipay","reviewed_on":null,"reviewed_by":null,"batch_id":null,"schedule_id":null,"transfer":null,"transfer_beneficiary":null,"bill_payment_beneficiary":null,"disputes":[],"batch":null,"account":{"id":"019390f5-db96-7335-b5bb-74eac1376a9c","meta":null,"created_on":"2024-12-04T09:17:31.925Z","created_by":null,"modified_on":"2024-12-19T20:33:58.122Z","modified_by":null,"deleted_on":null,"deleted_by":null,"tenant_id":"00000000-0000-0000-0000-000000000000","name":"Travel","cba_id":"0000000040","profile_id":"01931947-9fea-744d-8f66-118c138292e3","account_number":"0000000040","ledger_balance":"640630.09","hold_balance":"0.00","available_balance":"640630.09","currency":"NGN","restricted":false}},{"id":"0193da64-e5a6-7aa3-88d2-446e686c7eb3","meta":null,"created_on":"2024-12-18T15:31:05.740Z","created_by":"019317a0-b7e5-7eeb-a7eb-bd18cf39a633","modified_on":"2024-12-18T15:31:07.457Z","modified_by":null,"deleted_on":null,"deleted_by":null,"tenant_id":"00000000-0000-0000-0000-000000000000","account_id":"019390f5-db96-7335-b5bb-74eac1376a9c","profile_id":"01931947-9fea-744d-8f66-118c138292e3","cba_id":"1048","currency":"NGN","amount":"2000.00","reference":"Tfgmlfgljox","processor_reference":null,"processor_status":null,"processor_message":null,"status":"success","entry_type":"debit","narration":"Bill payment to eko_electric_prepaid for 22819001991281","transaction_date":"2024-12-18T15:31:05.739Z","transaction_type":"bill-payment","processor":"baxipay","reviewed_on":null,"reviewed_by":null,"batch_id":null,"schedule_id":null,"transfer":null,"transfer_beneficiary":null,"bill_payment_beneficiary":null,"disputes":[],"batch":null,"account":{"id":"019390f5-db96-7335-b5bb-74eac1376a9c","meta":null,"created_on":"2024-12-04T09:17:31.925Z","created_by":null,"modified_on":"2024-12-19T20:33:58.122Z","modified_by":null,"deleted_on":null,"deleted_by":null,"tenant_id":"00000000-0000-0000-0000-000000000000","name":"Travel","cba_id":"0000000040","profile_id":"01931947-9fea-744d-8f66-118c138292e3","account_number":"0000000040","ledger_balance":"640630.09","hold_balance":"0.00","available_balance":"640630.09","currency":"NGN","restricted":false}},{"id":"0193da59-ea22-7aa3-88d1-ee2778dec7cf","meta":null,"created_on":"2024-12-18T15:19:06.018Z","created_by":"019317a0-b7e5-7eeb-a7eb-bd18cf39a633","modified_on":"2024-12-18T15:19:07.106Z","modified_by":null,"deleted_on":null,"deleted_by":null,"tenant_id":"00000000-0000-0000-0000-000000000000","account_id":"019390f5-db96-7335-b5bb-74eac1376a9c","profile_id":"01931947-9fea-744d-8f66-118c138292e3","cba_id":"1047","currency":"NGN","amount":"1200.00","reference":"Tcwkyhruirp","processor_reference":null,"processor_status":null,"processor_message":null,"status":"success","entry_type":"debit","narration":"Bill payment to mtn for 08011829918","transaction_date":"2024-12-18T15:19:06.002Z","transaction_type":"bill-payment","processor":"baxipay","reviewed_on":null,"reviewed_by":null,"batch_id":null,"schedule_id":null,"transfer":null,"transfer_beneficiary":null,"bill_payment_beneficiary":null,"disputes":[],"batch":null,"account":{"id":"019390f5-db96-7335-b5bb-74eac1376a9c","meta":null,"created_on":"2024-12-04T09:17:31.925Z","created_by":null,"modified_on":"2024-12-19T20:33:58.122Z","modified_by":null,"deleted_on":null,"deleted_by":null,"tenant_id":"00000000-0000-0000-0000-000000000000","name":"Travel","cba_id":"0000000040","profile_id":"01931947-9fea-744d-8f66-118c138292e3","account_number":"0000000040","ledger_balance":"640630.09","hold_balance":"0.00","available_balance":"640630.09","currency":"NGN","restricted":false}},{"id":"0193da54-c94f-7aa3-88d1-e13cbf2fee9d","meta":null,"created_on":"2024-12-18T15:13:29.935Z","created_by":"019317a0-b7e5-7eeb-a7eb-bd18cf39a633","modified_on":"2024-12-18T15:13:31.309Z","modified_by":null,"deleted_on":null,"deleted_by":null,"tenant_id":"00000000-0000-0000-0000-000000000000","account_id":"019390f5-db96-7335-b5bb-74eac1376a9c","profile_id":"01931947-9fea-744d-8f66-118c138292e3","cba_id":"1046","currency":"NGN","amount":"5000.00","reference":"Tquwltvislc","processor_reference":null,"processor_status":null,"processor_message":"","status":"failed","entry_type":"debit","narration":"Bill payment to abuja_electric_postpaid for 22819001991281","transaction_date":"2024-12-18T15:13:29.934Z","transaction_type":"bill-payment","processor":"baxipay","reviewed_on":null,"reviewed_by":null,"batch_id":null,"schedule_id":null,"transfer":null,"transfer_beneficiary":null,"bill_payment_beneficiary":null,"disputes":[],"batch":null,"account":{"id":"019390f5-db96-7335-b5bb-74eac1376a9c","meta":null,"created_on":"2024-12-04T09:17:31.925Z","created_by":null,"modified_on":"2024-12-19T20:33:58.122Z","modified_by":null,"deleted_on":null,"deleted_by":null,"tenant_id":"00000000-0000-0000-0000-000000000000","name":"Travel","cba_id":"0000000040","profile_id":"01931947-9fea-744d-8f66-118c138292e3","account_number":"0000000040","ledger_balance":"640630.09","hold_balance":"0.00","available_balance":"640630.09","currency":"NGN","restricted":false}}],"meta":{"page":1,"total_pages":141,"total_items":1409}}