{"status":"success","data":[{"id":"0194c834-7a91-7000-ba5f-361cab220f7b","meta":{"recipients":[{"amount":1000,"bank_code":"000010","bank_name":"Ecobank Nigeria","narration":"","account_name":"John Doe","account_number":"3333333324"}]},"created_on":"2025-02-02T19:47:50.033Z","created_by_id":"019317a0-b7e5-7eeb-a7eb-bd18cf39a633","modified_on":"2025-02-02T19:47:50.033Z","modified_by_id":null,"deleted_on":null,"deleted_by_id":null,"tenant_id":"00000000-0000-0000-0000-000000000000","frequency":"once","type":"transfer","start_date":"2025-02-09T20:47:00.000Z","next_run_date":"2025-02-09T20:47:00.000Z","end_date":"2025-02-09T20:47:00.000Z","status":"active","amount":"0.00","profile_id":"01931947-9fea-744d-8f66-118c138292e3","account_id":"0193912b-6f5e-7335-b5bc-3302dcc08103","user":{"id":"019317a0-b7e5-7eeb-a7eb-bd18cf39a633","meta":{},"created_on":"2024-11-10T19:50:29.093Z","created_by_id":null,"modified_on":"2025-02-02T20:08:31.886Z","modified_by_id":"019317a0-b7e5-7eeb-a7eb-bd18cf39a633","deleted_on":null,"deleted_by_id":null,"tenant_id":"00000000-0000-0000-0000-000000000000","email":"mikeangel@mailinator.com","status":"active","first_name":"Mike","last_name":"Angelo","twofa_enabled":false,"last_active":"2025-02-02T20:08:15.936Z","last_ip":"198.41.227.24","allowed_ips":null,"last_timezone":"Europe/Paris","last_location":"Singapore","phone":"09055755671","review":null,"gender":"male","date_of_birth":null,"cba_id":"19","photo_id":null,"referral_code":"AZVBZI","allowed_locations":null,"referred_by":null}},{"id":"0194c2d9-0b11-7778-af6d-33afeb9b9931","meta":{"recipients":[{"amount":100,"bank_code":"000003","bank_name":"First City Monument Bank","narration":"","account_name":"John Doe","account_number":"0112345678"}]},"created_on":"2025-02-01T18:49:51.633Z","created_by_id":"019317a0-b7e5-7eeb-a7eb-bd18cf39a633","modified_on":"2025-02-01T18:49:51.633Z","modified_by_id":null,"deleted_on":null,"deleted_by_id":null,"tenant_id":"00000000-0000-0000-0000-000000000000","frequency":"monthly","type":"transfer","start_date":"2025-02-05T00:00:00.000Z","next_run_date":"2025-02-05T00:00:00.000Z","end_date":"2025-02-28T00:00:00.000Z","status":"active","amount":"0.00","profile_id":"01931947-9fea-744d-8f66-118c138292e3","account_id":"0193f0e2-ab16-799a-85ae-fa4fbe2990a7","user":{"id":"019317a0-b7e5-7eeb-a7eb-bd18cf39a633","meta":{},"created_on":"2024-11-10T19:50:29.093Z","created_by_id":null,"modified_on":"2025-02-02T20:08:31.886Z","modified_by_id":"019317a0-b7e5-7eeb-a7eb-bd18cf39a633","deleted_on":null,"deleted_by_id":null,"tenant_id":"00000000-0000-0000-0000-000000000000","email":"mikeangel@mailinator.com","status":"active","first_name":"Mike","last_name":"Angelo","twofa_enabled":false,"last_active":"2025-02-02T20:08:15.936Z","last_ip":"198.41.227.24","allowed_ips":null,"last_timezone":"Europe/Paris","last_location":"Singapore","phone":"09055755671","review":null,"gender":"male","date_of_birth":null,"cba_id":"19","photo_id":null,"referral_code":"AZVBZI","allowed_locations":null,"referred_by":null}},{"id":"0194bc20-361d-7448-b8f8-b57606c06557","meta":{"recipients":[{"amount":100,"bank_code":"000014","bank_name":"Access Bank","narration":"","account_name":"John Doe","account_number":"0000856321"}]},"created_on":"2025-01-31T11:30:15.197Z","created_by_id":"019317a0-b7e5-7eeb-a7eb-bd18cf39a633","modified_on":"2025-01-31T11:33:18.353Z","modified_by_id":"019317a0-b7e5-7eeb-a7eb-bd18cf39a633","deleted_on":null,"deleted_by_id":null,"tenant_id":"00000000-0000-0000-0000-000000000000","frequency":"daily","type":"transfer","start_date":"2025-02-01T00:00:00.000Z","next_run_date":"2025-02-01T00:00:00.000Z","end_date":"2025-02-06T00:00:00.000Z","status":"active","amount":"0.00","profile_id":"01931947-9fea-744d-8f66-118c138292e3","account_id":"0193912b-6f5e-7335-b5bc-3302dcc08103","user":{"id":"019317a0-b7e5-7eeb-a7eb-bd18cf39a633","meta":{},"created_on":"2024-11-10T19:50:29.093Z","created_by_id":null,"modified_on":"2025-02-02T20:08:31.886Z","modified_by_id":"019317a0-b7e5-7eeb-a7eb-bd18cf39a633","deleted_on":null,"deleted_by_id":null,"tenant_id":"00000000-0000-0000-0000-000000000000","email":"mikeangel@mailinator.com","status":"active","first_name":"Mike","last_name":"Angelo","twofa_enabled":false,"last_active":"2025-02-02T20:08:15.936Z","last_ip":"198.41.227.24","allowed_ips":null,"last_timezone":"Europe/Paris","last_location":"Singapore","phone":"09055755671","review":null,"gender":"male","date_of_birth":null,"cba_id":"19","photo_id":null,"referral_code":"AZVBZI","allowed_locations":null,"referred_by":null}},{"id":"01948407-5e4c-7886-8c77-74bff264d471","meta":{"recipients":[{"bank_code":"999998","bank_name":"vee test","narration":"","account_name":"vee Test","account_number":"0112345678"}]},"created_on":"2025-01-20T14:04:22.989Z","created_by_id":"019317a0-b7e5-7eeb-a7eb-bd18cf39a633","modified_on":"2025-01-20T14:04:22.989Z","modified_by_id":null,"deleted_on":null,"deleted_by_id":null,"tenant_id":"00000000-0000-0000-0000-000000000000","frequency":"weekly","type":"transfer","start_date":"2025-01-22T00:00:00.000Z","next_run_date":"2025-01-22T00:00:00.000Z","end_date":"2025-01-30T00:00:00.000Z","status":"active","amount":"2000.00","profile_id":"01931947-9fea-744d-8f66-118c138292e3","account_id":"0193f0e2-ab16-799a-85ae-fa4fbe2990a7","user":{"id":"019317a0-b7e5-7eeb-a7eb-bd18cf39a633","meta":{},"created_on":"2024-11-10T19:50:29.093Z","created_by_id":null,"modified_on":"2025-02-02T20:08:31.886Z","modified_by_id":"019317a0-b7e5-7eeb-a7eb-bd18cf39a633","deleted_on":null,"deleted_by_id":null,"tenant_id":"00000000-0000-0000-0000-000000000000","email":"mikeangel@mailinator.com","status":"active","first_name":"Mike","last_name":"Angelo","twofa_enabled":false,"last_active":"2025-02-02T20:08:15.936Z","last_ip":"198.41.227.24","allowed_ips":null,"last_timezone":"Europe/Paris","last_location":"Singapore","phone":"09055755671","review":null,"gender":"male","date_of_birth":null,"cba_id":"19","photo_id":null,"referral_code":"AZVBZI","allowed_locations":null,"referred_by":null}},{"id":"01948405-3224-7886-8c77-3ed77e767869","meta":{"recipients":[{"bank_code":"999998","bank_name":"vee test","narration":"","account_name":"vee Test","account_number":"0112345678"}]},"created_on":"2025-01-20T14:02:00.612Z","created_by_id":"019317a0-b7e5-7eeb-a7eb-bd18cf39a633","modified_on":"2025-01-20T14:02:00.612Z","modified_by_id":null,"deleted_on":null,"deleted_by_id":null,"tenant_id":"00000000-0000-0000-0000-000000000000","frequency":"weekly","type":"transfer","start_date":"2025-01-21T00:00:00.000Z","next_run_date":"2025-01-21T00:00:00.000Z","end_date":"2025-01-30T00:00:00.000Z","status":"active","amount":"1000.00","profile_id":"01931947-9fea-744d-8f66-118c138292e3","account_id":"0193f0e2-ab16-799a-85ae-fa4fbe2990a7","user":{"id":"019317a0-b7e5-7eeb-a7eb-bd18cf39a633","meta":{},"created_on":"2024-11-10T19:50:29.093Z","created_by_id":null,"modified_on":"2025-02-02T20:08:31.886Z","modified_by_id":"019317a0-b7e5-7eeb-a7eb-bd18cf39a633","deleted_on":null,"deleted_by_id":null,"tenant_id":"00000000-0000-0000-0000-000000000000","email":"mikeangel@mailinator.com","status":"active","first_name":"Mike","last_name":"Angelo","twofa_enabled":false,"last_active":"2025-02-02T20:08:15.936Z","last_ip":"198.41.227.24","allowed_ips":null,"last_timezone":"Europe/Paris","last_location":"Singapore","phone":"09055755671","review":null,"gender":"male","date_of_birth":null,"cba_id":"19","photo_id":null,"referral_code":"AZVBZI","allowed_locations":null,"referred_by":null}},{"id":"019483fa-7edc-7886-8c76-d166355ea35d","meta":{"recipients":[{"bank_code":"999998","bank_name":"vee test","narration":"Sodiq","account_name":"Ake Mobolaji & Temabo","account_number":"1780004070"}]},"created_on":"2025-01-20T13:50:19.356Z","created_by_id":"019317a0-b7e5-7eeb-a7eb-bd18cf39a633","modified_on":"2025-01-20T13:50:19.356Z","modified_by_id":null,"deleted_on":null,"deleted_by_id":null,"tenant_id":"00000000-0000-0000-0000-000000000000","frequency":"daily","type":"transfer","start_date":"2025-01-30T21:00:00.000Z","next_run_date":"2025-01-30T21:00:00.000Z","end_date":"2025-02-20T21:00:00.000Z","status":"active","amount":"50.23","profile_id":"01931947-9fea-744d-8f66-118c138292e3","account_id":"0193f0e2-ab16-799a-85ae-fa4fbe2990a7","user":{"id":"019317a0-b7e5-7eeb-a7eb-bd18cf39a633","meta":{},"created_on":"2024-11-10T19:50:29.093Z","created_by_id":null,"modified_on":"2025-02-02T20:08:31.886Z","modified_by_id":"019317a0-b7e5-7eeb-a7eb-bd18cf39a633","deleted_on":null,"deleted_by_id":null,"tenant_id":"00000000-0000-0000-0000-000000000000","email":"mikeangel@mailinator.com","status":"active","first_name":"Mike","last_name":"Angelo","twofa_enabled":false,"last_active":"2025-02-02T20:08:15.936Z","last_ip":"198.41.227.24","allowed_ips":null,"last_timezone":"Europe/Paris","last_location":"Singapore","phone":"09055755671","review":null,"gender":"male","date_of_birth":null,"cba_id":"19","photo_id":null,"referral_code":"AZVBZI","allowed_locations":null,"referred_by":null}},{"id":"019483c5-987f-7886-8c74-bb7c91fe439a","meta":{"pin":"1234","biller_id":"mtn","category_id":"airtime","account_number":"8160247584"},"created_on":"2025-01-20T12:52:32.512Z","created_by_id":"019317a0-b7e5-7eeb-a7eb-bd18cf39a633","modified_on":"2025-01-20T12:53:41.296Z","modified_by_id":"019317a0-b7e5-7eeb-a7eb-bd18cf39a633","deleted_on":null,"deleted_by_id":null,"tenant_id":"00000000-0000-0000-0000-000000000000","frequency":"daily","type":"bill-payment","start_date":"2025-01-21T00:00:00.000Z","next_run_date":"2025-01-21T00:00:00.000Z","end_date":"2025-01-31T00:00:00.000Z","status":"active","amount":"100000.00","profile_id":"01931947-9fea-744d-8f66-118c138292e3","account_id":"0193f0e2-ab16-799a-85ae-fa4fbe2990a7","user":{"id":"019317a0-b7e5-7eeb-a7eb-bd18cf39a633","meta":{},"created_on":"2024-11-10T19:50:29.093Z","created_by_id":null,"modified_on":"2025-02-02T20:08:31.886Z","modified_by_id":"019317a0-b7e5-7eeb-a7eb-bd18cf39a633","deleted_on":null,"deleted_by_id":null,"tenant_id":"00000000-0000-0000-0000-000000000000","email":"mikeangel@mailinator.com","status":"active","first_name":"Mike","last_name":"Angelo","twofa_enabled":false,"last_active":"2025-02-02T20:08:15.936Z","last_ip":"198.41.227.24","allowed_ips":null,"last_timezone":"Europe/Paris","last_location":"Singapore","phone":"09055755671","review":null,"gender":"male","date_of_birth":null,"cba_id":"19","photo_id":null,"referral_code":"AZVBZI","allowed_locations":null,"referred_by":null}},{"id":"0194511f-4a8f-7ff5-a65e-e53ccef2c43d","meta":{"pin":"1234","biller_id":"mtn","category_id":"airtime","account_number":"09030253741"},"created_on":"2025-01-10T16:49:52.784Z","created_by_id":null,"modified_on":"2025-01-10T17:29:59.164Z","modified_by_id":null,"deleted_on":null,"deleted_by_id":null,"tenant_id":"00000000-0000-0000-0000-000000000000","frequency":"daily","type":"bill-payment","start_date":"2025-01-11T00:00:00.000Z","next_run_date":"2025-01-11T00:00:00.000Z","end_date":"2025-01-13T00:00:00.000Z","status":"active","amount":"100.00","profile_id":"01931947-9fea-744d-8f66-118c138292e3","account_id":"0193f0e2-ab16-799a-85ae-fa4fbe2990a7","user":null},{"id":"01944a78-1f4d-7881-990d-5cbf0da5d380","meta":{"pin":"1234","biller_id":"9mobile","category_id":"airtime","account_number":"09055755671"},"created_on":"2025-01-09T09:49:33.902Z","created_by_id":null,"modified_on":"2025-01-09T09:49:33.902Z","modified_by_id":null,"deleted_on":null,"deleted_by_id":null,"tenant_id":"00000000-0000-0000-0000-000000000000","frequency":"daily","type":"bill-payment","start_date":"2025-01-10T00:00:00.000Z","next_run_date":"2025-01-10T00:00:00.000Z","end_date":"2025-01-16T00:00:00.000Z","status":"active","amount":"100.00","profile_id":"01931947-9fea-744d-8f66-118c138292e3","account_id":"0193f0e2-ab16-799a-85ae-fa4fbe2990a7","user":null},{"id":"01944736-dbf8-755d-84cd-c47e2cb334bc","meta":{"pin":"1234","biller_id":"mtn","option_id":"","category_id":"airtime","account_number":"09055755671"},"created_on":"2025-01-08T18:39:25.176Z","created_by_id":null,"modified_on":"2025-01-10T16:53:44.575Z","modified_by_id":null,"deleted_on":null,"deleted_by_id":null,"tenant_id":"00000000-0000-0000-0000-000000000000","frequency":"daily","type":"bill-payment","start_date":"2025-01-10T21:00:00.000Z","next_run_date":"2025-01-10T21:00:00.000Z","end_date":"2025-01-20T21:00:00.000Z","status":"active","amount":"100.23","profile_id":"01931947-9fea-744d-8f66-118c138292e3","account_id":"0193912b-6f5e-7335-b5bc-3302dcc08103","user":null}],"meta":{"page":1,"total_pages":7,"total_items":63}}