{"status":"success","data":[{"id":"0194fb7e-c6a6-7449-9053-c6cb2934b683","meta":null,"created_on":"2025-02-12T18:49:37.190Z","created_by_id":"019317a0-b7e5-7eeb-a7eb-bd18cf39a633","modified_on":"2025-02-12T18:49:37.803Z","modified_by_id":"019317a0-b7e5-7eeb-a7eb-bd18cf39a633","deleted_on":null,"deleted_by_id":null,"tenant_id":"00000000-0000-0000-0000-000000000000","account_id":"0193f0e2-ab16-799a-85ae-fa4fbe2990a7","profile_id":"01931947-9fea-744d-8f66-118c138292e3","cba_id":"2512","currency":"NGN","amount":"1800.00","balance_after":null,"reference":"Thqsllruvsm","processor_reference":null,"processor_status":null,"processor_message":null,"status":"success","entry_type":"debit","narration":"Bill payment to waec for 1102003467","transaction_date":"2025-02-12T18:49:37.182Z","transaction_type":"bill-payment","processor":"baxipay","reviewed_on":null,"reviewed_by":null,"batch_id":null,"schedule_id":null,"account":{"id":"0193f0e2-ab16-799a-85ae-fa4fbe2990a7","meta":null,"created_on":"2024-12-23T00:20:07.063Z","created_by_id":null,"modified_on":"2025-02-12T18:49:35.531Z","modified_by_id":"019317a0-b7e5-7eeb-a7eb-bd18cf39a633","deleted_on":null,"deleted_by_id":null,"tenant_id":"00000000-0000-0000-0000-000000000000","name":"Eno","cba_id":"0000000115","status":"active","profile_id":"01931947-9fea-744d-8f66-118c138292e3","account_number":"0000000115","bank_id":"0193324f-cad0-7f86-923b-43fb21ac5b29","ledger_balance":"6512.39","hold_balance":"0.00","available_balance":"6512.39","currency":"NGN","restricted":false},"transfer":null,"disputes":[],"batch":null,"transfer_beneficiary":null,"bill_payment_beneficiary":null},{"id":"0194fb7e-c03b-7449-9053-bed491b7fb69","meta":null,"created_on":"2025-02-12T18:49:35.546Z","created_by_id":"019317a0-b7e5-7eeb-a7eb-bd18cf39a633","modified_on":"2025-02-12T18:49:36.047Z","modified_by_id":"019317a0-b7e5-7eeb-a7eb-bd18cf39a633","deleted_on":null,"deleted_by_id":null,"tenant_id":"00000000-0000-0000-0000-000000000000","account_id":"0193f0e2-ab16-799a-85ae-fa4fbe2990a7","profile_id":"01931947-9fea-744d-8f66-118c138292e3","cba_id":"2511","currency":"NGN","amount":"2300.00","balance_after":null,"reference":"Tqcovfeycrp","processor_reference":null,"processor_status":null,"processor_message":"0(0)9055755671 is not a valid phone number","status":"failed","entry_type":"debit","narration":"Bill payment to abuja_electric_postpaid for 07034953306","transaction_date":"2025-02-12T18:49:35.539Z","transaction_type":"bill-payment","processor":"baxipay","reviewed_on":null,"reviewed_by":null,"batch_id":null,"schedule_id":null,"account":{"id":"0193f0e2-ab16-799a-85ae-fa4fbe2990a7","meta":null,"created_on":"2024-12-23T00:20:07.063Z","created_by_id":null,"modified_on":"2025-02-12T18:49:35.531Z","modified_by_id":"019317a0-b7e5-7eeb-a7eb-bd18cf39a633","deleted_on":null,"deleted_by_id":null,"tenant_id":"00000000-0000-0000-0000-000000000000","name":"Eno","cba_id":"0000000115","status":"active","profile_id":"01931947-9fea-744d-8f66-118c138292e3","account_number":"0000000115","bank_id":"0193324f-cad0-7f86-923b-43fb21ac5b29","ledger_balance":"6512.39","hold_balance":"0.00","available_balance":"6512.39","currency":"NGN","restricted":false},"transfer":null,"disputes":[],"batch":null,"transfer_beneficiary":null,"bill_payment_beneficiary":null},{"id":"0194fb7e-3afe-7449-9053-b58c589dc046","meta":null,"created_on":"2025-02-12T18:49:01.436Z","created_by_id":"019317a0-b7e5-7eeb-a7eb-bd18cf39a633","modified_on":"2025-02-12T18:49:30.966Z","modified_by_id":"019317a0-b7e5-7eeb-a7eb-bd18cf39a633","deleted_on":null,"deleted_by_id":null,"tenant_id":"00000000-0000-0000-0000-000000000000","account_id":"0193f0e2-ab16-799a-85ae-fa4fbe2990a7","profile_id":"01931947-9fea-744d-8f66-118c138292e3","cba_id":"2510","currency":"NGN","amount":"900.00","balance_after":null,"reference":"Tsnvmqanbsp","processor_reference":null,"processor_status":null,"processor_message":"Transaction not found","status":"failed","entry_type":"debit","narration":"Bill payment to gotv for 1102003467","transaction_date":"2025-02-12T18:49:01.435Z","transaction_type":"bill-payment","processor":"baxipay","reviewed_on":null,"reviewed_by":null,"batch_id":null,"schedule_id":null,"account":{"id":"0193f0e2-ab16-799a-85ae-fa4fbe2990a7","meta":null,"created_on":"2024-12-23T00:20:07.063Z","created_by_id":null,"modified_on":"2025-02-12T18:49:35.531Z","modified_by_id":"019317a0-b7e5-7eeb-a7eb-bd18cf39a633","deleted_on":null,"deleted_by_id":null,"tenant_id":"00000000-0000-0000-0000-000000000000","name":"Eno","cba_id":"0000000115","status":"active","profile_id":"01931947-9fea-744d-8f66-118c138292e3","account_number":"0000000115","bank_id":"0193324f-cad0-7f86-923b-43fb21ac5b29","ledger_balance":"6512.39","hold_balance":"0.00","available_balance":"6512.39","currency":"NGN","restricted":false},"transfer":null,"disputes":[],"batch":null,"transfer_beneficiary":null,"bill_payment_beneficiary":null},{"id":"0194fb7d-bd35-7449-9053-ab37bcfaee29","meta":null,"created_on":"2025-02-12T18:48:29.237Z","created_by_id":"019317a0-b7e5-7eeb-a7eb-bd18cf39a633","modified_on":"2025-02-12T18:48:58.636Z","modified_by_id":"019317a0-b7e5-7eeb-a7eb-bd18cf39a633","deleted_on":null,"deleted_by_id":null,"tenant_id":"00000000-0000-0000-0000-000000000000","account_id":"0193f0e2-ab16-799a-85ae-fa4fbe2990a7","profile_id":"01931947-9fea-744d-8f66-118c138292e3","cba_id":"2509","currency":"NGN","amount":"5300.00","balance_after":null,"reference":"Tqvvbaqmicq","processor_reference":null,"processor_status":null,"processor_message":"Transaction not found","status":"failed","entry_type":"debit","narration":"Bill payment to dstv for 1102003467","transaction_date":"2025-02-12T18:48:29.236Z","transaction_type":"bill-payment","processor":"baxipay","reviewed_on":null,"reviewed_by":null,"batch_id":null,"schedule_id":null,"account":{"id":"0193f0e2-ab16-799a-85ae-fa4fbe2990a7","meta":null,"created_on":"2024-12-23T00:20:07.063Z","created_by_id":null,"modified_on":"2025-02-12T18:49:35.531Z","modified_by_id":"019317a0-b7e5-7eeb-a7eb-bd18cf39a633","deleted_on":null,"deleted_by_id":null,"tenant_id":"00000000-0000-0000-0000-000000000000","name":"Eno","cba_id":"0000000115","status":"active","profile_id":"01931947-9fea-744d-8f66-118c138292e3","account_number":"0000000115","bank_id":"0193324f-cad0-7f86-923b-43fb21ac5b29","ledger_balance":"6512.39","hold_balance":"0.00","available_balance":"6512.39","currency":"NGN","restricted":false},"transfer":null,"disputes":[],"batch":null,"transfer_beneficiary":null,"bill_payment_beneficiary":null},{"id":"0194fb7d-b8a0-7449-9053-a29d20ee26ac","meta":null,"created_on":"2025-02-12T18:48:28.064Z","created_by_id":"019317a0-b7e5-7eeb-a7eb-bd18cf39a633","modified_on":"2025-02-12T18:48:28.528Z","modified_by_id":"019317a0-b7e5-7eeb-a7eb-bd18cf39a633","deleted_on":null,"deleted_by_id":null,"tenant_id":"00000000-0000-0000-0000-000000000000","account_id":"0193f0e2-ab16-799a-85ae-fa4fbe2990a7","profile_id":"01931947-9fea-744d-8f66-118c138292e3","cba_id":"2508","currency":"NGN","amount":"1800.00","balance_after":null,"reference":"Tyhjmzjanrq","processor_reference":null,"processor_status":null,"processor_message":"ensure you supply a valid accountId","status":"failed","entry_type":"debit","narration":"Bill payment to smile for 11020034671","transaction_date":"2025-02-12T18:48:28.063Z","transaction_type":"bill-payment","processor":"baxipay","reviewed_on":null,"reviewed_by":null,"batch_id":null,"schedule_id":null,"account":{"id":"0193f0e2-ab16-799a-85ae-fa4fbe2990a7","meta":null,"created_on":"2024-12-23T00:20:07.063Z","created_by_id":null,"modified_on":"2025-02-12T18:49:35.531Z","modified_by_id":"019317a0-b7e5-7eeb-a7eb-bd18cf39a633","deleted_on":null,"deleted_by_id":null,"tenant_id":"00000000-0000-0000-0000-000000000000","name":"Eno","cba_id":"0000000115","status":"active","profile_id":"01931947-9fea-744d-8f66-118c138292e3","account_number":"0000000115","bank_id":"0193324f-cad0-7f86-923b-43fb21ac5b29","ledger_balance":"6512.39","hold_balance":"0.00","available_balance":"6512.39","currency":"NGN","restricted":false},"transfer":null,"disputes":[],"batch":null,"transfer_beneficiary":null,"bill_payment_beneficiary":null},{"id":"0194fb7d-b3e1-7449-9053-9f3e178039f9","meta":null,"created_on":"2025-02-12T18:48:26.850Z","created_by_id":"019317a0-b7e5-7eeb-a7eb-bd18cf39a633","modified_on":"2025-02-12T18:48:27.295Z","modified_by_id":"019317a0-b7e5-7eeb-a7eb-bd18cf39a633","deleted_on":null,"deleted_by_id":null,"tenant_id":"00000000-0000-0000-0000-000000000000","account_id":"0193f0e2-ab16-799a-85ae-fa4fbe2990a7","profile_id":"01931947-9fea-744d-8f66-118c138292e3","cba_id":"2507","currency":"NGN","amount":"200.00","balance_after":null,"reference":"Thmizrrmyqq","processor_reference":null,"processor_status":null,"processor_message":"11020034671 is not a valid phone number","status":"failed","entry_type":"debit","narration":"Bill payment to 9mobile for 11020034671","transaction_date":"2025-02-12T18:48:26.849Z","transaction_type":"bill-payment","processor":"baxipay","reviewed_on":null,"reviewed_by":null,"batch_id":null,"schedule_id":null,"account":{"id":"0193f0e2-ab16-799a-85ae-fa4fbe2990a7","meta":null,"created_on":"2024-12-23T00:20:07.063Z","created_by_id":null,"modified_on":"2025-02-12T18:49:35.531Z","modified_by_id":"019317a0-b7e5-7eeb-a7eb-bd18cf39a633","deleted_on":null,"deleted_by_id":null,"tenant_id":"00000000-0000-0000-0000-000000000000","name":"Eno","cba_id":"0000000115","status":"active","profile_id":"01931947-9fea-744d-8f66-118c138292e3","account_number":"0000000115","bank_id":"0193324f-cad0-7f86-923b-43fb21ac5b29","ledger_balance":"6512.39","hold_balance":"0.00","available_balance":"6512.39","currency":"NGN","restricted":false},"transfer":null,"disputes":[],"batch":null,"transfer_beneficiary":null,"bill_payment_beneficiary":null},{"id":"0194fb7d-af30-7449-9053-91e8573efb90","meta":null,"created_on":"2025-02-12T18:48:25.648Z","created_by_id":"019317a0-b7e5-7eeb-a7eb-bd18cf39a633","modified_on":"2025-02-12T18:48:26.021Z","modified_by_id":"019317a0-b7e5-7eeb-a7eb-bd18cf39a633","deleted_on":null,"deleted_by_id":null,"tenant_id":"00000000-0000-0000-0000-000000000000","account_id":"0193f0e2-ab16-799a-85ae-fa4fbe2990a7","profile_id":"01931947-9fea-744d-8f66-118c138292e3","cba_id":"2506","currency":"NGN","amount":"50.00","balance_after":null,"reference":"Tivxtprulwj","processor_reference":null,"processor_status":null,"processor_message":"11020034671 is not a valid phone number","status":"failed","entry_type":"debit","narration":"Bill payment to airtel for 11020034671","transaction_date":"2025-02-12T18:48:25.647Z","transaction_type":"bill-payment","processor":"baxipay","reviewed_on":null,"reviewed_by":null,"batch_id":null,"schedule_id":null,"account":{"id":"0193f0e2-ab16-799a-85ae-fa4fbe2990a7","meta":null,"created_on":"2024-12-23T00:20:07.063Z","created_by_id":null,"modified_on":"2025-02-12T18:49:35.531Z","modified_by_id":"019317a0-b7e5-7eeb-a7eb-bd18cf39a633","deleted_on":null,"deleted_by_id":null,"tenant_id":"00000000-0000-0000-0000-000000000000","name":"Eno","cba_id":"0000000115","status":"active","profile_id":"01931947-9fea-744d-8f66-118c138292e3","account_number":"0000000115","bank_id":"0193324f-cad0-7f86-923b-43fb21ac5b29","ledger_balance":"6512.39","hold_balance":"0.00","available_balance":"6512.39","currency":"NGN","restricted":false},"transfer":null,"disputes":[],"batch":null,"transfer_beneficiary":null,"bill_payment_beneficiary":null},{"id":"0194fb7d-a888-7449-9053-8ac200c7d220","meta":null,"created_on":"2025-02-12T18:48:23.945Z","created_by_id":"019317a0-b7e5-7eeb-a7eb-bd18cf39a633","modified_on":"2025-02-12T18:48:24.333Z","modified_by_id":"019317a0-b7e5-7eeb-a7eb-bd18cf39a633","deleted_on":null,"deleted_by_id":null,"tenant_id":"00000000-0000-0000-0000-000000000000","account_id":"0193f0e2-ab16-799a-85ae-fa4fbe2990a7","profile_id":"01931947-9fea-744d-8f66-118c138292e3","cba_id":"2505","currency":"NGN","amount":"100.00","balance_after":null,"reference":"Tlfkhmxgowd","processor_reference":null,"processor_status":null,"processor_message":"11020034671 is not a valid phone number","status":"failed","entry_type":"debit","narration":"Bill payment to mtn for 11020034671","transaction_date":"2025-02-12T18:48:23.944Z","transaction_type":"bill-payment","processor":"baxipay","reviewed_on":null,"reviewed_by":null,"batch_id":null,"schedule_id":null,"account":{"id":"0193f0e2-ab16-799a-85ae-fa4fbe2990a7","meta":null,"created_on":"2024-12-23T00:20:07.063Z","created_by_id":null,"modified_on":"2025-02-12T18:49:35.531Z","modified_by_id":"019317a0-b7e5-7eeb-a7eb-bd18cf39a633","deleted_on":null,"deleted_by_id":null,"tenant_id":"00000000-0000-0000-0000-000000000000","name":"Eno","cba_id":"0000000115","status":"active","profile_id":"01931947-9fea-744d-8f66-118c138292e3","account_number":"0000000115","bank_id":"0193324f-cad0-7f86-923b-43fb21ac5b29","ledger_balance":"6512.39","hold_balance":"0.00","available_balance":"6512.39","currency":"NGN","restricted":false},"transfer":null,"disputes":[],"batch":null,"transfer_beneficiary":null,"bill_payment_beneficiary":null},{"id":"0194fb7d-a38c-7449-9053-82e4a80b47e6","meta":null,"created_on":"2025-02-12T18:48:22.666Z","created_by_id":"019317a0-b7e5-7eeb-a7eb-bd18cf39a633","modified_on":"2025-02-12T18:48:23.174Z","modified_by_id":"019317a0-b7e5-7eeb-a7eb-bd18cf39a633","deleted_on":null,"deleted_by_id":null,"tenant_id":"00000000-0000-0000-0000-000000000000","account_id":"0193f0e2-ab16-799a-85ae-fa4fbe2990a7","profile_id":"01931947-9fea-744d-8f66-118c138292e3","cba_id":"2504","currency":"NGN","amount":"100.00","balance_after":null,"reference":"Tmfpojqitqr","processor_reference":null,"processor_status":null,"processor_message":"ensure you supply a valid accountId","status":"failed","entry_type":"debit","narration":"Bill payment to smile for 1102003467","transaction_date":"2025-02-12T18:48:22.664Z","transaction_type":"bill-payment","processor":"baxipay","reviewed_on":null,"reviewed_by":null,"batch_id":null,"schedule_id":null,"account":{"id":"0193f0e2-ab16-799a-85ae-fa4fbe2990a7","meta":null,"created_on":"2024-12-23T00:20:07.063Z","created_by_id":null,"modified_on":"2025-02-12T18:49:35.531Z","modified_by_id":"019317a0-b7e5-7eeb-a7eb-bd18cf39a633","deleted_on":null,"deleted_by_id":null,"tenant_id":"00000000-0000-0000-0000-000000000000","name":"Eno","cba_id":"0000000115","status":"active","profile_id":"01931947-9fea-744d-8f66-118c138292e3","account_number":"0000000115","bank_id":"0193324f-cad0-7f86-923b-43fb21ac5b29","ledger_balance":"6512.39","hold_balance":"0.00","available_balance":"6512.39","currency":"NGN","restricted":false},"transfer":null,"disputes":[],"batch":null,"transfer_beneficiary":null,"bill_payment_beneficiary":null},{"id":"0194fb7d-9eb7-7449-9053-7d8c44100d79","meta":null,"created_on":"2025-02-12T18:48:21.431Z","created_by_id":"019317a0-b7e5-7eeb-a7eb-bd18cf39a633","modified_on":"2025-02-12T18:48:21.836Z","modified_by_id":"019317a0-b7e5-7eeb-a7eb-bd18cf39a633","deleted_on":null,"deleted_by_id":null,"tenant_id":"00000000-0000-0000-0000-000000000000","account_id":"0193f0e2-ab16-799a-85ae-fa4fbe2990a7","profile_id":"01931947-9fea-744d-8f66-118c138292e3","cba_id":"2503","currency":"NGN","amount":"100.00","balance_after":null,"reference":"Tytetijcren","processor_reference":null,"processor_status":null,"processor_message":"01102003467 is not a valid phone number","status":"failed","entry_type":"debit","narration":"Bill payment to 9mobile for 1102003467","transaction_date":"2025-02-12T18:48:21.430Z","transaction_type":"bill-payment","processor":"baxipay","reviewed_on":null,"reviewed_by":null,"batch_id":null,"schedule_id":null,"account":{"id":"0193f0e2-ab16-799a-85ae-fa4fbe2990a7","meta":null,"created_on":"2024-12-23T00:20:07.063Z","created_by_id":null,"modified_on":"2025-02-12T18:49:35.531Z","modified_by_id":"019317a0-b7e5-7eeb-a7eb-bd18cf39a633","deleted_on":null,"deleted_by_id":null,"tenant_id":"00000000-0000-0000-0000-000000000000","name":"Eno","cba_id":"0000000115","status":"active","profile_id":"01931947-9fea-744d-8f66-118c138292e3","account_number":"0000000115","bank_id":"0193324f-cad0-7f86-923b-43fb21ac5b29","ledger_balance":"6512.39","hold_balance":"0.00","available_balance":"6512.39","currency":"NGN","restricted":false},"transfer":null,"disputes":[],"batch":null,"transfer_beneficiary":null,"bill_payment_beneficiary":null}],"meta":{"page":1,"total_pages":169,"total_items":1687}}