{"status":"success","data":[{"id":"0194c7ae-8c0b-7000-ba5d-ba86ed42f075","meta":null,"created_on":"2025-02-02T17:21:32.684Z","created_by_id":"019372de-17ef-7cc2-8fc0-43fe11ba042f","modified_on":"2025-02-02T17:21:33.652Z","modified_by_id":"019372de-17ef-7cc2-8fc0-43fe11ba042f","deleted_on":null,"deleted_by_id":null,"tenant_id":"00000000-0000-0000-0000-000000000000","account_id":"0193a699-2f15-7881-8b7f-ae50980bcfad","profile_id":"0193a649-e3d0-7881-8b7f-2ef1d89a9aff","cba_id":"2257","currency":"NGN","amount":"2300.00","balance_after":null,"reference":"Trnzwpcvdqk","processor_reference":null,"processor_status":null,"processor_message":"Prepaid customer not allowed to process Postpaid transaction","status":"failed","entry_type":"debit","narration":"Bill payment to abuja_electric_postpaid for 2345678903","transaction_date":"2025-02-02T17:21:32.683Z","transaction_type":"bill-payment","processor":"baxipay","reviewed_on":null,"reviewed_by":null,"batch_id":null,"schedule_id":null,"account":{"id":"0193a699-2f15-7881-8b7f-ae50980bcfad","meta":null,"created_on":"2024-12-08T14:07:57.204Z","created_by_id":null,"modified_on":"2025-02-02T20:14:04.914Z","modified_by_id":"019372de-17ef-7cc2-8fc0-43fe11ba042f","deleted_on":null,"deleted_by_id":null,"tenant_id":"00000000-0000-0000-0000-000000000000","name":"expenses","cba_id":"0000000074","status":"active","profile_id":"0193a649-e3d0-7881-8b7f-2ef1d89a9aff","account_number":"0000000074","bank_id":"0193324f-cad0-7f86-923b-43fb21ac5b29","ledger_balance":"347031.03","hold_balance":"0.00","available_balance":"347031.03","currency":"NGN","restricted":false},"transfer":null,"disputes":[],"batch":null,"transfer_beneficiary":null,"bill_payment_beneficiary":null},{"id":"0194c7ae-1559-7000-ba5d-b1ea43d152c3","meta":null,"created_on":"2025-02-02T17:21:02.298Z","created_by_id":"019372de-17ef-7cc2-8fc0-43fe11ba042f","modified_on":"2025-02-02T17:21:05.583Z","modified_by_id":"019372de-17ef-7cc2-8fc0-43fe11ba042f","deleted_on":null,"deleted_by_id":null,"tenant_id":"00000000-0000-0000-0000-000000000000","account_id":"0193a699-2f15-7881-8b7f-ae50980bcfad","profile_id":"0193a649-e3d0-7881-8b7f-2ef1d89a9aff","cba_id":"2256","currency":"NGN","amount":"1800.00","balance_after":null,"reference":"Tplhlykjyah","processor_reference":null,"processor_status":null,"processor_message":null,"status":"success","entry_type":"debit","narration":"Bill payment to waec for 1102003467","transaction_date":"2025-02-02T17:21:02.296Z","transaction_type":"bill-payment","processor":"baxipay","reviewed_on":null,"reviewed_by":null,"batch_id":null,"schedule_id":null,"account":{"id":"0193a699-2f15-7881-8b7f-ae50980bcfad","meta":null,"created_on":"2024-12-08T14:07:57.204Z","created_by_id":null,"modified_on":"2025-02-02T20:14:04.914Z","modified_by_id":"019372de-17ef-7cc2-8fc0-43fe11ba042f","deleted_on":null,"deleted_by_id":null,"tenant_id":"00000000-0000-0000-0000-000000000000","name":"expenses","cba_id":"0000000074","status":"active","profile_id":"0193a649-e3d0-7881-8b7f-2ef1d89a9aff","account_number":"0000000074","bank_id":"0193324f-cad0-7f86-923b-43fb21ac5b29","ledger_balance":"347031.03","hold_balance":"0.00","available_balance":"347031.03","currency":"NGN","restricted":false},"transfer":null,"disputes":[],"batch":null,"transfer_beneficiary":null,"bill_payment_beneficiary":null},{"id":"0194b942-fe89-7bb8-88f3-1e33a7caacb7","meta":null,"created_on":"2025-01-30T22:09:23.081Z","created_by_id":"019372de-17ef-7cc2-8fc0-43fe11ba042f","modified_on":"2025-01-30T22:09:24.609Z","modified_by_id":"019372de-17ef-7cc2-8fc0-43fe11ba042f","deleted_on":null,"deleted_by_id":null,"tenant_id":"00000000-0000-0000-0000-000000000000","account_id":"0193a699-2f15-7881-8b7f-ae50980bcfad","profile_id":"0193a649-e3d0-7881-8b7f-2ef1d89a9aff","cba_id":"2211","currency":"NGN","amount":"500.00","balance_after":null,"reference":"Tyzbikqevgj","processor_reference":null,"processor_status":null,"processor_message":null,"status":"success","entry_type":"debit","narration":"Bill payment to mtn for 09030253741","transaction_date":"2025-01-30T22:09:23.080Z","transaction_type":"bill-payment","processor":"baxipay","reviewed_on":null,"reviewed_by":null,"batch_id":null,"schedule_id":null,"account":{"id":"0193a699-2f15-7881-8b7f-ae50980bcfad","meta":null,"created_on":"2024-12-08T14:07:57.204Z","created_by_id":null,"modified_on":"2025-02-02T20:14:04.914Z","modified_by_id":"019372de-17ef-7cc2-8fc0-43fe11ba042f","deleted_on":null,"deleted_by_id":null,"tenant_id":"00000000-0000-0000-0000-000000000000","name":"expenses","cba_id":"0000000074","status":"active","profile_id":"0193a649-e3d0-7881-8b7f-2ef1d89a9aff","account_number":"0000000074","bank_id":"0193324f-cad0-7f86-923b-43fb21ac5b29","ledger_balance":"347031.03","hold_balance":"0.00","available_balance":"347031.03","currency":"NGN","restricted":false},"transfer":null,"disputes":[],"batch":null,"transfer_beneficiary":null,"bill_payment_beneficiary":null},{"id":"0194b896-3c53-7bb8-88ec-a027b380dfd7","meta":null,"created_on":"2025-01-30T19:00:41.170Z","created_by_id":"01927265-4ed2-79cc-a0e6-e11339a359f3","modified_on":"2025-01-30T19:00:41.170Z","modified_by_id":null,"deleted_on":null,"deleted_by_id":null,"tenant_id":"00000000-0000-0000-0000-000000000000","account_id":"0193a699-2f15-7881-8b7f-ae50980bcfad","profile_id":"0193a649-e3d0-7881-8b7f-2ef1d89a9aff","cba_id":null,"currency":"NGN","amount":"100.00","balance_after":null,"reference":"Twaryushdzw","processor_reference":null,"processor_status":null,"processor_message":null,"status":"success","entry_type":"credit","narration":"Dispute resolved for transaction Twaryushdzw","transaction_date":"2025-01-30T19:00:41.169Z","transaction_type":"reversal","processor":"cba","reviewed_on":null,"reviewed_by":null,"batch_id":null,"schedule_id":null,"account":{"id":"0193a699-2f15-7881-8b7f-ae50980bcfad","meta":null,"created_on":"2024-12-08T14:07:57.204Z","created_by_id":null,"modified_on":"2025-02-02T20:14:04.914Z","modified_by_id":"019372de-17ef-7cc2-8fc0-43fe11ba042f","deleted_on":null,"deleted_by_id":null,"tenant_id":"00000000-0000-0000-0000-000000000000","name":"expenses","cba_id":"0000000074","status":"active","profile_id":"0193a649-e3d0-7881-8b7f-2ef1d89a9aff","account_number":"0000000074","bank_id":"0193324f-cad0-7f86-923b-43fb21ac5b29","ledger_balance":"347031.03","hold_balance":"0.00","available_balance":"347031.03","currency":"NGN","restricted":false},"transfer":null,"disputes":[],"batch":null,"transfer_beneficiary":null,"bill_payment_beneficiary":null},{"id":"0194b87b-dcba-7bb8-88ea-36c21b9709c4","meta":null,"created_on":"2025-01-30T18:31:52.762Z","created_by_id":"019372de-17ef-7cc2-8fc0-43fe11ba042f","modified_on":"2025-01-30T18:32:29.575Z","modified_by_id":"019372de-17ef-7cc2-8fc0-43fe11ba042f","deleted_on":null,"deleted_by_id":null,"tenant_id":"00000000-0000-0000-0000-000000000000","account_id":"0193a699-2f15-7881-8b7f-ae50980bcfad","profile_id":"0193a649-e3d0-7881-8b7f-2ef1d89a9aff","cba_id":"2210","currency":"NGN","amount":"100.00","balance_after":"349231.03","reference":"Twaryushdzw","processor_reference":null,"processor_status":null,"processor_message":null,"status":"success","entry_type":"debit","narration":"Bill payment to mtn for 09055755671","transaction_date":"2025-01-30T18:31:52.761Z","transaction_type":"bill-payment","processor":"baxipay","reviewed_on":null,"reviewed_by":null,"batch_id":null,"schedule_id":null,"account":{"id":"0193a699-2f15-7881-8b7f-ae50980bcfad","meta":null,"created_on":"2024-12-08T14:07:57.204Z","created_by_id":null,"modified_on":"2025-02-02T20:14:04.914Z","modified_by_id":"019372de-17ef-7cc2-8fc0-43fe11ba042f","deleted_on":null,"deleted_by_id":null,"tenant_id":"00000000-0000-0000-0000-000000000000","name":"expenses","cba_id":"0000000074","status":"active","profile_id":"0193a649-e3d0-7881-8b7f-2ef1d89a9aff","account_number":"0000000074","bank_id":"0193324f-cad0-7f86-923b-43fb21ac5b29","ledger_balance":"347031.03","hold_balance":"0.00","available_balance":"347031.03","currency":"NGN","restricted":false},"transfer":null,"disputes":[{"id":"0194b87c-6c8b-7bb8-88ea-f6987420893f","meta":null,"created_on":"2025-01-30T18:32:29.579Z","created_by_id":"019372de-17ef-7cc2-8fc0-43fe11ba042f","modified_on":"2025-01-30T19:00:41.183Z","modified_by_id":"01927265-4ed2-79cc-a0e6-e11339a359f3","deleted_on":null,"deleted_by_id":null,"tenant_id":"00000000-0000-0000-0000-000000000000","file_id":"0194462d-2cbc-788e-b49e-8f0163251b62","transaction_id":"0194b87b-dcba-7bb8-88ea-36c21b9709c4","status":"approved","note":"egbami, e no dey work","comment":"done","reviewed_on":"2025-01-30T19:00:41.180Z","reviewed_by":"01927265-4ed2-79cc-a0e6-e11339a359f3","profile_id":"0193a649-e3d0-7881-8b7f-2ef1d89a9aff"}],"batch":null,"transfer_beneficiary":null,"bill_payment_beneficiary":null},{"id":"0194b877-c1af-7bb8-88e9-0a7b47e864e4","meta":null,"created_on":"2025-01-30T18:27:23.696Z","created_by_id":"019372de-17ef-7cc2-8fc0-43fe11ba042f","modified_on":"2025-01-30T18:27:25.026Z","modified_by_id":"019372de-17ef-7cc2-8fc0-43fe11ba042f","deleted_on":null,"deleted_by_id":null,"tenant_id":"00000000-0000-0000-0000-000000000000","account_id":"0193a699-2f15-7881-8b7f-ae50980bcfad","profile_id":"0193a649-e3d0-7881-8b7f-2ef1d89a9aff","cba_id":"2209","currency":"NGN","amount":"1800.00","balance_after":null,"reference":"Tsxycwhpqij","processor_reference":null,"processor_status":null,"processor_message":null,"status":"success","entry_type":"debit","narration":"Bill payment to smile for 1102003467","transaction_date":"2025-01-30T18:27:23.695Z","transaction_type":"bill-payment","processor":"baxipay","reviewed_on":null,"reviewed_by":null,"batch_id":null,"schedule_id":null,"account":{"id":"0193a699-2f15-7881-8b7f-ae50980bcfad","meta":null,"created_on":"2024-12-08T14:07:57.204Z","created_by_id":null,"modified_on":"2025-02-02T20:14:04.914Z","modified_by_id":"019372de-17ef-7cc2-8fc0-43fe11ba042f","deleted_on":null,"deleted_by_id":null,"tenant_id":"00000000-0000-0000-0000-000000000000","name":"expenses","cba_id":"0000000074","status":"active","profile_id":"0193a649-e3d0-7881-8b7f-2ef1d89a9aff","account_number":"0000000074","bank_id":"0193324f-cad0-7f86-923b-43fb21ac5b29","ledger_balance":"347031.03","hold_balance":"0.00","available_balance":"347031.03","currency":"NGN","restricted":false},"transfer":null,"disputes":[],"batch":null,"transfer_beneficiary":null,"bill_payment_beneficiary":null},{"id":"0194b86d-c4c0-7bb8-88e8-e1a6056514f4","meta":null,"created_on":"2025-01-30T18:16:29.120Z","created_by_id":"019372de-17ef-7cc2-8fc0-43fe11ba042f","modified_on":"2025-01-30T18:16:31.829Z","modified_by_id":"019372de-17ef-7cc2-8fc0-43fe11ba042f","deleted_on":null,"deleted_by_id":null,"tenant_id":"00000000-0000-0000-0000-000000000000","account_id":"0193a699-2f15-7881-8b7f-ae50980bcfad","profile_id":"0193a649-e3d0-7881-8b7f-2ef1d89a9aff","cba_id":"2208","currency":"NGN","amount":"5300.00","balance_after":null,"reference":"Tfgvbkwtqsw","processor_reference":null,"processor_status":null,"processor_message":"Transaction not found","status":"failed","entry_type":"debit","narration":"Bill payment to dstv for 1102003467","transaction_date":"2025-01-30T18:16:29.118Z","transaction_type":"bill-payment","processor":"baxipay","reviewed_on":null,"reviewed_by":null,"batch_id":null,"schedule_id":null,"account":{"id":"0193a699-2f15-7881-8b7f-ae50980bcfad","meta":null,"created_on":"2024-12-08T14:07:57.204Z","created_by_id":null,"modified_on":"2025-02-02T20:14:04.914Z","modified_by_id":"019372de-17ef-7cc2-8fc0-43fe11ba042f","deleted_on":null,"deleted_by_id":null,"tenant_id":"00000000-0000-0000-0000-000000000000","name":"expenses","cba_id":"0000000074","status":"active","profile_id":"0193a649-e3d0-7881-8b7f-2ef1d89a9aff","account_number":"0000000074","bank_id":"0193324f-cad0-7f86-923b-43fb21ac5b29","ledger_balance":"347031.03","hold_balance":"0.00","available_balance":"347031.03","currency":"NGN","restricted":false},"transfer":null,"disputes":[],"batch":null,"transfer_beneficiary":null,"bill_payment_beneficiary":null},{"id":"0194b7e1-0460-7bb8-88e2-fb3478100b51","meta":null,"created_on":"2025-01-30T15:42:44.649Z","created_by_id":"019372de-17ef-7cc2-8fc0-43fe11ba042f","modified_on":"2025-01-30T15:42:44.649Z","modified_by_id":null,"deleted_on":null,"deleted_by_id":null,"tenant_id":"00000000-0000-0000-0000-000000000000","account_id":"0193a699-2f15-7881-8b7f-ae50980bcfad","profile_id":"0193a649-e3d0-7881-8b7f-2ef1d89a9aff","cba_id":null,"currency":"NGN","amount":"12.00","balance_after":null,"reference":"Tninmjomuat","processor_reference":null,"processor_status":null,"processor_message":null,"status":"processing","entry_type":"debit","narration":"","transaction_date":"2025-01-30T15:42:44.832Z","transaction_type":"transfer","processor":"nip","reviewed_on":null,"reviewed_by":null,"batch_id":"0194b7e1-03a8-7bb8-88e2-f67f4110c921","schedule_id":null,"account":{"id":"0193a699-2f15-7881-8b7f-ae50980bcfad","meta":null,"created_on":"2024-12-08T14:07:57.204Z","created_by_id":null,"modified_on":"2025-02-02T20:14:04.914Z","modified_by_id":"019372de-17ef-7cc2-8fc0-43fe11ba042f","deleted_on":null,"deleted_by_id":null,"tenant_id":"00000000-0000-0000-0000-000000000000","name":"expenses","cba_id":"0000000074","status":"active","profile_id":"0193a649-e3d0-7881-8b7f-2ef1d89a9aff","account_number":"0000000074","bank_id":"0193324f-cad0-7f86-923b-43fb21ac5b29","ledger_balance":"347031.03","hold_balance":"0.00","available_balance":"347031.03","currency":"NGN","restricted":false},"transfer":{"id":"0194b7e1-0465-7bb8-88e3-0029dc29b37d","meta":null,"created_on":"2025-01-30T15:42:44.649Z","created_by_id":"019372de-17ef-7cc2-8fc0-43fe11ba042f","modified_on":"2025-01-30T15:42:44.649Z","modified_by_id":null,"deleted_on":null,"deleted_by_id":null,"tenant_id":"00000000-0000-0000-0000-000000000000","bank_code":"000003","bank_name":"First City Monument Bank","bank_logo":"https://lendstack-s3.s3.us-east-2.amazonaws.com/bank_logos/214.png","account_name":"John Doe","account_number":"1112232333","profile_id":"0193a649-e3d0-7881-8b7f-2ef1d89a9aff","transaction_id":"0194b7e1-0460-7bb8-88e2-fb3478100b51","account_id":"0193a699-2f15-7881-8b7f-ae50980bcfad"},"disputes":[{"id":"0194b7e1-7a02-7bb8-88e3-1165857c39bc","meta":null,"created_on":"2025-01-30T15:43:14.947Z","created_by_id":"019372de-17ef-7cc2-8fc0-43fe11ba042f","modified_on":"2025-01-30T15:43:14.947Z","modified_by_id":null,"deleted_on":null,"deleted_by_id":null,"tenant_id":"00000000-0000-0000-0000-000000000000","file_id":"0194462d-2cbc-788e-b49e-8f0163251b62","transaction_id":"0194b7e1-0460-7bb8-88e2-fb3478100b51","status":"pending","note":"egbami, e no dey work","comment":null,"reviewed_on":null,"reviewed_by":null,"profile_id":"0193a649-e3d0-7881-8b7f-2ef1d89a9aff"}],"batch":{"id":"0194b7e1-03a8-7bb8-88e2-f67f4110c921","meta":null,"created_on":"2025-01-30T15:42:44.649Z","created_by_id":"019372de-17ef-7cc2-8fc0-43fe11ba042f","modified_on":"2025-01-30T15:42:44.649Z","modified_by_id":null,"deleted_on":null,"deleted_by_id":null,"tenant_id":"00000000-0000-0000-0000-000000000000","status":"approved"},"transfer_beneficiary":null,"bill_payment_beneficiary":null},{"id":"0194b788-5946-777c-b55b-11bfa1f42e60","meta":null,"created_on":"2025-01-30T14:05:53.862Z","created_by_id":"019372de-17ef-7cc2-8fc0-43fe11ba042f","modified_on":"2025-01-30T14:05:55.823Z","modified_by_id":"019372de-17ef-7cc2-8fc0-43fe11ba042f","deleted_on":null,"deleted_by_id":null,"tenant_id":"00000000-0000-0000-0000-000000000000","account_id":"0193a699-2f15-7881-8b7f-ae50980bcfad","profile_id":"0193a649-e3d0-7881-8b7f-2ef1d89a9aff","cba_id":"2207","currency":"NGN","amount":"10.00","balance_after":null,"reference":"Tzsgngtopqk","processor_reference":null,"processor_status":null,"processor_message":null,"status":"success","entry_type":"debit","narration":null,"transaction_date":"2025-01-30T14:05:53.861Z","transaction_type":"fee","processor":"cba","reviewed_on":null,"reviewed_by":null,"batch_id":null,"schedule_id":null,"account":{"id":"0193a699-2f15-7881-8b7f-ae50980bcfad","meta":null,"created_on":"2024-12-08T14:07:57.204Z","created_by_id":null,"modified_on":"2025-02-02T20:14:04.914Z","modified_by_id":"019372de-17ef-7cc2-8fc0-43fe11ba042f","deleted_on":null,"deleted_by_id":null,"tenant_id":"00000000-0000-0000-0000-000000000000","name":"expenses","cba_id":"0000000074","status":"active","profile_id":"0193a649-e3d0-7881-8b7f-2ef1d89a9aff","account_number":"0000000074","bank_id":"0193324f-cad0-7f86-923b-43fb21ac5b29","ledger_balance":"347031.03","hold_balance":"0.00","available_balance":"347031.03","currency":"NGN","restricted":false},"transfer":null,"disputes":[],"batch":null,"transfer_beneficiary":null,"bill_payment_beneficiary":null},{"id":"0194b788-58f4-777c-b55b-07965e18e5a3","meta":null,"created_on":"2025-01-30T14:05:53.780Z","created_by_id":"019372de-17ef-7cc2-8fc0-43fe11ba042f","modified_on":"2025-01-30T14:05:55.817Z","modified_by_id":"019372de-17ef-7cc2-8fc0-43fe11ba042f","deleted_on":null,"deleted_by_id":null,"tenant_id":"00000000-0000-0000-0000-000000000000","account_id":"0193a699-2f15-7881-8b7f-ae50980bcfad","profile_id":"0193a649-e3d0-7881-8b7f-2ef1d89a9aff","cba_id":"2206","currency":"NGN","amount":"100.00","balance_after":null,"reference":"Tzsgngtopqk","processor_reference":null,"processor_status":null,"processor_message":null,"status":"success","entry_type":"debit","narration":null,"transaction_date":"2025-01-30T14:05:53.761Z","transaction_type":"transfer","processor":"nip","reviewed_on":null,"reviewed_by":null,"batch_id":null,"schedule_id":null,"account":{"id":"0193a699-2f15-7881-8b7f-ae50980bcfad","meta":null,"created_on":"2024-12-08T14:07:57.204Z","created_by_id":null,"modified_on":"2025-02-02T20:14:04.914Z","modified_by_id":"019372de-17ef-7cc2-8fc0-43fe11ba042f","deleted_on":null,"deleted_by_id":null,"tenant_id":"00000000-0000-0000-0000-000000000000","name":"expenses","cba_id":"0000000074","status":"active","profile_id":"0193a649-e3d0-7881-8b7f-2ef1d89a9aff","account_number":"0000000074","bank_id":"0193324f-cad0-7f86-923b-43fb21ac5b29","ledger_balance":"347031.03","hold_balance":"0.00","available_balance":"347031.03","currency":"NGN","restricted":false},"transfer":{"id":"0194b788-58fc-777c-b55b-0caa8ae588a7","meta":null,"created_on":"2025-01-30T14:05:53.780Z","created_by_id":"019372de-17ef-7cc2-8fc0-43fe11ba042f","modified_on":"2025-01-30T14:05:53.780Z","modified_by_id":null,"deleted_on":null,"deleted_by_id":null,"tenant_id":"00000000-0000-0000-0000-000000000000","bank_code":"000012","bank_name":"Stanbic IBTC Bank","bank_logo":"https://lendstack-s3.s3.us-east-2.amazonaws.com/bank_logos/221.png","account_name":"John Doe","account_number":"0000009576","profile_id":"0193a649-e3d0-7881-8b7f-2ef1d89a9aff","transaction_id":"0194b788-58f4-777c-b55b-07965e18e5a3","account_id":"0193a699-2f15-7881-8b7f-ae50980bcfad"},"disputes":[],"batch":null,"transfer_beneficiary":null,"bill_payment_beneficiary":null}],"meta":{"page":1,"total_pages":78,"total_items":772}}