{"status":"success","data":[{"id":"0194b87b-c40c-7bb8-88ea-0c5abc17ee29","created_on":"2025-01-30T18:31:46.444Z","email":"O'Keefe@mailinator.com","first_name":"Maia","last_name":"Stoltenberg","last_active":"2025-01-30T18:31:46.444Z","phone":null,"userProfile":{"id":"0194b87b-c411-7bb8-88ea-16e28262e278","status":"active","role_id":"01926788-56f8-7336-86de-98a2678c8611","role":{"name":"Authorizer","slug":"authorizer"}}},{"id":"0194b83b-45de-7bb8-88e6-b15a82ccd356","created_on":"2025-01-30T17:21:19.838Z","email":"Wisozk@mailinator.com","first_name":"Stefanie","last_name":"Kuphal","last_active":"2025-01-30T17:21:19.838Z","phone":null,"userProfile":{"id":"0194b83b-45e2-7bb8-88e6-b816a356855c","status":"inactive","role_id":"01926788-56f8-7336-86de-98a2678c8611","role":{"name":"Authorizer","slug":"authorizer"}}},{"id":"0194b526-cee5-7aaf-88d0-5f599768132b","created_on":"2025-01-30T03:00:07.014Z","email":"Luettgen@mailinator.com","first_name":"Ian","last_name":"Feest","last_active":"2025-01-30T03:00:07.014Z","phone":null,"userProfile":{"id":"0194b526-ceef-7aaf-88d0-62e7ba71c29a","status":"inactive","role_id":"01926788-56f8-7336-86de-98a2678c8611","role":{"name":"Authorizer","slug":"authorizer"}}},{"id":"0194b525-e628-7aaf-88d0-4b5fbaa30af3","created_on":"2025-01-30T02:59:07.433Z","email":"Lindgren@mailinator.com","first_name":"Azeez","last_name":"Invited-User","last_active":"2025-01-30T02:59:07.433Z","phone":null,"userProfile":{"id":"0194b525-e62d-7aaf-88d0-539d5e379f4e","status":"active","role_id":"01926788-56f8-7336-86de-98a2678c8611","role":{"name":"Authorizer","slug":"authorizer"}}},{"id":"019497f5-fce5-7dd2-b9a0-f89181c802ff","created_on":"2025-01-24T10:57:48.261Z","email":"Yan@yopmail.com","first_name":"Feee","last_name":"yes","last_active":"2025-01-24T11:05:29.718Z","phone":null,"userProfile":{"id":"019497f5-fceb-7dd2-b9a1-045cac259aad","status":"active","role_id":"01926788-56f8-7336-86de-98a2678c8611","role":{"name":"Authorizer","slug":"authorizer"}}},{"id":"019497f4-a00e-7dd2-b9a0-eb070385514b","created_on":"2025-01-24T10:56:18.958Z","email":"yang@yopmail.com","first_name":"Jane","last_name":"stay","last_active":"2025-01-24T10:56:18.958Z","phone":null,"userProfile":{"id":"019497f4-a011-7dd2-b9a0-f129ef25b0da","status":"inactive","role_id":"01926788-1eaf-7336-86de-89316b9797d9","role":{"name":"Initiator","slug":"initiator"}}},{"id":"01949444-2364-7228-a8d5-2849410f4d26","created_on":"2025-01-23T17:44:41.060Z","email":"random@yopmail.com","first_name":"Feee","last_name":"stay","last_active":"2025-01-23T17:50:46.007Z","phone":null,"userProfile":{"id":"01949444-2369-7228-a8d5-31c9b2b7271c","status":"inactive","role_id":"01926788-56f8-7336-86de-98a2678c8611","role":{"name":"Authorizer","slug":"authorizer"}}},{"id":"019493cc-a96a-7aa1-bdcd-f28ebe86524e","created_on":"2025-01-23T15:34:11.050Z","email":"ran@yopmail.com","first_name":"Feee","last_name":"flee","last_active":"2025-01-23T15:38:00.919Z","phone":null,"userProfile":{"id":"019493cc-a970-7aa1-bdcd-fadcbf0ffe30","status":"active","role_id":"01926788-56f8-7336-86de-98a2678c8611","role":{"name":"Authorizer","slug":"authorizer"}}},{"id":"019493a2-88f5-7cc6-93e5-ce1349d553c7","created_on":"2025-01-23T14:48:10.229Z","email":"rander@yopmail.com","first_name":"Adey","last_name":"Train","last_active":"2025-01-23T14:48:10.229Z","phone":null,"userProfile":{"id":"019493a2-88fc-7cc6-93e5-d4e96a8b8692","status":"active","role_id":"01926788-1eaf-7336-86de-89316b9797d9","role":{"name":"Initiator","slug":"initiator"}}},{"id":"0194939a-406b-7cc6-93e5-88de51673c0f","created_on":"2025-01-23T14:39:07.370Z","email":"rand@yopmail.com","first_name":"Adere","last_name":"Rant","last_active":"2025-01-23T14:39:07.370Z","phone":null,"userProfile":{"id":"0194939a-4072-7cc6-93e5-96e30ae527fc","status":"active","role_id":"01926788-1eaf-7336-86de-89316b9797d9","role":{"name":"Initiator","slug":"initiator"}}}],"meta":{"page":1,"total_pages":3,"total_items":21}}