{"status":"success","data":[{"id":"019261a8-d7a8-7880-ae6f-d0ffeec775a6","meta":{"first_name":"Azeez","last_name":"Ibrahim","nin":"1234567890"},"created_on":"2024-10-06T11:48:28.200Z","created_by":null,"modified_on":"2024-10-06T11:48:28.200Z","modified_by":null,"deleted_on":null,"deleted_by":null,"tenant_id":"00000000-0000-0000-0000-000000000000","name":"Azeez-Business","type":"business","status":"active","review":null,"primary_user_id":"019252dd-ecc7-7447-bcc2-ad23e54a6b90","tier_id":"01928f2d-6756-755b-8a9d-c8094db2af27","primary_user":{"id":"019252dd-ecc7-7447-bcc2-ad23e54a6b90","meta":null,"created_on":"2024-10-03T14:52:08.775Z","created_by":null,"modified_on":"2024-11-05T13:31:53.449Z","modified_by":null,"deleted_on":null,"deleted_by":null,"tenant_id":"00000000-0000-0000-0000-000000000000","first_name":"Wunmi","last_name":"Ade","email":"Rhett@mailinator.com","phone":null,"status":"active","review":null,"gender":"male","date_of_birth":null,"cba_id":null,"photo_id":null,"referral_code":"","twofa_enabled":false,"last_active":"2024-11-18T13:33:47.068Z","last_ip":null,"last_time_zone":null,"referred_by":null}},{"id":"0192fd03-bfec-7118-a7b6-495a6ed20efc","meta":{},"created_on":"2024-11-05T15:48:54.379Z","created_by":null,"modified_on":"2024-11-27T18:39:51.539Z","modified_by":null,"deleted_on":null,"deleted_by":null,"tenant_id":"00000000-0000-0000-0000-000000000000","name":"wunmi","type":"business","status":"active","review":null,"primary_user_id":"0192fd02-9a33-7118-a7b6-3f82bfcf3eb7","tier_id":"01928f2d-6756-755b-8a9d-c8094db2af27","primary_user":{"id":"0192fd02-9a33-7118-a7b6-3f82bfcf3eb7","meta":null,"created_on":"2024-11-05T15:47:39.186Z","created_by":null,"modified_on":"2024-11-10T21:35:52.978Z","modified_by":null,"deleted_on":null,"deleted_by":null,"tenant_id":"00000000-0000-0000-0000-000000000000","first_name":"Sunday","last_name":"Testing","email":"Welch@mailinator.com","phone":null,"status":"active","review":null,"gender":"male","date_of_birth":null,"cba_id":null,"photo_id":null,"referral_code":"","twofa_enabled":false,"last_active":"2024-11-18T13:33:47.068Z","last_ip":null,"last_time_zone":null,"referred_by":null}},{"id":"019252e2-13d1-7447-bcc2-b898b970353c","meta":{"first_name":"Azeez","last_name":"Ibrahim","nin":"1234567890"},"created_on":"2024-10-03T14:56:40.912Z","created_by":null,"modified_on":"2024-10-03T14:56:40.912Z","modified_by":null,"deleted_on":null,"deleted_by":null,"tenant_id":"00000000-0000-0000-0000-000000000000","name":"Azeez-Profile","type":"business","status":"active","review":null,"primary_user_id":"019252dd-ecc7-7447-bcc2-ad23e54a6b90","tier_id":"01928f2d-6756-755b-8a9d-c8094db2af27","primary_user":{"id":"019252dd-ecc7-7447-bcc2-ad23e54a6b90","meta":null,"created_on":"2024-10-03T14:52:08.775Z","created_by":null,"modified_on":"2024-11-05T13:31:53.449Z","modified_by":null,"deleted_on":null,"deleted_by":null,"tenant_id":"00000000-0000-0000-0000-000000000000","first_name":"Wunmi","last_name":"Ade","email":"Rhett@mailinator.com","phone":null,"status":"active","review":null,"gender":"male","date_of_birth":null,"cba_id":null,"photo_id":null,"referral_code":"","twofa_enabled":false,"last_active":"2024-11-18T13:33:47.068Z","last_ip":null,"last_time_zone":null,"referred_by":null}},{"id":"01930650-201b-7331-97b6-3c0a140ef4a3","meta":{"first_name":"","last_name":"","nin":""},"created_on":"2024-11-07T11:08:54.593Z","created_by":null,"modified_on":"2024-11-25T09:01:27.327Z","modified_by":null,"deleted_on":null,"deleted_by":null,"tenant_id":"00000000-0000-0000-0000-000000000000","name":"wunmi","type":"business","status":"active","review":null,"primary_user_id":"0192fd02-9a33-7118-a7b6-3f82bfcf3eb7","tier_id":"01928f2d-6756-755b-8a9d-c8094db2af27","primary_user":{"id":"0192fd02-9a33-7118-a7b6-3f82bfcf3eb7","meta":null,"created_on":"2024-11-05T15:47:39.186Z","created_by":null,"modified_on":"2024-11-10T21:35:52.978Z","modified_by":null,"deleted_on":null,"deleted_by":null,"tenant_id":"00000000-0000-0000-0000-000000000000","first_name":"Sunday","last_name":"Testing","email":"Welch@mailinator.com","phone":null,"status":"active","review":null,"gender":"male","date_of_birth":null,"cba_id":null,"photo_id":null,"referral_code":"","twofa_enabled":false,"last_active":"2024-11-18T13:33:47.068Z","last_ip":null,"last_time_zone":null,"referred_by":null}},{"id":"01925345-cca2-7886-abfb-4f247ae2e9bb","meta":{"first_name":"Sodiq","last_name":"Dare","nin":"1234567890"},"created_on":"2024-10-03T16:45:36.196Z","created_by":null,"modified_on":"2024-11-26T19:34:14.753Z","modified_by":null,"deleted_on":null,"deleted_by":null,"tenant_id":"00000000-0000-0000-0000-000000000000","name":"Sodiq Inc","type":"business","status":"active","review":null,"primary_user_id":"01925343-fbc8-7886-abfb-41c8746fc8ce","tier_id":"019367c6-a25c-7115-b8f2-962812454475","primary_user":{"id":"01925343-fbc8-7886-abfb-41c8746fc8ce","meta":null,"created_on":"2024-10-03T16:43:37.286Z","created_by":null,"modified_on":"2024-12-15T18:18:10.691Z","modified_by":null,"deleted_on":null,"deleted_by":null,"tenant_id":"00000000-0000-0000-0000-000000000000","first_name":"Sodiq","last_name":"Dare","email":"darehorla@gmail.com","phone":"+2348149583661","status":"active","review":null,"gender":"male","date_of_birth":"2002-05-28","cba_id":null,"photo_id":null,"referral_code":"","twofa_enabled":false,"last_active":"2024-12-10T09:38:17.602Z","last_ip":"::ffff:10.0.1.30","last_time_zone":null,"referred_by":null}},{"id":"0192fce4-cac8-766d-aca7-f29f24fdb4c2","meta":{"gender":"1234567890"},"created_on":"2024-11-05T15:15:05.543Z","created_by":null,"modified_on":"2024-12-01T20:07:47.840Z","modified_by":null,"deleted_on":null,"deleted_by":null,"tenant_id":"00000000-0000-0000-0000-000000000000","name":"wunmi","type":"business","status":"active","review":"undefined","primary_user_id":"0192fce2-ff1a-766d-aca7-e9c3e2bfeb68","tier_id":"01928f2d-6756-755b-8a9d-c8094db2af27","primary_user":{"id":"0192fce2-ff1a-766d-aca7-e9c3e2bfeb68","meta":null,"created_on":"2024-11-05T15:13:07.864Z","created_by":null,"modified_on":"2024-11-05T15:13:08.248Z","modified_by":null,"deleted_on":null,"deleted_by":null,"tenant_id":"00000000-0000-0000-0000-000000000000","first_name":"Sunday","last_name":"Testing","email":"Aufderhar@mailinator.com","phone":null,"status":"active","review":null,"gender":"male","date_of_birth":null,"cba_id":null,"photo_id":null,"referral_code":"","twofa_enabled":false,"last_active":"2024-11-18T13:33:47.068Z","last_ip":null,"last_time_zone":null,"referred_by":null}},{"id":"01930435-40a3-777b-a417-51e2b4610cbc","meta":{},"created_on":"2024-11-07T01:20:19.003Z","created_by":null,"modified_on":"2024-12-02T03:08:53.084Z","modified_by":null,"deleted_on":null,"deleted_by":null,"tenant_id":"00000000-0000-0000-0000-000000000000","name":"wunmi","type":"business","status":"active","review":"undefined","primary_user_id":"01925343-fbc8-7886-abfb-41c8746fc8ce","tier_id":"01928f2d-6756-755b-8a9d-c8094db2af27","primary_user":{"id":"01925343-fbc8-7886-abfb-41c8746fc8ce","meta":null,"created_on":"2024-10-03T16:43:37.286Z","created_by":null,"modified_on":"2024-12-15T18:18:10.691Z","modified_by":null,"deleted_on":null,"deleted_by":null,"tenant_id":"00000000-0000-0000-0000-000000000000","first_name":"Sodiq","last_name":"Dare","email":"darehorla@gmail.com","phone":"+2348149583661","status":"active","review":null,"gender":"male","date_of_birth":"2002-05-28","cba_id":null,"photo_id":null,"referral_code":"","twofa_enabled":false,"last_active":"2024-12-10T09:38:17.602Z","last_ip":"::ffff:10.0.1.30","last_time_zone":null,"referred_by":null}},{"id":"019252e1-1a4c-7447-bcc2-b2c6d18d6486","meta":{"first_name":"Azeez","last_name":"Ibrahim","nin":"1234567890"},"created_on":"2024-10-03T14:55:37.035Z","created_by":null,"modified_on":"2024-12-06T18:39:10.316Z","modified_by":null,"deleted_on":null,"deleted_by":null,"tenant_id":"00000000-0000-0000-0000-000000000000","name":"wunmi","type":"business","status":"active","review":"undefined","primary_user_id":"019252dd-ecc7-7447-bcc2-ad23e54a6b90","tier_id":"01928f2d-6756-755b-8a9d-c8094db2af27","primary_user":{"id":"019252dd-ecc7-7447-bcc2-ad23e54a6b90","meta":null,"created_on":"2024-10-03T14:52:08.775Z","created_by":null,"modified_on":"2024-11-05T13:31:53.449Z","modified_by":null,"deleted_on":null,"deleted_by":null,"tenant_id":"00000000-0000-0000-0000-000000000000","first_name":"Wunmi","last_name":"Ade","email":"Rhett@mailinator.com","phone":null,"status":"active","review":null,"gender":"male","date_of_birth":null,"cba_id":null,"photo_id":null,"referral_code":"","twofa_enabled":false,"last_active":"2024-11-18T13:33:47.068Z","last_ip":null,"last_time_zone":null,"referred_by":null}},{"id":"01925882-f353-7002-8052-04c8be2c03da","meta":{"first_name":"Azeez","last_name":"Ibrahim","nin":"1234567890"},"created_on":"2024-10-04T17:10:29.969Z","created_by":null,"modified_on":"2024-12-04T18:41:02.370Z","modified_by":null,"deleted_on":null,"deleted_by":null,"tenant_id":"00000000-0000-0000-0000-000000000000","name":"wunmi","type":"business","status":"active","review":"undefined","primary_user_id":"019252dd-ecc7-7447-bcc2-ad23e54a6b90","tier_id":"01928f2d-6756-755b-8a9d-c8094db2af27","primary_user":{"id":"019252dd-ecc7-7447-bcc2-ad23e54a6b90","meta":null,"created_on":"2024-10-03T14:52:08.775Z","created_by":null,"modified_on":"2024-11-05T13:31:53.449Z","modified_by":null,"deleted_on":null,"deleted_by":null,"tenant_id":"00000000-0000-0000-0000-000000000000","first_name":"Wunmi","last_name":"Ade","email":"Rhett@mailinator.com","phone":null,"status":"active","review":null,"gender":"male","date_of_birth":null,"cba_id":null,"photo_id":null,"referral_code":"","twofa_enabled":false,"last_active":"2024-11-18T13:33:47.068Z","last_ip":null,"last_time_zone":null,"referred_by":null}},{"id":"019233c5-f357-7ffa-922e-9ff5318f8678","meta":{"first_name":"","last_name":"","nin":"1234567890"},"created_on":"2024-09-27T13:57:43.894Z","created_by":null,"modified_on":"2024-12-07T03:44:04.731Z","modified_by":null,"deleted_on":null,"deleted_by":null,"tenant_id":"00000000-0000-0000-0000-000000000000","name":"wunmi","type":"business","status":"active","review":"undefined\nundefined\nundefined\nundefined\nundefined\nundefined\nundefined","primary_user_id":"019233c3-ec4c-7ffa-922e-94bfe8e3b407","tier_id":"01928f2d-6756-755b-8a9d-c8094db2af27","primary_user":{"id":"019233c3-ec4c-7ffa-922e-94bfe8e3b407","meta":null,"created_on":"2024-09-27T13:55:31.018Z","created_by":null,"modified_on":"2024-09-27T13:55:31.018Z","modified_by":null,"deleted_on":null,"deleted_by":null,"tenant_id":"00000000-0000-0000-0000-000000000000","first_name":"Wunmi","last_name":"Ade","email":"adewunmiakinsanya@gmail.com","phone":null,"status":"active","review":null,"gender":"male","date_of_birth":null,"cba_id":null,"photo_id":null,"referral_code":"","twofa_enabled":false,"last_active":"2024-11-18T13:33:47.068Z","last_ip":null,"last_time_zone":null,"referred_by":null}}],"meta":{"page":1,"total_pages":6,"total_items":52}}