{"status":"success","data":[{"id":"0194b77d-c7d0-777c-b55a-ca5343ea2c2c","meta":{"recipients":[{"amount":1000,"bank_code":"050030","bank_name":"NORTHQUEST FINANCE COMPANY LIMITED ","narration":"","account_name":"John Doe","account_number":"8139354433"}]},"created_on":"2025-01-30T13:54:21.265Z","created_by_id":"019372de-17ef-7cc2-8fc0-43fe11ba042f","modified_on":"2025-01-30T13:54:21.265Z","modified_by_id":null,"deleted_on":null,"deleted_by_id":null,"tenant_id":"00000000-0000-0000-0000-000000000000","frequency":"weekly","type":"transfer","start_date":"2025-01-31T00:00:00.000Z","next_run_date":"2025-01-31T00:00:00.000Z","end_date":"2025-02-21T00:00:00.000Z","status":"active","amount":"0.00","profile_id":"0193a649-e3d0-7881-8b7f-2ef1d89a9aff","account_id":"0193a699-2f15-7881-8b7f-ae50980bcfad","user":{"id":"019372de-17ef-7cc2-8fc0-43fe11ba042f","meta":null,"created_on":"2024-11-28T13:02:58.029Z","created_by_id":null,"modified_on":"2025-02-02T20:14:05.498Z","modified_by_id":"019372de-17ef-7cc2-8fc0-43fe11ba042f","deleted_on":null,"deleted_by_id":null,"tenant_id":"00000000-0000-0000-0000-000000000000","email":"Ismael@mailinator.com","status":"active","first_name":"Sunday","last_name":"Testing","twofa_enabled":false,"last_active":"2025-02-02T20:14:05.497Z","last_ip":"172.70.130.190","allowed_ips":null,"last_timezone":"America/Chicago","last_location":"Chicago","phone":"+2349055755671","review":null,"gender":"male","date_of_birth":null,"cba_id":"31","photo_id":null,"referral_code":"7LD1QN","allowed_locations":null,"referred_by":null}},{"id":"0194b77b-c0af-777c-b55a-ab979f76e8f0","meta":{"recipients":[{"amount":50.23,"bank_code":"999998","bank_name":"vee test","narration":"Sodiq","account_name":"Ake Mobolaji & Temabo","account_number":"1780004070"}]},"created_on":"2025-01-30T13:52:08.368Z","created_by_id":"019372de-17ef-7cc2-8fc0-43fe11ba042f","modified_on":"2025-01-30T13:52:08.368Z","modified_by_id":null,"deleted_on":null,"deleted_by_id":null,"tenant_id":"00000000-0000-0000-0000-000000000000","frequency":"daily","type":"transfer","start_date":"2025-02-10T21:00:00.000Z","next_run_date":"2025-02-10T21:00:00.000Z","end_date":"2025-02-20T21:00:00.000Z","status":"active","amount":"0.00","profile_id":"0193a649-e3d0-7881-8b7f-2ef1d89a9aff","account_id":"0193a699-2f15-7881-8b7f-ae50980bcfad","user":{"id":"019372de-17ef-7cc2-8fc0-43fe11ba042f","meta":null,"created_on":"2024-11-28T13:02:58.029Z","created_by_id":null,"modified_on":"2025-02-02T20:14:05.498Z","modified_by_id":"019372de-17ef-7cc2-8fc0-43fe11ba042f","deleted_on":null,"deleted_by_id":null,"tenant_id":"00000000-0000-0000-0000-000000000000","email":"Ismael@mailinator.com","status":"active","first_name":"Sunday","last_name":"Testing","twofa_enabled":false,"last_active":"2025-02-02T20:14:05.497Z","last_ip":"172.70.130.190","allowed_ips":null,"last_timezone":"America/Chicago","last_location":"Chicago","phone":"+2349055755671","review":null,"gender":"male","date_of_birth":null,"cba_id":"31","photo_id":null,"referral_code":"7LD1QN","allowed_locations":null,"referred_by":null}},{"id":"0194b561-f351-7aaf-88d1-e673ec4f6e5a","meta":{"pin":"1234","amount":100.23,"biller_id":"mtn","option_id":"","category_id":"airtime","account_number":"09055755671"},"created_on":"2025-01-30T04:04:42.962Z","created_by_id":"019372de-17ef-7cc2-8fc0-43fe11ba042f","modified_on":"2025-01-30T13:11:34.787Z","modified_by_id":"019372de-17ef-7cc2-8fc0-43fe11ba042f","deleted_on":null,"deleted_by_id":null,"tenant_id":"00000000-0000-0000-0000-000000000000","frequency":"daily","type":"bill-payment","start_date":"2025-02-10T21:00:00.000Z","next_run_date":"2025-02-10T21:00:00.000Z","end_date":"2025-02-20T00:00:00.000Z","status":"active","amount":"10.00","profile_id":"0193a649-e3d0-7881-8b7f-2ef1d89a9aff","account_id":"0193a699-2f15-7881-8b7f-ae50980bcfad","user":{"id":"019372de-17ef-7cc2-8fc0-43fe11ba042f","meta":null,"created_on":"2024-11-28T13:02:58.029Z","created_by_id":null,"modified_on":"2025-02-02T20:14:05.498Z","modified_by_id":"019372de-17ef-7cc2-8fc0-43fe11ba042f","deleted_on":null,"deleted_by_id":null,"tenant_id":"00000000-0000-0000-0000-000000000000","email":"Ismael@mailinator.com","status":"active","first_name":"Sunday","last_name":"Testing","twofa_enabled":false,"last_active":"2025-02-02T20:14:05.497Z","last_ip":"172.70.130.190","allowed_ips":null,"last_timezone":"America/Chicago","last_location":"Chicago","phone":"+2349055755671","review":null,"gender":"male","date_of_birth":null,"cba_id":"31","photo_id":null,"referral_code":"7LD1QN","allowed_locations":null,"referred_by":null}},{"id":"0194b55f-bb32-7aaf-88d1-dc357088d103","meta":{"recipients":[{"amount":50.23,"bank_code":"999998","bank_name":"vee test","narration":"Sodiq","account_name":"Ake Mobolaji & Temabo","account_number":"1780004070"}]},"created_on":"2025-01-30T04:02:17.522Z","created_by_id":"019372de-17ef-7cc2-8fc0-43fe11ba042f","modified_on":"2025-01-30T13:21:36.767Z","modified_by_id":"019372de-17ef-7cc2-8fc0-43fe11ba042f","deleted_on":null,"deleted_by_id":null,"tenant_id":"00000000-0000-0000-0000-000000000000","frequency":"weekly","type":"transfer","start_date":"2025-03-10T00:00:00.000Z","next_run_date":"2025-03-10T00:00:00.000Z","end_date":"2025-03-20T00:00:00.000Z","status":"cancelled","amount":"0.00","profile_id":"0193a649-e3d0-7881-8b7f-2ef1d89a9aff","account_id":"0193a699-2f15-7881-8b7f-ae50980bcfad","user":{"id":"019372de-17ef-7cc2-8fc0-43fe11ba042f","meta":null,"created_on":"2024-11-28T13:02:58.029Z","created_by_id":null,"modified_on":"2025-02-02T20:14:05.498Z","modified_by_id":"019372de-17ef-7cc2-8fc0-43fe11ba042f","deleted_on":null,"deleted_by_id":null,"tenant_id":"00000000-0000-0000-0000-000000000000","email":"Ismael@mailinator.com","status":"active","first_name":"Sunday","last_name":"Testing","twofa_enabled":false,"last_active":"2025-02-02T20:14:05.497Z","last_ip":"172.70.130.190","allowed_ips":null,"last_timezone":"America/Chicago","last_location":"Chicago","phone":"+2349055755671","review":null,"gender":"male","date_of_birth":null,"cba_id":"31","photo_id":null,"referral_code":"7LD1QN","allowed_locations":null,"referred_by":null}},{"id":"0194b55f-25a7-7aaf-88d1-d132b0ec32bd","meta":{"recipients":[{"amount":50.23,"bank_code":"999998","bank_name":"vee test","narration":"Sodiq","account_name":"Ake Mobolaji & Temabo","account_number":"1780004070"}]},"created_on":"2025-01-30T04:01:39.239Z","created_by_id":"019372de-17ef-7cc2-8fc0-43fe11ba042f","modified_on":"2025-01-30T13:15:54.365Z","modified_by_id":"019372de-17ef-7cc2-8fc0-43fe11ba042f","deleted_on":null,"deleted_by_id":null,"tenant_id":"00000000-0000-0000-0000-000000000000","frequency":"monthly","type":"transfer","start_date":"2025-02-10T21:00:00.000Z","next_run_date":"2025-02-10T21:00:00.000Z","end_date":"2025-04-23T00:00:00.000Z","status":"active","amount":"0.00","profile_id":"0193a649-e3d0-7881-8b7f-2ef1d89a9aff","account_id":"0193a699-2f15-7881-8b7f-ae50980bcfad","user":{"id":"019372de-17ef-7cc2-8fc0-43fe11ba042f","meta":null,"created_on":"2024-11-28T13:02:58.029Z","created_by_id":null,"modified_on":"2025-02-02T20:14:05.498Z","modified_by_id":"019372de-17ef-7cc2-8fc0-43fe11ba042f","deleted_on":null,"deleted_by_id":null,"tenant_id":"00000000-0000-0000-0000-000000000000","email":"Ismael@mailinator.com","status":"active","first_name":"Sunday","last_name":"Testing","twofa_enabled":false,"last_active":"2025-02-02T20:14:05.497Z","last_ip":"172.70.130.190","allowed_ips":null,"last_timezone":"America/Chicago","last_location":"Chicago","phone":"+2349055755671","review":null,"gender":"male","date_of_birth":null,"cba_id":"31","photo_id":null,"referral_code":"7LD1QN","allowed_locations":null,"referred_by":null}},{"id":"0194b489-54dc-7aaf-88cd-68196ddcad9a","meta":{"pin":"1234","amount":2000,"biller_id":"9mobile","option_id":"2000","category_id":"databundle","account_number":"09086635565"},"created_on":"2025-01-30T00:08:06.619Z","created_by_id":"019372de-17ef-7cc2-8fc0-43fe11ba042f","modified_on":"2025-01-30T00:08:06.619Z","modified_by_id":null,"deleted_on":null,"deleted_by_id":null,"tenant_id":"00000000-0000-0000-0000-000000000000","frequency":"weekly","type":"bill-payment","start_date":"2025-01-30T01:08:04.495Z","next_run_date":"2025-01-30T01:08:04.495Z","end_date":"2025-01-31T23:59:59.999Z","status":"active","amount":"0.00","profile_id":"0193a649-e3d0-7881-8b7f-2ef1d89a9aff","account_id":"0193a699-2f15-7881-8b7f-ae50980bcfad","user":{"id":"019372de-17ef-7cc2-8fc0-43fe11ba042f","meta":null,"created_on":"2024-11-28T13:02:58.029Z","created_by_id":null,"modified_on":"2025-02-02T20:14:05.498Z","modified_by_id":"019372de-17ef-7cc2-8fc0-43fe11ba042f","deleted_on":null,"deleted_by_id":null,"tenant_id":"00000000-0000-0000-0000-000000000000","email":"Ismael@mailinator.com","status":"active","first_name":"Sunday","last_name":"Testing","twofa_enabled":false,"last_active":"2025-02-02T20:14:05.497Z","last_ip":"172.70.130.190","allowed_ips":null,"last_timezone":"America/Chicago","last_location":"Chicago","phone":"+2349055755671","review":null,"gender":"male","date_of_birth":null,"cba_id":"31","photo_id":null,"referral_code":"7LD1QN","allowed_locations":null,"referred_by":null}},{"id":"0194b487-7c6c-7aaf-88cd-52a7497813bf","meta":{"recipients":[{"amount":1000,"bank_code":"000003","bank_name":"First City Monument Bank","narration":"","account_name":"John Doe","account_number":"0112345678"}]},"created_on":"2025-01-30T00:06:05.676Z","created_by_id":"019372de-17ef-7cc2-8fc0-43fe11ba042f","modified_on":"2025-01-30T00:06:05.676Z","modified_by_id":null,"deleted_on":null,"deleted_by_id":null,"tenant_id":"00000000-0000-0000-0000-000000000000","frequency":"monthly","type":"transfer","start_date":"2025-01-30T00:00:00.000Z","next_run_date":"2025-03-02T00:00:00.000Z","end_date":"2025-01-31T00:00:00.000Z","status":"active","amount":"0.00","profile_id":"0193a649-e3d0-7881-8b7f-2ef1d89a9aff","account_id":"0193a699-2f15-7881-8b7f-ae50980bcfad","user":{"id":"019372de-17ef-7cc2-8fc0-43fe11ba042f","meta":null,"created_on":"2024-11-28T13:02:58.029Z","created_by_id":null,"modified_on":"2025-02-02T20:14:05.498Z","modified_by_id":"019372de-17ef-7cc2-8fc0-43fe11ba042f","deleted_on":null,"deleted_by_id":null,"tenant_id":"00000000-0000-0000-0000-000000000000","email":"Ismael@mailinator.com","status":"active","first_name":"Sunday","last_name":"Testing","twofa_enabled":false,"last_active":"2025-02-02T20:14:05.497Z","last_ip":"172.70.130.190","allowed_ips":null,"last_timezone":"America/Chicago","last_location":"Chicago","phone":"+2349055755671","review":null,"gender":"male","date_of_birth":null,"cba_id":"31","photo_id":null,"referral_code":"7LD1QN","allowed_locations":null,"referred_by":null}},{"id":"0194b486-50f8-7aaf-88cd-4b285b0f525e","meta":{"recipients":[{"amount":1000,"bank_code":"000016","bank_name":"First Bank of Nigeria","narration":"","account_name":"John Doe","account_number":"3241414111"}]},"created_on":"2025-01-30T00:04:49.016Z","created_by_id":"019372de-17ef-7cc2-8fc0-43fe11ba042f","modified_on":"2025-01-30T00:04:49.016Z","modified_by_id":null,"deleted_on":null,"deleted_by_id":null,"tenant_id":"00000000-0000-0000-0000-000000000000","frequency":"weekly","type":"transfer","start_date":"2025-01-30T01:04:47.868Z","next_run_date":"2025-01-30T01:04:47.868Z","end_date":"2025-01-31T23:59:59.999Z","status":"active","amount":"0.00","profile_id":"0193a649-e3d0-7881-8b7f-2ef1d89a9aff","account_id":"0193a699-2f15-7881-8b7f-ae50980bcfad","user":{"id":"019372de-17ef-7cc2-8fc0-43fe11ba042f","meta":null,"created_on":"2024-11-28T13:02:58.029Z","created_by_id":null,"modified_on":"2025-02-02T20:14:05.498Z","modified_by_id":"019372de-17ef-7cc2-8fc0-43fe11ba042f","deleted_on":null,"deleted_by_id":null,"tenant_id":"00000000-0000-0000-0000-000000000000","email":"Ismael@mailinator.com","status":"active","first_name":"Sunday","last_name":"Testing","twofa_enabled":false,"last_active":"2025-02-02T20:14:05.497Z","last_ip":"172.70.130.190","allowed_ips":null,"last_timezone":"America/Chicago","last_location":"Chicago","phone":"+2349055755671","review":null,"gender":"male","date_of_birth":null,"cba_id":"31","photo_id":null,"referral_code":"7LD1QN","allowed_locations":null,"referred_by":null}},{"id":"0194b46b-e574-7aaf-88cc-f053a40723bd","meta":{"recipients":[{"amount":10,"bank_code":"050030","bank_name":"NORTHQUEST FINANCE COMPANY LIMITED ","narration":"","account_name":"John Doe","account_number":"8139354433"}]},"created_on":"2025-01-29T23:35:57.556Z","created_by_id":"019372de-17ef-7cc2-8fc0-43fe11ba042f","modified_on":"2025-01-29T23:35:57.556Z","modified_by_id":null,"deleted_on":null,"deleted_by_id":null,"tenant_id":"00000000-0000-0000-0000-000000000000","frequency":"weekly","type":"transfer","start_date":"2025-01-30T00:00:00.000Z","next_run_date":"2025-01-30T00:00:00.000Z","end_date":"2025-01-31T00:00:00.000Z","status":"active","amount":"0.00","profile_id":"0193a649-e3d0-7881-8b7f-2ef1d89a9aff","account_id":"0193a699-2f15-7881-8b7f-ae50980bcfad","user":{"id":"019372de-17ef-7cc2-8fc0-43fe11ba042f","meta":null,"created_on":"2024-11-28T13:02:58.029Z","created_by_id":null,"modified_on":"2025-02-02T20:14:05.498Z","modified_by_id":"019372de-17ef-7cc2-8fc0-43fe11ba042f","deleted_on":null,"deleted_by_id":null,"tenant_id":"00000000-0000-0000-0000-000000000000","email":"Ismael@mailinator.com","status":"active","first_name":"Sunday","last_name":"Testing","twofa_enabled":false,"last_active":"2025-02-02T20:14:05.497Z","last_ip":"172.70.130.190","allowed_ips":null,"last_timezone":"America/Chicago","last_location":"Chicago","phone":"+2349055755671","review":null,"gender":"male","date_of_birth":null,"cba_id":"31","photo_id":null,"referral_code":"7LD1QN","allowed_locations":null,"referred_by":null}},{"id":"0194b409-a895-7aaf-88cb-ab598a03c5cc","meta":{"recipients":[{"amount":100,"bank_code":"000016","bank_name":"First Bank of Nigeria","narration":"","account_name":"John Doe","account_number":"0112345678"}]},"created_on":"2025-01-29T21:48:39.445Z","created_by_id":"019372de-17ef-7cc2-8fc0-43fe11ba042f","modified_on":"2025-01-29T21:52:20.501Z","modified_by_id":"019372de-17ef-7cc2-8fc0-43fe11ba042f","deleted_on":null,"deleted_by_id":null,"tenant_id":"00000000-0000-0000-0000-000000000000","frequency":"weekly","type":"transfer","start_date":"2025-01-30T00:00:00.000Z","next_run_date":"2025-01-30T00:00:00.000Z","end_date":"2025-01-31T00:00:00.000Z","status":"active","amount":"0.00","profile_id":"0193a649-e3d0-7881-8b7f-2ef1d89a9aff","account_id":"0193a699-2f15-7881-8b7f-ae50980bcfad","user":{"id":"019372de-17ef-7cc2-8fc0-43fe11ba042f","meta":null,"created_on":"2024-11-28T13:02:58.029Z","created_by_id":null,"modified_on":"2025-02-02T20:14:05.498Z","modified_by_id":"019372de-17ef-7cc2-8fc0-43fe11ba042f","deleted_on":null,"deleted_by_id":null,"tenant_id":"00000000-0000-0000-0000-000000000000","email":"Ismael@mailinator.com","status":"active","first_name":"Sunday","last_name":"Testing","twofa_enabled":false,"last_active":"2025-02-02T20:14:05.497Z","last_ip":"172.70.130.190","allowed_ips":null,"last_timezone":"America/Chicago","last_location":"Chicago","phone":"+2349055755671","review":null,"gender":"male","date_of_birth":null,"cba_id":"31","photo_id":null,"referral_code":"7LD1QN","allowed_locations":null,"referred_by":null}}],"meta":{"page":1,"total_pages":9,"total_items":86}}