{"status":"success","data":[{"id":"0195aee1-470d-7553-abf3-636bec96acd7","meta":{"rc-number":"0000000","business-name":"Faill","business-email":"frrl@yopmail.com","business-phone":"+23438096589","business-types":"Sole Proprietorship","business-address":"2 kene street"},"created_on":"2025-03-19T14:49:14.252Z","created_by_id":"0195a8da-ddea-733b-b4fa-a787be652e4f","modified_on":"2025-03-19T14:49:14.252Z","modified_by_id":null,"deleted_on":null,"deleted_by_id":null,"tenant_id":"00000000-0000-0000-0000-000000000000","name":"","type":"business","status":"active","restricted":false,"review":null,"allowed_time_periods":null,"allowed_locations":null,"primary_user_id":"0195a8da-ddea-733b-b4fa-a787be652e4f","tier_id":null,"primary_user":{"id":"0195a8da-ddea-733b-b4fa-a787be652e4f","meta":null,"created_on":"2025-03-18T10:44:30.821Z","created_by_id":null,"modified_on":"2025-03-19T18:16:06.406Z","modified_by_id":"0195a8da-ddea-733b-b4fa-a787be652e4f","deleted_on":null,"deleted_by_id":null,"tenant_id":"00000000-0000-0000-0000-000000000000","email":"Slayyer@yopmail.com","status":"active","first_name":"Brian","last_name":"Sanda","twofa_enabled":false,"last_active":"2025-03-19T18:16:06.406Z","last_ip":"172.71.182.2","allowed_ips":null,"last_timezone":"Europe/Amsterdam","last_location":"Amsterdam","phone":"+2348123470000","review":null,"gender":"female","date_of_birth":"1994-06-20","cba_id":"137","photo_id":"0195ae88-98d2-7ccb-ba8e-f7c4dd8b87c0","referral_code":"E59SHR","referred_by":null,"has_pin":false,"has_password":false},"tier":null},{"id":"019591d1-1c46-7ee0-bd82-8fcd12817bdd","meta":{"rc-number":"76867","business-name":"last","business-email":"examplelast@gmail.com","business-phone":"+23408101259872","business-types":"Franchise","business-address":"Joseph Ogunyemi Street"},"created_on":"2025-03-13T23:22:35.419Z","created_by_id":"019582d8-9dec-7bb0-a40c-c658c9c92e37","modified_on":"2025-03-13T23:22:35.419Z","modified_by_id":null,"deleted_on":null,"deleted_by_id":null,"tenant_id":"00000000-0000-0000-0000-000000000000","name":"","type":"business","status":"active","restricted":false,"review":null,"allowed_time_periods":null,"allowed_locations":null,"primary_user_id":"019582d8-9dec-7bb0-a40c-c658c9c92e37","tier_id":null,"primary_user":{"id":"019582d8-9dec-7bb0-a40c-c658c9c92e37","meta":null,"created_on":"2025-03-11T01:36:29.164Z","created_by_id":null,"modified_on":"2025-03-13T23:39:55.991Z","modified_by_id":"019582d8-9dec-7bb0-a40c-c658c9c92e37","deleted_on":null,"deleted_by_id":null,"tenant_id":"00000000-0000-0000-0000-000000000000","email":"christopher@mailinator.com","status":"active","first_name":"chris","last_name":"Name","twofa_enabled":false,"last_active":"2025-03-13T23:39:55.991Z","last_ip":"172.71.182.157","allowed_ips":null,"last_timezone":"Europe/Amsterdam","last_location":"Amsterdam","phone":"+2348101259872","review":null,"gender":null,"date_of_birth":null,"cba_id":null,"photo_id":null,"referral_code":"UV6XXQ","referred_by":null,"has_pin":false,"has_password":false},"tier":null},{"id":"019591c5-6767-7ee0-bd82-2d7ddadf9a78","meta":{"rc-number":"676909","business-name":"chart","business-email":"examtryple@gmail.com","business-phone":"+23408101259872","business-types":"Sole Proprietorship","business-address":"Joseph Ogunyemi Street"},"created_on":"2025-03-13T23:09:48.262Z","created_by_id":"019582d8-9dec-7bb0-a40c-c658c9c92e37","modified_on":"2025-03-13T23:09:48.262Z","modified_by_id":null,"deleted_on":null,"deleted_by_id":null,"tenant_id":"00000000-0000-0000-0000-000000000000","name":"","type":"business","status":"active","restricted":false,"review":null,"allowed_time_periods":null,"allowed_locations":null,"primary_user_id":"019582d8-9dec-7bb0-a40c-c658c9c92e37","tier_id":null,"primary_user":{"id":"019582d8-9dec-7bb0-a40c-c658c9c92e37","meta":null,"created_on":"2025-03-11T01:36:29.164Z","created_by_id":null,"modified_on":"2025-03-13T23:39:55.991Z","modified_by_id":"019582d8-9dec-7bb0-a40c-c658c9c92e37","deleted_on":null,"deleted_by_id":null,"tenant_id":"00000000-0000-0000-0000-000000000000","email":"christopher@mailinator.com","status":"active","first_name":"chris","last_name":"Name","twofa_enabled":false,"last_active":"2025-03-13T23:39:55.991Z","last_ip":"172.71.182.157","allowed_ips":null,"last_timezone":"Europe/Amsterdam","last_location":"Amsterdam","phone":"+2348101259872","review":null,"gender":null,"date_of_birth":null,"cba_id":null,"photo_id":null,"referral_code":"UV6XXQ","referred_by":null,"has_pin":false,"has_password":false},"tier":null},{"id":"019591bf-d251-7ee0-bd82-044b9746c6f0","meta":{"rc-number":"547549733","business-name":"please","business-email":"exapleasemple@gmail.com","business-phone":"+23408101259872","business-types":"Partnership","business-address":"Joseph Ogunyemi Street"},"created_on":"2025-03-13T23:03:42.415Z","created_by_id":"019582d8-9dec-7bb0-a40c-c658c9c92e37","modified_on":"2025-03-13T23:03:42.415Z","modified_by_id":null,"deleted_on":null,"deleted_by_id":null,"tenant_id":"00000000-0000-0000-0000-000000000000","name":"","type":"business","status":"active","restricted":false,"review":null,"allowed_time_periods":null,"allowed_locations":null,"primary_user_id":"019582d8-9dec-7bb0-a40c-c658c9c92e37","tier_id":null,"primary_user":{"id":"019582d8-9dec-7bb0-a40c-c658c9c92e37","meta":null,"created_on":"2025-03-11T01:36:29.164Z","created_by_id":null,"modified_on":"2025-03-13T23:39:55.991Z","modified_by_id":"019582d8-9dec-7bb0-a40c-c658c9c92e37","deleted_on":null,"deleted_by_id":null,"tenant_id":"00000000-0000-0000-0000-000000000000","email":"christopher@mailinator.com","status":"active","first_name":"chris","last_name":"Name","twofa_enabled":false,"last_active":"2025-03-13T23:39:55.991Z","last_ip":"172.71.182.157","allowed_ips":null,"last_timezone":"Europe/Amsterdam","last_location":"Amsterdam","phone":"+2348101259872","review":null,"gender":null,"date_of_birth":null,"cba_id":null,"photo_id":null,"referral_code":"UV6XXQ","referred_by":null,"has_pin":false,"has_password":false},"tier":null},{"id":"019591b0-68c5-7ee0-bd81-d3cd181a4e67","meta":{"rc-number":"53434","business-name":"testing","business-email":"examtestingple@gmail.com","business-phone":"+23408101259872","business-types":"Sole Proprietorship","business-address":"Joseph Ogunyemi Street"},"created_on":"2025-03-13T22:46:52.357Z","created_by_id":"019582d8-9dec-7bb0-a40c-c658c9c92e37","modified_on":"2025-03-13T22:46:52.357Z","modified_by_id":null,"deleted_on":null,"deleted_by_id":null,"tenant_id":"00000000-0000-0000-0000-000000000000","name":"","type":"business","status":"active","restricted":false,"review":null,"allowed_time_periods":null,"allowed_locations":null,"primary_user_id":"019582d8-9dec-7bb0-a40c-c658c9c92e37","tier_id":null,"primary_user":{"id":"019582d8-9dec-7bb0-a40c-c658c9c92e37","meta":null,"created_on":"2025-03-11T01:36:29.164Z","created_by_id":null,"modified_on":"2025-03-13T23:39:55.991Z","modified_by_id":"019582d8-9dec-7bb0-a40c-c658c9c92e37","deleted_on":null,"deleted_by_id":null,"tenant_id":"00000000-0000-0000-0000-000000000000","email":"christopher@mailinator.com","status":"active","first_name":"chris","last_name":"Name","twofa_enabled":false,"last_active":"2025-03-13T23:39:55.991Z","last_ip":"172.71.182.157","allowed_ips":null,"last_timezone":"Europe/Amsterdam","last_location":"Amsterdam","phone":"+2348101259872","review":null,"gender":null,"date_of_birth":null,"cba_id":null,"photo_id":null,"referral_code":"UV6XXQ","referred_by":null,"has_pin":false,"has_password":false},"tier":null},{"id":"019591a2-9d3f-7ee0-bd81-9cb28e99f5c0","meta":{"rc-number":"4eew232","business-name":"fsfsfsfs","business-email":"examplrereree@gmail.com","business-phone":"+23408101259872","business-types":"Corporation","business-address":"Joseph Ogunyemi Street"},"created_on":"2025-03-13T22:31:48.286Z","created_by_id":"019582d8-9dec-7bb0-a40c-c658c9c92e37","modified_on":"2025-03-13T22:31:48.286Z","modified_by_id":null,"deleted_on":null,"deleted_by_id":null,"tenant_id":"00000000-0000-0000-0000-000000000000","name":"","type":"business","status":"active","restricted":false,"review":null,"allowed_time_periods":null,"allowed_locations":null,"primary_user_id":"019582d8-9dec-7bb0-a40c-c658c9c92e37","tier_id":null,"primary_user":{"id":"019582d8-9dec-7bb0-a40c-c658c9c92e37","meta":null,"created_on":"2025-03-11T01:36:29.164Z","created_by_id":null,"modified_on":"2025-03-13T23:39:55.991Z","modified_by_id":"019582d8-9dec-7bb0-a40c-c658c9c92e37","deleted_on":null,"deleted_by_id":null,"tenant_id":"00000000-0000-0000-0000-000000000000","email":"christopher@mailinator.com","status":"active","first_name":"chris","last_name":"Name","twofa_enabled":false,"last_active":"2025-03-13T23:39:55.991Z","last_ip":"172.71.182.157","allowed_ips":null,"last_timezone":"Europe/Amsterdam","last_location":"Amsterdam","phone":"+2348101259872","review":null,"gender":null,"date_of_birth":null,"cba_id":null,"photo_id":null,"referral_code":"UV6XXQ","referred_by":null,"has_pin":false,"has_password":false},"tier":null},{"id":"0195919e-a13f-7ee0-bd81-5dd72d26d4be","meta":{"rc-number":"547549799","business-name":"tryagainagain","business-email":"exampletryagaian@gmail.com","business-phone":"+23408101259872","business-types":"Sole Proprietorship","business-address":"Joseph Ogunyemi Street"},"created_on":"2025-03-13T22:27:27.165Z","created_by_id":"019582d8-9dec-7bb0-a40c-c658c9c92e37","modified_on":"2025-03-13T22:27:27.165Z","modified_by_id":null,"deleted_on":null,"deleted_by_id":null,"tenant_id":"00000000-0000-0000-0000-000000000000","name":"","type":"business","status":"active","restricted":false,"review":null,"allowed_time_periods":null,"allowed_locations":null,"primary_user_id":"019582d8-9dec-7bb0-a40c-c658c9c92e37","tier_id":null,"primary_user":{"id":"019582d8-9dec-7bb0-a40c-c658c9c92e37","meta":null,"created_on":"2025-03-11T01:36:29.164Z","created_by_id":null,"modified_on":"2025-03-13T23:39:55.991Z","modified_by_id":"019582d8-9dec-7bb0-a40c-c658c9c92e37","deleted_on":null,"deleted_by_id":null,"tenant_id":"00000000-0000-0000-0000-000000000000","email":"christopher@mailinator.com","status":"active","first_name":"chris","last_name":"Name","twofa_enabled":false,"last_active":"2025-03-13T23:39:55.991Z","last_ip":"172.71.182.157","allowed_ips":null,"last_timezone":"Europe/Amsterdam","last_location":"Amsterdam","phone":"+2348101259872","review":null,"gender":null,"date_of_birth":null,"cba_id":null,"photo_id":null,"referral_code":"UV6XXQ","referred_by":null,"has_pin":false,"has_password":false},"tier":null},{"id":"0195919a-5c91-7ee0-bd81-28540aff9978","meta":{"rc-number":"5475497","business-name":"night","business-email":"examnigthple@gmail.com","business-phone":"+23408101259872","business-types":"Sole Proprietorship","business-address":"Joseph Ogunyemi Street"},"created_on":"2025-03-13T22:22:47.440Z","created_by_id":"019582d8-9dec-7bb0-a40c-c658c9c92e37","modified_on":"2025-03-13T22:22:47.440Z","modified_by_id":null,"deleted_on":null,"deleted_by_id":null,"tenant_id":"00000000-0000-0000-0000-000000000000","name":"","type":"business","status":"active","restricted":false,"review":null,"allowed_time_periods":null,"allowed_locations":null,"primary_user_id":"019582d8-9dec-7bb0-a40c-c658c9c92e37","tier_id":null,"primary_user":{"id":"019582d8-9dec-7bb0-a40c-c658c9c92e37","meta":null,"created_on":"2025-03-11T01:36:29.164Z","created_by_id":null,"modified_on":"2025-03-13T23:39:55.991Z","modified_by_id":"019582d8-9dec-7bb0-a40c-c658c9c92e37","deleted_on":null,"deleted_by_id":null,"tenant_id":"00000000-0000-0000-0000-000000000000","email":"christopher@mailinator.com","status":"active","first_name":"chris","last_name":"Name","twofa_enabled":false,"last_active":"2025-03-13T23:39:55.991Z","last_ip":"172.71.182.157","allowed_ips":null,"last_timezone":"Europe/Amsterdam","last_location":"Amsterdam","phone":"+2348101259872","review":null,"gender":null,"date_of_birth":null,"cba_id":null,"photo_id":null,"referral_code":"UV6XXQ","referred_by":null,"has_pin":false,"has_password":false},"tier":null},{"id":"01958fde-ba2d-7ee0-bd7a-e68be2b56322","meta":{"rc-number":"5475497i89","business-name":"tyty","business-email":"examplehu@gmail.com","business-phone":"+23408101259872","business-types":"Limited Liability Partnership (LLP)","business-address":"Joseph Ogunyemi Street"},"created_on":"2025-03-13T14:18:13.419Z","created_by_id":"019582d8-9dec-7bb0-a40c-c658c9c92e37","modified_on":"2025-03-13T14:18:13.419Z","modified_by_id":null,"deleted_on":null,"deleted_by_id":null,"tenant_id":"00000000-0000-0000-0000-000000000000","name":"","type":"business","status":"active","restricted":false,"review":null,"allowed_time_periods":null,"allowed_locations":null,"primary_user_id":"019582d8-9dec-7bb0-a40c-c658c9c92e37","tier_id":null,"primary_user":{"id":"019582d8-9dec-7bb0-a40c-c658c9c92e37","meta":null,"created_on":"2025-03-11T01:36:29.164Z","created_by_id":null,"modified_on":"2025-03-13T23:39:55.991Z","modified_by_id":"019582d8-9dec-7bb0-a40c-c658c9c92e37","deleted_on":null,"deleted_by_id":null,"tenant_id":"00000000-0000-0000-0000-000000000000","email":"christopher@mailinator.com","status":"active","first_name":"chris","last_name":"Name","twofa_enabled":false,"last_active":"2025-03-13T23:39:55.991Z","last_ip":"172.71.182.157","allowed_ips":null,"last_timezone":"Europe/Amsterdam","last_location":"Amsterdam","phone":"+2348101259872","review":null,"gender":null,"date_of_birth":null,"cba_id":null,"photo_id":null,"referral_code":"UV6XXQ","referred_by":null,"has_pin":false,"has_password":false},"tier":null},{"id":"01958fdb-b9fb-7ee0-bd7a-c2296bd472ce","meta":{"rc-number":"1234543","business-name":"Help","business-email":"examplegfhff@gmail.com","business-phone":"+23408101259872","business-types":"Limited Liability Partnership (LLP)","business-address":"Joseph Ogunyemi Street"},"created_on":"2025-03-13T14:14:56.761Z","created_by_id":"019582d8-9dec-7bb0-a40c-c658c9c92e37","modified_on":"2025-03-13T14:14:56.761Z","modified_by_id":null,"deleted_on":null,"deleted_by_id":null,"tenant_id":"00000000-0000-0000-0000-000000000000","name":"","type":"business","status":"active","restricted":false,"review":null,"allowed_time_periods":null,"allowed_locations":null,"primary_user_id":"019582d8-9dec-7bb0-a40c-c658c9c92e37","tier_id":null,"primary_user":{"id":"019582d8-9dec-7bb0-a40c-c658c9c92e37","meta":null,"created_on":"2025-03-11T01:36:29.164Z","created_by_id":null,"modified_on":"2025-03-13T23:39:55.991Z","modified_by_id":"019582d8-9dec-7bb0-a40c-c658c9c92e37","deleted_on":null,"deleted_by_id":null,"tenant_id":"00000000-0000-0000-0000-000000000000","email":"christopher@mailinator.com","status":"active","first_name":"chris","last_name":"Name","twofa_enabled":false,"last_active":"2025-03-13T23:39:55.991Z","last_ip":"172.71.182.157","allowed_ips":null,"last_timezone":"Europe/Amsterdam","last_location":"Amsterdam","phone":"+2348101259872","review":null,"gender":null,"date_of_birth":null,"cba_id":null,"photo_id":null,"referral_code":"UV6XXQ","referred_by":null,"has_pin":false,"has_password":false},"tier":null}],"meta":{"page":1,"total_pages":19,"total_items":182}}