{"status":"success","data":[{"id":"01966c4f-e376-788e-9dd8-d53458c5b29e","meta":null,"created_on":"2025-04-25T09:38:17.078Z","created_by_id":"0193d109-a926-7446-abe5-7dafe8b742bd","modified_on":"2025-04-25T09:42:47.384Z","modified_by_id":"0193d109-a926-7446-abe5-7dafe8b742bd","deleted_on":null,"deleted_by_id":null,"tenant_id":"00000000-0000-0000-0000-000000000000","name":"newtt","description":"form","status":"active","currency":"NGN","type":"structured","no_of_investors":1,"min_amount":"1.00","interest_rate":"0.00","interest_period":"yearly","interest_compounding_period":"yearly","interest_posting_period":"yearly","cba_id":"191","terms_and_condition_file_id":"01966c53-bdd0-788e-9dd8-fff454df8901","withholding_tax":1,"pre_closure_penal_interest":1,"min_deposit_term":1,"min_deposit_term_period":"days","max_deposit_term":1,"max_deposit_term_period":"months","min_amount_before_liquidation_approval":0,"frequency":"monthly","certificate_template_id":null},{"id":"01966745-b7e5-7eec-b09a-a9a4ecf3059d","meta":null,"created_on":"2025-04-24T10:09:04.485Z","created_by_id":"01927265-4ed2-79cc-a0e6-e11339a359f3","modified_on":"2025-04-24T10:09:04.485Z","modified_by_id":null,"deleted_on":null,"deleted_by_id":null,"tenant_id":"00000000-0000-0000-0000-000000000000","name":"Women Empowerment Loan","description":"To support students","status":"active","currency":"NGN","type":"fixed","no_of_investors":5,"min_amount":"100000.00","interest_rate":"50.00","interest_period":"yearly","interest_compounding_period":"yearly","interest_posting_period":"yearly","cba_id":"190","terms_and_condition_file_id":null,"withholding_tax":2,"pre_closure_penal_interest":2,"min_deposit_term":80000,"min_deposit_term_period":"days","max_deposit_term":100000,"max_deposit_term_period":"months","min_amount_before_liquidation_approval":2,"frequency":null,"certificate_template_id":null},{"id":"01966531-94ed-7eec-b09a-423c4ef88ed2","meta":null,"created_on":"2025-04-24T00:27:50.383Z","created_by_id":"0193d109-a926-7446-abe5-7dafe8b742bd","modified_on":"2025-04-24T00:28:06.821Z","modified_by_id":"0193d109-a926-7446-abe5-7dafe8b742bd","deleted_on":null,"deleted_by_id":null,"tenant_id":"00000000-0000-0000-0000-000000000000","name":"some stuff","description":"yepuu","status":"active","currency":"NGN","type":"custom","no_of_investors":1,"min_amount":"1.00","interest_rate":"0.00","interest_period":"yearly","interest_compounding_period":"yearly","interest_posting_period":"yearly","cba_id":"189","terms_and_condition_file_id":null,"withholding_tax":1,"pre_closure_penal_interest":1,"min_deposit_term":1,"min_deposit_term_period":"days","max_deposit_term":1,"max_deposit_term_period":"months","min_amount_before_liquidation_approval":0,"frequency":"monthly","certificate_template_id":null},{"id":"0196652f-4f3e-7eec-b09a-3bb0f20d654c","meta":null,"created_on":"2025-04-24T00:25:21.472Z","created_by_id":"01927265-4ed2-79cc-a0e6-e11339a359f3","modified_on":"2025-04-24T00:25:21.472Z","modified_by_id":null,"deleted_on":null,"deleted_by_id":null,"tenant_id":"00000000-0000-0000-0000-000000000000","name":"tecl3cjl3nes","description":"eeeelcneckneclkence","status":"active","currency":"NGN","type":"custom","no_of_investors":1,"min_amount":"1.00","interest_rate":"0.00","interest_period":"yearly","interest_compounding_period":"yearly","interest_posting_period":"yearly","cba_id":"188","terms_and_condition_file_id":null,"withholding_tax":1,"pre_closure_penal_interest":1,"min_deposit_term":1,"min_deposit_term_period":"days","max_deposit_term":1,"max_deposit_term_period":"months","min_amount_before_liquidation_approval":0,"frequency":"monthly","certificate_template_id":null},{"id":"0196652d-0d12-7eec-b09a-36ab4b96c692","meta":null,"created_on":"2025-04-24T00:22:53.460Z","created_by_id":"01927265-4ed2-79cc-a0e6-e11339a359f3","modified_on":"2025-04-25T10:37:35.050Z","modified_by_id":"01927265-4ed2-79cc-a0e6-e11339a359f3","deleted_on":null,"deleted_by_id":null,"tenant_id":"00000000-0000-0000-0000-000000000000","name":"Premium Savings Plan 9df4876e-dc1e-42b6-8aad-fba37b4bcbfe ADP","description":"A high-yield savings product with flexible terms.","status":"active","currency":"NGN","type":"custom","no_of_investors":1000,"min_amount":"5000.00","interest_rate":"10.00","interest_period":"yearly","interest_compounding_period":"yearly","interest_posting_period":"yearly","cba_id":"187","terms_and_condition_file_id":"01966c7b-c6df-744c-a926-a6b51f5e3cda","withholding_tax":1,"pre_closure_penal_interest":2,"min_deposit_term":1,"min_deposit_term_period":"days","max_deposit_term":24,"max_deposit_term_period":"months","min_amount_before_liquidation_approval":0,"frequency":"monthly","certificate_template_id":null},{"id":"01966526-6c8d-7eec-b09a-0a0c81c870b5","meta":null,"created_on":"2025-04-24T00:15:39.150Z","created_by_id":"01927265-4ed2-79cc-a0e6-e11339a359f3","modified_on":"2025-04-24T00:15:39.150Z","modified_by_id":null,"deleted_on":null,"deleted_by_id":null,"tenant_id":"00000000-0000-0000-0000-000000000000","name":"Premium Savings Plan d23b8765-e236-42fa-acee-dc2274f03b04 AI","description":"A high-yield savings product with flexible terms.","status":"active","currency":"NGN","type":"custom","no_of_investors":100,"min_amount":"5000.00","interest_rate":"10.00","interest_period":"yearly","interest_compounding_period":"yearly","interest_posting_period":"yearly","cba_id":"186","terms_and_condition_file_id":null,"withholding_tax":1,"pre_closure_penal_interest":2,"min_deposit_term":1,"min_deposit_term_period":"days","max_deposit_term":24,"max_deposit_term_period":"months","min_amount_before_liquidation_approval":0,"frequency":"monthly","certificate_template_id":null},{"id":"01966522-f943-7eec-b099-ea3ef2a79967","meta":null,"created_on":"2025-04-24T00:11:53.028Z","created_by_id":"0193d109-a926-7446-abe5-7dafe8b742bd","modified_on":"2025-04-24T00:11:53.028Z","modified_by_id":null,"deleted_on":null,"deleted_by_id":null,"tenant_id":"00000000-0000-0000-0000-000000000000","name":"test","description":"form","status":"active","currency":"NGN","type":"fixed","no_of_investors":1,"min_amount":"0.00","interest_rate":"0.00","interest_period":"yearly","interest_compounding_period":"yearly","interest_posting_period":"yearly","cba_id":"185","terms_and_condition_file_id":null,"withholding_tax":1,"pre_closure_penal_interest":1,"min_deposit_term":1,"min_deposit_term_period":"days","max_deposit_term":1,"max_deposit_term_period":"months","min_amount_before_liquidation_approval":0,"frequency":null,"certificate_template_id":null},{"id":"01966510-1f5d-7eec-b099-91000277d1a4","meta":null,"created_on":"2025-04-23T23:51:17.598Z","created_by_id":"0193d109-a926-7446-abe5-7dafe8b742bd","modified_on":"2025-04-24T00:07:38.626Z","modified_by_id":"0193d109-a926-7446-abe5-7dafe8b742bd","deleted_on":null,"deleted_by_id":null,"tenant_id":"00000000-0000-0000-0000-000000000000","name":"Transfer Fee ","description":"formyyyyuu","status":"active","currency":"NGN","type":"structured","no_of_investors":10,"min_amount":"80.00","interest_rate":"66.00","interest_period":"daily","interest_compounding_period":"daily","interest_posting_period":"yearly","cba_id":"184","terms_and_condition_file_id":null,"withholding_tax":10,"pre_closure_penal_interest":91,"min_deposit_term":10,"min_deposit_term_period":"days","max_deposit_term":10,"max_deposit_term_period":"months","min_amount_before_liquidation_approval":90,"frequency":"monthly","certificate_template_id":null},{"id":"0196650f-5eb4-7eec-b099-8c6321bf0ad2","meta":null,"created_on":"2025-04-23T23:50:28.275Z","created_by_id":"0193d109-a926-7446-abe5-7dafe8b742bd","modified_on":"2025-04-23T23:50:28.275Z","modified_by_id":null,"deleted_on":null,"deleted_by_id":null,"tenant_id":"00000000-0000-0000-0000-000000000000","name":"Transfer Fee - Low Range","description":"form","status":"active","currency":"NGN","type":"fixed","no_of_investors":1,"min_amount":"0.00","interest_rate":"0.00","interest_period":"yearly","interest_compounding_period":"yearly","interest_posting_period":"yearly","cba_id":"183","terms_and_condition_file_id":null,"withholding_tax":1,"pre_closure_penal_interest":1,"min_deposit_term":1,"min_deposit_term_period":"days","max_deposit_term":1,"max_deposit_term_period":"months","min_amount_before_liquidation_approval":0,"frequency":null,"certificate_template_id":null},{"id":"01965e72-4115-7994-843f-938fca37317d","meta":null,"created_on":"2025-04-22T17:01:08.460Z","created_by_id":"0193d109-a926-7446-abe5-7dafe8b742bd","modified_on":"2025-04-22T17:03:44.493Z","modified_by_id":"0193d109-a926-7446-abe5-7dafe8b742bd","deleted_on":null,"deleted_by_id":null,"tenant_id":"00000000-0000-0000-0000-000000000000","name":"Premium Savings Plan 0fb35783-5a65-41be-bd09-e87b4c5f7b5d CSS","description":"A high-yield savings product with flexible terms.","status":"active","currency":"NGN","type":"structured","no_of_investors":100,"min_amount":"5000.00","interest_rate":"23.00","interest_period":"yearly","interest_compounding_period":"yearly","interest_posting_period":"yearly","cba_id":"182","terms_and_condition_file_id":null,"withholding_tax":1,"pre_closure_penal_interest":2,"min_deposit_term":1,"min_deposit_term_period":"days","max_deposit_term":24,"max_deposit_term_period":"months","min_amount_before_liquidation_approval":0,"frequency":"monthly","certificate_template_id":null}],"meta":{"page":1,"total_pages":3,"total_items":22}}