{"status":"success","data":[{"id":"019530c4-c08d-7330-a047-ce2464f92ea2","meta":null,"created_on":"2025-02-23T03:05:51.348Z","created_by_id":null,"modified_on":"2025-02-23T03:05:51.348Z","modified_by_id":null,"deleted_on":null,"deleted_by_id":null,"name":"Abia","code":"AB","latitude":"5.45273540","longitude":"7.52484140","type":"state","parent_id":"019530c4-c08d-7330-a047-c498f5d70b86"},{"id":"019530c4-c08d-7330-a048-06b9030007be","meta":null,"created_on":"2025-02-23T03:05:51.348Z","created_by_id":null,"modified_on":"2025-02-23T03:05:51.348Z","modified_by_id":null,"deleted_on":null,"deleted_by_id":null,"name":"Abuja Federal Capital Territory","code":"FC","latitude":"8.89406910","longitude":"7.18604020","type":"state","parent_id":"019530c4-c08d-7330-a047-c498f5d70b86"},{"id":"019530c4-c08d-7330-a048-8f7016fea41c","meta":null,"created_on":"2025-02-23T03:05:51.348Z","created_by_id":null,"modified_on":"2025-02-23T03:05:51.348Z","modified_by_id":null,"deleted_on":null,"deleted_by_id":null,"name":"Adamawa","code":"AD","latitude":"9.32647510","longitude":"12.39838530","type":"state","parent_id":"019530c4-c08d-7330-a047-c498f5d70b86"},{"id":"019530c4-c08d-7330-a048-eb0f37e70e67","meta":null,"created_on":"2025-02-23T03:05:51.348Z","created_by_id":null,"modified_on":"2025-02-23T03:05:51.348Z","modified_by_id":null,"deleted_on":null,"deleted_by_id":null,"name":"Akwa Ibom","code":"AK","latitude":"4.90573710","longitude":"7.85366750","type":"state","parent_id":"019530c4-c08d-7330-a047-c498f5d70b86"},{"id":"019530c4-c08d-7330-a049-1c159dcbe796","meta":null,"created_on":"2025-02-23T03:05:51.348Z","created_by_id":null,"modified_on":"2025-02-23T03:05:51.348Z","modified_by_id":null,"deleted_on":null,"deleted_by_id":null,"name":"Anambra","code":"AN","latitude":"6.22089970","longitude":"6.93695590","type":"state","parent_id":"019530c4-c08d-7330-a047-c498f5d70b86"},{"id":"019530c4-c08d-7330-a049-85ee9d751222","meta":null,"created_on":"2025-02-23T03:05:51.348Z","created_by_id":null,"modified_on":"2025-02-23T03:05:51.348Z","modified_by_id":null,"deleted_on":null,"deleted_by_id":null,"name":"Bauchi","code":"BA","latitude":"10.77606240","longitude":"9.99919430","type":"state","parent_id":"019530c4-c08d-7330-a047-c498f5d70b86"},{"id":"019530c4-c08d-7330-a04a-3261be8eb8db","meta":null,"created_on":"2025-02-23T03:05:51.348Z","created_by_id":null,"modified_on":"2025-02-23T03:05:51.348Z","modified_by_id":null,"deleted_on":null,"deleted_by_id":null,"name":"Bayelsa","code":"BY","latitude":"4.77190710","longitude":"6.06985260","type":"state","parent_id":"019530c4-c08d-7330-a047-c498f5d70b86"},{"id":"019530c4-c08d-7330-a04a-53afa4c94419","meta":null,"created_on":"2025-02-23T03:05:51.348Z","created_by_id":null,"modified_on":"2025-02-23T03:05:51.348Z","modified_by_id":null,"deleted_on":null,"deleted_by_id":null,"name":"Benue","code":"BE","latitude":"7.33690240","longitude":"8.74036870","type":"state","parent_id":"019530c4-c08d-7330-a047-c498f5d70b86"},{"id":"019530c4-c08d-7330-a04a-b6509765bdd2","meta":null,"created_on":"2025-02-23T03:05:51.348Z","created_by_id":null,"modified_on":"2025-02-23T03:05:51.348Z","modified_by_id":null,"deleted_on":null,"deleted_by_id":null,"name":"Borno","code":"BO","latitude":"11.88463560","longitude":"13.15196650","type":"state","parent_id":"019530c4-c08d-7330-a047-c498f5d70b86"},{"id":"019530c4-c08d-7330-a04b-6bbe62aa9f62","meta":null,"created_on":"2025-02-23T03:05:51.348Z","created_by_id":null,"modified_on":"2025-02-23T03:05:51.348Z","modified_by_id":null,"deleted_on":null,"deleted_by_id":null,"name":"Cross River","code":"CR","latitude":"5.87017240","longitude":"8.59880140","type":"state","parent_id":"019530c4-c08d-7330-a047-c498f5d70b86"}],"meta":{"page":1,"total_pages":4,"total_items":37}}