{"status":"success","data":[{"id":"0193a082-00af-7660-b822-ceb9c3aa8e1a","meta":null,"created_on":"2024-12-07T09:44:54.704Z","created_by":"019317a0-b7e5-7eeb-a7eb-bd18cf39a633","modified_on":"2024-12-07T09:44:58.883Z","modified_by":null,"deleted_on":null,"deleted_by":null,"tenant_id":"00000000-0000-0000-0000-000000000000","account_id":"019390f5-db96-7335-b5bb-74eac1376a9c","profile_id":"01931947-9fea-744d-8f66-118c138292e3","currency":"NGN","amount":"10.00","reference":"Tdqevwxykvb","processor_reference":null,"processor_status":null,"processor_message":null,"status":"success","entry_type":"debit","narration":"Sodiq","transaction_date":"2024-12-07T09:44:54.701Z","transaction_type":"fee","processor":"cba","reviewed_on":null,"reviewed_by":null,"batch_id":null,"schedule_id":null,"transfer":null,"transfer_beneficiary":null,"bill_payment_beneficiary":null,"disputes":[],"batch":null,"account":{"id":"019390f5-db96-7335-b5bb-74eac1376a9c","meta":null,"created_on":"2024-12-04T09:17:31.925Z","created_by":null,"modified_on":"2024-12-08T16:23:28.463Z","modified_by":null,"deleted_on":null,"deleted_by":null,"tenant_id":"00000000-0000-0000-0000-000000000000","name":"Travel","cba_id":"0000000040","profile_id":"01931947-9fea-744d-8f66-118c138292e3","account_number":"0000000040","ledger_balance":"14980.32","hold_balance":"0.00","available_balance":"14980.32","currency":"NGN","restricted":false}},{"id":"0193a082-0042-7660-b822-c734e6cf8d99","meta":null,"created_on":"2024-12-07T09:44:54.592Z","created_by":"019317a0-b7e5-7eeb-a7eb-bd18cf39a633","modified_on":"2024-12-07T09:44:55.564Z","modified_by":null,"deleted_on":null,"deleted_by":null,"tenant_id":"00000000-0000-0000-0000-000000000000","account_id":"019390f5-db96-7335-b5bb-74eac1376a9c","profile_id":"01931947-9fea-744d-8f66-118c138292e3","currency":"NGN","amount":"10.00","reference":"Tnfypuwxdwh","processor_reference":null,"processor_status":null,"processor_message":null,"status":"success","entry_type":"debit","narration":"Sodiq","transaction_date":"2024-12-07T09:44:54.591Z","transaction_type":"fee","processor":"cba","reviewed_on":null,"reviewed_by":null,"batch_id":null,"schedule_id":null,"transfer":null,"transfer_beneficiary":null,"bill_payment_beneficiary":null,"disputes":[],"batch":null,"account":{"id":"019390f5-db96-7335-b5bb-74eac1376a9c","meta":null,"created_on":"2024-12-04T09:17:31.925Z","created_by":null,"modified_on":"2024-12-08T16:23:28.463Z","modified_by":null,"deleted_on":null,"deleted_by":null,"tenant_id":"00000000-0000-0000-0000-000000000000","name":"Travel","cba_id":"0000000040","profile_id":"01931947-9fea-744d-8f66-118c138292e3","account_number":"0000000040","ledger_balance":"14980.32","hold_balance":"0.00","available_balance":"14980.32","currency":"NGN","restricted":false}},{"id":"0193a082-0042-7660-b822-b80453b8b428","meta":null,"created_on":"2024-12-07T09:44:54.593Z","created_by":"019317a0-b7e5-7eeb-a7eb-bd18cf39a633","modified_on":"2024-12-07T09:44:56.675Z","modified_by":null,"deleted_on":null,"deleted_by":null,"tenant_id":"00000000-0000-0000-0000-000000000000","account_id":"019390f5-db96-7335-b5bb-74eac1376a9c","profile_id":"01931947-9fea-744d-8f66-118c138292e3","currency":"NGN","amount":"10.00","reference":"Tjczulepmlk","processor_reference":null,"processor_status":null,"processor_message":null,"status":"success","entry_type":"debit","narration":"Sodiq","transaction_date":"2024-12-07T09:44:54.591Z","transaction_type":"fee","processor":"cba","reviewed_on":null,"reviewed_by":null,"batch_id":null,"schedule_id":null,"transfer":null,"transfer_beneficiary":null,"bill_payment_beneficiary":null,"disputes":[],"batch":null,"account":{"id":"019390f5-db96-7335-b5bb-74eac1376a9c","meta":null,"created_on":"2024-12-04T09:17:31.925Z","created_by":null,"modified_on":"2024-12-08T16:23:28.463Z","modified_by":null,"deleted_on":null,"deleted_by":null,"tenant_id":"00000000-0000-0000-0000-000000000000","name":"Travel","cba_id":"0000000040","profile_id":"01931947-9fea-744d-8f66-118c138292e3","account_number":"0000000040","ledger_balance":"14980.32","hold_balance":"0.00","available_balance":"14980.32","currency":"NGN","restricted":false}},{"id":"0193a081-ffe0-7660-b822-9ad85d762519","meta":null,"created_on":"2024-12-07T09:44:54.381Z","created_by":"019317a0-b7e5-7eeb-a7eb-bd18cf39a633","modified_on":"2024-12-07T09:44:58.879Z","modified_by":null,"deleted_on":null,"deleted_by":null,"tenant_id":"00000000-0000-0000-0000-000000000000","account_id":"019390f5-db96-7335-b5bb-74eac1376a9c","profile_id":"01931947-9fea-744d-8f66-118c138292e3","currency":"NGN","amount":"100.00","reference":"Tdqevwxykvb","processor_reference":"Tdqevwxykvb","processor_status":"00","processor_message":"Transfer Successful","status":"success","entry_type":"debit","narration":"Sodiq","transaction_date":"2024-12-07T09:44:54.496Z","transaction_type":"transfer","processor":"nip","reviewed_on":null,"reviewed_by":null,"batch_id":"0193a081-ff6d-7660-b822-803fa1aa3213","schedule_id":null,"transfer":{"id":"0193a081-ffe2-7660-b822-b276ff0610bc","meta":null,"created_on":"2024-12-07T09:44:54.381Z","created_by":"019317a0-b7e5-7eeb-a7eb-bd18cf39a633","modified_on":"2024-12-07T09:44:54.381Z","modified_by":null,"deleted_on":null,"deleted_by":null,"tenant_id":"00000000-0000-0000-0000-000000000000","bank_code":"999998","bank_name":"vee test","account_name":"Ake Mobolaji & Temabo","account_number":"1780004070","profile_id":"01931947-9fea-744d-8f66-118c138292e3","transaction_id":"0193a081-ffe0-7660-b822-9ad85d762519","account_id":"019390f5-db96-7335-b5bb-74eac1376a9c"},"transfer_beneficiary":null,"bill_payment_beneficiary":null,"disputes":[],"batch":{"id":"0193a081-ff6d-7660-b822-803fa1aa3213","meta":null,"created_on":"2024-12-07T09:44:54.381Z","created_by":"019317a0-b7e5-7eeb-a7eb-bd18cf39a633","modified_on":"2024-12-07T09:44:54.381Z","modified_by":null,"deleted_on":null,"deleted_by":null,"tenant_id":"00000000-0000-0000-0000-000000000000","status":"approved"},"account":{"id":"019390f5-db96-7335-b5bb-74eac1376a9c","meta":null,"created_on":"2024-12-04T09:17:31.925Z","created_by":null,"modified_on":"2024-12-08T16:23:28.463Z","modified_by":null,"deleted_on":null,"deleted_by":null,"tenant_id":"00000000-0000-0000-0000-000000000000","name":"Travel","cba_id":"0000000040","profile_id":"01931947-9fea-744d-8f66-118c138292e3","account_number":"0000000040","ledger_balance":"14980.32","hold_balance":"0.00","available_balance":"14980.32","currency":"NGN","restricted":false}},{"id":"0193a081-ffd6-7660-b822-96434a3241d5","meta":null,"created_on":"2024-12-07T09:44:54.381Z","created_by":"019317a0-b7e5-7eeb-a7eb-bd18cf39a633","modified_on":"2024-12-07T09:44:55.556Z","modified_by":null,"deleted_on":null,"deleted_by":null,"tenant_id":"00000000-0000-0000-0000-000000000000","account_id":"019390f5-db96-7335-b5bb-74eac1376a9c","profile_id":"01931947-9fea-744d-8f66-118c138292e3","currency":"NGN","amount":"100.00","reference":"Tnfypuwxdwh","processor_reference":"Tnfypuwxdwh","processor_status":"00","processor_message":"Transfer Successful","status":"success","entry_type":"debit","narration":"Sodiq","transaction_date":"2024-12-07T09:44:54.486Z","transaction_type":"transfer","processor":"nip","reviewed_on":null,"reviewed_by":null,"batch_id":"0193a081-ff6d-7660-b822-803fa1aa3213","schedule_id":null,"transfer":{"id":"0193a081-ffe2-7660-b822-a9bb78a9d0ad","meta":null,"created_on":"2024-12-07T09:44:54.381Z","created_by":"019317a0-b7e5-7eeb-a7eb-bd18cf39a633","modified_on":"2024-12-07T09:44:54.381Z","modified_by":null,"deleted_on":null,"deleted_by":null,"tenant_id":"00000000-0000-0000-0000-000000000000","bank_code":"999998","bank_name":"vee test","account_name":"Ake Mobolaji & Temabo","account_number":"1780004070","profile_id":"01931947-9fea-744d-8f66-118c138292e3","transaction_id":"0193a081-ffd6-7660-b822-96434a3241d5","account_id":"019390f5-db96-7335-b5bb-74eac1376a9c"},"transfer_beneficiary":null,"bill_payment_beneficiary":null,"disputes":[],"batch":{"id":"0193a081-ff6d-7660-b822-803fa1aa3213","meta":null,"created_on":"2024-12-07T09:44:54.381Z","created_by":"019317a0-b7e5-7eeb-a7eb-bd18cf39a633","modified_on":"2024-12-07T09:44:54.381Z","modified_by":null,"deleted_on":null,"deleted_by":null,"tenant_id":"00000000-0000-0000-0000-000000000000","status":"approved"},"account":{"id":"019390f5-db96-7335-b5bb-74eac1376a9c","meta":null,"created_on":"2024-12-04T09:17:31.925Z","created_by":null,"modified_on":"2024-12-08T16:23:28.463Z","modified_by":null,"deleted_on":null,"deleted_by":null,"tenant_id":"00000000-0000-0000-0000-000000000000","name":"Travel","cba_id":"0000000040","profile_id":"01931947-9fea-744d-8f66-118c138292e3","account_number":"0000000040","ledger_balance":"14980.32","hold_balance":"0.00","available_balance":"14980.32","currency":"NGN","restricted":false}},{"id":"0193a081-ff94-7660-b822-8c388afd940a","meta":null,"created_on":"2024-12-07T09:44:54.381Z","created_by":"019317a0-b7e5-7eeb-a7eb-bd18cf39a633","modified_on":"2024-12-07T09:44:56.668Z","modified_by":null,"deleted_on":null,"deleted_by":null,"tenant_id":"00000000-0000-0000-0000-000000000000","account_id":"019390f5-db96-7335-b5bb-74eac1376a9c","profile_id":"01931947-9fea-744d-8f66-118c138292e3","currency":"NGN","amount":"100.00","reference":"Tjczulepmlk","processor_reference":"Tjczulepmlk","processor_status":"00","processor_message":"Transfer Successful","status":"success","entry_type":"debit","narration":"Sodiq","transaction_date":"2024-12-07T09:44:54.420Z","transaction_type":"transfer","processor":"nip","reviewed_on":null,"reviewed_by":null,"batch_id":"0193a081-ff6d-7660-b822-803fa1aa3213","schedule_id":null,"transfer":{"id":"0193a081-ffe2-7660-b822-a56fd81e327a","meta":null,"created_on":"2024-12-07T09:44:54.381Z","created_by":"019317a0-b7e5-7eeb-a7eb-bd18cf39a633","modified_on":"2024-12-07T09:44:54.381Z","modified_by":null,"deleted_on":null,"deleted_by":null,"tenant_id":"00000000-0000-0000-0000-000000000000","bank_code":"999998","bank_name":"vee test","account_name":"Ake Mobolaji & Temabo","account_number":"1780004070","profile_id":"01931947-9fea-744d-8f66-118c138292e3","transaction_id":"0193a081-ff94-7660-b822-8c388afd940a","account_id":"019390f5-db96-7335-b5bb-74eac1376a9c"},"transfer_beneficiary":null,"bill_payment_beneficiary":null,"disputes":[],"batch":{"id":"0193a081-ff6d-7660-b822-803fa1aa3213","meta":null,"created_on":"2024-12-07T09:44:54.381Z","created_by":"019317a0-b7e5-7eeb-a7eb-bd18cf39a633","modified_on":"2024-12-07T09:44:54.381Z","modified_by":null,"deleted_on":null,"deleted_by":null,"tenant_id":"00000000-0000-0000-0000-000000000000","status":"approved"},"account":{"id":"019390f5-db96-7335-b5bb-74eac1376a9c","meta":null,"created_on":"2024-12-04T09:17:31.925Z","created_by":null,"modified_on":"2024-12-08T16:23:28.463Z","modified_by":null,"deleted_on":null,"deleted_by":null,"tenant_id":"00000000-0000-0000-0000-000000000000","name":"Travel","cba_id":"0000000040","profile_id":"01931947-9fea-744d-8f66-118c138292e3","account_number":"0000000040","ledger_balance":"14980.32","hold_balance":"0.00","available_balance":"14980.32","currency":"NGN","restricted":false}},{"id":"01939e3e-c227-7bb0-8d59-04dba8167d86","meta":null,"created_on":"2024-12-06T23:12:13.351Z","created_by":"019317a0-b7e5-7eeb-a7eb-bd18cf39a633","modified_on":"2024-12-06T23:12:13.850Z","modified_by":null,"deleted_on":null,"deleted_by":null,"tenant_id":"00000000-0000-0000-0000-000000000000","account_id":"0193912b-6f5e-7335-b5bc-3302dcc08103","profile_id":"01931947-9fea-744d-8f66-118c138292e3","currency":"NGN","amount":"10.00","reference":"Tzjpfqdrxwm","processor_reference":null,"processor_status":null,"processor_message":null,"status":"success","entry_type":"debit","narration":"Narration","transaction_date":"2024-12-06T23:12:13.350Z","transaction_type":"fee","processor":"cba","reviewed_on":null,"reviewed_by":null,"batch_id":null,"schedule_id":null,"transfer":null,"transfer_beneficiary":null,"bill_payment_beneficiary":null,"disputes":[],"batch":null,"account":{"id":"0193912b-6f5e-7335-b5bc-3302dcc08103","meta":null,"created_on":"2024-12-04T10:16:03.166Z","created_by":null,"modified_on":"2024-12-08T16:41:11.766Z","modified_by":null,"deleted_on":null,"deleted_by":null,"tenant_id":"00000000-0000-0000-0000-000000000000","name":"Education","cba_id":"0000000041","profile_id":"01931947-9fea-744d-8f66-118c138292e3","account_number":"0000000041","ledger_balance":"920.84","hold_balance":"0.00","available_balance":"920.84","currency":"NGN","restricted":false}},{"id":"01939e3e-c21a-7bb0-8d58-f7de3a4e5d8b","meta":null,"created_on":"2024-12-06T23:12:13.338Z","created_by":"019317a0-b7e5-7eeb-a7eb-bd18cf39a633","modified_on":"2024-12-06T23:12:13.847Z","modified_by":null,"deleted_on":null,"deleted_by":null,"tenant_id":"00000000-0000-0000-0000-000000000000","account_id":"0193912b-6f5e-7335-b5bc-3302dcc08103","profile_id":"01931947-9fea-744d-8f66-118c138292e3","currency":"NGN","amount":"100.00","reference":"Tzjpfqdrxwm","processor_reference":"Tzjpfqdrxwm","processor_status":"00","processor_message":"Transfer Successful","status":"success","entry_type":"debit","narration":"Narration","transaction_date":"2024-12-06T23:12:13.329Z","transaction_type":"transfer","processor":"nip","reviewed_on":null,"reviewed_by":null,"batch_id":null,"schedule_id":null,"transfer":{"id":"01939e3e-c21e-7bb0-8d58-fa9eb82a60e1","meta":null,"created_on":"2024-12-06T23:12:13.338Z","created_by":"019317a0-b7e5-7eeb-a7eb-bd18cf39a633","modified_on":"2024-12-06T23:12:13.338Z","modified_by":null,"deleted_on":null,"deleted_by":null,"tenant_id":"00000000-0000-0000-0000-000000000000","bank_code":"999998","bank_name":"vee test","account_name":"John Doe","account_number":"1234567654","profile_id":"01931947-9fea-744d-8f66-118c138292e3","transaction_id":"01939e3e-c21a-7bb0-8d58-f7de3a4e5d8b","account_id":"0193912b-6f5e-7335-b5bc-3302dcc08103"},"transfer_beneficiary":null,"bill_payment_beneficiary":null,"disputes":[],"batch":null,"account":{"id":"0193912b-6f5e-7335-b5bc-3302dcc08103","meta":null,"created_on":"2024-12-04T10:16:03.166Z","created_by":null,"modified_on":"2024-12-08T16:41:11.766Z","modified_by":null,"deleted_on":null,"deleted_by":null,"tenant_id":"00000000-0000-0000-0000-000000000000","name":"Education","cba_id":"0000000041","profile_id":"01931947-9fea-744d-8f66-118c138292e3","account_number":"0000000041","ledger_balance":"920.84","hold_balance":"0.00","available_balance":"920.84","currency":"NGN","restricted":false}},{"id":"01939cb6-973b-7bb0-8d55-fb7591a320cb","meta":null,"created_on":"2024-12-06T16:03:52.250Z","created_by":"019317a0-b7e5-7eeb-a7eb-bd18cf39a633","modified_on":"2024-12-06T16:03:52.250Z","modified_by":null,"deleted_on":null,"deleted_by":null,"tenant_id":"00000000-0000-0000-0000-000000000000","account_id":"019390f5-db96-7335-b5bb-74eac1376a9c","profile_id":"01931947-9fea-744d-8f66-118c138292e3","currency":"NGN","amount":"10.00","reference":"Tivyrcvlfjn","processor_reference":null,"processor_status":null,"processor_message":null,"status":"processing","entry_type":"debit","narration":"Nothing","transaction_date":"2024-12-06T16:03:52.250Z","transaction_type":"fee","processor":"cba","reviewed_on":null,"reviewed_by":null,"batch_id":null,"schedule_id":null,"transfer":null,"transfer_beneficiary":null,"bill_payment_beneficiary":null,"disputes":[],"batch":null,"account":{"id":"019390f5-db96-7335-b5bb-74eac1376a9c","meta":null,"created_on":"2024-12-04T09:17:31.925Z","created_by":null,"modified_on":"2024-12-08T16:23:28.463Z","modified_by":null,"deleted_on":null,"deleted_by":null,"tenant_id":"00000000-0000-0000-0000-000000000000","name":"Travel","cba_id":"0000000040","profile_id":"01931947-9fea-744d-8f66-118c138292e3","account_number":"0000000040","ledger_balance":"14980.32","hold_balance":"0.00","available_balance":"14980.32","currency":"NGN","restricted":false}},{"id":"01939cb6-972d-7bb0-8d55-ea63f337f75f","meta":null,"created_on":"2024-12-06T16:03:52.237Z","created_by":"019317a0-b7e5-7eeb-a7eb-bd18cf39a633","modified_on":"2024-12-06T16:03:52.543Z","modified_by":null,"deleted_on":null,"deleted_by":null,"tenant_id":"00000000-0000-0000-0000-000000000000","account_id":"019390f5-db96-7335-b5bb-74eac1376a9c","profile_id":"01931947-9fea-744d-8f66-118c138292e3","currency":"NGN","amount":"80.00","reference":"Tivyrcvlfjn","processor_reference":null,"processor_status":null,"processor_message":null,"status":"success","entry_type":"debit","narration":"Nothing","transaction_date":"2024-12-06T16:03:52.228Z","transaction_type":"transfer","processor":"cba","reviewed_on":null,"reviewed_by":null,"batch_id":null,"schedule_id":null,"transfer":{"id":"01939cb6-9733-7bb0-8d55-f0bcb8406178","meta":null,"created_on":"2024-12-06T16:03:52.237Z","created_by":"019317a0-b7e5-7eeb-a7eb-bd18cf39a633","modified_on":"2024-12-06T16:03:52.237Z","modified_by":null,"deleted_on":null,"deleted_by":null,"tenant_id":"00000000-0000-0000-0000-000000000000","bank_code":"050030","bank_name":"NORTHQUEST FINANCE COMPANY LIMITED ","account_name":"John Doe","account_number":"0000000041","profile_id":"01931947-9fea-744d-8f66-118c138292e3","transaction_id":"01939cb6-972d-7bb0-8d55-ea63f337f75f","account_id":"019390f5-db96-7335-b5bb-74eac1376a9c"},"transfer_beneficiary":null,"bill_payment_beneficiary":null,"disputes":[],"batch":null,"account":{"id":"019390f5-db96-7335-b5bb-74eac1376a9c","meta":null,"created_on":"2024-12-04T09:17:31.925Z","created_by":null,"modified_on":"2024-12-08T16:23:28.463Z","modified_by":null,"deleted_on":null,"deleted_by":null,"tenant_id":"00000000-0000-0000-0000-000000000000","name":"Travel","cba_id":"0000000040","profile_id":"01931947-9fea-744d-8f66-118c138292e3","account_number":"0000000040","ledger_balance":"14980.32","hold_balance":"0.00","available_balance":"14980.32","currency":"NGN","restricted":false}}],"meta":{"page":1,"total_pages":17,"total_items":166}}