{"status":"success","data":[{"id":"019542fd-15f5-7007-b751-46a76e57117a","meta":null,"created_on":"2025-02-26T16:00:37.364Z","created_by_id":"019542fd-0a48-7007-b750-ef4a09002656","modified_on":"2025-02-26T16:00:37.364Z","modified_by_id":null,"deleted_on":null,"deleted_by_id":null,"tenant_id":"00000000-0000-0000-0000-000000000000","name":"bill Olad","type":"personal","status":"active","restricted":false,"review":null,"allowed_time_periods":null,"primary_user_id":"019542fd-0a48-7007-b750-ef4a09002656","tier_id":null,"primary_user":{"id":"019542fd-0a48-7007-b750-ef4a09002656","meta":null,"created_on":"2025-02-26T16:00:34.375Z","created_by_id":null,"modified_on":"2025-02-26T16:00:54.574Z","modified_by_id":"019542fd-0a48-7007-b750-ef4a09002656","deleted_on":null,"deleted_by_id":null,"tenant_id":"00000000-0000-0000-0000-000000000000","email":"olad@mailinator.com","status":"active","first_name":"bill","last_name":"Olad","twofa_enabled":false,"last_active":"2025-02-26T16:00:54.574Z","last_ip":"172.70.160.169","allowed_ips":null,"last_timezone":"Europe/London","last_location":"London","phone":"+2348134044057","review":null,"gender":null,"date_of_birth":null,"cba_id":null,"photo_id":null,"referral_code":"XL9W5A","allowed_locations":null,"referred_by":"019372de-17ef-7cc2-8fc0-43fe11ba042f"},"tier":null},{"id":"019542f9-28ed-7007-b750-88d7fe02c7f2","meta":null,"created_on":"2025-02-26T15:56:20.077Z","created_by_id":"019542f9-19b9-7007-b750-302e93ea7796","modified_on":"2025-02-26T15:56:20.077Z","modified_by_id":null,"deleted_on":null,"deleted_by_id":null,"tenant_id":"00000000-0000-0000-0000-000000000000","name":"Samuel graam","type":"personal","status":"active","restricted":false,"review":null,"allowed_time_periods":null,"primary_user_id":"019542f9-19b9-7007-b750-302e93ea7796","tier_id":null,"primary_user":{"id":"019542f9-19b9-7007-b750-302e93ea7796","meta":null,"created_on":"2025-02-26T15:56:16.185Z","created_by_id":null,"modified_on":"2025-02-26T15:57:16.880Z","modified_by_id":"019542f9-19b9-7007-b750-302e93ea7796","deleted_on":null,"deleted_by_id":null,"tenant_id":"00000000-0000-0000-0000-000000000000","email":"samuel@mailinator.com","status":"active","first_name":"Samuel","last_name":"graam","twofa_enabled":false,"last_active":"2025-02-26T15:57:16.880Z","last_ip":"141.101.76.26","allowed_ips":null,"last_timezone":"Europe/Amsterdam","last_location":"Amsterdam","phone":"+2348031888900","review":null,"gender":null,"date_of_birth":null,"cba_id":null,"photo_id":null,"referral_code":"FXGOUS","allowed_locations":null,"referred_by":"019372de-17ef-7cc2-8fc0-43fe11ba042f"},"tier":null},{"id":"0195426b-602e-7007-b749-ecf9de787213","meta":null,"created_on":"2025-02-26T13:21:28.110Z","created_by_id":"0195426b-4894-7007-b749-929f86098bf0","modified_on":"2025-02-26T15:54:57.693Z","modified_by_id":"0195426b-4894-7007-b749-929f86098bf0","deleted_on":null,"deleted_by_id":null,"tenant_id":"00000000-0000-0000-0000-000000000000","name":"billy graam","type":"personal","status":"active","restricted":false,"review":null,"allowed_time_periods":null,"primary_user_id":"0195426b-4894-7007-b749-929f86098bf0","tier_id":"01928f2d-6756-755b-8a9d-c8094db2af27","primary_user":{"id":"0195426b-4894-7007-b749-929f86098bf0","meta":null,"created_on":"2025-02-26T13:21:22.068Z","created_by_id":null,"modified_on":"2025-02-26T15:55:15.206Z","modified_by_id":"0195426b-4894-7007-b749-929f86098bf0","deleted_on":null,"deleted_by_id":null,"tenant_id":"00000000-0000-0000-0000-000000000000","email":"billy@gmail.com","status":"active","first_name":"billy","last_name":"graam","twofa_enabled":false,"last_active":"2025-02-26T15:55:15.205Z","last_ip":"172.70.46.199","allowed_ips":null,"last_timezone":"Europe/Amsterdam","last_location":"Amsterdam","phone":"+2348134044030","review":null,"gender":"female","date_of_birth":"1995-07-31","cba_id":"95","photo_id":null,"referral_code":"K7KT4T","allowed_locations":null,"referred_by":"019372de-17ef-7cc2-8fc0-43fe11ba042f"},"tier":{"id":"01928f2d-6756-755b-8a9d-c8094db2af27","meta":null,"created_on":"2024-10-15T07:56:10.789Z","created_by_id":null,"modified_on":"2025-01-23T15:14:24.513Z","modified_by_id":"01927265-4ed2-79cc-a0e6-e11339a359f3","deleted_on":null,"deleted_by_id":null,"tenant_id":"00000000-0000-0000-0000-000000000000","profile_type":"personal","name":"Tier 1","description":"Tier 1","level":1,"enabled":true,"balance_limit":2000000,"single_sending_limit":500000,"single_receiving_limit":500000,"period_sending_limit":500000,"period_sending_limit_time_unit":"day","period_receiving_limit":500000,"period_receiving_limit_time_unit":"day","requirements":[{"id":"019318f9-c895-744d-8f65-4636cc26dd1c","type_id":"019318f9-c895-744d-8f65-4636cc26dd1c","type":"verification","slug":"phone","name":"Phone","description":"Verify yor number"},{"id":"01933d40-03e5-777c-a6e6-bf72eb1c8968","type_id":"01933d40-03e5-777c-a6e6-bf72eb1c8968","type":"verification","slug":"bvn","name":"BVN","description":"BVN"},{"id":"019318f9-c895-744d-8f65-4636cc26dd1d","type_id":"019318f9-c895-744d-8f65-4636cc26dd1d","type":"verification","slug":"email","name":"Email","description":"Verify your email"},{"id":"019318f9-c895-744d-8f65-4636cc26dd1f","type_id":"019318f9-c895-744d-8f65-4636cc26dd1f","type":"verification","slug":"liveness","name":"Image liveness check","description":"This step helps us verify your identity by matching your image with the credentials you’ve provided."}]}},{"id":"01953d75-e7a9-7776-9752-1c4dc0dbfd9f","meta":null,"created_on":"2025-02-25T14:14:52.072Z","created_by_id":"01953d75-d6d8-7776-9752-03c4f5976aa1","modified_on":"2025-02-25T14:14:52.072Z","modified_by_id":null,"deleted_on":null,"deleted_by_id":null,"tenant_id":"00000000-0000-0000-0000-000000000000","name":"Favour Desent","type":"personal","status":"active","restricted":false,"review":null,"allowed_time_periods":null,"primary_user_id":"01953d75-d6d8-7776-9752-03c4f5976aa1","tier_id":null,"primary_user":{"id":"01953d75-d6d8-7776-9752-03c4f5976aa1","meta":null,"created_on":"2025-02-25T14:14:47.768Z","created_by_id":null,"modified_on":"2025-02-25T14:24:14.759Z","modified_by_id":"01953d75-d6d8-7776-9752-03c4f5976aa1","deleted_on":null,"deleted_by_id":null,"tenant_id":"00000000-0000-0000-0000-000000000000","email":"favourr@yopmail.com","status":"active","first_name":"Favour","last_name":"Desent","twofa_enabled":false,"last_active":"2025-02-25T14:24:14.758Z","last_ip":"141.101.98.239","allowed_ips":null,"last_timezone":"Europe/London","last_location":"London","phone":"+2349033362900","review":null,"gender":null,"date_of_birth":null,"cba_id":null,"photo_id":null,"referral_code":"KMCZQL","allowed_locations":null,"referred_by":null},"tier":null},{"id":"01953d57-3afe-7776-9749-6c352a3cbdd3","meta":null,"created_on":"2025-02-25T13:41:21.790Z","created_by_id":"0194f54e-f4d4-700c-a205-59ef4c82f190","modified_on":"2025-02-25T13:41:21.790Z","modified_by_id":null,"deleted_on":null,"deleted_by_id":null,"tenant_id":"00000000-0000-0000-0000-000000000000","name":"May May","type":"personal","status":"active","restricted":false,"review":null,"allowed_time_periods":null,"primary_user_id":"0194f54e-f4d4-700c-a205-59ef4c82f190","tier_id":null,"primary_user":{"id":"0194f54e-f4d4-700c-a205-59ef4c82f190","meta":null,"created_on":"2025-02-11T13:59:39.988Z","created_by_id":null,"modified_on":"2025-02-25T20:37:16.334Z","modified_by_id":"0194f54e-f4d4-700c-a205-59ef4c82f190","deleted_on":null,"deleted_by_id":null,"tenant_id":"00000000-0000-0000-0000-000000000000","email":"maryam@assurdly.com","status":"active","first_name":"May","last_name":"May","twofa_enabled":false,"last_active":"2025-02-25T20:37:16.333Z","last_ip":"172.71.182.154","allowed_ips":null,"last_timezone":"Europe/Amsterdam","last_location":"Amsterdam","phone":"+2348163809677","review":null,"gender":null,"date_of_birth":null,"cba_id":"88","photo_id":null,"referral_code":"B289F9","allowed_locations":null,"referred_by":null},"tier":null},{"id":"01953d54-0a97-7776-9747-e6699fe8fc7f","meta":null,"created_on":"2025-02-25T13:37:52.790Z","created_by_id":"01953d53-4dd4-7776-9745-e853687fe862","modified_on":"2025-02-25T13:37:52.790Z","modified_by_id":null,"deleted_on":null,"deleted_by_id":null,"tenant_id":"00000000-0000-0000-0000-000000000000","name":"Esther Samuel","type":"personal","status":"active","restricted":false,"review":null,"allowed_time_periods":null,"primary_user_id":"01953d53-4dd4-7776-9745-e853687fe862","tier_id":null,"primary_user":{"id":"01953d53-4dd4-7776-9745-e853687fe862","meta":null,"created_on":"2025-02-25T13:37:04.468Z","created_by_id":null,"modified_on":"2025-02-25T14:16:17.769Z","modified_by_id":"01953d53-4dd4-7776-9745-e853687fe862","deleted_on":null,"deleted_by_id":null,"tenant_id":"00000000-0000-0000-0000-000000000000","email":"outofcontextjay@gmail.com","status":"active","first_name":"Esther","last_name":"Samuel","twofa_enabled":false,"last_active":"2025-02-25T14:16:17.768Z","last_ip":"172.69.195.80","allowed_ips":null,"last_timezone":"Europe/London","last_location":"London","phone":"+2348062309256","review":null,"gender":null,"date_of_birth":null,"cba_id":null,"photo_id":null,"referral_code":"MISBTY","allowed_locations":null,"referred_by":null},"tier":null},{"id":"01953d4c-19e9-7776-9742-6cd6eb1eb790","meta":null,"created_on":"2025-02-25T13:29:12.425Z","created_by_id":"01953d4b-8dd4-7776-9742-2ed08c60e504","modified_on":"2025-02-25T13:29:12.425Z","modified_by_id":null,"deleted_on":null,"deleted_by_id":null,"tenant_id":"00000000-0000-0000-0000-000000000000","name":"Favour Elijah","type":"personal","status":"active","restricted":false,"review":null,"allowed_time_periods":null,"primary_user_id":"01953d4b-8dd4-7776-9742-2ed08c60e504","tier_id":null,"primary_user":{"id":"01953d4b-8dd4-7776-9742-2ed08c60e504","meta":null,"created_on":"2025-02-25T13:28:36.563Z","created_by_id":null,"modified_on":"2025-02-25T13:29:18.071Z","modified_by_id":"01953d4b-8dd4-7776-9742-2ed08c60e504","deleted_on":null,"deleted_by_id":null,"tenant_id":"00000000-0000-0000-0000-000000000000","email":"favourdesent@gmail.com","status":"active","first_name":"Favour","last_name":"Elijah","twofa_enabled":false,"last_active":"2025-02-25T13:29:18.070Z","last_ip":"172.71.241.103","allowed_ips":null,"last_timezone":"Europe/London","last_location":"London","phone":"+2349033369888","review":null,"gender":null,"date_of_birth":null,"cba_id":null,"photo_id":null,"referral_code":"0DE9S7","allowed_locations":null,"referred_by":null},"tier":null},{"id":"01953d48-c7ab-7776-9740-a9150d878c15","meta":null,"created_on":"2025-02-25T13:25:34.762Z","created_by_id":"01953d48-b87f-7776-9740-970abb2148b1","modified_on":"2025-02-25T13:25:34.762Z","modified_by_id":null,"deleted_on":null,"deleted_by_id":null,"tenant_id":"00000000-0000-0000-0000-000000000000","name":"John Mark","type":"personal","status":"active","restricted":false,"review":null,"allowed_time_periods":null,"primary_user_id":"01953d48-b87f-7776-9740-970abb2148b1","tier_id":null,"primary_user":{"id":"01953d48-b87f-7776-9740-970abb2148b1","meta":null,"created_on":"2025-02-25T13:25:30.879Z","created_by_id":null,"modified_on":"2025-02-25T13:34:45.575Z","modified_by_id":"01953d48-b87f-7776-9740-970abb2148b1","deleted_on":null,"deleted_by_id":null,"tenant_id":"00000000-0000-0000-0000-000000000000","email":"pearlsyberry2993@gmail.com","status":"active","first_name":"John","last_name":"Mark","twofa_enabled":false,"last_active":"2025-02-25T13:34:45.574Z","last_ip":"172.70.160.218","allowed_ips":null,"last_timezone":"Europe/London","last_location":"London","phone":"+2348101488765","review":null,"gender":null,"date_of_birth":null,"cba_id":null,"photo_id":null,"referral_code":"YKDP7N","allowed_locations":null,"referred_by":null},"tier":null},{"id":"01953d45-a04b-7776-973f-855c314ba2b8","meta":null,"created_on":"2025-02-25T13:22:08.074Z","created_by_id":"01953d45-628a-7776-973f-53c8bf36e5f5","modified_on":"2025-02-25T13:22:08.074Z","modified_by_id":null,"deleted_on":null,"deleted_by_id":null,"tenant_id":"00000000-0000-0000-0000-000000000000","name":"Azeez Ibrahim","type":"personal","status":"active","restricted":false,"review":null,"allowed_time_periods":null,"primary_user_id":"01953d45-628a-7776-973f-53c8bf36e5f5","tier_id":null,"primary_user":{"id":"01953d45-628a-7776-973f-53c8bf36e5f5","meta":null,"created_on":"2025-02-25T13:21:52.265Z","created_by_id":null,"modified_on":"2025-02-25T13:23:32.271Z","modified_by_id":"01953d45-628a-7776-973f-53c8bf36e5f5","deleted_on":null,"deleted_by_id":null,"tenant_id":"00000000-0000-0000-0000-000000000000","email":"koloba@mailinator.com","status":"active","first_name":"Azeez","last_name":"Ibrahim","twofa_enabled":false,"last_active":"2025-02-25T13:23:32.270Z","last_ip":"141.101.69.12","allowed_ips":null,"last_timezone":"Europe/Paris","last_location":"Paris","phone":"+2349055633465","review":null,"gender":null,"date_of_birth":null,"cba_id":null,"photo_id":null,"referral_code":"CRV5EE","allowed_locations":null,"referred_by":null},"tier":null},{"id":"01953cdd-036a-733b-86b4-539715d2d59a","meta":{},"created_on":"2025-02-25T11:27:52.170Z","created_by_id":"01953cdc-e256-733b-86b3-fae50e10dca3","modified_on":"2025-02-26T12:56:09.297Z","modified_by_id":"01953cdc-e256-733b-86b3-fae50e10dca3","deleted_on":null,"deleted_by_id":null,"tenant_id":"00000000-0000-0000-0000-000000000000","name":"Fred Frett","type":"personal","status":"active","restricted":false,"review":null,"allowed_time_periods":null,"primary_user_id":"01953cdc-e256-733b-86b3-fae50e10dca3","tier_id":"01928f2d-6756-755b-8a9d-c8094db2af27","primary_user":{"id":"01953cdc-e256-733b-86b3-fae50e10dca3","meta":null,"created_on":"2025-02-25T11:27:43.703Z","created_by_id":null,"modified_on":"2025-02-26T14:40:01.869Z","modified_by_id":"01953cdc-e256-733b-86b3-fae50e10dca3","deleted_on":null,"deleted_by_id":null,"tenant_id":"00000000-0000-0000-0000-000000000000","email":"bellaa@mailinator.com","status":"active","first_name":"Fred","last_name":"Frett","twofa_enabled":true,"last_active":"2025-02-26T14:40:01.868Z","last_ip":"172.71.95.133","allowed_ips":null,"last_timezone":"Europe/Amsterdam","last_location":"Amsterdam","phone":"+2348138098888","review":null,"gender":"female","date_of_birth":"1994-06-20","cba_id":"86","photo_id":null,"referral_code":"K3BV7E","allowed_locations":null,"referred_by":"019372de-17ef-7cc2-8fc0-43fe11ba042f"},"tier":{"id":"01928f2d-6756-755b-8a9d-c8094db2af27","meta":null,"created_on":"2024-10-15T07:56:10.789Z","created_by_id":null,"modified_on":"2025-01-23T15:14:24.513Z","modified_by_id":"01927265-4ed2-79cc-a0e6-e11339a359f3","deleted_on":null,"deleted_by_id":null,"tenant_id":"00000000-0000-0000-0000-000000000000","profile_type":"personal","name":"Tier 1","description":"Tier 1","level":1,"enabled":true,"balance_limit":2000000,"single_sending_limit":500000,"single_receiving_limit":500000,"period_sending_limit":500000,"period_sending_limit_time_unit":"day","period_receiving_limit":500000,"period_receiving_limit_time_unit":"day","requirements":[{"id":"019318f9-c895-744d-8f65-4636cc26dd1f","type_id":"019318f9-c895-744d-8f65-4636cc26dd1f","type":"verification","slug":"liveness","name":"Image liveness check","description":"This step helps us verify your identity by matching your image with the credentials you’ve provided."},{"id":"019318f9-c895-744d-8f65-4636cc26dd1c","type_id":"019318f9-c895-744d-8f65-4636cc26dd1c","type":"verification","slug":"phone","name":"Phone","description":"Verify yor number"},{"id":"019318f9-c895-744d-8f65-4636cc26dd1d","type_id":"019318f9-c895-744d-8f65-4636cc26dd1d","type":"verification","slug":"email","name":"Email","description":"Verify your email"},{"id":"01933d40-03e5-777c-a6e6-bf72eb1c8968","type_id":"01933d40-03e5-777c-a6e6-bf72eb1c8968","type":"verification","slug":"bvn","name":"BVN","description":"BVN"}]}}],"meta":{"page":1,"total_pages":20,"total_items":196}}