{"status":"success","data":[{"id":"01953d6a-590a-7776-974d-07791b974d9d","meta":{"rc-number":"Neem","business-name":"Test Ltd","business-email":"Hello@mailinator.com","business-phone":"+2349137494363","business-types":"Sole Proprietorship","business-address":"Lagos"},"created_on":"2025-02-25T14:02:14.665Z","created_by_id":"01953d69-065f-7776-974c-d771ea496950","modified_on":"2025-02-25T14:11:50.574Z","modified_by_id":"01927265-4ed2-79cc-a0e6-e11339a359f3","deleted_on":null,"deleted_by_id":null,"tenant_id":"00000000-0000-0000-0000-000000000000","name":"Profile","type":"business","status":"active","restricted":false,"review":null,"allowed_time_periods":null,"primary_user_id":"01953d69-065f-7776-974c-d771ea496950","tier_id":"0193b131-7257-7cc9-bc92-a7663c2f4536","primary_user":{"id":"01953d69-065f-7776-974c-d771ea496950","meta":null,"created_on":"2025-02-25T14:00:47.967Z","created_by_id":null,"modified_on":"2025-02-25T14:20:06.563Z","modified_by_id":"01953d69-065f-7776-974c-d771ea496950","deleted_on":null,"deleted_by_id":null,"tenant_id":"00000000-0000-0000-0000-000000000000","email":"Ayomidelias@yopmail.com","status":"active","first_name":"Ayomide","last_name":"Liasu","twofa_enabled":false,"last_active":"2025-02-25T14:20:06.562Z","last_ip":"172.71.102.144","allowed_ips":null,"last_timezone":"Europe/Amsterdam","last_location":"Amsterdam","phone":"+2347080507367","review":null,"gender":null,"date_of_birth":null,"cba_id":"94","photo_id":null,"referral_code":"LC1XND","allowed_locations":null,"referred_by":null},"tier":{"id":"0193b131-7257-7cc9-bc92-a7663c2f4536","meta":null,"created_on":"2024-12-10T15:30:28.056Z","created_by_id":null,"modified_on":"2025-01-22T10:13:37.959Z","modified_by_id":"01927265-4ed2-79cc-a0e6-e11339a359f3","deleted_on":null,"deleted_by_id":null,"tenant_id":"00000000-0000-0000-0000-000000000000","profile_type":"business","name":"Tier 2","description":"Tier 2","level":2,"enabled":true,"balance_limit":0,"single_sending_limit":500000,"single_receiving_limit":500000,"period_sending_limit":500000,"period_sending_limit_time_unit":"day","period_receiving_limit":500000,"period_receiving_limit_time_unit":"day","requirements":[{"id":"019367a8-5cbc-7115-b8f1-b95501201701","type_id":"019367a8-5cbc-7115-b8f1-b95501201701","type":"document","slug":"Identification Document","name":"Identification Document","description":"Identification Document."},{"id":"0194ad23-702e-7eea-ad68-865332aa788c","type_id":"0194ad23-702e-7eea-ad68-865332aa788c","type":"third-party","slug":"director","name":"Board of Directors","description":"Board of Directors"},{"id":"0192d2f7-468a-7aac-8d59-19fe3f1dad7b","type_id":"0192d2f7-468a-7aac-8d59-19fe3f1dad7b","type":"document","slug":"Business document","name":"Business document","description":"document type"}]}},{"id":"01953d57-13f1-7776-9749-4c7e70e4cb6f","meta":{"rc-number":"0000000","business-name":"Neem","business-email":"hi@neem.co","business-phone":"+2348100000001","business-types":"Sole Proprietorship","business-address":"LAGOS, NIGERIA, LAGOS, Ibeju-Lekki, LAGOS"},"created_on":"2025-02-25T13:41:11.793Z","created_by_id":"01953d56-25ee-7776-9748-fdab6cae4406","modified_on":"2025-02-25T13:57:05.283Z","modified_by_id":"01953d56-25ee-7776-9748-fdab6cae4406","deleted_on":null,"deleted_by_id":null,"tenant_id":"00000000-0000-0000-0000-000000000000","name":"Profile","type":"business","status":"active","restricted":false,"review":null,"allowed_time_periods":null,"primary_user_id":"01953d56-25ee-7776-9748-fdab6cae4406","tier_id":"0193b49c-a302-711f-a668-d685d243452a","primary_user":{"id":"01953d56-25ee-7776-9748-fdab6cae4406","meta":null,"created_on":"2025-02-25T13:40:10.861Z","created_by_id":null,"modified_on":"2025-02-25T13:57:05.882Z","modified_by_id":"01953d56-25ee-7776-9748-fdab6cae4406","deleted_on":null,"deleted_by_id":null,"tenant_id":"00000000-0000-0000-0000-000000000000","email":"abisola+1@assurdly.com","status":"active","first_name":"Oye","last_name":"Abisola","twofa_enabled":false,"last_active":"2025-02-25T13:57:05.185Z","last_ip":"172.71.130.178","allowed_ips":null,"last_timezone":"Europe/Paris","last_location":"Paris","phone":"+2348100000000","review":null,"gender":null,"date_of_birth":null,"cba_id":"93","photo_id":null,"referral_code":"72IGAA","allowed_locations":null,"referred_by":null},"tier":{"id":"0193b49c-a302-711f-a668-d685d243452a","meta":null,"created_on":"2024-12-11T07:26:24.515Z","created_by_id":null,"modified_on":"2024-12-11T07:26:24.515Z","modified_by_id":null,"deleted_on":null,"deleted_by_id":null,"tenant_id":"00000000-0000-0000-0000-000000000001","profile_type":"business","name":"Tier 1","description":"Tier 1","level":1,"enabled":true,"balance_limit":0,"single_sending_limit":500000,"single_receiving_limit":500000,"period_sending_limit":500000,"period_sending_limit_time_unit":"day","period_receiving_limit":500000,"period_receiving_limit_time_unit":"day","requirements":[]}},{"id":"01953d48-d815-7776-9740-e414debcb832","meta":{"rc-number":"0000000","business-name":"Neem","business-email":"hi@neem.co","business-types":"Corporation","business-address":"LAGOS, NIGERIA, LAGOS, Ibeju-Lekki, LAGOS"},"created_on":"2025-02-25T13:25:38.962Z","created_by_id":"01953d48-032d-7776-9740-5fa95d57e9aa","modified_on":"2025-02-25T13:25:38.962Z","modified_by_id":null,"deleted_on":null,"deleted_by_id":null,"tenant_id":"00000000-0000-0000-0000-000000000000","name":"Profile","type":"business","status":"active","restricted":false,"review":null,"allowed_time_periods":null,"primary_user_id":"01953d48-032d-7776-9740-5fa95d57e9aa","tier_id":null,"primary_user":{"id":"01953d48-032d-7776-9740-5fa95d57e9aa","meta":null,"created_on":"2025-02-25T13:24:44.461Z","created_by_id":null,"modified_on":"2025-02-25T13:37:31.959Z","modified_by_id":"01953d48-032d-7776-9740-5fa95d57e9aa","deleted_on":null,"deleted_by_id":null,"tenant_id":"00000000-0000-0000-0000-000000000000","email":"milo@yopmail.com","status":"active","first_name":"Ola","last_name":"Milekan","twofa_enabled":false,"last_active":"2025-02-25T13:37:31.909Z","last_ip":"172.71.130.186","allowed_ips":null,"last_timezone":"Europe/Paris","last_location":"Paris","phone":"+2349044316597","review":null,"gender":null,"date_of_birth":null,"cba_id":null,"photo_id":null,"referral_code":"ZYNEXM","allowed_locations":null,"referred_by":null},"tier":null},{"id":"01953d46-beff-7776-973f-f58467bef888","meta":{"rc-number":"0000000","business-name":"Neem","business-email":"hi@neem.co","business-types":"Sole Proprietorship","business-address":"LAGOS, NIGERIA, LAGOS, Ibeju-Lekki, LAGOS"},"created_on":"2025-02-25T13:23:21.471Z","created_by_id":"01953d45-6de3-7776-973f-680b7a475255","modified_on":"2025-02-25T13:30:50.366Z","modified_by_id":"01953d45-6de3-7776-973f-680b7a475255","deleted_on":null,"deleted_by_id":null,"tenant_id":"00000000-0000-0000-0000-000000000000","name":"Profile","type":"business","status":"active","restricted":false,"review":null,"allowed_time_periods":null,"primary_user_id":"01953d45-6de3-7776-973f-680b7a475255","tier_id":"0193b49c-a302-711f-a668-d685d243452a","primary_user":{"id":"01953d45-6de3-7776-973f-680b7a475255","meta":null,"created_on":"2025-02-25T13:21:55.171Z","created_by_id":null,"modified_on":"2025-02-25T15:19:40.464Z","modified_by_id":"01953d45-6de3-7776-973f-680b7a475255","deleted_on":null,"deleted_by_id":null,"tenant_id":"00000000-0000-0000-0000-000000000000","email":"faith@assurdly.com","status":"active","first_name":"faith","last_name":"olaniran","twofa_enabled":false,"last_active":"2025-02-25T15:19:40.464Z","last_ip":"172.69.43.189","allowed_ips":null,"last_timezone":"Europe/London","last_location":"London","phone":"+2348169798608","review":null,"gender":null,"date_of_birth":null,"cba_id":"90","photo_id":null,"referral_code":"0R90C1","allowed_locations":null,"referred_by":null},"tier":{"id":"0193b49c-a302-711f-a668-d685d243452a","meta":null,"created_on":"2024-12-11T07:26:24.515Z","created_by_id":null,"modified_on":"2024-12-11T07:26:24.515Z","modified_by_id":null,"deleted_on":null,"deleted_by_id":null,"tenant_id":"00000000-0000-0000-0000-000000000001","profile_type":"business","name":"Tier 1","description":"Tier 1","level":1,"enabled":true,"balance_limit":0,"single_sending_limit":500000,"single_receiving_limit":500000,"period_sending_limit":500000,"period_sending_limit_time_unit":"day","period_receiving_limit":500000,"period_receiving_limit_time_unit":"day","requirements":[]}},{"id":"01953d44-6f22-7776-973e-e677fb010adf","meta":{"rc-number":"Neem","business-name":"Test","business-email":"Ttesting@mailinator.com","business-phone":"+23407069375622","business-types":"Sole Proprietorship","business-address":"27, Ayodeji Otegbola street, Gbagada Phase 2"},"created_on":"2025-02-25T13:20:49.954Z","created_by_id":"01953d43-83fe-7776-973e-6a87f239b1c5","modified_on":"2025-02-25T13:35:55.587Z","modified_by_id":"01953d43-83fe-7776-973e-6a87f239b1c5","deleted_on":null,"deleted_by_id":null,"tenant_id":"00000000-0000-0000-0000-000000000000","name":"Profile","type":"business","status":"active","restricted":false,"review":null,"allowed_time_periods":null,"primary_user_id":"01953d43-83fe-7776-973e-6a87f239b1c5","tier_id":"0193b49c-a302-711f-a668-d685d243452a","primary_user":{"id":"01953d43-83fe-7776-973e-6a87f239b1c5","meta":null,"created_on":"2025-02-25T13:19:49.758Z","created_by_id":null,"modified_on":"2025-02-25T15:54:53.421Z","modified_by_id":"01953d43-83fe-7776-973e-6a87f239b1c5","deleted_on":null,"deleted_by_id":null,"tenant_id":"00000000-0000-0000-0000-000000000000","email":"Ttesting@mailinator.com","status":"active","first_name":"Hikmat","last_name":"IbrahimBuruji","twofa_enabled":false,"last_active":"2025-02-25T15:54:53.420Z","last_ip":"172.68.186.155","allowed_ips":null,"last_timezone":"Africa/Johannesburg","last_location":"Cape Town","phone":"+2347069375622","review":null,"gender":null,"date_of_birth":null,"cba_id":"91","photo_id":null,"referral_code":"8QS0U1","allowed_locations":null,"referred_by":null},"tier":{"id":"0193b49c-a302-711f-a668-d685d243452a","meta":null,"created_on":"2024-12-11T07:26:24.515Z","created_by_id":null,"modified_on":"2024-12-11T07:26:24.515Z","modified_by_id":null,"deleted_on":null,"deleted_by_id":null,"tenant_id":"00000000-0000-0000-0000-000000000001","profile_type":"business","name":"Tier 1","description":"Tier 1","level":1,"enabled":true,"balance_limit":0,"single_sending_limit":500000,"single_receiving_limit":500000,"period_sending_limit":500000,"period_sending_limit_time_unit":"day","period_receiving_limit":500000,"period_receiving_limit_time_unit":"day","requirements":[]}},{"id":"01953d41-0c5b-7776-973d-9bccf329019b","meta":{"rc-number":"RC123456","business-name":"Sole Proprietor","business-email":"olayemi@gmail.com","business-phone":"+2348032214532","business-types":"Sole Proprietorship","business-address":"20 moshood road"},"created_on":"2025-02-25T13:17:08.058Z","created_by_id":"01953d3c-da86-7776-973c-b7a78a57e38b","modified_on":"2025-02-25T13:18:35.733Z","modified_by_id":"01953d3c-da86-7776-973c-b7a78a57e38b","deleted_on":null,"deleted_by_id":null,"tenant_id":"00000000-0000-0000-0000-000000000000","name":"Profile","type":"business","status":"active","restricted":false,"review":null,"allowed_time_periods":null,"primary_user_id":"01953d3c-da86-7776-973c-b7a78a57e38b","tier_id":"0193b49c-a302-711f-a668-d685d243452a","primary_user":{"id":"01953d3c-da86-7776-973c-b7a78a57e38b","meta":null,"created_on":"2025-02-25T13:12:33.089Z","created_by_id":null,"modified_on":"2025-02-26T15:50:28.434Z","modified_by_id":"01953d3c-da86-7776-973c-b7a78a57e38b","deleted_on":null,"deleted_by_id":null,"tenant_id":"00000000-0000-0000-0000-000000000000","email":"olayemi@gmail.com","status":"active","first_name":"Samuel","last_name":"Victoria","twofa_enabled":false,"last_active":"2025-02-26T15:50:28.434Z","last_ip":"172.71.98.48","allowed_ips":null,"last_timezone":"Europe/Amsterdam","last_location":"Amsterdam","phone":"+2348031888988","review":null,"gender":null,"date_of_birth":null,"cba_id":"89","photo_id":null,"referral_code":"XS2ZMS","allowed_locations":null,"referred_by":"019372de-17ef-7cc2-8fc0-43fe11ba042f"},"tier":{"id":"0193b49c-a302-711f-a668-d685d243452a","meta":null,"created_on":"2024-12-11T07:26:24.515Z","created_by_id":null,"modified_on":"2024-12-11T07:26:24.515Z","modified_by_id":null,"deleted_on":null,"deleted_by_id":null,"tenant_id":"00000000-0000-0000-0000-000000000001","profile_type":"business","name":"Tier 1","description":"Tier 1","level":1,"enabled":true,"balance_limit":0,"single_sending_limit":500000,"single_receiving_limit":500000,"period_sending_limit":500000,"period_sending_limit_time_unit":"day","period_receiving_limit":500000,"period_receiving_limit_time_unit":"day","requirements":[]}},{"id":"01953d39-ebaa-7776-973b-f60a68be2251","meta":{"rc-number":"11235643","business-name":"Veritas logistics ","business-email":"Veritas@mailinator.com","business-phone":"+2348054726044","business-types":"Partnership","business-address":"Lekki Lagos "},"created_on":"2025-02-25T13:09:20.937Z","created_by_id":"01953d38-a7f8-7776-973b-7624c5208ff1","modified_on":"2025-02-25T13:41:26.824Z","modified_by_id":"01953d38-a7f8-7776-973b-7624c5208ff1","deleted_on":null,"deleted_by_id":null,"tenant_id":"00000000-0000-0000-0000-000000000000","name":"Profile","type":"business","status":"active","restricted":false,"review":null,"allowed_time_periods":null,"primary_user_id":"01953d38-a7f8-7776-973b-7624c5208ff1","tier_id":"0193b49c-a302-711f-a668-d685d243452a","primary_user":{"id":"01953d38-a7f8-7776-973b-7624c5208ff1","meta":null,"created_on":"2025-02-25T13:07:58.072Z","created_by_id":null,"modified_on":"2025-02-26T14:26:53.183Z","modified_by_id":"01953d38-a7f8-7776-973b-7624c5208ff1","deleted_on":null,"deleted_by_id":null,"tenant_id":"00000000-0000-0000-0000-000000000000","email":"veecthor@gmail.com","status":"active","first_name":"Onyekachi","last_name":"Okere","twofa_enabled":false,"last_active":"2025-02-26T14:26:53.182Z","last_ip":"141.101.98.25","allowed_ips":null,"last_timezone":"Europe/London","last_location":"London","phone":"+2348054726044","review":null,"gender":null,"date_of_birth":null,"cba_id":"92","photo_id":null,"referral_code":"H0VODN","allowed_locations":null,"referred_by":null},"tier":{"id":"0193b49c-a302-711f-a668-d685d243452a","meta":null,"created_on":"2024-12-11T07:26:24.515Z","created_by_id":null,"modified_on":"2024-12-11T07:26:24.515Z","modified_by_id":null,"deleted_on":null,"deleted_by_id":null,"tenant_id":"00000000-0000-0000-0000-000000000001","profile_type":"business","name":"Tier 1","description":"Tier 1","level":1,"enabled":true,"balance_limit":0,"single_sending_limit":500000,"single_receiving_limit":500000,"period_sending_limit":500000,"period_sending_limit_time_unit":"day","period_receiving_limit":500000,"period_receiving_limit_time_unit":"day","requirements":[]}},{"id":"01953d38-57e0-7776-973b-427d70a3a6c0","meta":{"rc-number":"Neem","business-name":"TestingT","business-email":"TestingT@mailinator.com","business-phone":"+23407069375650","business-types":"Partnership","business-address":"27, Ayodeji Otegbola street, Gbagada Phase 2"},"created_on":"2025-02-25T13:07:37.567Z","created_by_id":"01953d36-d58f-7776-973b-121f61a42745","modified_on":"2025-02-25T13:07:37.567Z","modified_by_id":null,"deleted_on":null,"deleted_by_id":null,"tenant_id":"00000000-0000-0000-0000-000000000000","name":"Profile","type":"business","status":"active","restricted":false,"review":null,"allowed_time_periods":null,"primary_user_id":"01953d36-d58f-7776-973b-121f61a42745","tier_id":null,"primary_user":{"id":"01953d36-d58f-7776-973b-121f61a42745","meta":null,"created_on":"2025-02-25T13:05:58.671Z","created_by_id":null,"modified_on":"2025-02-25T13:12:57.358Z","modified_by_id":"01953d36-d58f-7776-973b-121f61a42745","deleted_on":null,"deleted_by_id":null,"tenant_id":"00000000-0000-0000-0000-000000000000","email":"TestingT@mailinator.com","status":"active","first_name":"Hikmat","last_name":"IbrahimBuruji","twofa_enabled":false,"last_active":"2025-02-25T13:12:42.887Z","last_ip":"172.68.186.19","allowed_ips":null,"last_timezone":"Africa/Johannesburg","last_location":"Cape Town","phone":"+2347069375650","review":null,"gender":null,"date_of_birth":null,"cba_id":null,"photo_id":null,"referral_code":"SL2NN1","allowed_locations":null,"referred_by":null},"tier":null},{"id":"01953cbc-cd70-733b-86b3-48c59d42a5b9","meta":{"rc-number":"0000000","business-name":"Neem","business-email":"hi@neem.co","business-types":"Partnership","business-address":"LAGOS, NIGERIA, LAGOS, Ibeju-Lekki, LAGOS"},"created_on":"2025-02-25T10:52:41.200Z","created_by_id":"01953cbc-6903-733b-86b3-35f33447c487","modified_on":"2025-02-25T12:35:28.964Z","modified_by_id":"01953cbc-6903-733b-86b3-35f33447c487","deleted_on":null,"deleted_by_id":null,"tenant_id":"00000000-0000-0000-0000-000000000000","name":"Profile","type":"business","status":"active","restricted":false,"review":null,"allowed_time_periods":null,"primary_user_id":"01953cbc-6903-733b-86b3-35f33447c487","tier_id":"0193b49c-a302-711f-a668-d685d243452a","primary_user":{"id":"01953cbc-6903-733b-86b3-35f33447c487","meta":null,"created_on":"2025-02-25T10:52:15.491Z","created_by_id":null,"modified_on":"2025-02-25T12:57:30.769Z","modified_by_id":"01953cbc-6903-733b-86b3-35f33447c487","deleted_on":null,"deleted_by_id":null,"tenant_id":"00000000-0000-0000-0000-000000000000","email":"testbus@yopmail.com","status":"active","first_name":"Azeez","last_name":"Ibrahim","twofa_enabled":false,"last_active":"2025-02-25T12:57:30.769Z","last_ip":"172.69.12.166","allowed_ips":null,"last_timezone":"Africa/Lagos","last_location":"Lagos","phone":"+2348023664977","review":null,"gender":null,"date_of_birth":null,"cba_id":"87","photo_id":null,"referral_code":"C2R71F","allowed_locations":null,"referred_by":null},"tier":{"id":"0193b49c-a302-711f-a668-d685d243452a","meta":null,"created_on":"2024-12-11T07:26:24.515Z","created_by_id":null,"modified_on":"2024-12-11T07:26:24.515Z","modified_by_id":null,"deleted_on":null,"deleted_by_id":null,"tenant_id":"00000000-0000-0000-0000-000000000001","profile_type":"business","name":"Tier 1","description":"Tier 1","level":1,"enabled":true,"balance_limit":0,"single_sending_limit":500000,"single_receiving_limit":500000,"period_sending_limit":500000,"period_sending_limit_time_unit":"day","period_receiving_limit":500000,"period_receiving_limit_time_unit":"day","requirements":[]}},{"id":"019528b0-3c46-7330-84a6-9d88496ec6f9","meta":{"rc-number":"0000000","business-name":"ben@yopmail.com","business-email":"frail@yopmail.com","business-phone":"+23438096544","business-types":"Partnership","business-address":"2 kene stret lagos"},"created_on":"2025-02-21T13:26:33.283Z","created_by_id":"019528af-b076-7330-84a6-1dd76c49ffba","modified_on":"2025-02-21T13:26:33.283Z","modified_by_id":null,"deleted_on":null,"deleted_by_id":null,"tenant_id":"00000000-0000-0000-0000-000000000000","name":"Profile","type":"business","status":"active","restricted":false,"review":null,"allowed_time_periods":null,"primary_user_id":"019528af-b076-7330-84a6-1dd76c49ffba","tier_id":null,"primary_user":{"id":"019528af-b076-7330-84a6-1dd76c49ffba","meta":null,"created_on":"2025-02-21T13:25:57.495Z","created_by_id":null,"modified_on":"2025-02-24T16:15:38.392Z","modified_by_id":"019528af-b076-7330-84a6-1dd76c49ffba","deleted_on":null,"deleted_by_id":null,"tenant_id":"00000000-0000-0000-0000-000000000000","email":"ben@yopmail.com","status":"active","first_name":"Samad","last_name":"Ben","twofa_enabled":false,"last_active":"2025-02-24T16:15:38.392Z","last_ip":"172.69.12.184","allowed_ips":null,"last_timezone":"Africa/Lagos","last_location":"Lagos","phone":"+2348138546587","review":null,"gender":null,"date_of_birth":null,"cba_id":"80","photo_id":null,"referral_code":"7P0NKV","allowed_locations":null,"referred_by":"019372de-17ef-7cc2-8fc0-43fe11ba042f"},"tier":null}],"meta":{"page":1,"total_pages":15,"total_items":145}}