{"status":"success","data":[{"id":"01953c61-9ff7-7ccb-b6cd-fc50ba8e4aa8","meta":null,"created_on":"2025-02-25T09:13:05.834Z","created_by_id":"01927265-4ed2-79cc-a0e6-e11339a359f3","modified_on":"2025-02-25T09:13:05.834Z","modified_by_id":null,"deleted_on":null,"deleted_by_id":null,"tenant_id":"00000000-0000-0000-0000-000000000000","configurable":false,"title":"Maker Checker Disabled Email","body":"<!DOCTYPE html>\n<html lang=\"en\">\n\n<head>\n  <meta charset=\"UTF-8\">\n  <meta name=\"viewport\" content=\"width=device-width, initial-scale=1.0\">\n  <title>OTP</title>\n  <link rel=\"preconnect\" href=\"https://fonts.googleapis.com\">\n  <link rel=\"preconnect\" href=\"https://fonts.gstatic.com\" crossorigin>\n  <link href=\"https://fonts.googleapis.com/css2?family=Open+Sans:ital,wght@0,300..800;1,300..800&display=swap\"\n    rel=\"stylesheet\">\n  <style>\n    html,\n    body {\n      margin: 0;\n      padding: 0;\n    }\n\n    ul {\n      list-style-type: none;\n    }\n\n    a {\n      text-decoration: none;\n      color: inherit;\n    }\n\n    table {\n      border: 0;\n      border-spacing: 0;\n      border-collapse: collapse\n    }\n\n    body {\n      margin: 0;\n      padding: 0;\n      font-family: \"Open Sans\", sans-serif;\n      background-color: #ECEFF3 !important;\n      color: #0E121B;\n    }\n\n    .email-container {\n      width: 100%;\n      max-width: 600px;\n      margin: 20px auto;\n      background-color: #FFFFFF;\n      border-radius: 16px;\n      box-shadow: 0 4px 8px rgba(0, 0, 0, 0.1);\n    }\n\n    .header {\n      padding: 20px;\n      text-align: left;\n      color: #0E121B;\n    }\n\n    .header h1 {\n      margin: 0;\n      font-size: 24px;\n      font-weight: 700;\n    }\n\n    .content {\n      padding: 30px 30px;\n      color: #0E121B;\n      line-height: 1.6;\n    }\n\n    .content p {\n      font-size: 16px;\n      margin: 0 0 16px;\n    }\n\n    .footer {\n      background-color: #F5F7FA;\n      text-align: center;\n      font-size: 14px;\n      color: #99A0AE;\n      border-bottom-left-radius: 16px;\n      border-bottom-right-radius: 16px;\n    }\n\n    .footer-logo {\n      margin-bottom: 10px;\n    }\n\n    .footer-address {\n      margin: 5px 0;\n      font-size: 14px;\n      color: #99A0AE;\n    }\n\n    .footer .social-icons {\n      display: flex;\n      justify-content: center;\n      gap: 20px;\n      padding: 10px 0;\n    }\n\n    .footer .social-icons a {\n      display: flex;\n      align-items: center;\n      justify-content: center;\n      width: 40px;\n      height: 40px;\n      border: 1px solid #FFFFFFB2;\n      border-radius: 50%;\n      padding: 8px;\n      transition: background-color 0.3s ease;\n    }\n\n    .footer .social-icons a img {\n      width: 20px;\n      height: 20px;\n      opacity: 0.8;\n    }\n\n    .footer p {\n      margin: 5px 0;\n      color: #FFFFFFB2;\n      font-size: 14px;\n    }\n\n    .footer a {\n      color: #FFFFFFB2;\n      text-decoration: none;\n    }\n  </style>\n</head>\n\n<body bgcolor=\"#ECEFF3\" style=\"background-color: #ECEFF3; padding: 20px 0;\">\n  <center>\n    <table class=\"email-container\">\n      <!-- Header -->\n      <tr>\n        <td class=\"header\">\n          <img src=\"{{logo_url}}\"\n            alt=\"Hero image\" width=\"30%\">\n        </td>\n      </tr>\n      <tr>\n        <td class=\"header\">\n          <h1 style=\"font-size:40px; font-weight:600 text-align: center;\">Marker Check Disabled</h1>\n        </td>\n      </tr>\n      <!-- Content -->\n      <tr>\n        <td class=\"content\">\n          <p>Hello {{first_name}},</p>\n         \n        <p>The marker check feature on your <b>{{tenant_name}}</b> account has been disabled. </p>\n        \n        <p> Transactions originating from this account would no longer require approval.</p>\n\n          <p style = \"margin:20px 0;\">If this activity was not authorised by you, please contact our customer support team right away at {{support_phone}} or send us an email at {{support_email}} to secure your account.</p>\n\n          <p>With Love, <br>The {{tenant_name}} Team</p>\n        </td>\n      </tr>\n      <!-- Footer -->\n      <tr>\n        <td class=\"footer\" style=\"padding:20px 0\">\n          <center>\n            <table width=\"100%\" align=\"center\" style=\"width: 100%; text-align: center; border-collapse: collapse;\">\n              <!-- Logo -->\n              <tr>\n                <td>\n                  <img src=\"{{grey_logo_url}}\"\n                    alt=\"Logo image\" width=\"20%\" style=\"margin-bottom: 10px;\">\n                </td>\n              </tr>\n              <!-- Address -->\n              <tr>\n                <td style=\"padding: 10px;\">\n                  <p style=\"margin: 5px 0; font-size: 14px; color: #99A0AE;\">\n                    {{tenant_address}}\n                  </p>\n                </td>\n              </tr>\n              <!-- Social Icons -->\n              <tr>\n                <td style=\"width: 100%; border-top: #E1E4EA solid; border-bottom: #E1E4EA solid;\">\n                  <table width=\"100%\" style=\"border-collapse: collapse; text-align: center; margin: 0 auto;\">\n                    <tr>\n                      <!-- Facebook -->\n                      <td style=\"padding: 20px;\">\n                        <a href=\"{{facebook_url}}\"\n                          style=\"display: inline-block; width: 40px; height: 40px; text-align: center; line-height: 40px; transition: background-color 0.3s ease;\">\n                          <img\n                            src=\"https://res.cloudinary.com/devplus-devmm/image/upload/v1731960868/facebook_ihlnaz.png\"\n                            alt=\"Facebook\" style=\"width: 20px; height: 20px;\">\n                        </a>\n                      </td>\n                      <!-- Twitter -->\n                      <td style=\"padding: 20px; border-right: #E1E4EA solid; border-left: #E1E4EA solid\">\n                        <a href=\"{{twitter_url}}\"\n                          style=\"display: inline-block; width: 40px; height: 40px; text-align: center; line-height: 40px; transition: background-color 0.3s ease;\">\n                          <img src=\"https://res.cloudinary.com/devplus-devmm/image/upload/v1731960867/x_wabx5y.png\"\n                            alt=\"Twitter\" style=\"width: 20px; height: 20px;\">\n                        </a>\n                      </td>\n                        <!-- Instagram -->\n                      <td style=\"padding: 20px; border-right: #E1E4EA solid; border-left: #E1E4EA solid\">\n                        <a href=\"{{instagram_url}}\"\n                          style=\"display: inline-block; width: 40px; height: 40px; text-align: center; line-height: 40px; transition: background-color 0.3s ease;\">\n                          <img src=\"https://res.cloudinary.com/do1vosluu/image/upload/v1740068321/instagram-line_3_h6c2rw.png\"\n                            alt=\"Twitter\" style=\"width: 20px; height: 20px;\">\n                        </a>\n                      </td>\n                      <!-- LinkedIn -->\n                      <td style=\"padding: 20px;\">\n                        <a href=\"{{linkedin_url}}\"\n                          style=\"display: inline-block; width: 40px; height: 40px; text-align: center; line-height: 40px; transition: background-color 0.3s ease;\">\n                          <img\n                            src=\"https://res.cloudinary.com/devplus-devmm/image/upload/v1731960867/linkedin_jtuprf.png\"\n                            alt=\"LinkedIn\" style=\"width: 20px; height: 20px;\">\n                        </a>\n                      </td>\n                      \n                    </tr>\n                  </table>\n                </td>\n              </tr>\n              <!-- Support Links -->\n              <tr>\n                <td>\n                  <p style=\"margin: 10px 0; font-size: 14px; color: #99A0AE; text-align: center;\">\n                Need help? <a href=\"mailto:{{support_email}}\" style=\"color: #99A0AE; text-decoration: underline;\">Click\n                      here</a>\n                  </p>\n                </td>\n              </tr>\n          \n            </table>\n          </center>\n        </td>\n      </tr>\n\n    </table>\n  </center>\n</body>\n\n</html>","variables":["logo_url","first_name","tenant_name","contact_number","support_email","secondary_color","secondary_logo_url","address","facebook_url","twitter_url","linkedin_url"]},{"id":"01953c61-5f28-7ccb-b6cd-e9f7b9f7d8de","meta":null,"created_on":"2025-02-25T09:12:49.244Z","created_by_id":"01927265-4ed2-79cc-a0e6-e11339a359f3","modified_on":"2025-02-25T09:12:49.244Z","modified_by_id":null,"deleted_on":null,"deleted_by_id":null,"tenant_id":"00000000-0000-0000-0000-000000000000","configurable":false,"title":"Maker Checker Enabled Email","body":"<!DOCTYPE html>\n<html lang=\"en\">\n\n<head>\n  <meta charset=\"UTF-8\">\n  <meta name=\"viewport\" content=\"width=device-width, initial-scale=1.0\">\n  <title>OTP</title>\n  <link rel=\"preconnect\" href=\"https://fonts.googleapis.com\">\n  <link rel=\"preconnect\" href=\"https://fonts.gstatic.com\" crossorigin>\n  <link href=\"https://fonts.googleapis.com/css2?family=Open+Sans:ital,wght@0,300..800;1,300..800&display=swap\"\n    rel=\"stylesheet\">\n  <style>\n    html,\n    body {\n      margin: 0;\n      padding: 0;\n    }\n\n    ul {\n      list-style-type: none;\n    }\n\n    a {\n      text-decoration: none;\n      color: inherit;\n    }\n\n    table {\n      border: 0;\n      border-spacing: 0;\n      border-collapse: collapse\n    }\n\n    body {\n      margin: 0;\n      padding: 0;\n      font-family: \"Open Sans\", sans-serif;\n      background-color: #ECEFF3 !important;\n      color: #0E121B;\n    }\n\n    .email-container {\n      width: 100%;\n      max-width: 600px;\n      margin: 20px auto;\n      background-color: #FFFFFF;\n      border-radius: 16px;\n      box-shadow: 0 4px 8px rgba(0, 0, 0, 0.1);\n    }\n\n    .header {\n      padding: 20px;\n      text-align: left;\n      color: #0E121B;\n    }\n\n    .header h1 {\n      margin: 0;\n      font-size: 24px;\n      font-weight: 700;\n    }\n\n    .content {\n      padding: 30px 30px;\n      color: #0E121B;\n      line-height: 1.6;\n    }\n\n    .content p {\n      font-size: 16px;\n      margin: 0 0 16px;\n    }\n\n    .footer {\n      background-color: #F5F7FA;\n      text-align: center;\n      font-size: 14px;\n      color: #99A0AE;\n      border-bottom-left-radius: 16px;\n      border-bottom-right-radius: 16px;\n    }\n\n    .footer-logo {\n      margin-bottom: 10px;\n    }\n\n    .footer-address {\n      margin: 5px 0;\n      font-size: 14px;\n      color: #99A0AE;\n    }\n\n    .footer .social-icons {\n      display: flex;\n      justify-content: center;\n      gap: 20px;\n      padding: 10px 0;\n    }\n\n    .footer .social-icons a {\n      display: flex;\n      align-items: center;\n      justify-content: center;\n      width: 40px;\n      height: 40px;\n      border: 1px solid #FFFFFFB2;\n      border-radius: 50%;\n      padding: 8px;\n      transition: background-color 0.3s ease;\n    }\n\n    .footer .social-icons a img {\n      width: 20px;\n      height: 20px;\n      opacity: 0.8;\n    }\n\n    .footer p {\n      margin: 5px 0;\n      color: #FFFFFFB2;\n      font-size: 14px;\n    }\n\n    .footer a {\n      color: #FFFFFFB2;\n      text-decoration: none;\n    }\n  </style>\n</head>\n\n<body bgcolor=\"#ECEFF3\" style=\"background-color: #ECEFF3; padding: 20px 0;\">\n  <center>\n    <table class=\"email-container\">\n      <!-- Header -->\n      <tr>\n        <td class=\"header\">\n          <img src=\"{{logo_url}}\"\n            alt=\"Hero image\" width=\"30%\">\n        </td>\n      </tr>\n      <tr>\n        <td class=\"header\">\n          <h1 style=\"font-size:40px; font-weight:600 text-align: center;\">Marker Check Enabled</h1>\n        </td>\n      </tr>\n      <!-- Content -->\n      <tr>\n        <td class=\"content\">\n          <p>Hello {{first_name}},</p>\n         \n        <p>The marker check feature on your <b>{{tenant_name}}</b> account has been enabled. </p>\n        \n        <p> Transactions originating from this account would now require approvals.</p>\n\n          <p style = \"margin:20px 0;\">If this activity was not authorised by you, please contact our customer support team right away at {{support_phone}} or send us an email at {{support_email}} to secure your account.</p>\n\n          <p>With Love, <br>The {{tenant_name}} Team</p>\n        </td>\n      </tr>\n      <!-- Footer -->\n      <tr>\n        <td class=\"footer\" style=\"padding:20px 0\">\n          <center>\n            <table width=\"100%\" align=\"center\" style=\"width: 100%; text-align: center; border-collapse: collapse;\">\n              <!-- Logo -->\n              <tr>\n                <td>\n                  <img src=\"{{grey_logo_url}}\"\n                    alt=\"Logo image\" width=\"20%\" style=\"margin-bottom: 10px;\">\n                </td>\n              </tr>\n              <!-- Address -->\n              <tr>\n                <td style=\"padding: 10px;\">\n                  <p style=\"margin: 5px 0; font-size: 14px; color: #99A0AE;\">\n                    {{tenant_address}}\n                  </p>\n                </td>\n              </tr>\n              <!-- Social Icons -->\n              <tr>\n                <td style=\"width: 100%; border-top: #E1E4EA solid; border-bottom: #E1E4EA solid;\">\n                  <table width=\"100%\" style=\"border-collapse: collapse; text-align: center; margin: 0 auto;\">\n                    <tr>\n                      <!-- Facebook -->\n                      <td style=\"padding: 20px;\">\n                        <a href=\"{{facebook_url}}\"\n                          style=\"display: inline-block; width: 40px; height: 40px; text-align: center; line-height: 40px; transition: background-color 0.3s ease;\">\n                          <img\n                            src=\"https://res.cloudinary.com/devplus-devmm/image/upload/v1731960868/facebook_ihlnaz.png\"\n                            alt=\"Facebook\" style=\"width: 20px; height: 20px;\">\n                        </a>\n                      </td>\n                      <!-- Twitter -->\n                      <td style=\"padding: 20px; border-right: #E1E4EA solid; border-left: #E1E4EA solid\">\n                        <a href=\"{{twitter_url}}\"\n                          style=\"display: inline-block; width: 40px; height: 40px; text-align: center; line-height: 40px; transition: background-color 0.3s ease;\">\n                          <img src=\"https://res.cloudinary.com/devplus-devmm/image/upload/v1731960867/x_wabx5y.png\"\n                            alt=\"Twitter\" style=\"width: 20px; height: 20px;\">\n                        </a>\n                      </td>\n                        <!-- Instagram -->\n                      <td style=\"padding: 20px; border-right: #E1E4EA solid; border-left: #E1E4EA solid\">\n                        <a href=\"{{instagram_url}}\"\n                          style=\"display: inline-block; width: 40px; height: 40px; text-align: center; line-height: 40px; transition: background-color 0.3s ease;\">\n                          <img src=\"https://res.cloudinary.com/do1vosluu/image/upload/v1740068321/instagram-line_3_h6c2rw.png\"\n                            alt=\"Twitter\" style=\"width: 20px; height: 20px;\">\n                        </a>\n                      </td>\n                      <!-- LinkedIn -->\n                      <td style=\"padding: 20px;\">\n                        <a href=\"{{linkedin_url}}\"\n                          style=\"display: inline-block; width: 40px; height: 40px; text-align: center; line-height: 40px; transition: background-color 0.3s ease;\">\n                          <img\n                            src=\"https://res.cloudinary.com/devplus-devmm/image/upload/v1731960867/linkedin_jtuprf.png\"\n                            alt=\"LinkedIn\" style=\"width: 20px; height: 20px;\">\n                        </a>\n                      </td>\n                      \n                    </tr>\n                  </table>\n                </td>\n              </tr>\n              <!-- Support Links -->\n              <tr>\n                <td>\n                  <p style=\"margin: 10px 0; font-size: 14px; color: #99A0AE; text-align: center;\">\n                Need help? <a href=\"mailto:{{support_email}}\" style=\"color: #99A0AE; text-decoration: underline;\">Click\n                      here</a>\n                  </p>\n                </td>\n              </tr>\n          \n            </table>\n          </center>\n        </td>\n      </tr>\n\n    </table>\n  </center>\n</body>\n\n</html>","variables":["logo_url","first_name","tenant_name","contact_number","support_email","secondary_color","secondary_logo_url","address","facebook_url","twitter_url","linkedin_url"]},{"id":"019527ef-b18d-7441-bd2f-8849e2c33ac1","meta":null,"created_on":"2025-02-21T09:56:14.872Z","created_by_id":"01927265-4ed2-79cc-a0e6-e11339a359f3","modified_on":"2025-02-21T09:56:14.872Z","modified_by_id":null,"deleted_on":null,"deleted_by_id":null,"tenant_id":"00000000-0000-0000-0000-000000000000","configurable":false,"title":"Investment Liquidation Pending","body":"<p>Investment Liquidation Pending</p>","variables":["logo_url","first_name","tenant_name","contact_number","support_email","secondary_color","secondary_logo_url","address","facebook_url","twitter_url","linkedin_url"]},{"id":"019527ef-afbe-7441-bd2f-7c9c01e5294b","meta":null,"created_on":"2025-02-21T09:56:14.409Z","created_by_id":"01927265-4ed2-79cc-a0e6-e11339a359f3","modified_on":"2025-02-21T09:56:14.409Z","modified_by_id":null,"deleted_on":null,"deleted_by_id":null,"tenant_id":"00000000-0000-0000-0000-000000000000","configurable":false,"title":"Director Verification Approved","body":"<p>Director Verification Approved</p>","variables":["logo_url","first_name","tenant_name","contact_number","support_email","secondary_color","secondary_logo_url","address","facebook_url","twitter_url","linkedin_url"]},{"id":"019527ef-ade6-7441-bd2f-6d08cbba3f28","meta":null,"created_on":"2025-02-21T09:56:13.935Z","created_by_id":"01927265-4ed2-79cc-a0e6-e11339a359f3","modified_on":"2025-02-21T09:56:13.935Z","modified_by_id":null,"deleted_on":null,"deleted_by_id":null,"tenant_id":"00000000-0000-0000-0000-000000000000","configurable":false,"title":"Director Verification Rejected","body":"<p>Director Verification Rejected</p>","variables":["logo_url","first_name","tenant_name","contact_number","support_email","secondary_color","secondary_logo_url","address","facebook_url","twitter_url","linkedin_url"]},{"id":"019527ef-abfd-7441-bd2f-5b2d2e07e0ca","meta":null,"created_on":"2025-02-21T09:56:13.445Z","created_by_id":"01927265-4ed2-79cc-a0e6-e11339a359f3","modified_on":"2025-02-21T09:56:13.445Z","modified_by_id":null,"deleted_on":null,"deleted_by_id":null,"tenant_id":"00000000-0000-0000-0000-000000000000","configurable":false,"title":"Invite Director","body":"<p>Invite Director</p>","variables":["logo_url","first_name","tenant_name","contact_number","support_email","secondary_color","secondary_logo_url","address","facebook_url","twitter_url","linkedin_url"]},{"id":"019527ef-aa16-7441-bd2f-4cb1333f2bad","meta":null,"created_on":"2025-02-21T09:56:12.958Z","created_by_id":"01927265-4ed2-79cc-a0e6-e11339a359f3","modified_on":"2025-02-21T09:56:12.958Z","modified_by_id":null,"deleted_on":null,"deleted_by_id":null,"tenant_id":"00000000-0000-0000-0000-000000000000","configurable":false,"title":"Investment Liquidation Rejected","body":"<p>Investment Liquidation Rejected</p>","variables":["logo_url","first_name","tenant_name","contact_number","support_email","secondary_color","secondary_logo_url","address","facebook_url","twitter_url","linkedin_url"]},{"id":"019527ef-a84c-7441-bd2f-3aaef1483228","meta":null,"created_on":"2025-02-21T09:56:12.503Z","created_by_id":"01927265-4ed2-79cc-a0e6-e11339a359f3","modified_on":"2025-02-21T09:56:12.503Z","modified_by_id":null,"deleted_on":null,"deleted_by_id":null,"tenant_id":"00000000-0000-0000-0000-000000000000","configurable":false,"title":"Investment Liquidation Approved","body":"<p>Investment Liquidation Approved</p>","variables":["logo_url","first_name","tenant_name","contact_number","support_email","secondary_color","secondary_logo_url","address","facebook_url","twitter_url","linkedin_url"]},{"id":"019527ef-a67f-7441-bd2f-2c7012cd8868","meta":null,"created_on":"2025-02-21T09:56:12.039Z","created_by_id":"01927265-4ed2-79cc-a0e6-e11339a359f3","modified_on":"2025-02-21T09:56:12.039Z","modified_by_id":null,"deleted_on":null,"deleted_by_id":null,"tenant_id":"00000000-0000-0000-0000-000000000000","configurable":false,"title":"Investment Matured","body":"<p>Investment Matured</p>","variables":["logo_url","first_name","tenant_name","contact_number","support_email","secondary_color","secondary_logo_url","address","facebook_url","twitter_url","linkedin_url"]},{"id":"019527ef-a4ae-7441-bd2f-1b5e5f130513","meta":null,"created_on":"2025-02-21T09:56:11.574Z","created_by_id":"01927265-4ed2-79cc-a0e6-e11339a359f3","modified_on":"2025-02-21T09:56:11.574Z","modified_by_id":null,"deleted_on":null,"deleted_by_id":null,"tenant_id":"00000000-0000-0000-0000-000000000000","configurable":false,"title":"Investment Reinvest","body":"<p>Investment Reinvest</p>","variables":["logo_url","first_name","tenant_name","contact_number","support_email","secondary_color","secondary_logo_url","address","facebook_url","twitter_url","linkedin_url"]}],"meta":{"page":1,"total_pages":6,"total_items":60}}