{"status":"success","data":[{"id":"0194511c-b3a2-7ff5-a65e-ccee52dba715","meta":null,"created_on":"2025-01-10T16:47:03.074Z","created_by":"019317a0-b7e5-7eeb-a7eb-bd18cf39a633","modified_on":"2025-01-10T16:47:04.282Z","modified_by":null,"deleted_on":null,"deleted_by":null,"tenant_id":"00000000-0000-0000-0000-000000000000","account_id":"0193f0e2-ab16-799a-85ae-fa4fbe2990a7","profile_id":"01931947-9fea-744d-8f66-118c138292e3","cba_id":"1715","currency":"NGN","amount":"100.00","reference":"Tmagrmonhku","processor_reference":null,"processor_status":null,"processor_message":"","status":"failed","entry_type":"debit","narration":"Bill payment to abuja_electric_postpaid for 22877877867","transaction_date":"2025-01-10T16:47:03.071Z","transaction_type":"bill-payment","processor":"baxipay","reviewed_on":null,"reviewed_by":null,"batch_id":null,"schedule_id":null,"account":{"id":"0193f0e2-ab16-799a-85ae-fa4fbe2990a7","meta":null,"created_on":"2024-12-23T00:20:07.063Z","created_by":null,"modified_on":"2025-01-10T12:36:47.837Z","modified_by":null,"deleted_on":null,"deleted_by":null,"tenant_id":"00000000-0000-0000-0000-000000000000","name":"Eno","cba_id":"0000000115","status":"active","profile_id":"01931947-9fea-744d-8f66-118c138292e3","account_number":"0000000115","bank_id":"0193324f-cad0-7f86-923b-43fb21ac5b29","ledger_balance":"500.00","hold_balance":"0.00","available_balance":"500.00","currency":"NGN","restricted":false},"transfer":null,"disputes":[],"batch":null,"transfer_beneficiary":null,"bill_payment_beneficiary":null},{"id":"0194511b-16ca-7ff5-a65e-b136fdb5028f","meta":null,"created_on":"2025-01-10T16:45:17.385Z","created_by":"019317a0-b7e5-7eeb-a7eb-bd18cf39a633","modified_on":"2025-01-10T16:45:18.070Z","modified_by":null,"deleted_on":null,"deleted_by":null,"tenant_id":"00000000-0000-0000-0000-000000000000","account_id":"0193f0e2-ab16-799a-85ae-fa4fbe2990a7","profile_id":"01931947-9fea-744d-8f66-118c138292e3","cba_id":"1714","currency":"NGN","amount":"100.00","reference":"Tbcbxtvwsis","processor_reference":null,"processor_status":null,"processor_message":"","status":"failed","entry_type":"debit","narration":"Bill payment to abuja_electric_postpaid for 22877877867","transaction_date":"2025-01-10T16:45:17.383Z","transaction_type":"bill-payment","processor":"baxipay","reviewed_on":null,"reviewed_by":null,"batch_id":null,"schedule_id":null,"account":{"id":"0193f0e2-ab16-799a-85ae-fa4fbe2990a7","meta":null,"created_on":"2024-12-23T00:20:07.063Z","created_by":null,"modified_on":"2025-01-10T12:36:47.837Z","modified_by":null,"deleted_on":null,"deleted_by":null,"tenant_id":"00000000-0000-0000-0000-000000000000","name":"Eno","cba_id":"0000000115","status":"active","profile_id":"01931947-9fea-744d-8f66-118c138292e3","account_number":"0000000115","bank_id":"0193324f-cad0-7f86-923b-43fb21ac5b29","ledger_balance":"500.00","hold_balance":"0.00","available_balance":"500.00","currency":"NGN","restricted":false},"transfer":null,"disputes":[],"batch":null,"transfer_beneficiary":null,"bill_payment_beneficiary":null},{"id":"0194502f-bcfa-7005-abf1-4b050c6578eb","meta":null,"created_on":"2025-01-10T12:28:13.435Z","created_by":"019317a0-b7e5-7eeb-a7eb-bd18cf39a633","modified_on":"2025-01-10T12:28:14.393Z","modified_by":null,"deleted_on":null,"deleted_by":null,"tenant_id":"00000000-0000-0000-0000-000000000000","account_id":"0193912b-6f5e-7335-b5bc-3302dcc08103","profile_id":"01931947-9fea-744d-8f66-118c138292e3","cba_id":"1706","currency":"NGN","amount":"26.00","reference":"Tunvynntilo","processor_reference":null,"processor_status":null,"processor_message":null,"status":"success","entry_type":"debit","narration":"Bill payment to mtn for 0000000040","transaction_date":"2025-01-10T12:28:13.434Z","transaction_type":"bill-payment","processor":"baxipay","reviewed_on":null,"reviewed_by":null,"batch_id":null,"schedule_id":null,"account":{"id":"0193912b-6f5e-7335-b5bc-3302dcc08103","meta":null,"created_on":"2024-12-04T10:16:03.166Z","created_by":null,"modified_on":"2025-01-09T15:20:17.197Z","modified_by":null,"deleted_on":null,"deleted_by":null,"tenant_id":"00000000-0000-0000-0000-000000000000","name":"Education","cba_id":"0000000041","status":"active","profile_id":"01931947-9fea-744d-8f66-118c138292e3","account_number":"0000000041","bank_id":"0193324f-cad0-7f86-923b-43fb21ac5b29","ledger_balance":"147.61","hold_balance":"0.00","available_balance":"147.61","currency":"NGN","restricted":false},"transfer":null,"disputes":[],"batch":null,"transfer_beneficiary":null,"bill_payment_beneficiary":{"id":"0194502f-be54-7005-abf1-5138180fae2d","meta":null,"created_on":"2025-01-10T12:28:13.779Z","created_by":"019317a0-b7e5-7eeb-a7eb-bd18cf39a633","modified_on":"2025-01-10T12:28:13.779Z","modified_by":null,"deleted_on":null,"deleted_by":null,"tenant_id":"00000000-0000-0000-0000-000000000000","transaction_id":"0194502f-bcfa-7005-abf1-4b050c6578eb","beneficiary_id":"0194502f-410c-7005-abf1-3319f50bdf59","beneficiary":{"id":"0194502f-410c-7005-abf1-3319f50bdf59","meta":null,"created_on":"2025-01-10T12:27:41.709Z","created_by":"019317a0-b7e5-7eeb-a7eb-bd18cf39a633","modified_on":"2025-01-10T12:27:41.709Z","modified_by":null,"deleted_on":null,"deleted_by":null,"tenant_id":"00000000-0000-0000-0000-000000000000","category_id":"airtime","biller_id":"mtn","option_id":"prepaid","account_number":"0000000040","account_name":null,"profile_id":"01931947-9fea-744d-8f66-118c138292e3","account_id":"0193912b-6f5e-7335-b5bc-3302dcc08103"}}},{"id":"0194502f-a1fa-7005-abf1-3b3c6d2688c3","meta":null,"created_on":"2025-01-10T12:28:06.523Z","created_by":"019317a0-b7e5-7eeb-a7eb-bd18cf39a633","modified_on":"2025-01-10T12:28:07.341Z","modified_by":null,"deleted_on":null,"deleted_by":null,"tenant_id":"00000000-0000-0000-0000-000000000000","account_id":"0193912b-6f5e-7335-b5bc-3302dcc08103","profile_id":"01931947-9fea-744d-8f66-118c138292e3","cba_id":"1705","currency":"NGN","amount":"10.00","reference":"Txbtzcltbhv","processor_reference":null,"processor_status":null,"processor_message":"The amount must be at least 25.","status":"failed","entry_type":"debit","narration":"Bill payment to mtn for 0000000040","transaction_date":"2025-01-10T12:28:06.521Z","transaction_type":"bill-payment","processor":"baxipay","reviewed_on":null,"reviewed_by":null,"batch_id":null,"schedule_id":null,"account":{"id":"0193912b-6f5e-7335-b5bc-3302dcc08103","meta":null,"created_on":"2024-12-04T10:16:03.166Z","created_by":null,"modified_on":"2025-01-09T15:20:17.197Z","modified_by":null,"deleted_on":null,"deleted_by":null,"tenant_id":"00000000-0000-0000-0000-000000000000","name":"Education","cba_id":"0000000041","status":"active","profile_id":"01931947-9fea-744d-8f66-118c138292e3","account_number":"0000000041","bank_id":"0193324f-cad0-7f86-923b-43fb21ac5b29","ledger_balance":"147.61","hold_balance":"0.00","available_balance":"147.61","currency":"NGN","restricted":false},"transfer":null,"disputes":[],"batch":null,"transfer_beneficiary":null,"bill_payment_beneficiary":{"id":"0194502f-a3cd-7005-abf1-451e6b3e5a41","meta":null,"created_on":"2025-01-10T12:28:06.990Z","created_by":"019317a0-b7e5-7eeb-a7eb-bd18cf39a633","modified_on":"2025-01-10T12:28:06.990Z","modified_by":null,"deleted_on":null,"deleted_by":null,"tenant_id":"00000000-0000-0000-0000-000000000000","transaction_id":"0194502f-a1fa-7005-abf1-3b3c6d2688c3","beneficiary_id":"0194502f-410c-7005-abf1-3319f50bdf59","beneficiary":{"id":"0194502f-410c-7005-abf1-3319f50bdf59","meta":null,"created_on":"2025-01-10T12:27:41.709Z","created_by":"019317a0-b7e5-7eeb-a7eb-bd18cf39a633","modified_on":"2025-01-10T12:27:41.709Z","modified_by":null,"deleted_on":null,"deleted_by":null,"tenant_id":"00000000-0000-0000-0000-000000000000","category_id":"airtime","biller_id":"mtn","option_id":"prepaid","account_number":"0000000040","account_name":null,"profile_id":"01931947-9fea-744d-8f66-118c138292e3","account_id":"0193912b-6f5e-7335-b5bc-3302dcc08103"}}},{"id":"0194502e-f192-7005-abf1-2b9d30986a76","meta":null,"created_on":"2025-01-10T12:27:21.362Z","created_by":"019317a0-b7e5-7eeb-a7eb-bd18cf39a633","modified_on":"2025-01-10T12:27:22.578Z","modified_by":null,"deleted_on":null,"deleted_by":null,"tenant_id":"00000000-0000-0000-0000-000000000000","account_id":"0193912b-6f5e-7335-b5bc-3302dcc08103","profile_id":"01931947-9fea-744d-8f66-118c138292e3","cba_id":"1704","currency":"NGN","amount":"100.00","reference":"Txcbpnebjis","processor_reference":null,"processor_status":null,"processor_message":null,"status":"success","entry_type":"debit","narration":"Bill payment to mtn for 0000000040","transaction_date":"2025-01-10T12:27:21.360Z","transaction_type":"bill-payment","processor":"baxipay","reviewed_on":null,"reviewed_by":null,"batch_id":null,"schedule_id":null,"account":{"id":"0193912b-6f5e-7335-b5bc-3302dcc08103","meta":null,"created_on":"2024-12-04T10:16:03.166Z","created_by":null,"modified_on":"2025-01-09T15:20:17.197Z","modified_by":null,"deleted_on":null,"deleted_by":null,"tenant_id":"00000000-0000-0000-0000-000000000000","name":"Education","cba_id":"0000000041","status":"active","profile_id":"01931947-9fea-744d-8f66-118c138292e3","account_number":"0000000041","bank_id":"0193324f-cad0-7f86-923b-43fb21ac5b29","ledger_balance":"147.61","hold_balance":"0.00","available_balance":"147.61","currency":"NGN","restricted":false},"transfer":null,"disputes":[],"batch":null,"transfer_beneficiary":null,"bill_payment_beneficiary":null},{"id":"01944b3b-42cc-766f-9ee1-462a10d8d28c","meta":null,"created_on":"2025-01-09T13:22:42.508Z","created_by":"019317a0-b7e5-7eeb-a7eb-bd18cf39a633","modified_on":"2025-01-09T13:22:42.508Z","modified_by":null,"deleted_on":null,"deleted_by":null,"tenant_id":"00000000-0000-0000-0000-000000000000","account_id":"0193f0e2-ab16-799a-85ae-fa4fbe2990a7","profile_id":"01931947-9fea-744d-8f66-118c138292e3","cba_id":null,"currency":"NGN","amount":"10.00","reference":"Tmzicaexpnj","processor_reference":null,"processor_status":null,"processor_message":null,"status":"processing","entry_type":"debit","narration":"","transaction_date":"2025-01-09T13:22:42.507Z","transaction_type":"fee","processor":"cba","reviewed_on":null,"reviewed_by":null,"batch_id":null,"schedule_id":null,"account":{"id":"0193f0e2-ab16-799a-85ae-fa4fbe2990a7","meta":null,"created_on":"2024-12-23T00:20:07.063Z","created_by":null,"modified_on":"2025-01-10T12:36:47.837Z","modified_by":null,"deleted_on":null,"deleted_by":null,"tenant_id":"00000000-0000-0000-0000-000000000000","name":"Eno","cba_id":"0000000115","status":"active","profile_id":"01931947-9fea-744d-8f66-118c138292e3","account_number":"0000000115","bank_id":"0193324f-cad0-7f86-923b-43fb21ac5b29","ledger_balance":"500.00","hold_balance":"0.00","available_balance":"500.00","currency":"NGN","restricted":false},"transfer":null,"disputes":[],"batch":null,"transfer_beneficiary":null,"bill_payment_beneficiary":null},{"id":"01944b3b-429e-766f-9ee1-2e272f216a36","meta":null,"created_on":"2025-01-09T13:22:42.462Z","created_by":"019317a0-b7e5-7eeb-a7eb-bd18cf39a633","modified_on":"2025-01-09T13:22:42.462Z","modified_by":null,"deleted_on":null,"deleted_by":null,"tenant_id":"00000000-0000-0000-0000-000000000000","account_id":"0193f0e2-ab16-799a-85ae-fa4fbe2990a7","profile_id":"01931947-9fea-744d-8f66-118c138292e3","cba_id":null,"currency":"NGN","amount":"100.00","reference":"Tmzicaexpnj","processor_reference":null,"processor_status":null,"processor_message":null,"status":"processing","entry_type":"debit","narration":"","transaction_date":"2025-01-09T13:22:42.391Z","transaction_type":"transfer","processor":"nip","reviewed_on":null,"reviewed_by":null,"batch_id":null,"schedule_id":null,"account":{"id":"0193f0e2-ab16-799a-85ae-fa4fbe2990a7","meta":null,"created_on":"2024-12-23T00:20:07.063Z","created_by":null,"modified_on":"2025-01-10T12:36:47.837Z","modified_by":null,"deleted_on":null,"deleted_by":null,"tenant_id":"00000000-0000-0000-0000-000000000000","name":"Eno","cba_id":"0000000115","status":"active","profile_id":"01931947-9fea-744d-8f66-118c138292e3","account_number":"0000000115","bank_id":"0193324f-cad0-7f86-923b-43fb21ac5b29","ledger_balance":"500.00","hold_balance":"0.00","available_balance":"500.00","currency":"NGN","restricted":false},"transfer":{"id":"01944b3b-42ac-766f-9ee1-345f718ac4b3","meta":null,"created_on":"2025-01-09T13:22:42.462Z","created_by":"019317a0-b7e5-7eeb-a7eb-bd18cf39a633","modified_on":"2025-01-09T13:22:42.462Z","modified_by":null,"deleted_on":null,"deleted_by":null,"tenant_id":"00000000-0000-0000-0000-000000000000","bank_code":"000014","bank_name":"Access Bank","bank_logo":"https://lendstack-s3.s3.us-east-2.amazonaws.com/bank_logos/044.png","account_name":"John Doe","account_number":"0112345678","profile_id":"01931947-9fea-744d-8f66-118c138292e3","transaction_id":"01944b3b-429e-766f-9ee1-2e272f216a36","account_id":"0193f0e2-ab16-799a-85ae-fa4fbe2990a7"},"disputes":[],"batch":null,"transfer_beneficiary":{"id":"01944b3b-42b9-766f-9ee1-3c6d213b39ae","meta":null,"created_on":"2025-01-09T13:22:42.462Z","created_by":"019317a0-b7e5-7eeb-a7eb-bd18cf39a633","modified_on":"2025-01-09T13:22:42.462Z","modified_by":null,"deleted_on":null,"deleted_by":null,"tenant_id":"00000000-0000-0000-0000-000000000000","transaction_id":"01944b3b-429e-766f-9ee1-2e272f216a36","beneficiary_id":"0193a720-e549-7881-8b82-ba1fee449278","beneficiary":{"id":"0193a720-e549-7881-8b82-ba1fee449278","meta":null,"created_on":"2024-12-08T16:36:11.209Z","created_by":"019317a0-b7e5-7eeb-a7eb-bd18cf39a633","modified_on":"2024-12-08T16:36:11.209Z","modified_by":null,"deleted_on":null,"deleted_by":null,"tenant_id":"00000000-0000-0000-0000-000000000000","bank_code":"000014","bank_name":"Access Bank","account_number":"0112345678","account_name":"John Doe","profile_id":"01931947-9fea-744d-8f66-118c138292e3","account_id":null}},"bill_payment_beneficiary":null},{"id":"01944b3a-ea7d-766f-9ee1-21ea780c5048","meta":null,"created_on":"2025-01-09T13:22:19.901Z","created_by":"019317a0-b7e5-7eeb-a7eb-bd18cf39a633","modified_on":"2025-01-09T13:22:19.901Z","modified_by":null,"deleted_on":null,"deleted_by":null,"tenant_id":"00000000-0000-0000-0000-000000000000","account_id":"0193f0e2-ab16-799a-85ae-fa4fbe2990a7","profile_id":"01931947-9fea-744d-8f66-118c138292e3","cba_id":null,"currency":"NGN","amount":"10.00","reference":"Tzrjuqqeryy","processor_reference":null,"processor_status":null,"processor_message":null,"status":"processing","entry_type":"debit","narration":"","transaction_date":"2025-01-09T13:22:19.900Z","transaction_type":"fee","processor":"cba","reviewed_on":null,"reviewed_by":null,"batch_id":null,"schedule_id":null,"account":{"id":"0193f0e2-ab16-799a-85ae-fa4fbe2990a7","meta":null,"created_on":"2024-12-23T00:20:07.063Z","created_by":null,"modified_on":"2025-01-10T12:36:47.837Z","modified_by":null,"deleted_on":null,"deleted_by":null,"tenant_id":"00000000-0000-0000-0000-000000000000","name":"Eno","cba_id":"0000000115","status":"active","profile_id":"01931947-9fea-744d-8f66-118c138292e3","account_number":"0000000115","bank_id":"0193324f-cad0-7f86-923b-43fb21ac5b29","ledger_balance":"500.00","hold_balance":"0.00","available_balance":"500.00","currency":"NGN","restricted":false},"transfer":null,"disputes":[],"batch":null,"transfer_beneficiary":null,"bill_payment_beneficiary":null},{"id":"01944b3a-ea5b-766f-9ee1-09134ea828e9","meta":null,"created_on":"2025-01-09T13:22:19.867Z","created_by":"019317a0-b7e5-7eeb-a7eb-bd18cf39a633","modified_on":"2025-01-09T13:22:19.867Z","modified_by":null,"deleted_on":null,"deleted_by":null,"tenant_id":"00000000-0000-0000-0000-000000000000","account_id":"0193f0e2-ab16-799a-85ae-fa4fbe2990a7","profile_id":"01931947-9fea-744d-8f66-118c138292e3","cba_id":null,"currency":"NGN","amount":"100.00","reference":"Tzrjuqqeryy","processor_reference":null,"processor_status":null,"processor_message":null,"status":"processing","entry_type":"debit","narration":"","transaction_date":"2025-01-09T13:22:19.786Z","transaction_type":"transfer","processor":"nip","reviewed_on":null,"reviewed_by":null,"batch_id":null,"schedule_id":null,"account":{"id":"0193f0e2-ab16-799a-85ae-fa4fbe2990a7","meta":null,"created_on":"2024-12-23T00:20:07.063Z","created_by":null,"modified_on":"2025-01-10T12:36:47.837Z","modified_by":null,"deleted_on":null,"deleted_by":null,"tenant_id":"00000000-0000-0000-0000-000000000000","name":"Eno","cba_id":"0000000115","status":"active","profile_id":"01931947-9fea-744d-8f66-118c138292e3","account_number":"0000000115","bank_id":"0193324f-cad0-7f86-923b-43fb21ac5b29","ledger_balance":"500.00","hold_balance":"0.00","available_balance":"500.00","currency":"NGN","restricted":false},"transfer":{"id":"01944b3a-ea63-766f-9ee1-14b992b60a20","meta":null,"created_on":"2025-01-09T13:22:19.867Z","created_by":"019317a0-b7e5-7eeb-a7eb-bd18cf39a633","modified_on":"2025-01-09T13:22:19.867Z","modified_by":null,"deleted_on":null,"deleted_by":null,"tenant_id":"00000000-0000-0000-0000-000000000000","bank_code":"000014","bank_name":"Access Bank","bank_logo":"https://lendstack-s3.s3.us-east-2.amazonaws.com/bank_logos/044.png","account_name":"John Doe","account_number":"0112345678","profile_id":"01931947-9fea-744d-8f66-118c138292e3","transaction_id":"01944b3a-ea5b-766f-9ee1-09134ea828e9","account_id":"0193f0e2-ab16-799a-85ae-fa4fbe2990a7"},"disputes":[],"batch":null,"transfer_beneficiary":{"id":"01944b3a-ea67-766f-9ee1-1b75eb0ac43a","meta":null,"created_on":"2025-01-09T13:22:19.867Z","created_by":"019317a0-b7e5-7eeb-a7eb-bd18cf39a633","modified_on":"2025-01-09T13:22:19.867Z","modified_by":null,"deleted_on":null,"deleted_by":null,"tenant_id":"00000000-0000-0000-0000-000000000000","transaction_id":"01944b3a-ea5b-766f-9ee1-09134ea828e9","beneficiary_id":"0193a720-e549-7881-8b82-ba1fee449278","beneficiary":{"id":"0193a720-e549-7881-8b82-ba1fee449278","meta":null,"created_on":"2024-12-08T16:36:11.209Z","created_by":"019317a0-b7e5-7eeb-a7eb-bd18cf39a633","modified_on":"2024-12-08T16:36:11.209Z","modified_by":null,"deleted_on":null,"deleted_by":null,"tenant_id":"00000000-0000-0000-0000-000000000000","bank_code":"000014","bank_name":"Access Bank","account_number":"0112345678","account_name":"John Doe","profile_id":"01931947-9fea-744d-8f66-118c138292e3","account_id":null}},"bill_payment_beneficiary":null},{"id":"01944a78-9d6d-7881-990d-762a8b4aa9ab","meta":null,"created_on":"2025-01-09T09:50:06.190Z","created_by":"019317a0-b7e5-7eeb-a7eb-bd18cf39a633","modified_on":"2025-01-09T09:50:06.190Z","modified_by":null,"deleted_on":null,"deleted_by":null,"tenant_id":"00000000-0000-0000-0000-000000000000","account_id":"0193912b-6f5e-7335-b5bc-3302dcc08103","profile_id":"01931947-9fea-744d-8f66-118c138292e3","cba_id":null,"currency":"NGN","amount":"10.00","reference":"Towsfjwqkhj","processor_reference":null,"processor_status":null,"processor_message":null,"status":"processing","entry_type":"debit","narration":"Sodiq","transaction_date":"2025-01-09T09:50:06.188Z","transaction_type":"fee","processor":"cba","reviewed_on":null,"reviewed_by":null,"batch_id":null,"schedule_id":null,"account":{"id":"0193912b-6f5e-7335-b5bc-3302dcc08103","meta":null,"created_on":"2024-12-04T10:16:03.166Z","created_by":null,"modified_on":"2025-01-09T15:20:17.197Z","modified_by":null,"deleted_on":null,"deleted_by":null,"tenant_id":"00000000-0000-0000-0000-000000000000","name":"Education","cba_id":"0000000041","status":"active","profile_id":"01931947-9fea-744d-8f66-118c138292e3","account_number":"0000000041","bank_id":"0193324f-cad0-7f86-923b-43fb21ac5b29","ledger_balance":"147.61","hold_balance":"0.00","available_balance":"147.61","currency":"NGN","restricted":false},"transfer":null,"disputes":[],"batch":null,"transfer_beneficiary":null,"bill_payment_beneficiary":null}],"meta":{"page":1,"total_pages":146,"total_items":1459}}