{"status":"success","data":[{"id":"0193d036-ca5c-7446-abe1-43ab27bacc73","meta":{"category_id":"electricity","option_id":"01931947-9fea-744d-8f66-118c138292e3","biller_id":"abuja_electric_prepaid"},"created_on":"2024-12-16T16:04:31.962Z","created_by":null,"modified_on":"2024-12-16T16:04:31.962Z","modified_by":null,"deleted_on":null,"deleted_by":null,"tenant_id":"00000000-0000-0000-0000-000000000000","frequency":"weekly","type":"bill-payment","start_date":"2024-12-17T00:00:00.000Z","next_run_date":"2024-12-17T00:00:00.000Z","end_date":"2025-02-13T00:00:00.000Z","status":"active","amount":"100.00","profile_id":"01931947-9fea-744d-8f66-118c138292e3","account_id":"019390f5-db96-7335-b5bb-74eac1376a9c","user":null},{"id":"0193d03a-65df-7446-abe1-5985373161c1","meta":{"category_id":"electricity","option_id":"01931947-9fea-744d-8f66-118c138292e3","biller_id":"abuja_electric_prepaid"},"created_on":"2024-12-16T16:08:28.380Z","created_by":null,"modified_on":"2024-12-16T16:08:28.380Z","modified_by":null,"deleted_on":null,"deleted_by":null,"tenant_id":"00000000-0000-0000-0000-000000000000","frequency":"weekly","type":"bill-payment","start_date":"2024-12-17T00:00:00.000Z","next_run_date":"2024-12-17T00:00:00.000Z","end_date":"2025-02-13T00:00:00.000Z","status":"active","amount":"100.00","profile_id":"01931947-9fea-744d-8f66-118c138292e3","account_id":"019390f5-db96-7335-b5bb-74eac1376a9c","user":null},{"id":"0193d034-9b6a-7446-abe1-2f61f27eab70","meta":{"category_id":"electricity","option_id":"01931947-9fea-744d-8f66-118c138292e3","biller_id":"abuja_electric_prepaid"},"created_on":"2024-12-16T16:02:08.873Z","created_by":null,"modified_on":"2024-12-23T21:08:35.616Z","modified_by":null,"deleted_on":null,"deleted_by":null,"tenant_id":"00000000-0000-0000-0000-000000000000","frequency":"weekly","type":"bill-payment","start_date":"2024-12-17T00:00:00.000Z","next_run_date":"2024-12-17T00:00:00.000Z","end_date":"2025-02-13T00:00:00.000Z","status":"inactive","amount":"100.00","profile_id":"01931947-9fea-744d-8f66-118c138292e3","account_id":"019390f5-db96-7335-b5bb-74eac1376a9c","user":null},{"id":"0193d035-57ad-7446-abe1-35017bdcb819","meta":{"category_id":"electricity","option_id":"01931947-9fea-744d-8f66-118c138292e3","biller_id":"abuja_electric_prepaid"},"created_on":"2024-12-16T16:02:57.070Z","created_by":null,"modified_on":"2024-12-23T21:15:09.340Z","modified_by":null,"deleted_on":null,"deleted_by":null,"tenant_id":"00000000-0000-0000-0000-000000000000","frequency":"weekly","type":"bill-payment","start_date":"2024-12-17T00:00:00.000Z","next_run_date":"2024-12-17T00:00:00.000Z","end_date":"2025-02-13T00:00:00.000Z","status":"inactive","amount":"100.00","profile_id":"01931947-9fea-744d-8f66-118c138292e3","account_id":"019390f5-db96-7335-b5bb-74eac1376a9c","user":null},{"id":"0193d036-16bb-7446-abe1-3f2c19890735","meta":{"category_id":"electricity","option_id":"01931947-9fea-744d-8f66-118c138292e3","biller_id":"abuja_electric_prepaid"},"created_on":"2024-12-16T16:03:45.978Z","created_by":null,"modified_on":"2024-12-23T21:16:56.020Z","modified_by":null,"deleted_on":null,"deleted_by":null,"tenant_id":"00000000-0000-0000-0000-000000000000","frequency":"weekly","type":"bill-payment","start_date":"2024-12-17T00:00:00.000Z","next_run_date":"2024-12-17T00:00:00.000Z","end_date":"2025-02-13T00:00:00.000Z","status":"inactive","amount":"100.00","profile_id":"01931947-9fea-744d-8f66-118c138292e3","account_id":"019390f5-db96-7335-b5bb-74eac1376a9c","user":null},{"id":"0193d456-e235-7ee1-ab25-ecc2dc38e568","meta":{"category_id":"databundle","option_id":"01931947-9fea-744d-8f66-118c138292e3","biller_id":"airtel"},"created_on":"2024-12-17T11:18:04.086Z","created_by":null,"modified_on":"2024-12-25T04:37:35.328Z","modified_by":null,"deleted_on":null,"deleted_by":null,"tenant_id":"00000000-0000-0000-0000-000000000000","frequency":"monthly","type":"bill-payment","start_date":"2024-12-17T00:00:00.000Z","next_run_date":"2025-01-17T00:00:00.000Z","end_date":"2024-12-17T00:00:00.000Z","status":"completed","amount":"50.00","profile_id":"01931947-9fea-744d-8f66-118c138292e3","account_id":"0193912b-6f5e-7335-b5bc-3302dcc08103","user":null},{"id":"0193d404-4309-7ee1-ab24-cf43ded3dce0","meta":{"category_id":"airtime","option_id":"","biller_id":"mtn"},"created_on":"2024-12-17T09:47:49.385Z","created_by":null,"modified_on":"2024-12-27T21:00:43.063Z","modified_by":null,"deleted_on":null,"deleted_by":null,"tenant_id":"00000000-0000-0000-0000-000000000000","frequency":"daily","type":"bill-payment","start_date":"2024-12-17T21:00:00.000Z","next_run_date":"2024-12-17T21:00:00.000Z","end_date":"2024-12-31T12:00:00.000Z","status":"active","amount":"100.00","profile_id":"01931947-9fea-744d-8f66-118c138292e3","account_id":"019390f5-db96-7335-b5bb-74eac1376a9c","user":null},{"id":"0193da9f-57b7-7aa3-88d2-fcde3412a37a","meta":{"category_id":"airtime","option_id":"","biller_id":"mtn"},"created_on":"2024-12-18T16:34:56.055Z","created_by":null,"modified_on":"2024-12-27T19:52:40.568Z","modified_by":null,"deleted_on":null,"deleted_by":null,"tenant_id":"00000000-0000-0000-0000-000000000000","frequency":"once","type":"bill-payment","start_date":"2024-12-30T21:00:00.000Z","next_run_date":"2024-12-30T21:00:00.000Z","end_date":null,"status":"active","amount":"100.00","profile_id":"01931947-9fea-744d-8f66-118c138292e3","account_id":"0193912b-6f5e-7335-b5bc-3302dcc08103","user":null},{"id":"0193da9d-6039-7aa3-88d2-f3822682f01b","meta":{"category_id":"airtime","option_id":"","biller_id":"mtn"},"created_on":"2024-12-18T16:32:47.161Z","created_by":null,"modified_on":"2024-12-27T19:37:19.424Z","modified_by":null,"deleted_on":null,"deleted_by":null,"tenant_id":"00000000-0000-0000-0000-000000000000","frequency":"once","type":"bill-payment","start_date":"2024-12-30T21:00:00.000Z","next_run_date":"2024-12-30T21:00:00.000Z","end_date":"2024-12-31T12:00:00.000Z","status":"active","amount":"100.00","profile_id":"01931947-9fea-744d-8f66-118c138292e3","account_id":"0193912b-6f5e-7335-b5bc-3302dcc08103","user":null},{"id":"0193d408-dd4f-7ee1-ab24-f21d2c4c2b4c","meta":{"category_id":"databundle","option_id":"01931947-9fea-744d-8f66-118c138292e3","biller_id":"smile"},"created_on":"2024-12-17T09:52:51.023Z","created_by":null,"modified_on":"2024-12-25T04:55:37.472Z","modified_by":null,"deleted_on":null,"deleted_by":null,"tenant_id":"00000000-0000-0000-0000-000000000000","frequency":"weekly","type":"bill-payment","start_date":"2024-12-18T00:00:00.000Z","next_run_date":"2024-12-18T00:00:00.000Z","end_date":"2024-12-21T00:00:00.000Z","status":"inactive","amount":"1800.00","profile_id":"01931947-9fea-744d-8f66-118c138292e3","account_id":"019390f5-db96-7335-b5bb-74eac1376a9c","user":null}],"meta":{"page":1,"total_pages":6,"total_items":56}}