{"status":"success","data":[{"id":"019439db-891f-722f-8212-a2a269489697","meta":null,"created_on":"2025-01-06T04:24:36.383Z","created_by":"019372de-17ef-7cc2-8fc0-43fe11ba042f","modified_on":"2025-01-06T04:24:39.590Z","modified_by":null,"deleted_on":null,"deleted_by":null,"tenant_id":"00000000-0000-0000-0000-000000000000","account_id":"0193a699-2f15-7881-8b7f-ae50980bcfad","profile_id":"0193a649-e3d0-7881-8b7f-2ef1d89a9aff","cba_id":"1564","currency":"NGN","amount":"29300.00","reference":"Tagacfvewjp","processor_reference":null,"processor_status":null,"processor_message":null,"status":"success","entry_type":"debit","narration":"Bill payment to dstv for 1102003467","transaction_date":"2025-01-06T04:24:36.382Z","transaction_type":"bill-payment","processor":"baxipay","reviewed_on":null,"reviewed_by":null,"batch_id":null,"schedule_id":null,"transfer":null,"transfer_beneficiary":null,"bill_payment_beneficiary":null,"disputes":[],"batch":null,"account":{"id":"0193a699-2f15-7881-8b7f-ae50980bcfad","meta":null,"created_on":"2024-12-08T14:07:57.204Z","created_by":null,"modified_on":"2025-01-06T04:23:37.542Z","modified_by":null,"deleted_on":null,"deleted_by":null,"tenant_id":"00000000-0000-0000-0000-000000000000","name":"expenses","cba_id":"0000000074","profile_id":"0193a649-e3d0-7881-8b7f-2ef1d89a9aff","account_number":"0000000074","bank_id":"0193324f-cad0-7f86-923b-43fb21ac5b29","ledger_balance":"1002926.55","hold_balance":"0.00","available_balance":"1002926.55","currency":"NGN","restricted":false}},{"id":"019439db-82d5-722f-8212-9a6de8eb9e1e","meta":null,"created_on":"2025-01-06T04:24:34.773Z","created_by":"019372de-17ef-7cc2-8fc0-43fe11ba042f","modified_on":"2025-01-06T04:24:35.860Z","modified_by":null,"deleted_on":null,"deleted_by":null,"tenant_id":"00000000-0000-0000-0000-000000000000","account_id":"0193a699-2f15-7881-8b7f-ae50980bcfad","profile_id":"0193a649-e3d0-7881-8b7f-2ef1d89a9aff","cba_id":"1563","currency":"NGN","amount":"1800.00","reference":"Tdanpqacbqc","processor_reference":null,"processor_status":null,"processor_message":null,"status":"success","entry_type":"debit","narration":"Bill payment to waec for 1102003467","transaction_date":"2025-01-06T04:24:34.771Z","transaction_type":"bill-payment","processor":"baxipay","reviewed_on":null,"reviewed_by":null,"batch_id":null,"schedule_id":null,"transfer":null,"transfer_beneficiary":null,"bill_payment_beneficiary":null,"disputes":[],"batch":null,"account":{"id":"0193a699-2f15-7881-8b7f-ae50980bcfad","meta":null,"created_on":"2024-12-08T14:07:57.204Z","created_by":null,"modified_on":"2025-01-06T04:23:37.542Z","modified_by":null,"deleted_on":null,"deleted_by":null,"tenant_id":"00000000-0000-0000-0000-000000000000","name":"expenses","cba_id":"0000000074","profile_id":"0193a649-e3d0-7881-8b7f-2ef1d89a9aff","account_number":"0000000074","bank_id":"0193324f-cad0-7f86-923b-43fb21ac5b29","ledger_balance":"1002926.55","hold_balance":"0.00","available_balance":"1002926.55","currency":"NGN","restricted":false}},{"id":"019439db-7c00-722f-8212-936c6eaadb2a","meta":null,"created_on":"2025-01-06T04:24:33.024Z","created_by":"019372de-17ef-7cc2-8fc0-43fe11ba042f","modified_on":"2025-01-06T04:24:33.881Z","modified_by":null,"deleted_on":null,"deleted_by":null,"tenant_id":"00000000-0000-0000-0000-000000000000","account_id":"0193a699-2f15-7881-8b7f-ae50980bcfad","profile_id":"0193a649-e3d0-7881-8b7f-2ef1d89a9aff","cba_id":"1562","currency":"NGN","amount":"2300.00","reference":"Ttorhsawqnp","processor_reference":null,"processor_status":null,"processor_message":"","status":"failed","entry_type":"debit","narration":"Bill payment to abuja_electric_postpaid for 07034953306","transaction_date":"2025-01-06T04:24:33.021Z","transaction_type":"bill-payment","processor":"baxipay","reviewed_on":null,"reviewed_by":null,"batch_id":null,"schedule_id":null,"transfer":null,"transfer_beneficiary":null,"bill_payment_beneficiary":null,"disputes":[],"batch":null,"account":{"id":"0193a699-2f15-7881-8b7f-ae50980bcfad","meta":null,"created_on":"2024-12-08T14:07:57.204Z","created_by":null,"modified_on":"2025-01-06T04:23:37.542Z","modified_by":null,"deleted_on":null,"deleted_by":null,"tenant_id":"00000000-0000-0000-0000-000000000000","name":"expenses","cba_id":"0000000074","profile_id":"0193a649-e3d0-7881-8b7f-2ef1d89a9aff","account_number":"0000000074","bank_id":"0193324f-cad0-7f86-923b-43fb21ac5b29","ledger_balance":"1002926.55","hold_balance":"0.00","available_balance":"1002926.55","currency":"NGN","restricted":false}},{"id":"019439db-1fd0-722f-8212-8bc3fcb3c746","meta":null,"created_on":"2025-01-06T04:24:09.424Z","created_by":"019372de-17ef-7cc2-8fc0-43fe11ba042f","modified_on":"2025-01-06T04:24:29.165Z","modified_by":null,"deleted_on":null,"deleted_by":null,"tenant_id":"00000000-0000-0000-0000-000000000000","account_id":"0193a699-2f15-7881-8b7f-ae50980bcfad","profile_id":"0193a649-e3d0-7881-8b7f-2ef1d89a9aff","cba_id":"1561","currency":"NGN","amount":"900.00","reference":"Tjrtdvcxphu","processor_reference":null,"processor_status":null,"processor_message":null,"status":"success","entry_type":"debit","narration":"Bill payment to gotv for 1102003467","transaction_date":"2025-01-06T04:24:09.423Z","transaction_type":"bill-payment","processor":"baxipay","reviewed_on":null,"reviewed_by":null,"batch_id":null,"schedule_id":null,"transfer":null,"transfer_beneficiary":null,"bill_payment_beneficiary":null,"disputes":[],"batch":null,"account":{"id":"0193a699-2f15-7881-8b7f-ae50980bcfad","meta":null,"created_on":"2024-12-08T14:07:57.204Z","created_by":null,"modified_on":"2025-01-06T04:23:37.542Z","modified_by":null,"deleted_on":null,"deleted_by":null,"tenant_id":"00000000-0000-0000-0000-000000000000","name":"expenses","cba_id":"0000000074","profile_id":"0193a649-e3d0-7881-8b7f-2ef1d89a9aff","account_number":"0000000074","bank_id":"0193324f-cad0-7f86-923b-43fb21ac5b29","ledger_balance":"1002926.55","hold_balance":"0.00","available_balance":"1002926.55","currency":"NGN","restricted":false}},{"id":"019439db-07dd-722f-8212-824f62138c25","meta":null,"created_on":"2025-01-06T04:24:03.293Z","created_by":"019372de-17ef-7cc2-8fc0-43fe11ba042f","modified_on":"2025-01-06T04:24:07.576Z","modified_by":null,"deleted_on":null,"deleted_by":null,"tenant_id":"00000000-0000-0000-0000-000000000000","account_id":"0193a699-2f15-7881-8b7f-ae50980bcfad","profile_id":"0193a649-e3d0-7881-8b7f-2ef1d89a9aff","cba_id":"1560","currency":"NGN","amount":"5300.00","reference":"Tsqhfsmtbts","processor_reference":null,"processor_status":null,"processor_message":null,"status":"success","entry_type":"debit","narration":"Bill payment to dstv for 1102003467","transaction_date":"2025-01-06T04:24:03.292Z","transaction_type":"bill-payment","processor":"baxipay","reviewed_on":null,"reviewed_by":null,"batch_id":null,"schedule_id":null,"transfer":null,"transfer_beneficiary":null,"bill_payment_beneficiary":null,"disputes":[],"batch":null,"account":{"id":"0193a699-2f15-7881-8b7f-ae50980bcfad","meta":null,"created_on":"2024-12-08T14:07:57.204Z","created_by":null,"modified_on":"2025-01-06T04:23:37.542Z","modified_by":null,"deleted_on":null,"deleted_by":null,"tenant_id":"00000000-0000-0000-0000-000000000000","name":"expenses","cba_id":"0000000074","profile_id":"0193a649-e3d0-7881-8b7f-2ef1d89a9aff","account_number":"0000000074","bank_id":"0193324f-cad0-7f86-923b-43fb21ac5b29","ledger_balance":"1002926.55","hold_balance":"0.00","available_balance":"1002926.55","currency":"NGN","restricted":false}},{"id":"019439db-0392-722f-8212-7b320a2bad51","meta":null,"created_on":"2025-01-06T04:24:02.194Z","created_by":"019372de-17ef-7cc2-8fc0-43fe11ba042f","modified_on":"2025-01-06T04:24:02.817Z","modified_by":null,"deleted_on":null,"deleted_by":null,"tenant_id":"00000000-0000-0000-0000-000000000000","account_id":"0193a699-2f15-7881-8b7f-ae50980bcfad","profile_id":"0193a649-e3d0-7881-8b7f-2ef1d89a9aff","cba_id":"1559","currency":"NGN","amount":"1800.00","reference":"Ttgdtkycxar","processor_reference":null,"processor_status":null,"processor_message":null,"status":"success","entry_type":"debit","narration":"Bill payment to smile for 11020034671","transaction_date":"2025-01-06T04:24:02.193Z","transaction_type":"bill-payment","processor":"baxipay","reviewed_on":null,"reviewed_by":null,"batch_id":null,"schedule_id":null,"transfer":null,"transfer_beneficiary":null,"bill_payment_beneficiary":null,"disputes":[],"batch":null,"account":{"id":"0193a699-2f15-7881-8b7f-ae50980bcfad","meta":null,"created_on":"2024-12-08T14:07:57.204Z","created_by":null,"modified_on":"2025-01-06T04:23:37.542Z","modified_by":null,"deleted_on":null,"deleted_by":null,"tenant_id":"00000000-0000-0000-0000-000000000000","name":"expenses","cba_id":"0000000074","profile_id":"0193a649-e3d0-7881-8b7f-2ef1d89a9aff","account_number":"0000000074","bank_id":"0193324f-cad0-7f86-923b-43fb21ac5b29","ledger_balance":"1002926.55","hold_balance":"0.00","available_balance":"1002926.55","currency":"NGN","restricted":false}},{"id":"019439da-fcbf-722f-8212-774e546710d5","meta":null,"created_on":"2025-01-06T04:24:00.448Z","created_by":"019372de-17ef-7cc2-8fc0-43fe11ba042f","modified_on":"2025-01-06T04:24:01.604Z","modified_by":null,"deleted_on":null,"deleted_by":null,"tenant_id":"00000000-0000-0000-0000-000000000000","account_id":"0193a699-2f15-7881-8b7f-ae50980bcfad","profile_id":"0193a649-e3d0-7881-8b7f-2ef1d89a9aff","cba_id":"1558","currency":"NGN","amount":"200.00","reference":"Tkqjoabwptn","processor_reference":null,"processor_status":null,"processor_message":null,"status":"success","entry_type":"debit","narration":"Bill payment to 9mobile for 11020034671","transaction_date":"2025-01-06T04:24:00.447Z","transaction_type":"bill-payment","processor":"baxipay","reviewed_on":null,"reviewed_by":null,"batch_id":null,"schedule_id":null,"transfer":null,"transfer_beneficiary":null,"bill_payment_beneficiary":null,"disputes":[],"batch":null,"account":{"id":"0193a699-2f15-7881-8b7f-ae50980bcfad","meta":null,"created_on":"2024-12-08T14:07:57.204Z","created_by":null,"modified_on":"2025-01-06T04:23:37.542Z","modified_by":null,"deleted_on":null,"deleted_by":null,"tenant_id":"00000000-0000-0000-0000-000000000000","name":"expenses","cba_id":"0000000074","profile_id":"0193a649-e3d0-7881-8b7f-2ef1d89a9aff","account_number":"0000000074","bank_id":"0193324f-cad0-7f86-923b-43fb21ac5b29","ledger_balance":"1002926.55","hold_balance":"0.00","available_balance":"1002926.55","currency":"NGN","restricted":false}},{"id":"019439da-f637-722f-8212-6a993519dd68","meta":null,"created_on":"2025-01-06T04:23:58.774Z","created_by":"019372de-17ef-7cc2-8fc0-43fe11ba042f","modified_on":"2025-01-06T04:23:59.630Z","modified_by":null,"deleted_on":null,"deleted_by":null,"tenant_id":"00000000-0000-0000-0000-000000000000","account_id":"0193a699-2f15-7881-8b7f-ae50980bcfad","profile_id":"0193a649-e3d0-7881-8b7f-2ef1d89a9aff","cba_id":"1557","currency":"NGN","amount":"50.00","reference":"Tpbggrcgzrs","processor_reference":null,"processor_status":null,"processor_message":null,"status":"success","entry_type":"debit","narration":"Bill payment to airtel for 11020034671","transaction_date":"2025-01-06T04:23:58.770Z","transaction_type":"bill-payment","processor":"baxipay","reviewed_on":null,"reviewed_by":null,"batch_id":null,"schedule_id":null,"transfer":null,"transfer_beneficiary":null,"bill_payment_beneficiary":null,"disputes":[],"batch":null,"account":{"id":"0193a699-2f15-7881-8b7f-ae50980bcfad","meta":null,"created_on":"2024-12-08T14:07:57.204Z","created_by":null,"modified_on":"2025-01-06T04:23:37.542Z","modified_by":null,"deleted_on":null,"deleted_by":null,"tenant_id":"00000000-0000-0000-0000-000000000000","name":"expenses","cba_id":"0000000074","profile_id":"0193a649-e3d0-7881-8b7f-2ef1d89a9aff","account_number":"0000000074","bank_id":"0193324f-cad0-7f86-923b-43fb21ac5b29","ledger_balance":"1002926.55","hold_balance":"0.00","available_balance":"1002926.55","currency":"NGN","restricted":false}},{"id":"019439da-eebf-722f-8212-629d95d23566","meta":null,"created_on":"2025-01-06T04:23:56.864Z","created_by":"019372de-17ef-7cc2-8fc0-43fe11ba042f","modified_on":"2025-01-06T04:23:57.655Z","modified_by":null,"deleted_on":null,"deleted_by":null,"tenant_id":"00000000-0000-0000-0000-000000000000","account_id":"0193a699-2f15-7881-8b7f-ae50980bcfad","profile_id":"0193a649-e3d0-7881-8b7f-2ef1d89a9aff","cba_id":"1556","currency":"NGN","amount":"100.00","reference":"Tboyshuqdjg","processor_reference":null,"processor_status":null,"processor_message":null,"status":"success","entry_type":"debit","narration":"Bill payment to mtn for 11020034671","transaction_date":"2025-01-06T04:23:56.863Z","transaction_type":"bill-payment","processor":"baxipay","reviewed_on":null,"reviewed_by":null,"batch_id":null,"schedule_id":null,"transfer":null,"transfer_beneficiary":null,"bill_payment_beneficiary":null,"disputes":[],"batch":null,"account":{"id":"0193a699-2f15-7881-8b7f-ae50980bcfad","meta":null,"created_on":"2024-12-08T14:07:57.204Z","created_by":null,"modified_on":"2025-01-06T04:23:37.542Z","modified_by":null,"deleted_on":null,"deleted_by":null,"tenant_id":"00000000-0000-0000-0000-000000000000","name":"expenses","cba_id":"0000000074","profile_id":"0193a649-e3d0-7881-8b7f-2ef1d89a9aff","account_number":"0000000074","bank_id":"0193324f-cad0-7f86-923b-43fb21ac5b29","ledger_balance":"1002926.55","hold_balance":"0.00","available_balance":"1002926.55","currency":"NGN","restricted":false}},{"id":"019439da-eaf3-722f-8212-584e2f96e3fb","meta":null,"created_on":"2025-01-06T04:23:55.892Z","created_by":"019372de-17ef-7cc2-8fc0-43fe11ba042f","modified_on":"2025-01-06T04:23:56.408Z","modified_by":null,"deleted_on":null,"deleted_by":null,"tenant_id":"00000000-0000-0000-0000-000000000000","account_id":"0193a699-2f15-7881-8b7f-ae50980bcfad","profile_id":"0193a649-e3d0-7881-8b7f-2ef1d89a9aff","cba_id":"1555","currency":"NGN","amount":"100.00","reference":"Txdgrynamjc","processor_reference":null,"processor_status":null,"processor_message":null,"status":"success","entry_type":"debit","narration":"Bill payment to smile for 1102003467","transaction_date":"2025-01-06T04:23:55.890Z","transaction_type":"bill-payment","processor":"baxipay","reviewed_on":null,"reviewed_by":null,"batch_id":null,"schedule_id":null,"transfer":null,"transfer_beneficiary":null,"bill_payment_beneficiary":null,"disputes":[],"batch":null,"account":{"id":"0193a699-2f15-7881-8b7f-ae50980bcfad","meta":null,"created_on":"2024-12-08T14:07:57.204Z","created_by":null,"modified_on":"2025-01-06T04:23:37.542Z","modified_by":null,"deleted_on":null,"deleted_by":null,"tenant_id":"00000000-0000-0000-0000-000000000000","name":"expenses","cba_id":"0000000074","profile_id":"0193a649-e3d0-7881-8b7f-2ef1d89a9aff","account_number":"0000000074","bank_id":"0193324f-cad0-7f86-923b-43fb21ac5b29","ledger_balance":"1002926.55","hold_balance":"0.00","available_balance":"1002926.55","currency":"NGN","restricted":false}}],"meta":{"page":1,"total_pages":33,"total_items":330}}