{"status":"success","data":[{"id":"0195c053-3194-7ff4-896c-44b8bad4bcdb","meta":null,"created_on":"2025-03-23T00:07:12.532Z","created_by_id":"0195c052-a360-7ff4-896c-28b6f75ea4a6","modified_on":"2025-03-23T00:07:12.532Z","modified_by_id":null,"deleted_on":null,"deleted_by_id":null,"tenant_id":"00000000-0000-0000-0000-000000000000","name":"kris Esiv","type":"personal","status":"active","restricted":false,"review":null,"allowed_time_periods":null,"allowed_locations":null,"primary_user_id":"0195c052-a360-7ff4-896c-28b6f75ea4a6","tier_id":null,"primary_user":{"id":"0195c052-a360-7ff4-896c-28b6f75ea4a6","meta":null,"created_on":"2025-03-23T00:06:36.127Z","created_by_id":null,"modified_on":"2025-03-23T00:17:22.057Z","modified_by_id":"0195c052-a360-7ff4-896c-28b6f75ea4a6","deleted_on":null,"deleted_by_id":null,"tenant_id":"00000000-0000-0000-0000-000000000000","email":"kris@yopmail.com","status":"active","first_name":"kris","last_name":"Esiv","twofa_enabled":false,"last_active":"2025-03-23T00:17:22.055Z","last_ip":"172.71.95.134","allowed_ips":null,"last_timezone":"Europe/Amsterdam","last_location":"Amsterdam","phone":"+2348136724800","review":null,"gender":null,"date_of_birth":null,"cba_id":null,"photo_id":null,"referral_code":"MAB0RL","referred_by":null,"has_pin":false,"has_password":false},"tier":null},{"id":"0195b2e7-d58b-788b-a924-4706f2d559c0","meta":null,"created_on":"2025-03-20T09:34:52.811Z","created_by_id":"0195b2e7-bb80-788b-a924-2a34e14988c9","modified_on":"2025-03-20T09:34:52.811Z","modified_by_id":null,"deleted_on":null,"deleted_by_id":null,"tenant_id":"00000000-0000-0000-0000-000000000000","name":"Abdussamad Yisau","type":"personal","status":"active","restricted":false,"review":null,"allowed_time_periods":null,"allowed_locations":null,"primary_user_id":"0195b2e7-bb80-788b-a924-2a34e14988c9","tier_id":null,"primary_user":{"id":"0195b2e7-bb80-788b-a924-2a34e14988c9","meta":null,"created_on":"2025-03-20T09:34:46.144Z","created_by_id":null,"modified_on":"2025-03-22T21:26:22.023Z","modified_by_id":"0195b2e7-bb80-788b-a924-2a34e14988c9","deleted_on":null,"deleted_by_id":null,"tenant_id":"00000000-0000-0000-0000-000000000000","email":"hacksawting@gmail.com","status":"active","first_name":"Abdussamad","last_name":"Yisau","twofa_enabled":false,"last_active":"2025-03-22T21:26:22.021Z","last_ip":"162.158.216.161","allowed_ips":null,"last_timezone":"Asia/Ho_Chi_Minh","last_location":"Ho Chi Minh City","phone":"+2348123884267","review":null,"gender":null,"date_of_birth":null,"cba_id":null,"photo_id":"0195b90c-dd0b-7447-8ef4-dc11eca0e787","referral_code":"DSLBYL","referred_by":null,"has_pin":false,"has_password":false},"tier":null},{"id":"0195af64-a3b7-7336-9015-d9d7316a381f","meta":{},"created_on":"2025-03-19T17:12:43.190Z","created_by_id":"0195af64-878f-7336-9015-c0ad842de096","modified_on":"2025-03-19T17:35:47.979Z","modified_by_id":"0195af64-878f-7336-9015-c0ad842de096","deleted_on":null,"deleted_by_id":null,"tenant_id":"00000000-0000-0000-0000-000000000000","name":"Adekunle Gold","type":"personal","status":"active","restricted":false,"review":null,"allowed_time_periods":{"from":"19:00","to":"19:00"},"allowed_locations":null,"primary_user_id":"0195af64-878f-7336-9015-c0ad842de096","tier_id":null,"primary_user":{"id":"0195af64-878f-7336-9015-c0ad842de096","meta":null,"created_on":"2025-03-19T17:12:35.981Z","created_by_id":null,"modified_on":"2025-03-21T17:57:00.185Z","modified_by_id":"0195af64-878f-7336-9015-c0ad842de096","deleted_on":null,"deleted_by_id":null,"tenant_id":"00000000-0000-0000-0000-000000000000","email":"adekunle@mailinator.com","status":"active","first_name":"Adekunle","last_name":"Gold","twofa_enabled":false,"last_active":"2025-03-21T17:57:00.184Z","last_ip":"172.71.135.89","allowed_ips":null,"last_timezone":"Europe/Paris","last_location":"Paris","phone":"+2347000000001","review":null,"gender":null,"date_of_birth":null,"cba_id":null,"photo_id":null,"referral_code":"K9VZM7","referred_by":null,"has_pin":false,"has_password":false},"tier":null},{"id":"0195a8e0-814d-733b-b4fb-8df9e3f4847f","meta":null,"created_on":"2025-03-18T10:50:40.331Z","created_by_id":"0195a8e0-5db1-733b-b4fb-77c61d767e44","modified_on":"2025-03-18T10:53:27.430Z","modified_by_id":"0195a8e0-5db1-733b-b4fb-77c61d767e44","deleted_on":null,"deleted_by_id":null,"tenant_id":"00000000-0000-0000-0000-000000000000","name":"Tell Tester","type":"personal","status":"active","restricted":false,"review":null,"allowed_time_periods":null,"allowed_locations":null,"primary_user_id":"0195a8e0-5db1-733b-b4fb-77c61d767e44","tier_id":"01928f2d-6756-755b-8a9d-c8094db2af27","primary_user":{"id":"0195a8e0-5db1-733b-b4fb-77c61d767e44","meta":null,"created_on":"2025-03-18T10:50:31.216Z","created_by_id":null,"modified_on":"2025-03-18T10:54:05.120Z","modified_by_id":"0195a8e0-5db1-733b-b4fb-77c61d767e44","deleted_on":null,"deleted_by_id":null,"tenant_id":"00000000-0000-0000-0000-000000000000","email":"fry@yopmail.com","status":"active","first_name":"Tell","last_name":"Tester","twofa_enabled":false,"last_active":"2025-03-18T10:54:05.117Z","last_ip":"172.70.46.161","allowed_ips":null,"last_timezone":"Europe/Amsterdam","last_location":"Amsterdam","phone":"+2348123695954","review":null,"gender":"female","date_of_birth":"1994-06-20","cba_id":"138","photo_id":null,"referral_code":"H6S9XD","referred_by":null,"has_pin":false,"has_password":false},"tier":{"id":"01928f2d-6756-755b-8a9d-c8094db2af27","meta":null,"created_on":"2024-10-15T07:56:10.789Z","created_by_id":null,"modified_on":"2025-01-23T15:14:24.513Z","modified_by_id":"01927265-4ed2-79cc-a0e6-e11339a359f3","deleted_on":null,"deleted_by_id":null,"tenant_id":"00000000-0000-0000-0000-000000000000","profile_type":"personal","name":"Tier 1","description":"Tier 1","level":1,"enabled":true,"balance_limit":2000000,"single_sending_limit":500000,"single_receiving_limit":500000,"period_sending_limit":500000,"period_sending_limit_time_unit":"day","period_receiving_limit":500000,"period_receiving_limit_time_unit":"day","requirements":[{"id":"01933d40-03e5-777c-a6e6-bf72eb1c8968","type_id":"01933d40-03e5-777c-a6e6-bf72eb1c8968","type":"verification","slug":"bvn","name":"BVN","description":"BVN"},{"id":"019318f9-c895-744d-8f65-4636cc26dd1d","type_id":"019318f9-c895-744d-8f65-4636cc26dd1d","type":"verification","slug":"email","name":"Email","description":"Verify your email"},{"id":"019318f9-c895-744d-8f65-4636cc26dd1c","type_id":"019318f9-c895-744d-8f65-4636cc26dd1c","type":"verification","slug":"phone","name":"Phone","description":"Verify yor number"},{"id":"019318f9-c895-744d-8f65-4636cc26dd1f","type_id":"019318f9-c895-744d-8f65-4636cc26dd1f","type":"verification","slug":"liveness","name":"Image liveness check","description":"This step helps us verify your identity by matching your image with the credentials you’ve provided."}]}},{"id":"0195a8db-0245-733b-b4fa-b847d8bb4a3e","meta":{},"created_on":"2025-03-18T10:44:40.131Z","created_by_id":"0195a8da-ddea-733b-b4fa-a787be652e4f","modified_on":"2025-03-19T17:03:42.675Z","modified_by_id":"0195a8da-ddea-733b-b4fa-a787be652e4f","deleted_on":null,"deleted_by_id":null,"tenant_id":"00000000-0000-0000-0000-000000000000","name":"Brian Sanda","type":"personal","status":"active","restricted":false,"review":null,"allowed_time_periods":null,"allowed_locations":[],"primary_user_id":"0195a8da-ddea-733b-b4fa-a787be652e4f","tier_id":"01928f2d-6756-755b-8a9d-c8094db2af27","primary_user":{"id":"0195a8da-ddea-733b-b4fa-a787be652e4f","meta":null,"created_on":"2025-03-18T10:44:30.821Z","created_by_id":null,"modified_on":"2025-03-20T12:35:09.896Z","modified_by_id":"0195a8da-ddea-733b-b4fa-a787be652e4f","deleted_on":null,"deleted_by_id":null,"tenant_id":"00000000-0000-0000-0000-000000000000","email":"Slayyer@yopmail.com","status":"active","first_name":"Brian","last_name":"Sanda","twofa_enabled":false,"last_active":"2025-03-20T12:35:09.894Z","last_ip":"141.101.76.166","allowed_ips":null,"last_timezone":"Europe/Amsterdam","last_location":"Amsterdam","phone":"+2348123470000","review":null,"gender":"female","date_of_birth":"1994-06-20","cba_id":"137","photo_id":"0195ae88-98d2-7ccb-ba8e-f7c4dd8b87c0","referral_code":"E59SHR","referred_by":null,"has_pin":false,"has_password":false},"tier":{"id":"01928f2d-6756-755b-8a9d-c8094db2af27","meta":null,"created_on":"2024-10-15T07:56:10.789Z","created_by_id":null,"modified_on":"2025-01-23T15:14:24.513Z","modified_by_id":"01927265-4ed2-79cc-a0e6-e11339a359f3","deleted_on":null,"deleted_by_id":null,"tenant_id":"00000000-0000-0000-0000-000000000000","profile_type":"personal","name":"Tier 1","description":"Tier 1","level":1,"enabled":true,"balance_limit":2000000,"single_sending_limit":500000,"single_receiving_limit":500000,"period_sending_limit":500000,"period_sending_limit_time_unit":"day","period_receiving_limit":500000,"period_receiving_limit_time_unit":"day","requirements":[{"id":"019318f9-c895-744d-8f65-4636cc26dd1d","type_id":"019318f9-c895-744d-8f65-4636cc26dd1d","type":"verification","slug":"email","name":"Email","description":"Verify your email"},{"id":"01933d40-03e5-777c-a6e6-bf72eb1c8968","type_id":"01933d40-03e5-777c-a6e6-bf72eb1c8968","type":"verification","slug":"bvn","name":"BVN","description":"BVN"},{"id":"019318f9-c895-744d-8f65-4636cc26dd1c","type_id":"019318f9-c895-744d-8f65-4636cc26dd1c","type":"verification","slug":"phone","name":"Phone","description":"Verify yor number"},{"id":"019318f9-c895-744d-8f65-4636cc26dd1f","type_id":"019318f9-c895-744d-8f65-4636cc26dd1f","type":"verification","slug":"liveness","name":"Image liveness check","description":"This step helps us verify your identity by matching your image with the credentials you’ve provided."}]}},{"id":"0195a830-9a7b-733b-b4f8-bd47ff1da23b","meta":null,"created_on":"2025-03-18T07:38:32.437Z","created_by_id":"0195a830-4979-733b-b4f8-a6f708fe9d3a","modified_on":"2025-03-18T07:38:32.437Z","modified_by_id":null,"deleted_on":null,"deleted_by_id":null,"tenant_id":"00000000-0000-0000-0000-000000000000","name":"Ibrahim Azeez","type":"personal","status":"active","restricted":false,"review":null,"allowed_time_periods":null,"allowed_locations":null,"primary_user_id":"0195a830-4979-733b-b4f8-a6f708fe9d3a","tier_id":null,"primary_user":{"id":"0195a830-4979-733b-b4f8-a6f708fe9d3a","meta":null,"created_on":"2025-03-18T07:38:11.705Z","created_by_id":null,"modified_on":"2025-03-18T07:38:37.299Z","modified_by_id":"0195a830-4979-733b-b4f8-a6f708fe9d3a","deleted_on":null,"deleted_by_id":null,"tenant_id":"00000000-0000-0000-0000-000000000000","email":"kogbagidi@mailinator.com","status":"active","first_name":"Ibrahim","last_name":"Azeez","twofa_enabled":false,"last_active":"2025-03-18T07:38:37.297Z","last_ip":"172.69.17.71","allowed_ips":null,"last_timezone":"Africa/Monrovia","last_location":"Monrovia","phone":"+2349055733908","review":null,"gender":null,"date_of_birth":null,"cba_id":null,"photo_id":null,"referral_code":"JPWSB4","referred_by":null,"has_pin":false,"has_password":false},"tier":null},{"id":"01959045-a4b2-7ee0-bd7c-4babbe907cb7","meta":null,"created_on":"2025-03-13T16:10:38.128Z","created_by_id":"01959045-934e-7ee0-bd7c-36131b927b13","modified_on":"2025-03-13T16:10:38.128Z","modified_by_id":null,"deleted_on":null,"deleted_by_id":null,"tenant_id":"00000000-0000-0000-0000-000000000000","name":"Ibrahim Azeez","type":"personal","status":"active","restricted":false,"review":null,"allowed_time_periods":null,"allowed_locations":null,"primary_user_id":"01959045-934e-7ee0-bd7c-36131b927b13","tier_id":null,"primary_user":{"id":"01959045-934e-7ee0-bd7c-36131b927b13","meta":null,"created_on":"2025-03-13T16:10:33.676Z","created_by_id":null,"modified_on":"2025-03-13T17:54:52.929Z","modified_by_id":"01959045-934e-7ee0-bd7c-36131b927b13","deleted_on":null,"deleted_by_id":null,"tenant_id":"00000000-0000-0000-0000-000000000000","email":"ipo@mailinator.com","status":"active","first_name":"Ibrahim","last_name":"Azeez","twofa_enabled":false,"last_active":"2025-03-13T17:54:52.928Z","last_ip":"197.234.242.44","allowed_ips":null,"last_timezone":"Africa/Johannesburg","last_location":"Johannesburg","phone":"+2349055757758","review":null,"gender":"male","date_of_birth":"2001-06-16","cba_id":null,"photo_id":null,"referral_code":"IJTNFX","referred_by":null,"has_pin":false,"has_password":false},"tier":null},{"id":"0195903a-8e9e-7ee0-bd7b-4d88af2f1736","meta":null,"created_on":"2025-03-13T15:58:31.581Z","created_by_id":"0195903a-7b12-7ee0-bd7b-33bea3349da0","modified_on":"2025-03-13T15:59:40.567Z","modified_by_id":"0195903a-7b12-7ee0-bd7b-33bea3349da0","deleted_on":null,"deleted_by_id":null,"tenant_id":"00000000-0000-0000-0000-000000000000","name":"Ibrahim Azeez","type":"personal","status":"active","restricted":false,"review":null,"allowed_time_periods":null,"allowed_locations":null,"primary_user_id":"0195903a-7b12-7ee0-bd7b-33bea3349da0","tier_id":"01928f2d-6756-755b-8a9d-c8094db2af27","primary_user":{"id":"0195903a-7b12-7ee0-bd7b-33bea3349da0","meta":null,"created_on":"2025-03-13T15:58:26.576Z","created_by_id":null,"modified_on":"2025-03-13T16:11:39.656Z","modified_by_id":"0195903a-7b12-7ee0-bd7b-33bea3349da0","deleted_on":null,"deleted_by_id":null,"tenant_id":"00000000-0000-0000-0000-000000000000","email":"where@mailinator.com","status":"active","first_name":"Ibrahim","last_name":"Azeez","twofa_enabled":false,"last_active":"2025-03-13T16:11:39.656Z","last_ip":"172.68.42.158","allowed_ips":null,"last_timezone":"Africa/Johannesburg","last_location":"Johannesburg","phone":"+2349055777778","review":null,"gender":"male","date_of_birth":"2001-06-16","cba_id":"134","photo_id":null,"referral_code":"VQNYUL","referred_by":null,"has_pin":false,"has_password":false},"tier":{"id":"01928f2d-6756-755b-8a9d-c8094db2af27","meta":null,"created_on":"2024-10-15T07:56:10.789Z","created_by_id":null,"modified_on":"2025-01-23T15:14:24.513Z","modified_by_id":"01927265-4ed2-79cc-a0e6-e11339a359f3","deleted_on":null,"deleted_by_id":null,"tenant_id":"00000000-0000-0000-0000-000000000000","profile_type":"personal","name":"Tier 1","description":"Tier 1","level":1,"enabled":true,"balance_limit":2000000,"single_sending_limit":500000,"single_receiving_limit":500000,"period_sending_limit":500000,"period_sending_limit_time_unit":"day","period_receiving_limit":500000,"period_receiving_limit_time_unit":"day","requirements":[{"id":"019318f9-c895-744d-8f65-4636cc26dd1c","type_id":"019318f9-c895-744d-8f65-4636cc26dd1c","type":"verification","slug":"phone","name":"Phone","description":"Verify yor number"},{"id":"019318f9-c895-744d-8f65-4636cc26dd1f","type_id":"019318f9-c895-744d-8f65-4636cc26dd1f","type":"verification","slug":"liveness","name":"Image liveness check","description":"This step helps us verify your identity by matching your image with the credentials you’ve provided."},{"id":"01933d40-03e5-777c-a6e6-bf72eb1c8968","type_id":"01933d40-03e5-777c-a6e6-bf72eb1c8968","type":"verification","slug":"bvn","name":"BVN","description":"BVN"},{"id":"019318f9-c895-744d-8f65-4636cc26dd1d","type_id":"019318f9-c895-744d-8f65-4636cc26dd1d","type":"verification","slug":"email","name":"Email","description":"Verify your email"}]}},{"id":"01958ada-aaf3-7992-b595-8557df97c773","meta":null,"created_on":"2025-03-12T14:55:41.299Z","created_by_id":"01958ada-1435-7992-b595-6aae5801cdfc","modified_on":"2025-03-12T14:55:41.299Z","modified_by_id":null,"deleted_on":null,"deleted_by_id":null,"tenant_id":"00000000-0000-0000-0000-000000000000","name":"Adex Frett","type":"personal","status":"active","restricted":false,"review":null,"allowed_time_periods":null,"allowed_locations":null,"primary_user_id":"01958ada-1435-7992-b595-6aae5801cdfc","tier_id":null,"primary_user":{"id":"01958ada-1435-7992-b595-6aae5801cdfc","meta":null,"created_on":"2025-03-12T14:55:02.709Z","created_by_id":null,"modified_on":"2025-03-16T14:49:14.903Z","modified_by_id":"01958ada-1435-7992-b595-6aae5801cdfc","deleted_on":null,"deleted_by_id":null,"tenant_id":"00000000-0000-0000-0000-000000000000","email":"fratn@yopmail.com","status":"active","first_name":"Adex","last_name":"Frett","twofa_enabled":false,"last_active":"2025-03-16T14:49:01.116Z","last_ip":"172.70.46.161","allowed_ips":null,"last_timezone":"Europe/Amsterdam","last_location":"Amsterdam","phone":"+2348138096234","review":null,"gender":null,"date_of_birth":null,"cba_id":null,"photo_id":null,"referral_code":"VBES8O","referred_by":null,"has_pin":false,"has_password":false},"tier":null},{"id":"01958ace-15f3-7992-b593-42eb0a8e3601","meta":null,"created_on":"2025-03-12T14:41:56.723Z","created_by_id":"01958acd-e187-7992-b593-2c37c48aa97c","modified_on":"2025-03-12T14:43:26.583Z","modified_by_id":"01958acd-e187-7992-b593-2c37c48aa97c","deleted_on":null,"deleted_by_id":null,"tenant_id":"00000000-0000-0000-0000-000000000000","name":"Fred Frett","type":"personal","status":"active","restricted":false,"review":null,"allowed_time_periods":null,"allowed_locations":null,"primary_user_id":"01958acd-e187-7992-b593-2c37c48aa97c","tier_id":"01928f2d-6756-755b-8a9d-c8094db2af27","primary_user":{"id":"01958acd-e187-7992-b593-2c37c48aa97c","meta":null,"created_on":"2025-03-12T14:41:43.303Z","created_by_id":null,"modified_on":"2025-03-19T17:34:40.571Z","modified_by_id":"01958acd-e187-7992-b593-2c37c48aa97c","deleted_on":null,"deleted_by_id":null,"tenant_id":"00000000-0000-0000-0000-000000000000","email":"fraan@yopmail.com","status":"active","first_name":"Fred","last_name":"Frett","twofa_enabled":false,"last_active":"2025-03-19T17:34:40.570Z","last_ip":"104.23.168.60","allowed_ips":null,"last_timezone":"","last_location":"","phone":"+2348138096112","review":null,"gender":"female","date_of_birth":"1994-06-20","cba_id":"133","photo_id":null,"referral_code":"5P74P4","referred_by":null,"has_pin":false,"has_password":false},"tier":{"id":"01928f2d-6756-755b-8a9d-c8094db2af27","meta":null,"created_on":"2024-10-15T07:56:10.789Z","created_by_id":null,"modified_on":"2025-01-23T15:14:24.513Z","modified_by_id":"01927265-4ed2-79cc-a0e6-e11339a359f3","deleted_on":null,"deleted_by_id":null,"tenant_id":"00000000-0000-0000-0000-000000000000","profile_type":"personal","name":"Tier 1","description":"Tier 1","level":1,"enabled":true,"balance_limit":2000000,"single_sending_limit":500000,"single_receiving_limit":500000,"period_sending_limit":500000,"period_sending_limit_time_unit":"day","period_receiving_limit":500000,"period_receiving_limit_time_unit":"day","requirements":[{"id":"019318f9-c895-744d-8f65-4636cc26dd1c","type_id":"019318f9-c895-744d-8f65-4636cc26dd1c","type":"verification","slug":"phone","name":"Phone","description":"Verify yor number"},{"id":"01933d40-03e5-777c-a6e6-bf72eb1c8968","type_id":"01933d40-03e5-777c-a6e6-bf72eb1c8968","type":"verification","slug":"bvn","name":"BVN","description":"BVN"},{"id":"019318f9-c895-744d-8f65-4636cc26dd1f","type_id":"019318f9-c895-744d-8f65-4636cc26dd1f","type":"verification","slug":"liveness","name":"Image liveness check","description":"This step helps us verify your identity by matching your image with the credentials you’ve provided."},{"id":"019318f9-c895-744d-8f65-4636cc26dd1d","type_id":"019318f9-c895-744d-8f65-4636cc26dd1d","type":"verification","slug":"email","name":"Email","description":"Verify your email"}]}}],"meta":{"page":1,"total_pages":25,"total_items":246}}