{"status":"success","data":[{"id":"0194f660-c8b6-766a-8cc1-3417e913911a","meta":{"rc-number":"0000000","business-name":"Neem","business-email":"hi@neem.co","business-phone":"+2348089722636","business-types":"Sole Proprietorship","business-address":"LAGOS, NIGERIA, LAGOS, Ibeju-Lekki, LAGOS"},"created_on":"2025-02-11T18:58:45.558Z","created_by_id":"0194f65f-fd3a-766a-8cc1-1ceeb21872a2","modified_on":"2025-02-11T19:01:25.166Z","modified_by_id":"0194f65f-fd3a-766a-8cc1-1ceeb21872a2","deleted_on":null,"deleted_by_id":null,"tenant_id":"00000000-0000-0000-0000-000000000000","name":"Profile","type":"business","status":"active","review":null,"allowed_time_periods":null,"primary_user_id":"0194f65f-fd3a-766a-8cc1-1ceeb21872a2","tier_id":"0193b49c-a302-711f-a668-d685d243452a","primary_user":{"id":"0194f65f-fd3a-766a-8cc1-1ceeb21872a2","meta":null,"created_on":"2025-02-11T18:57:53.467Z","created_by_id":null,"modified_on":"2025-02-12T13:51:26.070Z","modified_by_id":"0194f65f-fd3a-766a-8cc1-1ceeb21872a2","deleted_on":null,"deleted_by_id":null,"tenant_id":"00000000-0000-0000-0000-000000000000","email":"adewunmi.akin.sanya@gmail.com","status":"active","first_name":"Adewunmi","last_name":"Akinsanya","twofa_enabled":false,"last_active":"2025-02-12T13:51:26.069Z","last_ip":"172.71.182.146","allowed_ips":null,"last_timezone":"Europe/Amsterdam","last_location":"Amsterdam","phone":"+2348012345678","review":null,"gender":null,"date_of_birth":null,"cba_id":null,"photo_id":null,"referral_code":"UJ8UMN","allowed_locations":null,"referred_by":null},"tier":{"id":"0193b49c-a302-711f-a668-d685d243452a","meta":null,"created_on":"2024-12-11T07:26:24.515Z","created_by_id":null,"modified_on":"2024-12-11T07:26:24.515Z","modified_by_id":null,"deleted_on":null,"deleted_by_id":null,"tenant_id":"00000000-0000-0000-0000-000000000001","profile_type":"business","name":"Tier 1","description":"Tier 1","level":1,"enabled":true,"balance_limit":0,"single_sending_limit":500000,"single_receiving_limit":500000,"period_sending_limit":500000,"period_sending_limit_time_unit":"day","period_receiving_limit":500000,"period_receiving_limit_time_unit":"day","requirements":[]}},{"id":"0194f550-eaa7-700c-a205-c9541ea505b2","meta":{"rc-number":"0000000","business-name":"Neem","business-email":"hi@neem.co","business-phone":"+2348163809677","business-types":"Sole Proprietorship","business-address":"LAGOS, NIGERIA, LAGOS, Ibeju-Lekki, LAGOS"},"created_on":"2025-02-11T14:01:48.456Z","created_by_id":"0194f54e-f4d4-700c-a205-59ef4c82f190","modified_on":"2025-02-11T14:03:24.862Z","modified_by_id":"0194f54e-f4d4-700c-a205-59ef4c82f190","deleted_on":null,"deleted_by_id":null,"tenant_id":"00000000-0000-0000-0000-000000000000","name":"Profile","type":"business","status":"active","review":null,"allowed_time_periods":null,"primary_user_id":"0194f54e-f4d4-700c-a205-59ef4c82f190","tier_id":"0193b49c-a302-711f-a668-d685d243452a","primary_user":{"id":"0194f54e-f4d4-700c-a205-59ef4c82f190","meta":null,"created_on":"2025-02-11T13:59:39.988Z","created_by_id":null,"modified_on":"2025-02-11T14:25:41.973Z","modified_by_id":"0194f54e-f4d4-700c-a205-59ef4c82f190","deleted_on":null,"deleted_by_id":null,"tenant_id":"00000000-0000-0000-0000-000000000000","email":"maryam@assurdly.com","status":"active","first_name":"May","last_name":"May","twofa_enabled":false,"last_active":"2025-02-11T14:25:41.970Z","last_ip":"172.69.43.130","allowed_ips":null,"last_timezone":"Europe/London","last_location":"London","phone":"+2348163809677","review":null,"gender":null,"date_of_birth":null,"cba_id":null,"photo_id":null,"referral_code":"B289F9","allowed_locations":null,"referred_by":null},"tier":{"id":"0193b49c-a302-711f-a668-d685d243452a","meta":null,"created_on":"2024-12-11T07:26:24.515Z","created_by_id":null,"modified_on":"2024-12-11T07:26:24.515Z","modified_by_id":null,"deleted_on":null,"deleted_by_id":null,"tenant_id":"00000000-0000-0000-0000-000000000001","profile_type":"business","name":"Tier 1","description":"Tier 1","level":1,"enabled":true,"balance_limit":0,"single_sending_limit":500000,"single_receiving_limit":500000,"period_sending_limit":500000,"period_sending_limit_time_unit":"day","period_receiving_limit":500000,"period_receiving_limit_time_unit":"day","requirements":[]}},{"id":"0194f539-6f3d-700c-a201-4b3a6e2e1e0b","meta":{"rc-number":"0000000","business-name":"Neem","business-email":"hi@neem.co","business-phone":"+2349137494362","business-types":"Limited Liability Partnership (LLP)","business-address":"LAGOS, NIGERIA, LAGOS, Ibeju-Lekki, LAGOS"},"created_on":"2025-02-11T13:36:09.533Z","created_by_id":"0194f52a-3a64-700c-a1fa-18f978a25ca5","modified_on":"2025-02-11T14:16:56.533Z","modified_by_id":"0194f52a-3a64-700c-a1fa-18f978a25ca5","deleted_on":null,"deleted_by_id":null,"tenant_id":"00000000-0000-0000-0000-000000000000","name":"Profile","type":"business","status":"active","review":null,"allowed_time_periods":null,"primary_user_id":"0194f52a-3a64-700c-a1fa-18f978a25ca5","tier_id":"0193b49c-a302-711f-a668-d685d243452a","primary_user":{"id":"0194f52a-3a64-700c-a1fa-18f978a25ca5","meta":null,"created_on":"2025-02-11T13:19:32.964Z","created_by_id":null,"modified_on":"2025-02-11T14:22:00.543Z","modified_by_id":"0194f52a-3a64-700c-a1fa-18f978a25ca5","deleted_on":null,"deleted_by_id":null,"tenant_id":"00000000-0000-0000-0000-000000000000","email":"Ayomideliasu@yopmail.com","status":"active","first_name":"Ayomide","last_name":"Liasu","twofa_enabled":false,"last_active":"2025-02-11T14:22:00.541Z","last_ip":"172.69.195.22","allowed_ips":null,"last_timezone":"Europe/London","last_location":"London","phone":"+2349137494362","review":null,"gender":null,"date_of_birth":null,"cba_id":null,"photo_id":null,"referral_code":"VQ2DAJ","allowed_locations":null,"referred_by":"019372de-17ef-7cc2-8fc0-43fe11ba042f"},"tier":{"id":"0193b49c-a302-711f-a668-d685d243452a","meta":null,"created_on":"2024-12-11T07:26:24.515Z","created_by_id":null,"modified_on":"2024-12-11T07:26:24.515Z","modified_by_id":null,"deleted_on":null,"deleted_by_id":null,"tenant_id":"00000000-0000-0000-0000-000000000001","profile_type":"business","name":"Tier 1","description":"Tier 1","level":1,"enabled":true,"balance_limit":0,"single_sending_limit":500000,"single_receiving_limit":500000,"period_sending_limit":500000,"period_sending_limit_time_unit":"day","period_receiving_limit":500000,"period_receiving_limit_time_unit":"day","requirements":[]}},{"id":"0194f536-ab1c-700c-a1ff-b0231bb25a86","meta":{"rc-number":"0000000","business-name":"Neem","business-email":"hi@neem.co","business-phone":"+23409033362914","business-types":"Franchise","business-address":"LAGOS, NIGERIA, LAGOS, Ibeju-Lekki, LAGOS"},"created_on":"2025-02-11T13:33:08.247Z","created_by_id":"0194f52f-ee32-700c-a1fc-7986f56d24ff","modified_on":"2025-02-11T14:10:21.077Z","modified_by_id":"0194f52f-ee32-700c-a1fc-7986f56d24ff","deleted_on":null,"deleted_by_id":null,"tenant_id":"00000000-0000-0000-0000-000000000000","name":"Profile","type":"business","status":"active","review":null,"allowed_time_periods":null,"primary_user_id":"0194f52f-ee32-700c-a1fc-7986f56d24ff","tier_id":"0193b49c-a302-711f-a668-d685d243452a","primary_user":{"id":"0194f52f-ee32-700c-a1fc-7986f56d24ff","meta":null,"created_on":"2025-02-11T13:25:46.674Z","created_by_id":null,"modified_on":"2025-02-12T08:49:32.893Z","modified_by_id":"0194f52f-ee32-700c-a1fc-7986f56d24ff","deleted_on":null,"deleted_by_id":null,"tenant_id":"00000000-0000-0000-0000-000000000000","email":"favour@yopmail.com","status":"active","first_name":"Favour","last_name":"Elijah","twofa_enabled":false,"last_active":"2025-02-12T08:49:32.439Z","last_ip":"::1","allowed_ips":null,"last_timezone":"Europe/Amsterdam","last_location":"Columbus","phone":"+23409033362914","review":null,"gender":null,"date_of_birth":"1998-10-31","cba_id":null,"photo_id":null,"referral_code":"US4SPJ","allowed_locations":null,"referred_by":null},"tier":{"id":"0193b49c-a302-711f-a668-d685d243452a","meta":null,"created_on":"2024-12-11T07:26:24.515Z","created_by_id":null,"modified_on":"2024-12-11T07:26:24.515Z","modified_by_id":null,"deleted_on":null,"deleted_by_id":null,"tenant_id":"00000000-0000-0000-0000-000000000001","profile_type":"business","name":"Tier 1","description":"Tier 1","level":1,"enabled":true,"balance_limit":0,"single_sending_limit":500000,"single_receiving_limit":500000,"period_sending_limit":500000,"period_sending_limit_time_unit":"day","period_receiving_limit":500000,"period_receiving_limit_time_unit":"day","requirements":[]}},{"id":"0194f533-c882-700c-a1fd-a8eb997b576d","meta":{"rc-number":"0987654321","business-name":"woman.ng","business-email":"udeme@woman.ng","business-phone":"+2348096560306","business-types":"Sole Proprietorship","business-address":"Lagos"},"created_on":"2025-02-11T13:29:59.169Z","created_by_id":"0194f52f-c969-700c-a1fc-13a7c00fe94d","modified_on":"2025-02-11T14:01:25.355Z","modified_by_id":"0194f52f-c969-700c-a1fc-13a7c00fe94d","deleted_on":null,"deleted_by_id":null,"tenant_id":"00000000-0000-0000-0000-000000000000","name":"Profile","type":"business","status":"active","review":null,"allowed_time_periods":null,"primary_user_id":"0194f52f-c969-700c-a1fc-13a7c00fe94d","tier_id":"0193b49c-a302-711f-a668-d685d243452a","primary_user":{"id":"0194f52f-c969-700c-a1fc-13a7c00fe94d","meta":null,"created_on":"2025-02-11T13:25:37.258Z","created_by_id":null,"modified_on":"2025-02-11T14:27:49.095Z","modified_by_id":"0194f52f-c969-700c-a1fc-13a7c00fe94d","deleted_on":null,"deleted_by_id":null,"tenant_id":"00000000-0000-0000-0000-000000000000","email":"udeme@mailinator.com","status":"active","first_name":"Udeme","last_name":"Ben","twofa_enabled":false,"last_active":"2025-02-11T14:27:49.094Z","last_ip":"172.69.194.100","allowed_ips":null,"last_timezone":"Europe/London","last_location":"London","phone":"+2348096560306","review":null,"gender":null,"date_of_birth":null,"cba_id":null,"photo_id":null,"referral_code":"M7PCWZ","allowed_locations":null,"referred_by":"019372de-17ef-7cc2-8fc0-43fe11ba042f"},"tier":{"id":"0193b49c-a302-711f-a668-d685d243452a","meta":null,"created_on":"2024-12-11T07:26:24.515Z","created_by_id":null,"modified_on":"2024-12-11T07:26:24.515Z","modified_by_id":null,"deleted_on":null,"deleted_by_id":null,"tenant_id":"00000000-0000-0000-0000-000000000001","profile_type":"business","name":"Tier 1","description":"Tier 1","level":1,"enabled":true,"balance_limit":0,"single_sending_limit":500000,"single_receiving_limit":500000,"period_sending_limit":500000,"period_sending_limit_time_unit":"day","period_receiving_limit":500000,"period_receiving_limit_time_unit":"day","requirements":[]}},{"id":"0194ee85-b3f1-722c-b1b2-934000dd3bb1","meta":{"rc-number":"111111111","business-name":"Business Test","business-email":"yisautest@gmail.com","business-phone":"+2348123884097","business-types":"Sole Proprietorship","business-address":"42 Hughes Avenue, Alagomeji, Yaba"},"created_on":"2025-02-10T06:22:07.345Z","created_by_id":"0194ee84-aeeb-722c-b1b2-78e19a55ed01","modified_on":"2025-02-10T06:22:07.345Z","modified_by_id":null,"deleted_on":null,"deleted_by_id":null,"tenant_id":"00000000-0000-0000-0000-000000000000","name":"Profile","type":"business","status":"active","review":null,"allowed_time_periods":null,"primary_user_id":"0194ee84-aeeb-722c-b1b2-78e19a55ed01","tier_id":null,"primary_user":{"id":"0194ee84-aeeb-722c-b1b2-78e19a55ed01","meta":null,"created_on":"2025-02-10T06:21:00.523Z","created_by_id":null,"modified_on":"2025-02-11T11:28:45.266Z","modified_by_id":"0194ee84-aeeb-722c-b1b2-78e19a55ed01","deleted_on":null,"deleted_by_id":null,"tenant_id":"00000000-0000-0000-0000-000000000000","email":"testYisau@mailinator.com","status":"active","first_name":"Yisau","last_name":"Test","twofa_enabled":false,"last_active":"2025-02-11T11:28:45.265Z","last_ip":"172.69.195.203","allowed_ips":null,"last_timezone":"Europe/London","last_location":"London","phone":"+2348123884097","review":null,"gender":null,"date_of_birth":null,"cba_id":null,"photo_id":null,"referral_code":"6NV8MQ","allowed_locations":null,"referred_by":null},"tier":null},{"id":"0194e005-c7fd-7eec-9657-be9661e9509e","meta":{"rc-number":"0000000","business-name":"Neem","business-email":"hi@neem.co","business-phone":"+23409055755671","business-types":"Limited Liability Partnership (LLP)","business-address":"LAGOS, NIGERIA, LAGOS, Ibeju-Lekki, LAGOS"},"created_on":"2025-02-07T10:47:42.845Z","created_by_id":"0194e005-6d9f-7eec-9657-ac38032e964f","modified_on":"2025-02-07T11:15:40.408Z","modified_by_id":"0194e005-6d9f-7eec-9657-ac38032e964f","deleted_on":null,"deleted_by_id":null,"tenant_id":"00000000-0000-0000-0000-000000000000","name":"Profile","type":"business","status":"active","review":null,"allowed_time_periods":null,"primary_user_id":"0194e005-6d9f-7eec-9657-ac38032e964f","tier_id":"0193b49c-a302-711f-a668-d685d243452a","primary_user":{"id":"0194e005-6d9f-7eec-9657-ac38032e964f","meta":null,"created_on":"2025-02-07T10:47:19.711Z","created_by_id":null,"modified_on":"2025-02-07T11:15:52.718Z","modified_by_id":"0194e005-6d9f-7eec-9657-ac38032e964f","deleted_on":null,"deleted_by_id":null,"tenant_id":"00000000-0000-0000-0000-000000000000","email":"l.adeosun.la+3@gmail.com","status":"active","first_name":"Azeez","last_name":"ibrahim","twofa_enabled":false,"last_active":"2025-02-07T11:15:52.716Z","last_ip":"141.101.98.66","allowed_ips":null,"last_timezone":"Europe/London","last_location":"London","phone":"+23409059755671","review":null,"gender":null,"date_of_birth":null,"cba_id":null,"photo_id":null,"referral_code":"7AI7IT","allowed_locations":null,"referred_by":null},"tier":{"id":"0193b49c-a302-711f-a668-d685d243452a","meta":null,"created_on":"2024-12-11T07:26:24.515Z","created_by_id":null,"modified_on":"2024-12-11T07:26:24.515Z","modified_by_id":null,"deleted_on":null,"deleted_by_id":null,"tenant_id":"00000000-0000-0000-0000-000000000001","profile_type":"business","name":"Tier 1","description":"Tier 1","level":1,"enabled":true,"balance_limit":0,"single_sending_limit":500000,"single_receiving_limit":500000,"period_sending_limit":500000,"period_sending_limit_time_unit":"day","period_receiving_limit":500000,"period_receiving_limit_time_unit":"day","requirements":[]}},{"id":"0194ddfa-c80d-7eec-9656-182b181ae80c","meta":{"business-email":"adzino@yopmail.com","business-phone":"+2348089722636"},"created_on":"2025-02-07T01:16:27.532Z","created_by_id":"0194daec-e8fe-733a-b687-8516caa204d0","modified_on":"2025-02-07T01:16:27.532Z","modified_by_id":null,"deleted_on":null,"deleted_by_id":null,"tenant_id":"00000000-0000-0000-0000-000000000000","name":"Profile","type":"business","status":"active","review":null,"allowed_time_periods":null,"primary_user_id":"0194daec-e8fe-733a-b687-8516caa204d0","tier_id":null,"primary_user":{"id":"0194daec-e8fe-733a-b687-8516caa204d0","meta":null,"created_on":"2025-02-06T11:02:26.814Z","created_by_id":null,"modified_on":"2025-02-12T11:44:30.429Z","modified_by_id":"0194daec-e8fe-733a-b687-8516caa204d0","deleted_on":null,"deleted_by_id":null,"tenant_id":"00000000-0000-0000-0000-000000000000","email":"zedcd1-in@yopmail.com","status":"active","first_name":"Zedikiah","last_name":"Lee","twofa_enabled":false,"last_active":"2025-02-12T11:44:30.428Z","last_ip":"172.71.241.5","allowed_ips":null,"last_timezone":"Europe/London","last_location":"London","phone":"+2349015660262","review":null,"gender":null,"date_of_birth":null,"cba_id":null,"photo_id":null,"referral_code":"K5CI2W","allowed_locations":null,"referred_by":null},"tier":null},{"id":"0194dc18-9f42-7eec-964f-4d650385231b","meta":{"rc-number":"0000000","business-name":"Neem","business-email":"hi@neem.co","business-phone":"+23409055755671","business-types":"Sole Proprietorship","business-address":"LAGOS, NIGERIA, LAGOS, Ibeju-Lekki, LAGOS"},"created_on":"2025-02-06T16:29:48.738Z","created_by_id":"0194dc18-51f1-7eec-964f-3953d28b062f","modified_on":"2025-02-06T16:29:48.738Z","modified_by_id":null,"deleted_on":null,"deleted_by_id":null,"tenant_id":"00000000-0000-0000-0000-000000000000","name":"Profile","type":"business","status":"active","review":null,"allowed_time_periods":null,"primary_user_id":"0194dc18-51f1-7eec-964f-3953d28b062f","tier_id":null,"primary_user":{"id":"0194dc18-51f1-7eec-964f-3953d28b062f","meta":null,"created_on":"2025-02-06T16:29:28.941Z","created_by_id":null,"modified_on":"2025-02-06T16:44:22.763Z","modified_by_id":"0194dc18-51f1-7eec-964f-3953d28b062f","deleted_on":null,"deleted_by_id":null,"tenant_id":"00000000-0000-0000-0000-000000000000","email":"azeez+100@assurdly.com","status":"active","first_name":"Ibrahim","last_name":"Azeez","twofa_enabled":false,"last_active":"2025-02-06T16:44:22.762Z","last_ip":"172.70.91.139","allowed_ips":null,"last_timezone":"Europe/London","last_location":"London","phone":"+23409150755671","review":null,"gender":null,"date_of_birth":null,"cba_id":null,"photo_id":null,"referral_code":"L72FEV","allowed_locations":null,"referred_by":null},"tier":null},{"id":"0194bbe4-40c3-7448-b8f8-3eb770312a8a","meta":{"business-types":"Sole Proprietorship"},"created_on":"2025-01-31T10:24:45.762Z","created_by_id":"0194bbe4-1a10-7448-b8f8-28ea0803aa3d","modified_on":"2025-01-31T10:24:45.762Z","modified_by_id":null,"deleted_on":null,"deleted_by_id":null,"tenant_id":"00000000-0000-0000-0000-000000000000","name":"Profile","type":"business","status":"active","review":null,"allowed_time_periods":null,"primary_user_id":"0194bbe4-1a10-7448-b8f8-28ea0803aa3d","tier_id":null,"primary_user":{"id":"0194bbe4-1a10-7448-b8f8-28ea0803aa3d","meta":null,"created_on":"2025-01-31T10:24:35.856Z","created_by_id":null,"modified_on":"2025-01-31T10:39:21.463Z","modified_by_id":"0194bbe4-1a10-7448-b8f8-28ea0803aa3d","deleted_on":null,"deleted_by_id":null,"tenant_id":"00000000-0000-0000-0000-000000000000","email":"Arc@mailinator.com","status":"active","first_name":"Tyo","last_name":"Rat","twofa_enabled":false,"last_active":"2025-01-31T10:39:21.463Z","last_ip":"141.101.98.15","allowed_ips":null,"last_timezone":"Europe/London","last_location":"London","phone":"+2349055755598","review":null,"gender":null,"date_of_birth":null,"cba_id":null,"photo_id":null,"referral_code":"3999FE","allowed_locations":null,"referred_by":null},"tier":null}],"meta":{"page":1,"total_pages":12,"total_items":118}}