{"status":"success","data":[{"id":"0194fb3d-dc70-7449-904e-6a3ad172f408","meta":null,"created_on":"2025-02-12T17:38:42.929Z","created_by_id":"0194fb3d-c576-7449-904e-56b3dcbc1789","modified_on":"2025-02-12T17:38:42.929Z","modified_by_id":null,"deleted_on":null,"deleted_by_id":null,"tenant_id":"00000000-0000-0000-0000-000000000000","name":"Great Frett","type":"personal","status":"active","review":null,"allowed_time_periods":null,"primary_user_id":"0194fb3d-c576-7449-904e-56b3dcbc1789","tier_id":null,"primary_user":{"id":"0194fb3d-c576-7449-904e-56b3dcbc1789","meta":null,"created_on":"2025-02-12T17:38:37.046Z","created_by_id":null,"modified_on":"2025-02-12T17:48:04.458Z","modified_by_id":"0194fb3d-c576-7449-904e-56b3dcbc1789","deleted_on":null,"deleted_by_id":null,"tenant_id":"00000000-0000-0000-0000-000000000000","email":"vibe@yopmail.com","status":"active","first_name":"Great","last_name":"Frett","twofa_enabled":false,"last_active":"2025-02-12T17:48:04.456Z","last_ip":"172.70.90.117","allowed_ips":null,"last_timezone":"Europe/London","last_location":"London","phone":"+2348130983434","review":null,"gender":null,"date_of_birth":null,"cba_id":null,"photo_id":null,"referral_code":"0IKAXW","allowed_locations":null,"referred_by":null},"tier":null},{"id":"0194f895-6fc1-7557-9a4f-ea8583c0f882","meta":null,"created_on":"2025-02-12T05:15:30.625Z","created_by_id":"0194f4e2-20ba-7660-b4ec-74e48051de9d","modified_on":"2025-02-12T05:15:30.625Z","modified_by_id":null,"deleted_on":null,"deleted_by_id":null,"tenant_id":"00000000-0000-0000-0000-000000000000","name":"Clare Zeeyknow","type":"personal","status":"active","review":null,"allowed_time_periods":null,"primary_user_id":"0194f4e2-20ba-7660-b4ec-74e48051de9d","tier_id":null,"primary_user":{"id":"0194f4e2-20ba-7660-b4ec-74e48051de9d","meta":null,"created_on":"2025-02-11T12:00:47.802Z","created_by_id":null,"modified_on":"2025-02-12T05:15:34.707Z","modified_by_id":"0194f4e2-20ba-7660-b4ec-74e48051de9d","deleted_on":null,"deleted_by_id":null,"tenant_id":"00000000-0000-0000-0000-000000000000","email":"zino.ref1@mailinator.com","status":"active","first_name":"Clare","last_name":"Zeeyknow","twofa_enabled":false,"last_active":"2025-02-12T05:15:34.704Z","last_ip":"172.71.102.151","allowed_ips":null,"last_timezone":"Europe/Amsterdam","last_location":"Amsterdam","phone":"+2349015660264","review":null,"gender":null,"date_of_birth":null,"cba_id":null,"photo_id":null,"referral_code":"M1U0T8","allowed_locations":null,"referred_by":"0194daec-e8fe-733a-b687-8516caa204d0"},"tier":null},{"id":"0194f742-00bc-744b-8452-0e4bb37276b8","meta":null,"created_on":"2025-02-11T23:04:45.664Z","created_by_id":"0194f52f-ee32-700c-a1fc-7986f56d24ff","modified_on":"2025-02-11T23:04:45.664Z","modified_by_id":null,"deleted_on":null,"deleted_by_id":null,"tenant_id":"00000000-0000-0000-0000-000000000000","name":"Favour Elijah","type":"personal","status":"active","review":null,"allowed_time_periods":null,"primary_user_id":"0194f52f-ee32-700c-a1fc-7986f56d24ff","tier_id":null,"primary_user":{"id":"0194f52f-ee32-700c-a1fc-7986f56d24ff","meta":null,"created_on":"2025-02-11T13:25:46.674Z","created_by_id":null,"modified_on":"2025-02-12T08:49:32.893Z","modified_by_id":"0194f52f-ee32-700c-a1fc-7986f56d24ff","deleted_on":null,"deleted_by_id":null,"tenant_id":"00000000-0000-0000-0000-000000000000","email":"favour@yopmail.com","status":"active","first_name":"Favour","last_name":"Elijah","twofa_enabled":false,"last_active":"2025-02-12T08:49:32.439Z","last_ip":"::1","allowed_ips":null,"last_timezone":"Europe/Amsterdam","last_location":"Columbus","phone":"+23409033362914","review":null,"gender":null,"date_of_birth":"1998-10-31","cba_id":null,"photo_id":null,"referral_code":"US4SPJ","allowed_locations":null,"referred_by":null},"tier":null},{"id":"0194f66f-dd4e-766a-8cc1-d8cba1ca965c","meta":null,"created_on":"2025-02-11T19:15:13.870Z","created_by_id":"0194f65f-fd3a-766a-8cc1-1ceeb21872a2","modified_on":"2025-02-11T19:15:13.870Z","modified_by_id":null,"deleted_on":null,"deleted_by_id":null,"tenant_id":"00000000-0000-0000-0000-000000000000","name":"Adewunmi Akinsanya","type":"personal","status":"active","review":null,"allowed_time_periods":null,"primary_user_id":"0194f65f-fd3a-766a-8cc1-1ceeb21872a2","tier_id":null,"primary_user":{"id":"0194f65f-fd3a-766a-8cc1-1ceeb21872a2","meta":null,"created_on":"2025-02-11T18:57:53.467Z","created_by_id":null,"modified_on":"2025-02-12T13:51:26.070Z","modified_by_id":"0194f65f-fd3a-766a-8cc1-1ceeb21872a2","deleted_on":null,"deleted_by_id":null,"tenant_id":"00000000-0000-0000-0000-000000000000","email":"adewunmi.akin.sanya@gmail.com","status":"active","first_name":"Adewunmi","last_name":"Akinsanya","twofa_enabled":false,"last_active":"2025-02-12T13:51:26.069Z","last_ip":"172.71.182.146","allowed_ips":null,"last_timezone":"Europe/Amsterdam","last_location":"Amsterdam","phone":"+2348012345678","review":null,"gender":null,"date_of_birth":null,"cba_id":null,"photo_id":null,"referral_code":"UJ8UMN","allowed_locations":null,"referred_by":null},"tier":null},{"id":"0194f535-d096-700c-a1ff-35f35dba6b58","meta":null,"created_on":"2025-02-11T13:32:12.310Z","created_by_id":"0194f535-7240-700c-a1fe-cc3854b8edf9","modified_on":"2025-02-11T13:32:12.310Z","modified_by_id":null,"deleted_on":null,"deleted_by_id":null,"tenant_id":"00000000-0000-0000-0000-000000000000","name":"Gabriella Thomas","type":"personal","status":"active","review":null,"allowed_time_periods":null,"primary_user_id":"0194f535-7240-700c-a1fe-cc3854b8edf9","tier_id":null,"primary_user":{"id":"0194f535-7240-700c-a1fe-cc3854b8edf9","meta":null,"created_on":"2025-02-11T13:31:48.159Z","created_by_id":null,"modified_on":"2025-02-11T13:40:03.866Z","modified_by_id":"0194f535-7240-700c-a1fe-cc3854b8edf9","deleted_on":null,"deleted_by_id":null,"tenant_id":"00000000-0000-0000-0000-000000000000","email":"gabriellathomas@yopmail.com","status":"active","first_name":"Gabriella","last_name":"Thomas","twofa_enabled":false,"last_active":"2025-02-11T13:40:03.865Z","last_ip":"172.71.122.43","allowed_ips":null,"last_timezone":"Europe/Paris","last_location":"Paris","phone":"+2349017432574","review":null,"gender":null,"date_of_birth":null,"cba_id":null,"photo_id":null,"referral_code":"Z7TEZG","allowed_locations":null,"referred_by":"019372de-17ef-7cc2-8fc0-43fe11ba042f"},"tier":null},{"id":"0194f535-1439-700c-a1fe-7ade5cdd850d","meta":null,"created_on":"2025-02-11T13:31:24.089Z","created_by_id":"0194f534-f6d7-700c-a1fe-27a5534555ba","modified_on":"2025-02-11T13:31:24.089Z","modified_by_id":null,"deleted_on":null,"deleted_by_id":null,"tenant_id":"00000000-0000-0000-0000-000000000000","name":"victoria Oladimeji","type":"personal","status":"active","review":null,"allowed_time_periods":null,"primary_user_id":"0194f534-f6d7-700c-a1fe-27a5534555ba","tier_id":null,"primary_user":{"id":"0194f534-f6d7-700c-a1fe-27a5534555ba","meta":null,"created_on":"2025-02-11T13:31:16.567Z","created_by_id":null,"modified_on":"2025-02-11T14:49:08.671Z","modified_by_id":"0194f534-f6d7-700c-a1fe-27a5534555ba","deleted_on":null,"deleted_by_id":null,"tenant_id":"00000000-0000-0000-0000-000000000000","email":"olayemivictori3@gmail.com","status":"active","first_name":"victoria","last_name":"Oladimeji","twofa_enabled":false,"last_active":"2025-02-11T14:49:08.669Z","last_ip":"172.71.99.109","allowed_ips":null,"last_timezone":"Europe/Amsterdam","last_location":"Amsterdam","phone":"+2347079794669","review":null,"gender":null,"date_of_birth":null,"cba_id":null,"photo_id":null,"referral_code":"4W7I9Z","allowed_locations":null,"referred_by":"019372de-17ef-7cc2-8fc0-43fe11ba042f"},"tier":null},{"id":"0194f52f-f98e-700c-a1fc-946fec349fc1","meta":null,"created_on":"2025-02-11T13:25:49.582Z","created_by_id":"0194f52f-b6a5-700c-a1fb-ba64cd6312f7","modified_on":"2025-02-11T13:25:49.582Z","modified_by_id":null,"deleted_on":null,"deleted_by_id":null,"tenant_id":"00000000-0000-0000-0000-000000000000","name":"Olayemi Victoria","type":"personal","status":"active","review":null,"allowed_time_periods":null,"primary_user_id":"0194f52f-b6a5-700c-a1fb-ba64cd6312f7","tier_id":null,"primary_user":{"id":"0194f52f-b6a5-700c-a1fb-ba64cd6312f7","meta":null,"created_on":"2025-02-11T13:25:32.453Z","created_by_id":null,"modified_on":"2025-02-11T13:26:47.761Z","modified_by_id":"0194f52f-b6a5-700c-a1fb-ba64cd6312f7","deleted_on":null,"deleted_by_id":null,"tenant_id":"00000000-0000-0000-0000-000000000000","email":"olayemivictoria@gmail.com","status":"active","first_name":"Olayemi","last_name":"Victoria","twofa_enabled":false,"last_active":"2025-02-11T13:26:47.760Z","last_ip":"141.101.98.14","allowed_ips":null,"last_timezone":"Europe/London","last_location":"London","phone":"+2348134044027","review":null,"gender":null,"date_of_birth":null,"cba_id":null,"photo_id":null,"referral_code":"9D2PCJ","allowed_locations":null,"referred_by":"019372de-17ef-7cc2-8fc0-43fe11ba042f"},"tier":null},{"id":"0194f529-dc39-700c-a1f9-d37b7309d11a","meta":null,"created_on":"2025-02-11T13:19:08.857Z","created_by_id":"0194f522-86eb-700c-a1f7-c9aa5131e2db","modified_on":"2025-02-11T13:19:08.857Z","modified_by_id":null,"deleted_on":null,"deleted_by_id":null,"tenant_id":"00000000-0000-0000-0000-000000000000","name":"Hikmat IbrahimBuruji","type":"personal","status":"active","review":null,"allowed_time_periods":null,"primary_user_id":"0194f522-86eb-700c-a1f7-c9aa5131e2db","tier_id":null,"primary_user":{"id":"0194f522-86eb-700c-a1f7-c9aa5131e2db","meta":null,"created_on":"2025-02-11T13:11:08.267Z","created_by_id":null,"modified_on":"2025-02-11T15:13:01.589Z","modified_by_id":"0194f522-86eb-700c-a1f7-c9aa5131e2db","deleted_on":null,"deleted_by_id":null,"tenant_id":"00000000-0000-0000-0000-000000000000","email":"burujihikmat@gmail.com","status":"active","first_name":"Hikmat","last_name":"IbrahimBuruji","twofa_enabled":false,"last_active":"2025-02-11T15:13:01.586Z","last_ip":"172.70.162.237","allowed_ips":null,"last_timezone":"Europe/London","last_location":"London","phone":"+23407069375650","review":null,"gender":null,"date_of_birth":null,"cba_id":null,"photo_id":null,"referral_code":"XZKP6Q","allowed_locations":null,"referred_by":null},"tier":null},{"id":"0194f527-d523-700c-a1f9-2c9fbdc14da3","meta":null,"created_on":"2025-02-11T13:16:55.971Z","created_by_id":"0194f526-eb1e-700c-a1f8-a6920eee9f3a","modified_on":"2025-02-11T14:34:00.477Z","modified_by_id":"0194f526-eb1e-700c-a1f8-a6920eee9f3a","deleted_on":null,"deleted_by_id":null,"tenant_id":"00000000-0000-0000-0000-000000000000","name":"Kachi Victor","type":"personal","status":"active","review":null,"allowed_time_periods":null,"primary_user_id":"0194f526-eb1e-700c-a1f8-a6920eee9f3a","tier_id":"01928f2d-6756-755b-8a9d-c8094db2af27","primary_user":{"id":"0194f526-eb1e-700c-a1f8-a6920eee9f3a","meta":null,"created_on":"2025-02-11T13:15:56.061Z","created_by_id":null,"modified_on":"2025-02-11T14:36:49.649Z","modified_by_id":"0194f526-eb1e-700c-a1f8-a6920eee9f3a","deleted_on":null,"deleted_by_id":null,"tenant_id":"00000000-0000-0000-0000-000000000000","email":"kachi@mailinator.com","status":"active","first_name":"Kachi","last_name":"Victor","twofa_enabled":false,"last_active":"2025-02-11T14:36:49.647Z","last_ip":"172.70.90.126","allowed_ips":null,"last_timezone":"Europe/London","last_location":"London","phone":"+2348135559063","review":null,"gender":null,"date_of_birth":null,"cba_id":null,"photo_id":null,"referral_code":"9GH8W3","allowed_locations":null,"referred_by":"019372de-17ef-7cc2-8fc0-43fe11ba042f"},"tier":{"id":"01928f2d-6756-755b-8a9d-c8094db2af27","meta":null,"created_on":"2024-10-15T07:56:10.789Z","created_by_id":null,"modified_on":"2025-01-23T15:14:24.513Z","modified_by_id":"01927265-4ed2-79cc-a0e6-e11339a359f3","deleted_on":null,"deleted_by_id":null,"tenant_id":"00000000-0000-0000-0000-000000000000","profile_type":"personal","name":"Tier 1","description":"Tier 1","level":1,"enabled":true,"balance_limit":2000000,"single_sending_limit":500000,"single_receiving_limit":500000,"period_sending_limit":500000,"period_sending_limit_time_unit":"day","period_receiving_limit":500000,"period_receiving_limit_time_unit":"day","requirements":[{"id":"01933d40-03e5-777c-a6e6-bf72eb1c8968","type_id":"01933d40-03e5-777c-a6e6-bf72eb1c8968","type":"verification","slug":"bvn","name":"BVN","description":"BVN"},{"id":"0193731a-59fe-788a-9877-8bef6d0c2cfc","type_id":"0193731a-59fe-788a-9877-8bef6d0c2cfc","type":"kyc","slug":"personal-information","name":"Personal Information","description":"Provide other personal information (gender, country) and verify your phone number and email address."},{"id":"019318f9-c895-744d-8f65-4636cc26dd1f","type_id":"019318f9-c895-744d-8f65-4636cc26dd1f","type":"verification","slug":"liveness","name":"Image liveness check","description":"This step helps us verify your identity by matching your image with the credentials you’ve provided."}]}},{"id":"0194f527-cf99-700c-a1f9-0001f506848f","meta":null,"created_on":"2025-02-11T13:16:54.553Z","created_by_id":"0194f521-f7bb-700c-a1f7-91061cc4e5d8","modified_on":"2025-02-11T13:16:54.553Z","modified_by_id":null,"deleted_on":null,"deleted_by_id":null,"tenant_id":"00000000-0000-0000-0000-000000000000","name":"Onome Agaje","type":"personal","status":"active","review":null,"allowed_time_periods":null,"primary_user_id":"0194f521-f7bb-700c-a1f7-91061cc4e5d8","tier_id":null,"primary_user":{"id":"0194f521-f7bb-700c-a1f7-91061cc4e5d8","meta":null,"created_on":"2025-02-11T13:10:31.608Z","created_by_id":null,"modified_on":"2025-02-11T14:46:00.355Z","modified_by_id":"0194f521-f7bb-700c-a1f7-91061cc4e5d8","deleted_on":null,"deleted_by_id":null,"tenant_id":"00000000-0000-0000-0000-000000000000","email":"mawujudoucra-2956@yopmail.com","status":"active","first_name":"Onome","last_name":"Agaje","twofa_enabled":false,"last_active":"2025-02-11T14:46:00.351Z","last_ip":"172.68.42.183","allowed_ips":null,"last_timezone":"Africa/Johannesburg","last_location":"Johannesburg","phone":"+2348186585718","review":null,"gender":null,"date_of_birth":null,"cba_id":null,"photo_id":null,"referral_code":"DYL6R9","allowed_locations":null,"referred_by":null},"tier":null}],"meta":{"page":1,"total_pages":15,"total_items":147}}