{"status":"success","data":[{"id":"0196262d-d92f-7335-a629-bf17a5948e60","meta":null,"created_on":"2025-04-11T18:47:41.104Z","created_by_id":null,"modified_on":"2025-04-11T18:47:41.104Z","modified_by_id":null,"deleted_on":null,"deleted_by_id":null,"tenant_id":"00000000-0000-0000-0000-000000000000","user_id":"019372de-17ef-7cc2-8fc0-43fe11ba042f","status":"pending","referree_id":"0196262d-d927-7335-a629-b486f3d6bcc9","referree_earning":"233.33","referrer_earning":"100.32","user":{"id":"019372de-17ef-7cc2-8fc0-43fe11ba042f","meta":{},"created_on":"2024-11-28T13:02:58.029Z","created_by_id":null,"modified_on":"2025-04-11T18:48:06.721Z","modified_by_id":"019372de-17ef-7cc2-8fc0-43fe11ba042f","deleted_on":null,"deleted_by_id":null,"tenant_id":"00000000-0000-0000-0000-000000000000","email":"ismael@mailinator.com","status":"active","first_name":"Sunday","last_name":"Testing","twofa_enabled":false,"last_active":"2025-04-11T18:48:00.507Z","last_ip":"20.39.61.198","allowed_ips":null,"last_timezone":"America/New_York","last_location":"Tappahannock","phone":"+2348089722636","review":null,"gender":"male","date_of_birth":null,"cba_id":"31","photo_id":null,"referral_code":"7LD1QN","referred_by":null},"referree":{"id":"0196262d-d927-7335-a629-b486f3d6bcc9","meta":null,"created_on":"2025-04-11T18:47:41.018Z","created_by_id":null,"modified_on":"2025-04-11T18:47:41.120Z","modified_by_id":null,"deleted_on":null,"deleted_by_id":null,"tenant_id":"00000000-0000-0000-0000-000000000000","email":"GinoOberbrunnermulti-byte@mailinator.com","status":"active","first_name":"Breitenberg","last_name":"Jovan","twofa_enabled":false,"last_active":"2025-04-11T18:47:41.018Z","last_ip":"23.98.188.69","allowed_ips":null,"last_timezone":"America/Chicago","last_location":"San Antonio","phone":null,"review":null,"gender":null,"date_of_birth":null,"cba_id":null,"photo_id":null,"referral_code":"LRGWR0","referred_by":"019372de-17ef-7cc2-8fc0-43fe11ba042f"},"events":[]},{"id":"0196262d-1ed3-7335-a628-0d933f662cee","meta":null,"created_on":"2025-04-11T18:46:53.317Z","created_by_id":null,"modified_on":"2025-04-11T18:46:53.317Z","modified_by_id":null,"deleted_on":null,"deleted_by_id":null,"tenant_id":"00000000-0000-0000-0000-000000000000","user_id":"019372de-17ef-7cc2-8fc0-43fe11ba042f","status":"pending","referree_id":"0196262d-1e7c-7335-a628-068f158e1bce","referree_earning":"233.33","referrer_earning":"100.32","user":{"id":"019372de-17ef-7cc2-8fc0-43fe11ba042f","meta":{},"created_on":"2024-11-28T13:02:58.029Z","created_by_id":null,"modified_on":"2025-04-11T18:48:06.721Z","modified_by_id":"019372de-17ef-7cc2-8fc0-43fe11ba042f","deleted_on":null,"deleted_by_id":null,"tenant_id":"00000000-0000-0000-0000-000000000000","email":"ismael@mailinator.com","status":"active","first_name":"Sunday","last_name":"Testing","twofa_enabled":false,"last_active":"2025-04-11T18:48:00.507Z","last_ip":"20.39.61.198","allowed_ips":null,"last_timezone":"America/New_York","last_location":"Tappahannock","phone":"+2348089722636","review":null,"gender":"male","date_of_birth":null,"cba_id":"31","photo_id":null,"referral_code":"7LD1QN","referred_by":null},"referree":{"id":"0196262d-1e7c-7335-a628-068f158e1bce","meta":null,"created_on":"2025-04-11T18:46:53.309Z","created_by_id":null,"modified_on":"2025-04-11T18:46:53.412Z","modified_by_id":null,"deleted_on":null,"deleted_by_id":null,"tenant_id":"00000000-0000-0000-0000-000000000000","email":"UrbanPadbergoptical8@mailinator.com","status":"active","first_name":"Tillman","last_name":"Rhianna","twofa_enabled":false,"last_active":"2025-04-11T18:46:53.309Z","last_ip":"20.39.61.198","allowed_ips":null,"last_timezone":"America/New_York","last_location":"Tappahannock","phone":null,"review":null,"gender":null,"date_of_birth":null,"cba_id":null,"photo_id":null,"referral_code":"BGSHD4","referred_by":"019372de-17ef-7cc2-8fc0-43fe11ba042f"},"events":[]},{"id":"01961be0-5ec3-7aa9-8b92-df6b3d3af3ef","meta":null,"created_on":"2025-04-09T18:46:51.331Z","created_by_id":null,"modified_on":"2025-04-09T18:46:51.331Z","modified_by_id":null,"deleted_on":null,"deleted_by_id":null,"tenant_id":"00000000-0000-0000-0000-000000000000","user_id":"019372de-17ef-7cc2-8fc0-43fe11ba042f","status":"pending","referree_id":"01961be0-5ebb-7aa9-8b92-d70529515434","referree_earning":"233.33","referrer_earning":"100.32","user":{"id":"019372de-17ef-7cc2-8fc0-43fe11ba042f","meta":{},"created_on":"2024-11-28T13:02:58.029Z","created_by_id":null,"modified_on":"2025-04-11T18:48:06.721Z","modified_by_id":"019372de-17ef-7cc2-8fc0-43fe11ba042f","deleted_on":null,"deleted_by_id":null,"tenant_id":"00000000-0000-0000-0000-000000000000","email":"ismael@mailinator.com","status":"active","first_name":"Sunday","last_name":"Testing","twofa_enabled":false,"last_active":"2025-04-11T18:48:00.507Z","last_ip":"20.39.61.198","allowed_ips":null,"last_timezone":"America/New_York","last_location":"Tappahannock","phone":"+2348089722636","review":null,"gender":"male","date_of_birth":null,"cba_id":"31","photo_id":null,"referral_code":"7LD1QN","referred_by":null},"referree":{"id":"01961be0-5ebb-7aa9-8b92-d70529515434","meta":null,"created_on":"2025-04-09T18:46:51.323Z","created_by_id":null,"modified_on":"2025-04-09T18:46:51.343Z","modified_by_id":null,"deleted_on":null,"deleted_by_id":null,"tenant_id":"00000000-0000-0000-0000-000000000000","email":"TorranceWiegandMetal@mailinator.com","status":"active","first_name":"Abbott","last_name":"Juliana","twofa_enabled":false,"last_active":"2025-04-09T18:46:51.323Z","last_ip":"20.171.120.131","allowed_ips":null,"last_timezone":"America/Phoenix","last_location":"Phoenix","phone":null,"review":null,"gender":null,"date_of_birth":null,"cba_id":null,"photo_id":null,"referral_code":"SXDC4B","referred_by":"019372de-17ef-7cc2-8fc0-43fe11ba042f"},"events":[]},{"id":"01961bde-408e-7aa9-8b8e-a5cdaabf88c2","meta":null,"created_on":"2025-04-09T18:44:32.526Z","created_by_id":null,"modified_on":"2025-04-09T18:44:32.526Z","modified_by_id":null,"deleted_on":null,"deleted_by_id":null,"tenant_id":"00000000-0000-0000-0000-000000000000","user_id":"019372de-17ef-7cc2-8fc0-43fe11ba042f","status":"pending","referree_id":"01961bde-4086-7aa9-8b8e-9a8a09bbb95a","referree_earning":"233.33","referrer_earning":"100.32","user":{"id":"019372de-17ef-7cc2-8fc0-43fe11ba042f","meta":{},"created_on":"2024-11-28T13:02:58.029Z","created_by_id":null,"modified_on":"2025-04-11T18:48:06.721Z","modified_by_id":"019372de-17ef-7cc2-8fc0-43fe11ba042f","deleted_on":null,"deleted_by_id":null,"tenant_id":"00000000-0000-0000-0000-000000000000","email":"ismael@mailinator.com","status":"active","first_name":"Sunday","last_name":"Testing","twofa_enabled":false,"last_active":"2025-04-11T18:48:00.507Z","last_ip":"20.39.61.198","allowed_ips":null,"last_timezone":"America/New_York","last_location":"Tappahannock","phone":"+2348089722636","review":null,"gender":"male","date_of_birth":null,"cba_id":"31","photo_id":null,"referral_code":"7LD1QN","referred_by":null},"referree":{"id":"01961bde-4086-7aa9-8b8e-9a8a09bbb95a","meta":null,"created_on":"2025-04-09T18:44:32.442Z","created_by_id":null,"modified_on":"2025-04-09T18:44:32.540Z","modified_by_id":null,"deleted_on":null,"deleted_by_id":null,"tenant_id":"00000000-0000-0000-0000-000000000000","email":"AlejandrinQuitzonBalboa0@mailinator.com","status":"active","first_name":"Gorczany","last_name":"Casper","twofa_enabled":false,"last_active":"2025-04-09T18:44:32.442Z","last_ip":"52.225.37.48","allowed_ips":null,"last_timezone":"America/Los_Angeles","last_location":"San Jose","phone":null,"review":null,"gender":null,"date_of_birth":null,"cba_id":null,"photo_id":null,"referral_code":"THO6NH","referred_by":"019372de-17ef-7cc2-8fc0-43fe11ba042f"},"events":[]},{"id":"01961b11-3fbe-7aa9-8b8a-b95590c9e7a1","meta":null,"created_on":"2025-04-09T15:00:37.440Z","created_by_id":null,"modified_on":"2025-04-09T15:00:37.440Z","modified_by_id":null,"deleted_on":null,"deleted_by_id":null,"tenant_id":"00000000-0000-0000-0000-000000000000","user_id":"019372de-17ef-7cc2-8fc0-43fe11ba042f","status":"pending","referree_id":"01961b11-3fb8-7aa9-8b8a-b099dd26460d","referree_earning":"233.33","referrer_earning":"100.32","user":{"id":"019372de-17ef-7cc2-8fc0-43fe11ba042f","meta":{},"created_on":"2024-11-28T13:02:58.029Z","created_by_id":null,"modified_on":"2025-04-11T18:48:06.721Z","modified_by_id":"019372de-17ef-7cc2-8fc0-43fe11ba042f","deleted_on":null,"deleted_by_id":null,"tenant_id":"00000000-0000-0000-0000-000000000000","email":"ismael@mailinator.com","status":"active","first_name":"Sunday","last_name":"Testing","twofa_enabled":false,"last_active":"2025-04-11T18:48:00.507Z","last_ip":"20.39.61.198","allowed_ips":null,"last_timezone":"America/New_York","last_location":"Tappahannock","phone":"+2348089722636","review":null,"gender":"male","date_of_birth":null,"cba_id":"31","photo_id":null,"referral_code":"7LD1QN","referred_by":null},"referree":{"id":"01961b11-3fb8-7aa9-8b8a-b099dd26460d","meta":null,"created_on":"2025-04-09T15:00:37.434Z","created_by_id":null,"modified_on":"2025-04-09T15:00:37.522Z","modified_by_id":null,"deleted_on":null,"deleted_by_id":null,"tenant_id":"00000000-0000-0000-0000-000000000000","email":"AshleyKemmerfault-tolerante@mailinator.com","status":"active","first_name":"Dickens","last_name":"Hershel","twofa_enabled":false,"last_active":"2025-04-09T15:00:37.434Z","last_ip":"52.190.142.199","allowed_ips":null,"last_timezone":"America/Los_Angeles","last_location":"San Jose","phone":null,"review":null,"gender":null,"date_of_birth":null,"cba_id":null,"photo_id":null,"referral_code":"BLHGIZ","referred_by":"019372de-17ef-7cc2-8fc0-43fe11ba042f"},"events":[]},{"id":"01960e58-ac19-7993-88f3-405d0b6064b6","meta":null,"created_on":"2025-04-07T03:43:34.424Z","created_by_id":null,"modified_on":"2025-04-07T03:43:34.424Z","modified_by_id":null,"deleted_on":null,"deleted_by_id":null,"tenant_id":"00000000-0000-0000-0000-000000000000","user_id":"019372de-17ef-7cc2-8fc0-43fe11ba042f","status":"pending","referree_id":"01960e58-ac0f-7993-88f3-39e826b95e86","referree_earning":"233.33","referrer_earning":"100.32","user":{"id":"019372de-17ef-7cc2-8fc0-43fe11ba042f","meta":{},"created_on":"2024-11-28T13:02:58.029Z","created_by_id":null,"modified_on":"2025-04-11T18:48:06.721Z","modified_by_id":"019372de-17ef-7cc2-8fc0-43fe11ba042f","deleted_on":null,"deleted_by_id":null,"tenant_id":"00000000-0000-0000-0000-000000000000","email":"ismael@mailinator.com","status":"active","first_name":"Sunday","last_name":"Testing","twofa_enabled":false,"last_active":"2025-04-11T18:48:00.507Z","last_ip":"20.39.61.198","allowed_ips":null,"last_timezone":"America/New_York","last_location":"Tappahannock","phone":"+2348089722636","review":null,"gender":"male","date_of_birth":null,"cba_id":"31","photo_id":null,"referral_code":"7LD1QN","referred_by":null},"referree":{"id":"01960e58-ac0f-7993-88f3-39e826b95e86","meta":null,"created_on":"2025-04-07T03:43:34.414Z","created_by_id":null,"modified_on":"2025-04-07T03:43:34.441Z","modified_by_id":null,"deleted_on":null,"deleted_by_id":null,"tenant_id":"00000000-0000-0000-0000-000000000000","email":"ClaudieGoldnerengineerz@mailinator.com","status":"active","first_name":"Kerluke","last_name":"Amiya","twofa_enabled":false,"last_active":"2025-04-07T03:43:34.414Z","last_ip":"172.69.17.86","allowed_ips":null,"last_timezone":"Africa/Monrovia","last_location":"Monrovia","phone":null,"review":null,"gender":null,"date_of_birth":null,"cba_id":null,"photo_id":null,"referral_code":"UN8INR","referred_by":"019372de-17ef-7cc2-8fc0-43fe11ba042f"},"events":[]},{"id":"01960cc5-57d1-7993-88ec-5cc13b6e764d","meta":null,"created_on":"2025-04-06T20:23:01.840Z","created_by_id":null,"modified_on":"2025-04-06T20:23:01.840Z","modified_by_id":null,"deleted_on":null,"deleted_by_id":null,"tenant_id":"00000000-0000-0000-0000-000000000000","user_id":"019372de-17ef-7cc2-8fc0-43fe11ba042f","status":"pending","referree_id":"01960cc5-57b8-7993-88ec-5085fa88482e","referree_earning":"233.33","referrer_earning":"100.32","user":{"id":"019372de-17ef-7cc2-8fc0-43fe11ba042f","meta":{},"created_on":"2024-11-28T13:02:58.029Z","created_by_id":null,"modified_on":"2025-04-11T18:48:06.721Z","modified_by_id":"019372de-17ef-7cc2-8fc0-43fe11ba042f","deleted_on":null,"deleted_by_id":null,"tenant_id":"00000000-0000-0000-0000-000000000000","email":"ismael@mailinator.com","status":"active","first_name":"Sunday","last_name":"Testing","twofa_enabled":false,"last_active":"2025-04-11T18:48:00.507Z","last_ip":"20.39.61.198","allowed_ips":null,"last_timezone":"America/New_York","last_location":"Tappahannock","phone":"+2348089722636","review":null,"gender":"male","date_of_birth":null,"cba_id":"31","photo_id":null,"referral_code":"7LD1QN","referred_by":null},"referree":{"id":"01960cc5-57b8-7993-88ec-5085fa88482e","meta":null,"created_on":"2025-04-06T20:23:01.816Z","created_by_id":null,"modified_on":"2025-04-06T20:23:01.919Z","modified_by_id":null,"deleted_on":null,"deleted_by_id":null,"tenant_id":"00000000-0000-0000-0000-000000000000","email":"CarmineMcDermottinterface4@mailinator.com","status":"active","first_name":"Bergnaum","last_name":"Virginia","twofa_enabled":false,"last_active":"2025-04-06T20:23:01.816Z","last_ip":"172.69.22.81","allowed_ips":null,"last_timezone":"America/Los_Angeles","last_location":"San Jose","phone":null,"review":null,"gender":null,"date_of_birth":null,"cba_id":null,"photo_id":null,"referral_code":"CUBYF5","referred_by":"019372de-17ef-7cc2-8fc0-43fe11ba042f"},"events":[]},{"id":"01960cb8-d529-7993-88ea-b493faef72d3","meta":null,"created_on":"2025-04-06T20:09:21.961Z","created_by_id":null,"modified_on":"2025-04-06T20:09:21.961Z","modified_by_id":null,"deleted_on":null,"deleted_by_id":null,"tenant_id":"00000000-0000-0000-0000-000000000000","user_id":"019372de-17ef-7cc2-8fc0-43fe11ba042f","status":"pending","referree_id":"01960cb8-d4a7-7993-88ea-aa2e2cfd982d","referree_earning":"233.33","referrer_earning":"100.32","user":{"id":"019372de-17ef-7cc2-8fc0-43fe11ba042f","meta":{},"created_on":"2024-11-28T13:02:58.029Z","created_by_id":null,"modified_on":"2025-04-11T18:48:06.721Z","modified_by_id":"019372de-17ef-7cc2-8fc0-43fe11ba042f","deleted_on":null,"deleted_by_id":null,"tenant_id":"00000000-0000-0000-0000-000000000000","email":"ismael@mailinator.com","status":"active","first_name":"Sunday","last_name":"Testing","twofa_enabled":false,"last_active":"2025-04-11T18:48:00.507Z","last_ip":"20.39.61.198","allowed_ips":null,"last_timezone":"America/New_York","last_location":"Tappahannock","phone":"+2348089722636","review":null,"gender":"male","date_of_birth":null,"cba_id":"31","photo_id":null,"referral_code":"7LD1QN","referred_by":null},"referree":{"id":"01960cb8-d4a7-7993-88ea-aa2e2cfd982d","meta":null,"created_on":"2025-04-06T20:09:21.831Z","created_by_id":null,"modified_on":"2025-04-06T20:09:22.032Z","modified_by_id":null,"deleted_on":null,"deleted_by_id":null,"tenant_id":"00000000-0000-0000-0000-000000000000","email":"EldredWillGranite@mailinator.com","status":"active","first_name":"Kilback","last_name":"Maud","twofa_enabled":false,"last_active":"2025-04-06T20:09:21.831Z","last_ip":"172.68.245.166","allowed_ips":null,"last_timezone":"Europe/Moscow","last_location":"Moscow","phone":null,"review":null,"gender":null,"date_of_birth":null,"cba_id":null,"photo_id":null,"referral_code":"19S5NH","referred_by":"019372de-17ef-7cc2-8fc0-43fe11ba042f"},"events":[]},{"id":"01960220-7bc1-7eeb-9126-abf8507fa48b","meta":null,"created_on":"2025-04-04T18:46:45.441Z","created_by_id":null,"modified_on":"2025-04-04T18:46:45.441Z","modified_by_id":null,"deleted_on":null,"deleted_by_id":null,"tenant_id":"00000000-0000-0000-0000-000000000000","user_id":"019372de-17ef-7cc2-8fc0-43fe11ba042f","status":"pending","referree_id":"01960220-7bb7-7eeb-9126-a1728980244e","referree_earning":"233.33","referrer_earning":"100.32","user":{"id":"019372de-17ef-7cc2-8fc0-43fe11ba042f","meta":{},"created_on":"2024-11-28T13:02:58.029Z","created_by_id":null,"modified_on":"2025-04-11T18:48:06.721Z","modified_by_id":"019372de-17ef-7cc2-8fc0-43fe11ba042f","deleted_on":null,"deleted_by_id":null,"tenant_id":"00000000-0000-0000-0000-000000000000","email":"ismael@mailinator.com","status":"active","first_name":"Sunday","last_name":"Testing","twofa_enabled":false,"last_active":"2025-04-11T18:48:00.507Z","last_ip":"20.39.61.198","allowed_ips":null,"last_timezone":"America/New_York","last_location":"Tappahannock","phone":"+2348089722636","review":null,"gender":"male","date_of_birth":null,"cba_id":"31","photo_id":null,"referral_code":"7LD1QN","referred_by":null},"referree":{"id":"01960220-7bb7-7eeb-9126-a1728980244e","meta":null,"created_on":"2025-04-04T18:46:45.431Z","created_by_id":null,"modified_on":"2025-04-04T18:46:45.516Z","modified_by_id":null,"deleted_on":null,"deleted_by_id":null,"tenant_id":"00000000-0000-0000-0000-000000000000","email":"RyleeBinsFranc@mailinator.com","status":"active","first_name":"Purdy","last_name":"Lola","twofa_enabled":false,"last_active":"2025-04-04T18:46:45.431Z","last_ip":"172.70.38.214","allowed_ips":null,"last_timezone":"America/Chicago","last_location":"","phone":null,"review":null,"gender":null,"date_of_birth":null,"cba_id":null,"photo_id":null,"referral_code":"AWXZVG","referred_by":"019372de-17ef-7cc2-8fc0-43fe11ba042f"},"events":[{"id":"01960220-7bc1-7eeb-9126-d669ae37ad6f","meta":null,"created_on":"2025-04-04T18:46:45.441Z","created_by_id":null,"modified_on":"2025-04-04T18:46:45.441Z","modified_by_id":null,"deleted_on":null,"deleted_by_id":null,"tenant_id":"00000000-0000-0000-0000-000000000000","slug":"min_investment_count","value":"0.00","status":"pending","referral_activity_id":"01960220-7bc1-7eeb-9126-abf8507fa48b"},{"id":"01960220-7bc1-7eeb-9126-b63dcae435ff","meta":null,"created_on":"2025-04-04T18:46:45.441Z","created_by_id":null,"modified_on":"2025-04-04T18:46:45.441Z","modified_by_id":null,"deleted_on":null,"deleted_by_id":null,"tenant_id":"00000000-0000-0000-0000-000000000000","slug":"min_loan_amount","value":"0.00","status":"pending","referral_activity_id":"01960220-7bc1-7eeb-9126-abf8507fa48b"},{"id":"01960220-7bc1-7eeb-9126-b83d51796e80","meta":null,"created_on":"2025-04-04T18:46:45.441Z","created_by_id":null,"modified_on":"2025-04-04T18:46:45.441Z","modified_by_id":null,"deleted_on":null,"deleted_by_id":null,"tenant_id":"00000000-0000-0000-0000-000000000000","slug":"min_transaction_amount","value":"100.00","status":"pending","referral_activity_id":"01960220-7bc1-7eeb-9126-abf8507fa48b"},{"id":"01960220-7bc1-7eeb-9126-c4099ceecb95","meta":null,"created_on":"2025-04-04T18:46:45.441Z","created_by_id":null,"modified_on":"2025-04-04T18:46:45.441Z","modified_by_id":null,"deleted_on":null,"deleted_by_id":null,"tenant_id":"00000000-0000-0000-0000-000000000000","slug":"min_transaction_count","value":"1.00","status":"pending","referral_activity_id":"01960220-7bc1-7eeb-9126-abf8507fa48b"},{"id":"01960220-7bc1-7eeb-9126-cd6c81da092a","meta":null,"created_on":"2025-04-04T18:46:45.441Z","created_by_id":null,"modified_on":"2025-04-04T18:46:45.441Z","modified_by_id":null,"deleted_on":null,"deleted_by_id":null,"tenant_id":"00000000-0000-0000-0000-000000000000","slug":"min_loan_count","value":"0.00","status":"pending","referral_activity_id":"01960220-7bc1-7eeb-9126-abf8507fa48b"},{"id":"01960220-7bc1-7eeb-9126-d913e21309e5","meta":null,"created_on":"2025-04-04T18:46:45.441Z","created_by_id":null,"modified_on":"2025-04-04T18:46:45.441Z","modified_by_id":null,"deleted_on":null,"deleted_by_id":null,"tenant_id":"00000000-0000-0000-0000-000000000000","slug":"min_investment_amount","value":"0.00","status":"pending","referral_activity_id":"01960220-7bc1-7eeb-9126-abf8507fa48b"},{"id":"01960220-7bc1-7eeb-9126-e7be794c5e98","meta":null,"created_on":"2025-04-04T18:46:45.441Z","created_by_id":null,"modified_on":"2025-04-04T18:46:45.441Z","modified_by_id":null,"deleted_on":null,"deleted_by_id":null,"tenant_id":"00000000-0000-0000-0000-000000000000","slug":"min_tier","value":"0.00","status":"pending","referral_activity_id":"01960220-7bc1-7eeb-9126-abf8507fa48b"}]},{"id":"0196021f-e66b-7eeb-9124-cc0d745a80c5","meta":null,"created_on":"2025-04-04T18:46:07.211Z","created_by_id":null,"modified_on":"2025-04-04T18:46:07.211Z","modified_by_id":null,"deleted_on":null,"deleted_by_id":null,"tenant_id":"00000000-0000-0000-0000-000000000000","user_id":"019372de-17ef-7cc2-8fc0-43fe11ba042f","status":"pending","referree_id":"0196021f-e61e-7eeb-9124-c4c311d4e377","referree_earning":"233.33","referrer_earning":"100.32","user":{"id":"019372de-17ef-7cc2-8fc0-43fe11ba042f","meta":{},"created_on":"2024-11-28T13:02:58.029Z","created_by_id":null,"modified_on":"2025-04-11T18:48:06.721Z","modified_by_id":"019372de-17ef-7cc2-8fc0-43fe11ba042f","deleted_on":null,"deleted_by_id":null,"tenant_id":"00000000-0000-0000-0000-000000000000","email":"ismael@mailinator.com","status":"active","first_name":"Sunday","last_name":"Testing","twofa_enabled":false,"last_active":"2025-04-11T18:48:00.507Z","last_ip":"20.39.61.198","allowed_ips":null,"last_timezone":"America/New_York","last_location":"Tappahannock","phone":"+2348089722636","review":null,"gender":"male","date_of_birth":null,"cba_id":"31","photo_id":null,"referral_code":"7LD1QN","referred_by":null},"referree":{"id":"0196021f-e61e-7eeb-9124-c4c311d4e377","meta":null,"created_on":"2025-04-04T18:46:07.134Z","created_by_id":null,"modified_on":"2025-04-04T18:46:07.316Z","modified_by_id":null,"deleted_on":null,"deleted_by_id":null,"tenant_id":"00000000-0000-0000-0000-000000000000","email":"MadalynStammopen-sourceu@mailinator.com","status":"active","first_name":"Tremblay","last_name":"Otilia","twofa_enabled":false,"last_active":"2025-04-04T18:46:07.134Z","last_ip":"172.70.131.213","allowed_ips":null,"last_timezone":"America/Chicago","last_location":"Chicago","phone":null,"review":null,"gender":null,"date_of_birth":null,"cba_id":null,"photo_id":null,"referral_code":"9BCNWJ","referred_by":"019372de-17ef-7cc2-8fc0-43fe11ba042f"},"events":[{"id":"0196021f-e66c-7eeb-9124-d36e4cbfdf5a","meta":null,"created_on":"2025-04-04T18:46:07.211Z","created_by_id":null,"modified_on":"2025-04-04T18:46:07.211Z","modified_by_id":null,"deleted_on":null,"deleted_by_id":null,"tenant_id":"00000000-0000-0000-0000-000000000000","slug":"min_loan_amount","value":"0.00","status":"pending","referral_activity_id":"0196021f-e66b-7eeb-9124-cc0d745a80c5"},{"id":"0196021f-e66c-7eeb-9125-008de378edc4","meta":null,"created_on":"2025-04-04T18:46:07.211Z","created_by_id":null,"modified_on":"2025-04-04T18:46:07.211Z","modified_by_id":null,"deleted_on":null,"deleted_by_id":null,"tenant_id":"00000000-0000-0000-0000-000000000000","slug":"min_tier","value":"0.00","status":"pending","referral_activity_id":"0196021f-e66b-7eeb-9124-cc0d745a80c5"},{"id":"0196021f-e66c-7eeb-9124-fffb2a2dc222","meta":null,"created_on":"2025-04-04T18:46:07.211Z","created_by_id":null,"modified_on":"2025-04-04T18:46:07.211Z","modified_by_id":null,"deleted_on":null,"deleted_by_id":null,"tenant_id":"00000000-0000-0000-0000-000000000000","slug":"min_investment_amount","value":"0.00","status":"pending","referral_activity_id":"0196021f-e66b-7eeb-9124-cc0d745a80c5"},{"id":"0196021f-e66c-7eeb-9124-f2d345052477","meta":null,"created_on":"2025-04-04T18:46:07.211Z","created_by_id":null,"modified_on":"2025-04-04T18:46:07.211Z","modified_by_id":null,"deleted_on":null,"deleted_by_id":null,"tenant_id":"00000000-0000-0000-0000-000000000000","slug":"min_investment_count","value":"0.00","status":"pending","referral_activity_id":"0196021f-e66b-7eeb-9124-cc0d745a80c5"},{"id":"0196021f-e66c-7eeb-9124-ea7c3589b450","meta":null,"created_on":"2025-04-04T18:46:07.211Z","created_by_id":null,"modified_on":"2025-04-04T18:46:07.211Z","modified_by_id":null,"deleted_on":null,"deleted_by_id":null,"tenant_id":"00000000-0000-0000-0000-000000000000","slug":"min_loan_count","value":"0.00","status":"pending","referral_activity_id":"0196021f-e66b-7eeb-9124-cc0d745a80c5"},{"id":"0196021f-e66c-7eeb-9124-e2e53918f16e","meta":null,"created_on":"2025-04-04T18:46:07.211Z","created_by_id":null,"modified_on":"2025-04-04T18:46:07.211Z","modified_by_id":null,"deleted_on":null,"deleted_by_id":null,"tenant_id":"00000000-0000-0000-0000-000000000000","slug":"min_transaction_count","value":"1.00","status":"pending","referral_activity_id":"0196021f-e66b-7eeb-9124-cc0d745a80c5"},{"id":"0196021f-e66c-7eeb-9124-dd5af14c9bf3","meta":null,"created_on":"2025-04-04T18:46:07.211Z","created_by_id":null,"modified_on":"2025-04-04T18:46:07.211Z","modified_by_id":null,"deleted_on":null,"deleted_by_id":null,"tenant_id":"00000000-0000-0000-0000-000000000000","slug":"min_transaction_amount","value":"100.00","status":"pending","referral_activity_id":"0196021f-e66b-7eeb-9124-cc0d745a80c5"}]}],"meta":{"page":1,"total_pages":7,"total_items":70}}