{"status":"success","data":[{"id":"0194d518-5291-7bb3-a119-630a16a3d8e8","meta":null,"created_on":"2025-02-05T07:52:08.594Z","created_by_id":"01927265-4ed2-79cc-a0e6-e11339a359f3","modified_on":"2025-02-05T07:52:08.594Z","modified_by_id":null,"deleted_on":null,"deleted_by_id":null,"name":"Dispute Updater","slug":"dispute-updater","description":"Dispute Updater","status":"active","tenant_id":"00000000-0000-0000-0000-000000000000","userCount":1,"user_count":1},{"id":"0194b932-92d0-7bb8-88f2-0bc884cbbed4","meta":null,"created_on":"2025-01-30T21:51:26.928Z","created_by_id":"01927265-4ed2-79cc-a0e6-e11339a359f3","modified_on":"2025-01-30T21:51:26.928Z","modified_by_id":null,"deleted_on":null,"deleted_by_id":null,"name":"interface","slug":"interface","description":"system","status":"active","tenant_id":"00000000-0000-0000-0000-000000000000","userCount":0,"user_count":0},{"id":"0194b895-df4d-7bb8-88eb-a501c0ae8f1d","meta":null,"created_on":"2025-01-30T19:00:17.357Z","created_by_id":"01927265-4ed2-79cc-a0e6-e11339a359f3","modified_on":"2025-01-30T19:00:17.357Z","modified_by_id":null,"deleted_on":null,"deleted_by_id":null,"name":"RAM","slug":"ram","description":"Hat","status":"active","tenant_id":"00000000-0000-0000-0000-000000000000","userCount":1,"user_count":1},{"id":"0194a673-5ab3-7dd7-aac7-b0ebf3ba61e5","meta":null,"created_on":"2025-01-27T06:29:25.299Z","created_by_id":"01927265-4ed2-79cc-a0e6-e11339a359f3","modified_on":"2025-01-27T06:29:25.299Z","modified_by_id":null,"deleted_on":null,"deleted_by_id":null,"name":"Russian","slug":"russian","description":"Brook","status":"active","tenant_id":"00000000-0000-0000-0000-000000000000","userCount":0,"user_count":0},{"id":"019489a3-563f-7cc8-abea-5077e5cfb91a","meta":null,"created_on":"2025-01-21T16:12:50.623Z","created_by_id":"01927265-4ed2-79cc-a0e6-e11339a359f3","modified_on":"2025-01-29T11:22:42.543Z","modified_by_id":"01927265-4ed2-79cc-a0e6-e11339a359f3","deleted_on":null,"deleted_by_id":null,"name":"Cashier","slug":"cashier","description":"test","status":"active","tenant_id":"00000000-0000-0000-0000-000000000000","userCount":2,"user_count":2},{"id":"01945e47-88e0-7554-9594-afb0d4e370c7","meta":null,"created_on":"2025-01-13T06:08:53.984Z","created_by_id":null,"modified_on":"2025-01-13T06:08:53.984Z","modified_by_id":null,"deleted_on":null,"deleted_by_id":null,"name":"deposit","slug":"deposit","description":"modular","status":"active","tenant_id":"00000000-0000-0000-0000-000000000000","userCount":0,"user_count":0},{"id":"01945e2b-41cc-7554-9591-f3f3a36d09bb","meta":null,"created_on":"2025-01-13T05:38:00.770Z","created_by_id":null,"modified_on":"2025-01-13T05:38:00.770Z","modified_by_id":null,"deleted_on":null,"deleted_by_id":null,"name":"China","slug":"china","description":"Mauritius","status":"active","tenant_id":"00000000-0000-0000-0000-000000000000","userCount":1,"user_count":1},{"id":"01945e2a-92c9-7554-9591-68196fe6209f","meta":null,"created_on":"2025-01-13T05:37:15.977Z","created_by_id":null,"modified_on":"2025-01-13T05:37:15.977Z","modified_by_id":null,"deleted_on":null,"deleted_by_id":null,"name":"implement","slug":"implement","description":"Tunnel","status":"active","tenant_id":"00000000-0000-0000-0000-000000000000","userCount":1,"user_count":1},{"id":"01945e29-8557-7554-9590-e06ac19e57f7","meta":null,"created_on":"2025-01-13T05:36:06.999Z","created_by_id":null,"modified_on":"2025-01-13T05:36:06.999Z","modified_by_id":null,"deleted_on":null,"deleted_by_id":null,"name":"Islands","slug":"islands","description":"black","status":"active","tenant_id":"00000000-0000-0000-0000-000000000000","userCount":0,"user_count":0},{"id":"019423c7-9254-777b-b0d2-dd01a10c46c3","meta":null,"created_on":"2025-01-01T21:31:09.266Z","created_by_id":null,"modified_on":"2025-01-09T15:42:08.717Z","modified_by_id":null,"deleted_on":null,"deleted_by_id":null,"name":"Vat 2","slug":"vat-2","description":"Test Rolle","status":"active","tenant_id":"00000000-0000-0000-0000-000000000000","userCount":0,"user_count":0}],"meta":{"page":1,"total_pages":2,"total_items":19}}