{"status":"success","data":[{"id":"0196262e-5953-7335-a62a-f4ee23643590","meta":null,"created_on":"2025-04-11T18:48:13.908Z","created_by_id":"019372de-17ef-7cc2-8fc0-43fe11ba042f","modified_on":"2025-04-11T18:48:13.908Z","modified_by_id":null,"deleted_on":null,"deleted_by_id":null,"tenant_id":"00000000-0000-0000-0000-000000000000","profile_id":"0193a649-e3d0-7881-8b7f-2ef1d89a9aff","name":"Vacation Funds","product_id":"0196245d-ffd6-722a-998e-9d9c15aa2eae","account_id":"0193a699-2f15-7881-8b7f-ae50980bcfad","is_fixed":true,"allow_top_up":false,"cba_id":"534","deposit":"500.00","interest_earned":"0.00","balance":"0.00","end_date":"2025-07-11T18:48:13.803Z","start_date":"2025-04-11T18:48:13.803Z","periodic_amount":500,"interest_rate":"10.00","interest_period":"yearly","tenor_value":3,"tenor_period":"months","interest_compounding_period":"yearly","interest_posting_period":"yearly","status":"active"},{"id":"01961f6f-1eb6-7aa9-8b95-e9e55b0e71df","meta":null,"created_on":"2025-04-10T11:21:38.230Z","created_by_id":"019372de-17ef-7cc2-8fc0-43fe11ba042f","modified_on":"2025-04-10T11:21:38.230Z","modified_by_id":"0193d109-a926-7446-abe5-7dafe8b742bd","deleted_on":null,"deleted_by_id":null,"tenant_id":"00000000-0000-0000-0000-000000000000","profile_id":"0193a649-e3d0-7881-8b7f-2ef1d89a9aff","name":"Vacation Funds","product_id":"01961c9e-7c72-7aa9-8b94-cab838c3d9e1","account_id":"0193a699-2f15-7881-8b7f-ae50980bcfad","is_fixed":true,"allow_top_up":false,"cba_id":"532","deposit":1500,"interest_earned":1.23,"balance":1500,"end_date":"2025-04-20T11:21:38.125Z","start_date":"2025-04-10T11:21:38.125Z","periodic_amount":1500,"interest_rate":"0.30","interest_period":"yearly","tenor_value":10,"tenor_period":"days","interest_compounding_period":"yearly","interest_posting_period":"yearly","status":"active"},{"id":"01961f62-19e3-7aa9-8b95-cbaa6f6a113d","meta":null,"created_on":"2025-04-10T11:07:25.027Z","created_by_id":"019372de-17ef-7cc2-8fc0-43fe11ba042f","modified_on":"2025-04-10T11:07:25.027Z","modified_by_id":"019372de-17ef-7cc2-8fc0-43fe11ba042f","deleted_on":null,"deleted_by_id":null,"tenant_id":"00000000-0000-0000-0000-000000000000","profile_id":"0193a649-e3d0-7881-8b7f-2ef1d89a9aff","name":"Vacation Funds","product_id":"01961c9e-7c72-7aa9-8b94-cab838c3d9e1","account_id":"0193a699-2f15-7881-8b7f-ae50980bcfad","is_fixed":true,"allow_top_up":false,"cba_id":"531","deposit":500,"interest_earned":0.41,"balance":500,"end_date":"2025-04-20T11:07:24.957Z","start_date":"2025-04-10T11:07:24.957Z","periodic_amount":500,"interest_rate":"0.30","interest_period":"yearly","tenor_value":10,"tenor_period":"days","interest_compounding_period":"yearly","interest_posting_period":"yearly","status":"active"},{"id":"01961bdf-7eeb-7aa9-8b92-544fa6b30fb6","meta":null,"created_on":"2025-04-09T18:45:54.027Z","created_by_id":"019372de-17ef-7cc2-8fc0-43fe11ba042f","modified_on":"2025-04-09T18:45:54.027Z","modified_by_id":"0195d26a-2323-711c-8833-9e3f99ed4f85","deleted_on":null,"deleted_by_id":null,"tenant_id":"00000000-0000-0000-0000-000000000000","profile_id":"0193a649-e3d0-7881-8b7f-2ef1d89a9aff","name":"Vacation Funds","product_id":"019610a5-c440-7ccb-8487-51fd54d106d6","account_id":"0193a699-2f15-7881-8b7f-ae50980bcfad","is_fixed":false,"allow_top_up":false,"cba_id":"529","deposit":1500,"interest_earned":0,"balance":0,"end_date":"2025-07-09T18:45:53.955Z","start_date":"2025-04-09T18:45:53.955Z","periodic_amount":500,"interest_rate":"10.00","interest_period":"yearly","tenor_value":3,"tenor_period":"months","interest_compounding_period":"yearly","interest_posting_period":"yearly","status":"active"},{"id":"01961b12-311f-7aa9-8b8d-b092dddfa490","meta":null,"created_on":"2025-04-09T15:01:39.228Z","created_by_id":"019372de-17ef-7cc2-8fc0-43fe11ba042f","modified_on":"2025-04-09T15:01:39.228Z","modified_by_id":"019372de-17ef-7cc2-8fc0-43fe11ba042f","deleted_on":null,"deleted_by_id":null,"tenant_id":"00000000-0000-0000-0000-000000000000","profile_id":"0193a649-e3d0-7881-8b7f-2ef1d89a9aff","name":"Vacation Funds","product_id":"019610a5-c440-7ccb-8487-51fd54d106d6","account_id":"0193a699-2f15-7881-8b7f-ae50980bcfad","is_fixed":false,"allow_top_up":false,"cba_id":"528","deposit":1500,"interest_earned":0,"balance":0,"end_date":"2025-07-09T15:01:39.175Z","start_date":"2025-04-09T15:01:39.175Z","periodic_amount":500,"interest_rate":"10.00","interest_period":"yearly","tenor_value":3,"tenor_period":"months","interest_compounding_period":"yearly","interest_posting_period":"yearly","status":"active"},{"id":"019610a9-94f4-7ee4-be63-cb0e71db3c6f","meta":null,"created_on":"2025-04-07T14:31:11.537Z","created_by_id":"019372de-17ef-7cc2-8fc0-43fe11ba042f","modified_on":"2025-04-07T14:31:11.537Z","modified_by_id":"019372de-17ef-7cc2-8fc0-43fe11ba042f","deleted_on":null,"deleted_by_id":null,"tenant_id":"00000000-0000-0000-0000-000000000000","profile_id":"0193a649-e3d0-7881-8b7f-2ef1d89a9aff","name":"Vacation F2unds","product_id":"019610a0-d9e7-777e-bc8a-4a1a3765d930","account_id":"0193a699-2f15-7881-8b7f-ae50980bcfad","is_fixed":false,"allow_top_up":false,"cba_id":"520","deposit":15984,"interest_earned":0,"balance":0,"end_date":"2026-04-07T14:31:10.431Z","start_date":"2025-04-07T14:31:10.431Z","periodic_amount":1332,"interest_rate":"10.00","interest_period":"yearly","tenor_value":1,"tenor_period":"years","interest_compounding_period":"yearly","interest_posting_period":"yearly","status":"active"},{"id":"019610a8-f702-7ff5-b8f6-4aea32e7dc2f","meta":null,"created_on":"2025-04-07T14:30:31.108Z","created_by_id":"019372de-17ef-7cc2-8fc0-43fe11ba042f","modified_on":"2025-04-07T14:30:31.108Z","modified_by_id":"019372de-17ef-7cc2-8fc0-43fe11ba042f","deleted_on":null,"deleted_by_id":null,"tenant_id":"00000000-0000-0000-0000-000000000000","profile_id":"0193a649-e3d0-7881-8b7f-2ef1d89a9aff","name":"Vacation Funds","product_id":"019610a0-d9e7-777e-bc8a-4a1a3765d930","account_id":"0193a699-2f15-7881-8b7f-ae50980bcfad","is_fixed":false,"allow_top_up":false,"cba_id":"519","deposit":72991248,"interest_earned":0,"balance":72856641,"end_date":"2026-04-07T14:30:30.140Z","start_date":"2025-04-07T14:30:30.140Z","periodic_amount":12237,"interest_rate":"10.00","interest_period":"yearly","tenor_value":1,"tenor_period":"years","interest_compounding_period":"yearly","interest_posting_period":"yearly","status":"active"},{"id":"019610a6-9e17-7668-aa2b-542c8272ebf2","meta":null,"created_on":"2025-04-07T14:27:57.270Z","created_by_id":"019372de-17ef-7cc2-8fc0-43fe11ba042f","modified_on":"2025-04-07T14:27:57.270Z","modified_by_id":"019372de-17ef-7cc2-8fc0-43fe11ba042f","deleted_on":null,"deleted_by_id":null,"tenant_id":"00000000-0000-0000-0000-000000000000","profile_id":"0193a649-e3d0-7881-8b7f-2ef1d89a9aff","name":"Vacation Funds","product_id":"019610a0-d9e7-777e-bc8a-4a1a3765d930","account_id":"0193a699-2f15-7881-8b7f-ae50980bcfad","is_fixed":false,"allow_top_up":false,"cba_id":"518","deposit":146844,"interest_earned":0,"balance":0,"end_date":"2026-04-07T14:27:56.111Z","start_date":"2025-04-07T14:27:56.111Z","periodic_amount":12237,"interest_rate":"10.00","interest_period":"yearly","tenor_value":1,"tenor_period":"years","interest_compounding_period":"yearly","interest_posting_period":"yearly","status":"active"},{"id":"019610a6-0e0c-7ccb-8487-5cec2fe4816c","meta":null,"created_on":"2025-04-07T14:27:20.394Z","created_by_id":"019372de-17ef-7cc2-8fc0-43fe11ba042f","modified_on":"2025-04-07T14:27:20.394Z","modified_by_id":"019372de-17ef-7cc2-8fc0-43fe11ba042f","deleted_on":null,"deleted_by_id":null,"tenant_id":"00000000-0000-0000-0000-000000000000","profile_id":"0193a649-e3d0-7881-8b7f-2ef1d89a9aff","name":"Vacation Funds","product_id":"019610a0-d9e7-777e-bc8a-4a1a3765d930","account_id":"0193a699-2f15-7881-8b7f-ae50980bcfad","is_fixed":false,"allow_top_up":false,"cba_id":"517","deposit":27881076,"interest_earned":0,"balance":0,"end_date":"2026-04-07T14:27:19.424Z","start_date":"2025-04-07T14:27:19.424Z","periodic_amount":2323423,"interest_rate":"10.00","interest_period":"yearly","tenor_value":1,"tenor_period":"years","interest_compounding_period":"yearly","interest_posting_period":"yearly","status":"active"},{"id":"019610a2-c04f-777e-bc8a-6dc7d7e48098","meta":null,"created_on":"2025-04-07T14:23:43.881Z","created_by_id":"019372de-17ef-7cc2-8fc0-43fe11ba042f","modified_on":"2025-04-07T14:23:43.881Z","modified_by_id":"019372de-17ef-7cc2-8fc0-43fe11ba042f","deleted_on":null,"deleted_by_id":null,"tenant_id":"00000000-0000-0000-0000-000000000000","profile_id":"0193a649-e3d0-7881-8b7f-2ef1d89a9aff","name":"Vacation Funds","product_id":"019610a0-d9e7-777e-bc8a-4a1a3765d930","account_id":"0193a699-2f15-7881-8b7f-ae50980bcfad","is_fixed":false,"allow_top_up":false,"cba_id":"516","deposit":27881076,"interest_earned":0,"balance":0,"end_date":"2026-04-07T14:23:42.900Z","start_date":"2025-04-07T14:23:42.900Z","periodic_amount":2323423,"interest_rate":"10.00","interest_period":"yearly","tenor_value":1,"tenor_period":"years","interest_compounding_period":"yearly","interest_posting_period":"yearly","status":"active"}],"meta":{"page":1,"total_pages":2,"total_items":13}}