{"status":"success","data":[{"id":"0196a72f-6466-7bbe-a0f8-c06ac0e1e27b","meta":null,"created_on":"2025-05-06T20:00:23.142Z","created_by_id":"01927265-4ed2-79cc-a0e6-e11339a359f3","modified_on":"2025-05-06T20:00:23.142Z","modified_by_id":null,"deleted_on":null,"deleted_by_id":null,"tenant_id":"00000000-0000-0000-0000-000000000000","account_id":"0193a699-2f15-7881-8b7f-ae50980bcfad","profile_id":"0193a649-e3d0-7881-8b7f-2ef1d89a9aff","cba_id":null,"currency":"NGN","amount":"2300.00","balance_after":null,"reference":"TFKLHWW351QJ","processor_reference":null,"processor_status":null,"processor_message":null,"status":"success","entry_type":"credit","narration":"Dispute resolved for transaction TFKLHWW351QJ","transaction_date":"2025-05-06T20:00:23.140Z","transaction_type":"bill-payment-reversal","processor":"cba","reviewed_on":null,"reviewed_by":null,"batch_id":null,"schedule_id":null,"account":{"id":"0193a699-2f15-7881-8b7f-ae50980bcfad","meta":null,"created_on":"2024-12-08T14:07:57.204Z","created_by_id":null,"modified_on":"2025-05-07T18:45:23.696Z","modified_by_id":"019372de-17ef-7cc2-8fc0-43fe11ba042f","deleted_on":null,"deleted_by_id":null,"tenant_id":"00000000-0000-0000-0000-000000000000","name":"expenses","type":"account","cba_id":"0000000074","status":"active","profile_id":"0193a649-e3d0-7881-8b7f-2ef1d89a9aff","account_number":"0000000074","bank_id":"0193324f-cad0-7f86-923b-43fb21ac5b29","ledger_balance":"702578971.40","hold_balance":"10001000.00","available_balance":"692577971.40","currency":"NGN","restricted":false},"transfer":null,"disputes":[],"batch":null,"transfer_beneficiary":null,"bill_payment_beneficiary":null},{"id":"0196a724-e6a2-7668-87f5-305cb80e83bc","meta":null,"created_on":"2025-05-06T19:48:55.826Z","created_by_id":"019372de-17ef-7cc2-8fc0-43fe11ba042f","modified_on":"2025-05-06T19:49:03.074Z","modified_by_id":"019372de-17ef-7cc2-8fc0-43fe11ba042f","deleted_on":null,"deleted_by_id":null,"tenant_id":"00000000-0000-0000-0000-000000000000","account_id":"0193a699-2f15-7881-8b7f-ae50980bcfad","profile_id":"0193a649-e3d0-7881-8b7f-2ef1d89a9aff","cba_id":"4582","currency":"NGN","amount":"10.00","balance_after":null,"reference":"T7016Y0LFEQD","processor_reference":null,"processor_status":null,"processor_message":null,"status":"success","entry_type":"debit","narration":"Sodiq","transaction_date":"2025-05-06T19:48:55.383Z","transaction_type":"fee","processor":"cba","reviewed_on":null,"reviewed_by":null,"batch_id":null,"schedule_id":null,"account":{"id":"0193a699-2f15-7881-8b7f-ae50980bcfad","meta":null,"created_on":"2024-12-08T14:07:57.204Z","created_by_id":null,"modified_on":"2025-05-07T18:45:23.696Z","modified_by_id":"019372de-17ef-7cc2-8fc0-43fe11ba042f","deleted_on":null,"deleted_by_id":null,"tenant_id":"00000000-0000-0000-0000-000000000000","name":"expenses","type":"account","cba_id":"0000000074","status":"active","profile_id":"0193a649-e3d0-7881-8b7f-2ef1d89a9aff","account_number":"0000000074","bank_id":"0193324f-cad0-7f86-923b-43fb21ac5b29","ledger_balance":"702578971.40","hold_balance":"10001000.00","available_balance":"692577971.40","currency":"NGN","restricted":false},"transfer":null,"disputes":[],"batch":null,"transfer_beneficiary":null,"bill_payment_beneficiary":null},{"id":"0196a724-e1bd-7668-87f5-27a6081516b0","meta":null,"created_on":"2025-05-06T19:48:54.570Z","created_by_id":"019372de-17ef-7cc2-8fc0-43fe11ba042f","modified_on":"2025-05-06T19:49:03.074Z","modified_by_id":"019372de-17ef-7cc2-8fc0-43fe11ba042f","deleted_on":null,"deleted_by_id":null,"tenant_id":"00000000-0000-0000-0000-000000000000","account_id":"0193a699-2f15-7881-8b7f-ae50980bcfad","profile_id":"0193a649-e3d0-7881-8b7f-2ef1d89a9aff","cba_id":null,"currency":"NGN","amount":"2000.00","balance_after":null,"reference":"T7016Y0LFEQD","processor_reference":null,"processor_status":null,"processor_message":null,"status":"success","entry_type":"debit","narration":"Sodiq","transaction_date":"2025-05-06T19:48:54.126Z","transaction_type":"transfer","processor":"cba","reviewed_on":null,"reviewed_by":null,"batch_id":null,"schedule_id":null,"account":{"id":"0193a699-2f15-7881-8b7f-ae50980bcfad","meta":null,"created_on":"2024-12-08T14:07:57.204Z","created_by_id":null,"modified_on":"2025-05-07T18:45:23.696Z","modified_by_id":"019372de-17ef-7cc2-8fc0-43fe11ba042f","deleted_on":null,"deleted_by_id":null,"tenant_id":"00000000-0000-0000-0000-000000000000","name":"expenses","type":"account","cba_id":"0000000074","status":"active","profile_id":"0193a649-e3d0-7881-8b7f-2ef1d89a9aff","account_number":"0000000074","bank_id":"0193324f-cad0-7f86-923b-43fb21ac5b29","ledger_balance":"702578971.40","hold_balance":"10001000.00","available_balance":"692577971.40","currency":"NGN","restricted":false},"transfer":{"id":"0196a724-e29b-7668-87f5-2a45ba6cee04","meta":null,"created_on":"2025-05-06T19:48:54.570Z","created_by_id":"019372de-17ef-7cc2-8fc0-43fe11ba042f","modified_on":"2025-05-06T19:49:03.074Z","modified_by_id":"019372de-17ef-7cc2-8fc0-43fe11ba042f","deleted_on":null,"deleted_by_id":null,"tenant_id":"00000000-0000-0000-0000-000000000000","bank_code":"050030","bank_name":"NORTHQUEST FINANCE COMPANY LIMITED ","bank_logo":"https://cdn.prod.website-files.com/67342b6ac3243e10a48bee9d/673b02614b7fc0a77c0172b2_NorthQuest%20Finance%20%20Logo-p-500.png","account_name":"Profile","account_number":"0000000371","profile_id":"0193a649-e3d0-7881-8b7f-2ef1d89a9aff","transaction_id":"0196a724-e1bd-7668-87f5-27a6081516b0","account_id":"0194ff11-c0f2-7dd9-8e54-bc5377fa7430","cba_id":"570"},"disputes":[],"batch":null,"transfer_beneficiary":null,"bill_payment_beneficiary":null},{"id":"0196a715-d77d-7bbe-a0f8-98a317538755","meta":null,"created_on":"2025-05-06T19:32:28.663Z","created_by_id":"019372de-17ef-7cc2-8fc0-43fe11ba042f","modified_on":"2025-05-06T19:32:30.158Z","modified_by_id":"019372de-17ef-7cc2-8fc0-43fe11ba042f","deleted_on":null,"deleted_by_id":null,"tenant_id":"00000000-0000-0000-0000-000000000000","account_id":"0193a699-2f15-7881-8b7f-ae50980bcfad","profile_id":"0193a649-e3d0-7881-8b7f-2ef1d89a9aff","cba_id":null,"currency":"NGN","amount":"1.00","balance_after":null,"reference":"T18QP43WZ8EI","processor_reference":null,"processor_status":null,"processor_message":null,"status":"success","entry_type":"debit","narration":null,"transaction_date":"2025-05-06T19:32:28.669Z","transaction_type":"saving-withdrawal","processor":"cba","reviewed_on":null,"reviewed_by":null,"batch_id":null,"schedule_id":null,"account":{"id":"0193a699-2f15-7881-8b7f-ae50980bcfad","meta":null,"created_on":"2024-12-08T14:07:57.204Z","created_by_id":null,"modified_on":"2025-05-07T18:45:23.696Z","modified_by_id":"019372de-17ef-7cc2-8fc0-43fe11ba042f","deleted_on":null,"deleted_by_id":null,"tenant_id":"00000000-0000-0000-0000-000000000000","name":"expenses","type":"account","cba_id":"0000000074","status":"active","profile_id":"0193a649-e3d0-7881-8b7f-2ef1d89a9aff","account_number":"0000000074","bank_id":"0193324f-cad0-7f86-923b-43fb21ac5b29","ledger_balance":"702578971.40","hold_balance":"10001000.00","available_balance":"692577971.40","currency":"NGN","restricted":false},"transfer":null,"disputes":[],"batch":null,"transfer_beneficiary":null,"bill_payment_beneficiary":null},{"id":"0196a468-1b2a-7994-b2db-34d84e60952b","meta":null,"created_on":"2025-05-06T07:03:28.257Z","created_by_id":"019372de-17ef-7cc2-8fc0-43fe11ba042f","modified_on":"2025-05-06T07:03:30.740Z","modified_by_id":"019372de-17ef-7cc2-8fc0-43fe11ba042f","deleted_on":null,"deleted_by_id":null,"tenant_id":"00000000-0000-0000-0000-000000000000","account_id":"0193a699-2f15-7881-8b7f-ae50980bcfad","profile_id":"0193a649-e3d0-7881-8b7f-2ef1d89a9aff","cba_id":null,"currency":"NGN","amount":"10.00","balance_after":null,"reference":"TA5MQ338UOZ0","processor_reference":null,"processor_status":null,"processor_message":null,"status":"success","entry_type":"debit","narration":null,"transaction_date":"2025-05-06T07:03:28.295Z","transaction_type":"saving-withdrawal","processor":"cba","reviewed_on":null,"reviewed_by":null,"batch_id":null,"schedule_id":null,"account":{"id":"0193a699-2f15-7881-8b7f-ae50980bcfad","meta":null,"created_on":"2024-12-08T14:07:57.204Z","created_by_id":null,"modified_on":"2025-05-07T18:45:23.696Z","modified_by_id":"019372de-17ef-7cc2-8fc0-43fe11ba042f","deleted_on":null,"deleted_by_id":null,"tenant_id":"00000000-0000-0000-0000-000000000000","name":"expenses","type":"account","cba_id":"0000000074","status":"active","profile_id":"0193a649-e3d0-7881-8b7f-2ef1d89a9aff","account_number":"0000000074","bank_id":"0193324f-cad0-7f86-923b-43fb21ac5b29","ledger_balance":"702578971.40","hold_balance":"10001000.00","available_balance":"692577971.40","currency":"NGN","restricted":false},"transfer":null,"disputes":[],"batch":null,"transfer_beneficiary":null,"bill_payment_beneficiary":null},{"id":"01969cf8-fa1b-7eeb-b171-b1cd29c2e5a4","meta":null,"created_on":"2025-05-04T20:24:44.827Z","created_by_id":"019372de-17ef-7cc2-8fc0-43fe11ba042f","modified_on":"2025-05-04T20:25:14.713Z","modified_by_id":"019372de-17ef-7cc2-8fc0-43fe11ba042f","deleted_on":null,"deleted_by_id":null,"tenant_id":"00000000-0000-0000-0000-000000000000","account_id":"0193a699-2f15-7881-8b7f-ae50980bcfad","profile_id":"0193a649-e3d0-7881-8b7f-2ef1d89a9aff","cba_id":"4556","currency":"NGN","amount":"2300.00","balance_after":"693677692.40","reference":"TFKLHWW351QJ","processor_reference":null,"processor_status":null,"processor_message":null,"status":"success","entry_type":"debit","narration":"Bill payment to abuja_electric_postpaid for 2345678903","transaction_date":"2025-05-04T20:24:44.825Z","transaction_type":"bill-payment","processor":"baxipay","reviewed_on":null,"reviewed_by":null,"batch_id":null,"schedule_id":null,"account":{"id":"0193a699-2f15-7881-8b7f-ae50980bcfad","meta":null,"created_on":"2024-12-08T14:07:57.204Z","created_by_id":null,"modified_on":"2025-05-07T18:45:23.696Z","modified_by_id":"019372de-17ef-7cc2-8fc0-43fe11ba042f","deleted_on":null,"deleted_by_id":null,"tenant_id":"00000000-0000-0000-0000-000000000000","name":"expenses","type":"account","cba_id":"0000000074","status":"active","profile_id":"0193a649-e3d0-7881-8b7f-2ef1d89a9aff","account_number":"0000000074","bank_id":"0193324f-cad0-7f86-923b-43fb21ac5b29","ledger_balance":"702578971.40","hold_balance":"10001000.00","available_balance":"692577971.40","currency":"NGN","restricted":false},"transfer":null,"disputes":[{"id":"01969cf9-6edc-7eeb-b173-2d6495e2d7ff","meta":null,"created_on":"2025-05-04T20:25:14.717Z","created_by_id":"019372de-17ef-7cc2-8fc0-43fe11ba042f","modified_on":"2025-05-06T20:00:23.150Z","modified_by_id":"01927265-4ed2-79cc-a0e6-e11339a359f3","deleted_on":null,"deleted_by_id":null,"tenant_id":"00000000-0000-0000-0000-000000000000","file_id":"0194462d-2cbc-788e-b49e-8f0163251b62","transaction_id":"01969cf8-fa1b-7eeb-b171-b1cd29c2e5a4","status":"approved","note":"egbami, e no dey work","comment":"Test","reviewed_on":"2025-05-06T20:00:23.148Z","reviewed_by":"01927265-4ed2-79cc-a0e6-e11339a359f3","profile_id":"0193a649-e3d0-7881-8b7f-2ef1d89a9aff"}],"batch":null,"transfer_beneficiary":null,"bill_payment_beneficiary":null},{"id":"01969253-b628-7884-93b6-0bbdb919aadd","meta":null,"created_on":"2025-05-02T18:48:01.831Z","created_by_id":"019372de-17ef-7cc2-8fc0-43fe11ba042f","modified_on":"2025-05-02T18:48:49.300Z","modified_by_id":"019372de-17ef-7cc2-8fc0-43fe11ba042f","deleted_on":null,"deleted_by_id":null,"tenant_id":"00000000-0000-0000-0000-000000000000","account_id":"0193a699-2f15-7881-8b7f-ae50980bcfad","profile_id":"0193a649-e3d0-7881-8b7f-2ef1d89a9aff","cba_id":"4555","currency":"NGN","amount":"2300.00","balance_after":"693679992.40","reference":"TEAJCGZ1MYBU","processor_reference":null,"processor_status":null,"processor_message":null,"status":"success","entry_type":"debit","narration":"Bill payment to abuja_electric_postpaid for 2345678903","transaction_date":"2025-05-02T18:48:01.830Z","transaction_type":"bill-payment","processor":"baxipay","reviewed_on":null,"reviewed_by":null,"batch_id":null,"schedule_id":null,"account":{"id":"0193a699-2f15-7881-8b7f-ae50980bcfad","meta":null,"created_on":"2024-12-08T14:07:57.204Z","created_by_id":null,"modified_on":"2025-05-07T18:45:23.696Z","modified_by_id":"019372de-17ef-7cc2-8fc0-43fe11ba042f","deleted_on":null,"deleted_by_id":null,"tenant_id":"00000000-0000-0000-0000-000000000000","name":"expenses","type":"account","cba_id":"0000000074","status":"active","profile_id":"0193a649-e3d0-7881-8b7f-2ef1d89a9aff","account_number":"0000000074","bank_id":"0193324f-cad0-7f86-923b-43fb21ac5b29","ledger_balance":"702578971.40","hold_balance":"10001000.00","available_balance":"692577971.40","currency":"NGN","restricted":false},"transfer":null,"disputes":[{"id":"01969254-6f9e-7884-93b7-8bd5201de06a","meta":null,"created_on":"2025-05-02T18:48:49.310Z","created_by_id":"019372de-17ef-7cc2-8fc0-43fe11ba042f","modified_on":"2025-05-06T20:00:42.385Z","modified_by_id":"01927265-4ed2-79cc-a0e6-e11339a359f3","deleted_on":null,"deleted_by_id":null,"tenant_id":"00000000-0000-0000-0000-000000000000","file_id":"0194462d-2cbc-788e-b49e-8f0163251b62","transaction_id":"01969253-b628-7884-93b6-0bbdb919aadd","status":"rejected","note":"egbami, e no dey work","comment":"Transaction declined","reviewed_on":"2025-05-06T20:00:42.383Z","reviewed_by":"01927265-4ed2-79cc-a0e6-e11339a359f3","profile_id":"0193a649-e3d0-7881-8b7f-2ef1d89a9aff"}],"batch":null,"transfer_beneficiary":null,"bill_payment_beneficiary":null},{"id":"019682ab-5d99-788f-a3db-0938ac106d96","meta":null,"created_on":"2025-04-29T17:49:50.872Z","created_by_id":"01927265-4ed2-79cc-a0e6-e11339a359f3","modified_on":"2025-04-29T17:49:50.983Z","modified_by_id":"01927265-4ed2-79cc-a0e6-e11339a359f3","deleted_on":null,"deleted_by_id":null,"tenant_id":"00000000-0000-0000-0000-000000000000","account_id":"0193a699-2f15-7881-8b7f-ae50980bcfad","profile_id":"0193a649-e3d0-7881-8b7f-2ef1d89a9aff","cba_id":null,"currency":"NGN","amount":"10.00","balance_after":null,"reference":"T0BO93OX0GBQ","processor_reference":null,"processor_status":null,"processor_message":null,"status":"failed","entry_type":"credit","narration":null,"transaction_date":"2025-04-29T17:49:50.873Z","transaction_type":"saving-withdrawal","processor":"cba","reviewed_on":null,"reviewed_by":null,"batch_id":null,"schedule_id":null,"account":{"id":"0193a699-2f15-7881-8b7f-ae50980bcfad","meta":null,"created_on":"2024-12-08T14:07:57.204Z","created_by_id":null,"modified_on":"2025-05-07T18:45:23.696Z","modified_by_id":"019372de-17ef-7cc2-8fc0-43fe11ba042f","deleted_on":null,"deleted_by_id":null,"tenant_id":"00000000-0000-0000-0000-000000000000","name":"expenses","type":"account","cba_id":"0000000074","status":"active","profile_id":"0193a649-e3d0-7881-8b7f-2ef1d89a9aff","account_number":"0000000074","bank_id":"0193324f-cad0-7f86-923b-43fb21ac5b29","ledger_balance":"702578971.40","hold_balance":"10001000.00","available_balance":"692577971.40","currency":"NGN","restricted":false},"transfer":null,"disputes":[{"id":"01968805-4942-7112-b01b-7cdd695bd935","meta":null,"created_on":"2025-04-30T18:46:09.987Z","created_by_id":"019372de-17ef-7cc2-8fc0-43fe11ba042f","modified_on":"2025-04-30T18:46:09.987Z","modified_by_id":null,"deleted_on":null,"deleted_by_id":null,"tenant_id":"00000000-0000-0000-0000-000000000000","file_id":"0194462d-2cbc-788e-b49e-8f0163251b62","transaction_id":"019682ab-5d99-788f-a3db-0938ac106d96","status":"pending","note":"egbami, e no dey work","comment":null,"reviewed_on":null,"reviewed_by":null,"profile_id":"0193a649-e3d0-7881-8b7f-2ef1d89a9aff"}],"batch":null,"transfer_beneficiary":null,"bill_payment_beneficiary":null},{"id":"0196823b-2c4e-788f-a3d8-6e4ab8b2a8cd","meta":null,"created_on":"2025-04-29T15:47:18.221Z","created_by_id":"019372de-17ef-7cc2-8fc0-43fe11ba042f","modified_on":"2025-04-29T15:47:22.095Z","modified_by_id":"019372de-17ef-7cc2-8fc0-43fe11ba042f","deleted_on":null,"deleted_by_id":null,"tenant_id":"00000000-0000-0000-0000-000000000000","account_id":"0193a699-2f15-7881-8b7f-ae50980bcfad","profile_id":"0193a649-e3d0-7881-8b7f-2ef1d89a9aff","cba_id":"4519","currency":"NGN","amount":"10.00","balance_after":null,"reference":"TP4BIUHIBH2F","processor_reference":null,"processor_status":null,"processor_message":null,"status":"success","entry_type":"debit","narration":"Test","transaction_date":"2025-04-29T15:47:18.221Z","transaction_type":"fee","processor":"cba","reviewed_on":null,"reviewed_by":null,"batch_id":null,"schedule_id":null,"account":{"id":"0193a699-2f15-7881-8b7f-ae50980bcfad","meta":null,"created_on":"2024-12-08T14:07:57.204Z","created_by_id":null,"modified_on":"2025-05-07T18:45:23.696Z","modified_by_id":"019372de-17ef-7cc2-8fc0-43fe11ba042f","deleted_on":null,"deleted_by_id":null,"tenant_id":"00000000-0000-0000-0000-000000000000","name":"expenses","type":"account","cba_id":"0000000074","status":"active","profile_id":"0193a649-e3d0-7881-8b7f-2ef1d89a9aff","account_number":"0000000074","bank_id":"0193324f-cad0-7f86-923b-43fb21ac5b29","ledger_balance":"702578971.40","hold_balance":"10001000.00","available_balance":"692577971.40","currency":"NGN","restricted":false},"transfer":null,"disputes":[],"batch":null,"transfer_beneficiary":null,"bill_payment_beneficiary":null},{"id":"0196823b-2be5-788f-a3d8-5ac1c336703a","meta":null,"created_on":"2025-04-29T15:47:18.089Z","created_by_id":"019372de-17ef-7cc2-8fc0-43fe11ba042f","modified_on":"2025-04-29T15:47:22.095Z","modified_by_id":"019372de-17ef-7cc2-8fc0-43fe11ba042f","deleted_on":null,"deleted_by_id":null,"tenant_id":"00000000-0000-0000-0000-000000000000","account_id":"0193a699-2f15-7881-8b7f-ae50980bcfad","profile_id":"0193a649-e3d0-7881-8b7f-2ef1d89a9aff","cba_id":null,"currency":"NGN","amount":"1500000.00","balance_after":null,"reference":"TP4BIUHIBH2F","processor_reference":null,"processor_status":null,"processor_message":null,"status":"success","entry_type":"debit","narration":"Test","transaction_date":"2025-04-29T15:47:18.090Z","transaction_type":"transfer","processor":"cba","reviewed_on":null,"reviewed_by":null,"batch_id":null,"schedule_id":null,"account":{"id":"0193a699-2f15-7881-8b7f-ae50980bcfad","meta":null,"created_on":"2024-12-08T14:07:57.204Z","created_by_id":null,"modified_on":"2025-05-07T18:45:23.696Z","modified_by_id":"019372de-17ef-7cc2-8fc0-43fe11ba042f","deleted_on":null,"deleted_by_id":null,"tenant_id":"00000000-0000-0000-0000-000000000000","name":"expenses","type":"account","cba_id":"0000000074","status":"active","profile_id":"0193a649-e3d0-7881-8b7f-2ef1d89a9aff","account_number":"0000000074","bank_id":"0193324f-cad0-7f86-923b-43fb21ac5b29","ledger_balance":"702578971.40","hold_balance":"10001000.00","available_balance":"692577971.40","currency":"NGN","restricted":false},"transfer":{"id":"0196823b-2bed-788f-a3d8-67d0a4478511","meta":null,"created_on":"2025-04-29T15:47:18.089Z","created_by_id":"019372de-17ef-7cc2-8fc0-43fe11ba042f","modified_on":"2025-04-29T15:47:22.095Z","modified_by_id":"019372de-17ef-7cc2-8fc0-43fe11ba042f","deleted_on":null,"deleted_by_id":null,"tenant_id":"00000000-0000-0000-0000-000000000000","bank_code":"050030","bank_name":"NORTHQUEST FINANCE COMPANY LIMITED ","bank_logo":"https://cdn.prod.website-files.com/67342b6ac3243e10a48bee9d/673b02614b7fc0a77c0172b2_NorthQuest%20Finance%20%20Logo-p-500.png","account_name":"IBRAHIM AZEEZ","account_number":"9055744498","profile_id":"0193a649-e3d0-7881-8b7f-2ef1d89a9aff","transaction_id":"0196823b-2be5-788f-a3d8-5ac1c336703a","account_id":"0196822f-4685-700e-b140-f80ed33fa7db","cba_id":"553"},"disputes":[],"batch":null,"transfer_beneficiary":null,"bill_payment_beneficiary":null}],"meta":{"page":1,"total_pages":140,"total_items":1397}}