{"status":"success","data":[{"id":"019435cb-8e7d-7aa1-b635-ad7f79da04bf","meta":null,"created_on":"2025-01-05T09:28:40.316Z","created_by":null,"modified_on":"2025-01-05T09:28:40.316Z","modified_by":null,"deleted_on":null,"deleted_by":null,"name":"Intelligent Rubber Computer","slug":"intelligent-rubber-computer","description":"Regional","status":"active","profile_id":"0193a649-e3d0-7881-8b7f-2ef1d89a9aff","tenant_id":"00000000-0000-0000-0000-000000000000","userCount":6},{"id":"019435ce-7a84-7aa1-b635-bff8beae7b8e","meta":null,"created_on":"2025-01-05T09:31:51.812Z","created_by":null,"modified_on":"2025-01-05T09:31:51.812Z","modified_by":null,"deleted_on":null,"deleted_by":null,"name":"Fantastic Frozen Bike","slug":"fantastic-frozen-bike","description":"Central","status":"active","profile_id":"0193a649-e3d0-7881-8b7f-2ef1d89a9aff","tenant_id":"00000000-0000-0000-0000-000000000000","userCount":0},{"id":"019435d1-02dd-7aa1-b635-ce8df84783c8","meta":null,"created_on":"2025-01-05T09:34:37.788Z","created_by":null,"modified_on":"2025-01-05T09:34:37.788Z","modified_by":null,"deleted_on":null,"deleted_by":null,"name":"Sleek Soft Pizza","slug":"sleek-soft-pizza","description":"Senior","status":"active","profile_id":"0193a649-e3d0-7881-8b7f-2ef1d89a9aff","tenant_id":"00000000-0000-0000-0000-000000000000","userCount":0},{"id":"019435d1-53b8-7aa1-b635-dec5a3f048ff","meta":null,"created_on":"2025-01-05T09:34:58.488Z","created_by":null,"modified_on":"2025-01-05T09:34:58.488Z","modified_by":null,"deleted_on":null,"deleted_by":null,"name":"Generic Wooden Ball","slug":"generic-wooden-ball","description":"Direct","status":"active","profile_id":"0193a649-e3d0-7881-8b7f-2ef1d89a9aff","tenant_id":"00000000-0000-0000-0000-000000000000","userCount":0},{"id":"019435d1-d98c-7aa1-b635-ed5c5a319462","meta":null,"created_on":"2025-01-05T09:35:32.745Z","created_by":null,"modified_on":"2025-01-05T09:35:32.745Z","modified_by":null,"deleted_on":null,"deleted_by":null,"name":"Awesome Frozen Table","slug":"awesome-frozen-table","description":"District","status":"active","profile_id":"0193a649-e3d0-7881-8b7f-2ef1d89a9aff","tenant_id":"00000000-0000-0000-0000-000000000000","userCount":0},{"id":"019435d3-5e27-7aa1-b636-0e6113f9564e","meta":null,"created_on":"2025-01-05T09:37:12.231Z","created_by":null,"modified_on":"2025-01-05T09:37:12.231Z","modified_by":null,"deleted_on":null,"deleted_by":null,"name":"Handmade Rubber Mouse","slug":"handmade-rubber-mouse","description":"District","status":"active","profile_id":"0193a649-e3d0-7881-8b7f-2ef1d89a9aff","tenant_id":"00000000-0000-0000-0000-000000000000","userCount":0},{"id":"019435d3-e2e8-7aa1-b636-1ace58f9a14f","meta":null,"created_on":"2025-01-05T09:37:46.216Z","created_by":null,"modified_on":"2025-01-05T09:37:46.216Z","modified_by":null,"deleted_on":null,"deleted_by":null,"name":"Awesome Frozen Hat","slug":"awesome-frozen-hat","description":"Global","status":"active","profile_id":"0193a649-e3d0-7881-8b7f-2ef1d89a9aff","tenant_id":"00000000-0000-0000-0000-000000000000","userCount":0},{"id":"019435d4-2106-7aa1-b636-29de80b54443","meta":null,"created_on":"2025-01-05T09:38:02.118Z","created_by":null,"modified_on":"2025-01-05T09:38:02.118Z","modified_by":null,"deleted_on":null,"deleted_by":null,"name":"Rustic Soft Gloves","slug":"rustic-soft-gloves","description":"Senior","status":"active","profile_id":"0193a649-e3d0-7881-8b7f-2ef1d89a9aff","tenant_id":"00000000-0000-0000-0000-000000000000","userCount":0},{"id":"01926788-704b-7336-86de-a5f24f6e9083","meta":null,"created_on":"2024-10-07T15:10:47.882Z","created_by":null,"modified_on":"2024-10-07T15:10:47.882Z","modified_by":null,"deleted_on":null,"deleted_by":null,"name":"Owner","slug":"owner","description":"Owner","status":"active","profile_id":null,"tenant_id":null,"userCount":245},{"id":"0193db10-15de-7443-b5ef-dd5c807480a8","meta":null,"created_on":"2024-12-18T18:38:04.653Z","created_by":null,"modified_on":"2024-12-18T18:38:04.653Z","modified_by":null,"deleted_on":null,"deleted_by":null,"name":"Intern tester","slug":"intern-tester","description":"","status":"active","profile_id":"0193a649-e3d0-7881-8b7f-2ef1d89a9aff","tenant_id":"00000000-0000-0000-0000-000000000000","userCount":1}],"meta":{"page":1,"total_pages":2,"total_items":14}}