{"status":"success","data":[{"id":"01943737-a720-7aa1-9605-ddf04efa94e4","meta":null,"created_on":"2025-01-05T16:06:21.727Z","created_by":"019372de-17ef-7cc2-8fc0-43fe11ba042f","modified_on":"2025-01-05T16:06:23.409Z","modified_by":null,"deleted_on":null,"deleted_by":null,"tenant_id":"00000000-0000-0000-0000-000000000000","account_id":"0193a699-2f15-7881-8b7f-ae50980bcfad","profile_id":"0193a649-e3d0-7881-8b7f-2ef1d89a9aff","cba_id":"1513","currency":"NGN","amount":"10.00","reference":"Tswkxflveay","processor_reference":null,"processor_status":null,"processor_message":null,"status":"success","entry_type":"debit","narration":"fr","transaction_date":"2025-01-05T16:06:21.726Z","transaction_type":"fee","processor":"cba","reviewed_on":null,"reviewed_by":null,"batch_id":null,"schedule_id":null,"transfer":null,"transfer_beneficiary":null,"bill_payment_beneficiary":null,"disputes":[],"batch":null,"account":{"id":"0193a699-2f15-7881-8b7f-ae50980bcfad","meta":null,"created_on":"2024-12-08T14:07:57.204Z","created_by":null,"modified_on":"2025-01-05T20:07:13.656Z","modified_by":null,"deleted_on":null,"deleted_by":null,"tenant_id":"00000000-0000-0000-0000-000000000000","name":"expenses","cba_id":"0000000074","profile_id":"0193a649-e3d0-7881-8b7f-2ef1d89a9aff","account_number":"0000000074","bank_id":"0193324f-cad0-7f86-923b-43fb21ac5b29","ledger_balance":"1009427.47","hold_balance":"0.00","available_balance":"1009427.47","currency":"NGN","restricted":false}},{"id":"01943737-a71e-7aa1-9605-d7f67eefb393","meta":null,"created_on":"2025-01-05T16:06:21.726Z","created_by":"019372de-17ef-7cc2-8fc0-43fe11ba042f","modified_on":"2025-01-05T16:06:24.382Z","modified_by":null,"deleted_on":null,"deleted_by":null,"tenant_id":"00000000-0000-0000-0000-000000000000","account_id":"0193a699-2f15-7881-8b7f-ae50980bcfad","profile_id":"0193a649-e3d0-7881-8b7f-2ef1d89a9aff","cba_id":"1517","currency":"NGN","amount":"10.00","reference":"Tmqpazernnr","processor_reference":null,"processor_status":null,"processor_message":null,"status":"success","entry_type":"debit","narration":"fff","transaction_date":"2025-01-05T16:06:21.725Z","transaction_type":"fee","processor":"cba","reviewed_on":null,"reviewed_by":null,"batch_id":null,"schedule_id":null,"transfer":null,"transfer_beneficiary":null,"bill_payment_beneficiary":null,"disputes":[],"batch":null,"account":{"id":"0193a699-2f15-7881-8b7f-ae50980bcfad","meta":null,"created_on":"2024-12-08T14:07:57.204Z","created_by":null,"modified_on":"2025-01-05T20:07:13.656Z","modified_by":null,"deleted_on":null,"deleted_by":null,"tenant_id":"00000000-0000-0000-0000-000000000000","name":"expenses","cba_id":"0000000074","profile_id":"0193a649-e3d0-7881-8b7f-2ef1d89a9aff","account_number":"0000000074","bank_id":"0193324f-cad0-7f86-923b-43fb21ac5b29","ledger_balance":"1009427.47","hold_balance":"0.00","available_balance":"1009427.47","currency":"NGN","restricted":false}},{"id":"01943737-a655-7aa1-9605-bf71f43638cb","meta":null,"created_on":"2025-01-05T16:06:21.222Z","created_by":"019372de-17ef-7cc2-8fc0-43fe11ba042f","modified_on":"2025-01-05T16:06:24.376Z","modified_by":null,"deleted_on":null,"deleted_by":null,"tenant_id":"00000000-0000-0000-0000-000000000000","account_id":"0193a699-2f15-7881-8b7f-ae50980bcfad","profile_id":"0193a649-e3d0-7881-8b7f-2ef1d89a9aff","cba_id":"1516","currency":"NGN","amount":"100.00","reference":"Tmqpazernnr","processor_reference":null,"processor_status":null,"processor_message":null,"status":"success","entry_type":"debit","narration":"fff","transaction_date":"2025-01-05T16:06:21.524Z","transaction_type":"transfer","processor":"nip","reviewed_on":null,"reviewed_by":null,"batch_id":"01943737-a527-7aa1-9605-ab1d3823c069","schedule_id":null,"transfer":{"id":"01943737-a657-7aa1-9605-c892217a7410","meta":null,"created_on":"2025-01-05T16:06:21.222Z","created_by":"019372de-17ef-7cc2-8fc0-43fe11ba042f","modified_on":"2025-01-05T16:06:21.222Z","modified_by":null,"deleted_on":null,"deleted_by":null,"tenant_id":"00000000-0000-0000-0000-000000000000","bank_code":"999998","bank_name":"vee test","bank_logo":"https://lendstack-s3.s3.us-east-2.amazonaws.com/bank_logos/035.png","account_name":"vee Test","account_number":"0112345678","profile_id":"0193a649-e3d0-7881-8b7f-2ef1d89a9aff","transaction_id":"01943737-a655-7aa1-9605-bf71f43638cb","account_id":"0193a699-2f15-7881-8b7f-ae50980bcfad"},"transfer_beneficiary":null,"bill_payment_beneficiary":null,"disputes":[],"batch":{"id":"01943737-a527-7aa1-9605-ab1d3823c069","meta":null,"created_on":"2025-01-05T16:06:21.222Z","created_by":"019372de-17ef-7cc2-8fc0-43fe11ba042f","modified_on":"2025-01-05T16:06:21.222Z","modified_by":null,"deleted_on":null,"deleted_by":null,"tenant_id":"00000000-0000-0000-0000-000000000000","status":"approved"},"account":{"id":"0193a699-2f15-7881-8b7f-ae50980bcfad","meta":null,"created_on":"2024-12-08T14:07:57.204Z","created_by":null,"modified_on":"2025-01-05T20:07:13.656Z","modified_by":null,"deleted_on":null,"deleted_by":null,"tenant_id":"00000000-0000-0000-0000-000000000000","name":"expenses","cba_id":"0000000074","profile_id":"0193a649-e3d0-7881-8b7f-2ef1d89a9aff","account_number":"0000000074","bank_id":"0193324f-cad0-7f86-923b-43fb21ac5b29","ledger_balance":"1009427.47","hold_balance":"0.00","available_balance":"1009427.47","currency":"NGN","restricted":false}},{"id":"01943737-adb1-7aa1-9605-e5a9081375bd","meta":null,"created_on":"2025-01-05T16:06:23.409Z","created_by":null,"modified_on":"2025-01-05T16:06:23.409Z","modified_by":null,"deleted_on":null,"deleted_by":null,"tenant_id":"00000000-0000-0000-0000-000000000000","account_id":"0193e462-3285-7ff7-a93e-42b71063a119","profile_id":"0193a649-e3d0-7881-8b7f-2ef1d89a9aff","cba_id":null,"currency":"NGN","amount":"2000.00","reference":"Tswkxflveay","processor_reference":null,"processor_status":null,"processor_message":null,"status":"success","entry_type":"credit","narration":"fr","transaction_date":"2025-01-05T16:06:21.441Z","transaction_type":"funding","processor":"cba","reviewed_on":null,"reviewed_by":null,"batch_id":null,"schedule_id":null,"transfer":null,"transfer_beneficiary":null,"bill_payment_beneficiary":null,"disputes":[],"batch":null,"account":{"id":"0193e462-3285-7ff7-a93e-42b71063a119","meta":null,"created_on":"2024-12-20T14:04:20.997Z","created_by":null,"modified_on":"2024-12-30T12:08:50.735Z","modified_by":null,"deleted_on":null,"deleted_by":null,"tenant_id":"00000000-0000-0000-0000-000000000000","name":"emergency","cba_id":"0000000106","profile_id":"0193a649-e3d0-7881-8b7f-2ef1d89a9aff","account_number":"0000000106","bank_id":"0193324f-cad0-7f86-923b-43fb21ac5b29","ledger_balance":"0.00","hold_balance":"0.00","available_balance":"0.00","currency":"NGN","restricted":false}},{"id":"01943737-a602-7aa1-9605-b2794242e1fb","meta":null,"created_on":"2025-01-05T16:06:21.222Z","created_by":"019372de-17ef-7cc2-8fc0-43fe11ba042f","modified_on":"2025-01-05T16:06:23.418Z","modified_by":null,"deleted_on":null,"deleted_by":null,"tenant_id":"00000000-0000-0000-0000-000000000000","account_id":"0193a699-2f15-7881-8b7f-ae50980bcfad","profile_id":"0193a649-e3d0-7881-8b7f-2ef1d89a9aff","cba_id":"357","currency":"NGN","amount":"2000.00","reference":"Tswkxflveay","processor_reference":null,"processor_status":null,"processor_message":null,"status":"success","entry_type":"debit","narration":"fr","transaction_date":"2025-01-05T16:06:21.441Z","transaction_type":"transfer","processor":"cba","reviewed_on":null,"reviewed_by":null,"batch_id":"01943737-a527-7aa1-9605-ab1d3823c069","schedule_id":null,"transfer":{"id":"01943737-a657-7aa1-9605-c2faae1af3f2","meta":null,"created_on":"2025-01-05T16:06:21.222Z","created_by":"019372de-17ef-7cc2-8fc0-43fe11ba042f","modified_on":"2025-01-05T16:06:21.222Z","modified_by":null,"deleted_on":null,"deleted_by":null,"tenant_id":"00000000-0000-0000-0000-000000000000","bank_code":"050030","bank_name":"NORTHQUEST FINANCE COMPANY LIMITED ","bank_logo":"https://lendstack-s3.s3.us-east-2.amazonaws.com/bank_logos/215.png","account_name":"Profile","account_number":"0000000106","profile_id":"0193a649-e3d0-7881-8b7f-2ef1d89a9aff","transaction_id":"01943737-a602-7aa1-9605-b2794242e1fb","account_id":"0193a699-2f15-7881-8b7f-ae50980bcfad"},"transfer_beneficiary":null,"bill_payment_beneficiary":null,"disputes":[],"batch":{"id":"01943737-a527-7aa1-9605-ab1d3823c069","meta":null,"created_on":"2025-01-05T16:06:21.222Z","created_by":"019372de-17ef-7cc2-8fc0-43fe11ba042f","modified_on":"2025-01-05T16:06:21.222Z","modified_by":null,"deleted_on":null,"deleted_by":null,"tenant_id":"00000000-0000-0000-0000-000000000000","status":"approved"},"account":{"id":"0193a699-2f15-7881-8b7f-ae50980bcfad","meta":null,"created_on":"2024-12-08T14:07:57.204Z","created_by":null,"modified_on":"2025-01-05T20:07:13.656Z","modified_by":null,"deleted_on":null,"deleted_by":null,"tenant_id":"00000000-0000-0000-0000-000000000000","name":"expenses","cba_id":"0000000074","profile_id":"0193a649-e3d0-7881-8b7f-2ef1d89a9aff","account_number":"0000000074","bank_id":"0193324f-cad0-7f86-923b-43fb21ac5b29","ledger_balance":"1009427.47","hold_balance":"0.00","available_balance":"1009427.47","currency":"NGN","restricted":false}},{"id":"01943732-88a7-7aa1-9605-93687d0cc2e3","meta":null,"created_on":"2025-01-05T16:00:46.247Z","created_by":"019372de-17ef-7cc2-8fc0-43fe11ba042f","modified_on":"2025-01-05T16:00:46.753Z","modified_by":null,"deleted_on":null,"deleted_by":null,"tenant_id":"00000000-0000-0000-0000-000000000000","account_id":"0193a699-2f15-7881-8b7f-ae50980bcfad","profile_id":"0193a649-e3d0-7881-8b7f-2ef1d89a9aff","cba_id":"1512","currency":"NGN","amount":"10.00","reference":"Talbvnegnun","processor_reference":null,"processor_status":null,"processor_message":null,"status":"processing","entry_type":"debit","narration":"","transaction_date":"2025-01-05T16:00:46.244Z","transaction_type":"fee","processor":"cba","reviewed_on":null,"reviewed_by":null,"batch_id":null,"schedule_id":null,"transfer":null,"transfer_beneficiary":null,"bill_payment_beneficiary":null,"disputes":[],"batch":null,"account":{"id":"0193a699-2f15-7881-8b7f-ae50980bcfad","meta":null,"created_on":"2024-12-08T14:07:57.204Z","created_by":null,"modified_on":"2025-01-05T20:07:13.656Z","modified_by":null,"deleted_on":null,"deleted_by":null,"tenant_id":"00000000-0000-0000-0000-000000000000","name":"expenses","cba_id":"0000000074","profile_id":"0193a649-e3d0-7881-8b7f-2ef1d89a9aff","account_number":"0000000074","bank_id":"0193324f-cad0-7f86-923b-43fb21ac5b29","ledger_balance":"1009427.47","hold_balance":"0.00","available_balance":"1009427.47","currency":"NGN","restricted":false}},{"id":"01943732-8898-7aa1-9605-832b093b1bf5","meta":null,"created_on":"2025-01-05T16:00:46.232Z","created_by":"019372de-17ef-7cc2-8fc0-43fe11ba042f","modified_on":"2025-01-05T16:00:46.232Z","modified_by":null,"deleted_on":null,"deleted_by":null,"tenant_id":"00000000-0000-0000-0000-000000000000","account_id":"0193a699-2f15-7881-8b7f-ae50980bcfad","profile_id":"0193a649-e3d0-7881-8b7f-2ef1d89a9aff","cba_id":null,"currency":"NGN","amount":"2000.00","reference":"Talbvnegnun","processor_reference":null,"processor_status":null,"processor_message":null,"status":"processing","entry_type":"debit","narration":"","transaction_date":"2025-01-05T16:00:46.222Z","transaction_type":"transfer","processor":"nip","reviewed_on":null,"reviewed_by":null,"batch_id":null,"schedule_id":null,"transfer":{"id":"01943732-889b-7aa1-9605-899c9478ca7c","meta":null,"created_on":"2025-01-05T16:00:46.232Z","created_by":"019372de-17ef-7cc2-8fc0-43fe11ba042f","modified_on":"2025-01-05T16:00:46.232Z","modified_by":null,"deleted_on":null,"deleted_by":null,"tenant_id":"00000000-0000-0000-0000-000000000000","bank_code":"050030","bank_name":"NORTHQUEST FINANCE COMPANY LIMITED ","bank_logo":"https://lendstack-s3.s3.us-east-2.amazonaws.com/bank_logos/215.png","account_name":"Profile","account_number":"0000000106","profile_id":"0193a649-e3d0-7881-8b7f-2ef1d89a9aff","transaction_id":"01943732-8898-7aa1-9605-832b093b1bf5","account_id":"0193a699-2f15-7881-8b7f-ae50980bcfad"},"transfer_beneficiary":null,"bill_payment_beneficiary":null,"disputes":[],"batch":null,"account":{"id":"0193a699-2f15-7881-8b7f-ae50980bcfad","meta":null,"created_on":"2024-12-08T14:07:57.204Z","created_by":null,"modified_on":"2025-01-05T20:07:13.656Z","modified_by":null,"deleted_on":null,"deleted_by":null,"tenant_id":"00000000-0000-0000-0000-000000000000","name":"expenses","cba_id":"0000000074","profile_id":"0193a649-e3d0-7881-8b7f-2ef1d89a9aff","account_number":"0000000074","bank_id":"0193324f-cad0-7f86-923b-43fb21ac5b29","ledger_balance":"1009427.47","hold_balance":"0.00","available_balance":"1009427.47","currency":"NGN","restricted":false}},{"id":"01943732-1296-7aa1-9605-7b58ae109da4","meta":null,"created_on":"2025-01-05T16:00:16.022Z","created_by":"019372de-17ef-7cc2-8fc0-43fe11ba042f","modified_on":"2025-01-05T16:00:16.705Z","modified_by":null,"deleted_on":null,"deleted_by":null,"tenant_id":"00000000-0000-0000-0000-000000000000","account_id":"0193a699-2f15-7881-8b7f-ae50980bcfad","profile_id":"0193a649-e3d0-7881-8b7f-2ef1d89a9aff","cba_id":"1511","currency":"NGN","amount":"10.00","reference":"Tkvgajxcjah","processor_reference":null,"processor_status":null,"processor_message":null,"status":"processing","entry_type":"debit","narration":"","transaction_date":"2025-01-05T16:00:16.021Z","transaction_type":"fee","processor":"cba","reviewed_on":null,"reviewed_by":null,"batch_id":null,"schedule_id":null,"transfer":null,"transfer_beneficiary":null,"bill_payment_beneficiary":null,"disputes":[],"batch":null,"account":{"id":"0193a699-2f15-7881-8b7f-ae50980bcfad","meta":null,"created_on":"2024-12-08T14:07:57.204Z","created_by":null,"modified_on":"2025-01-05T20:07:13.656Z","modified_by":null,"deleted_on":null,"deleted_by":null,"tenant_id":"00000000-0000-0000-0000-000000000000","name":"expenses","cba_id":"0000000074","profile_id":"0193a649-e3d0-7881-8b7f-2ef1d89a9aff","account_number":"0000000074","bank_id":"0193324f-cad0-7f86-923b-43fb21ac5b29","ledger_balance":"1009427.47","hold_balance":"0.00","available_balance":"1009427.47","currency":"NGN","restricted":false}},{"id":"01943732-1104-7aa1-9605-6d73d8b996a3","meta":null,"created_on":"2025-01-05T16:00:15.619Z","created_by":"019372de-17ef-7cc2-8fc0-43fe11ba042f","modified_on":"2025-01-05T16:00:15.619Z","modified_by":null,"deleted_on":null,"deleted_by":null,"tenant_id":"00000000-0000-0000-0000-000000000000","account_id":"0193a699-2f15-7881-8b7f-ae50980bcfad","profile_id":"0193a649-e3d0-7881-8b7f-2ef1d89a9aff","cba_id":null,"currency":"NGN","amount":"2000.00","reference":"Tkvgajxcjah","processor_reference":null,"processor_status":null,"processor_message":null,"status":"processing","entry_type":"debit","narration":"","transaction_date":"2025-01-05T16:00:15.324Z","transaction_type":"transfer","processor":"nip","reviewed_on":null,"reviewed_by":null,"batch_id":null,"schedule_id":null,"transfer":{"id":"01943732-122a-7aa1-9605-75b201331141","meta":null,"created_on":"2025-01-05T16:00:15.619Z","created_by":"019372de-17ef-7cc2-8fc0-43fe11ba042f","modified_on":"2025-01-05T16:00:15.619Z","modified_by":null,"deleted_on":null,"deleted_by":null,"tenant_id":"00000000-0000-0000-0000-000000000000","bank_code":"050030","bank_name":"NORTHQUEST FINANCE COMPANY LIMITED ","bank_logo":"https://lendstack-s3.s3.us-east-2.amazonaws.com/bank_logos/215.png","account_name":"Profile","account_number":"0000000106","profile_id":"0193a649-e3d0-7881-8b7f-2ef1d89a9aff","transaction_id":"01943732-1104-7aa1-9605-6d73d8b996a3","account_id":"0193a699-2f15-7881-8b7f-ae50980bcfad"},"transfer_beneficiary":null,"bill_payment_beneficiary":null,"disputes":[],"batch":null,"account":{"id":"0193a699-2f15-7881-8b7f-ae50980bcfad","meta":null,"created_on":"2024-12-08T14:07:57.204Z","created_by":null,"modified_on":"2025-01-05T20:07:13.656Z","modified_by":null,"deleted_on":null,"deleted_by":null,"tenant_id":"00000000-0000-0000-0000-000000000000","name":"expenses","cba_id":"0000000074","profile_id":"0193a649-e3d0-7881-8b7f-2ef1d89a9aff","account_number":"0000000074","bank_id":"0193324f-cad0-7f86-923b-43fb21ac5b29","ledger_balance":"1009427.47","hold_balance":"0.00","available_balance":"1009427.47","currency":"NGN","restricted":false}},{"id":"0194372f-b963-7aa1-9605-50d71bdc4cbc","meta":null,"created_on":"2025-01-05T15:57:42.114Z","created_by":"019372de-17ef-7cc2-8fc0-43fe11ba042f","modified_on":"2025-01-05T15:57:43.324Z","modified_by":null,"deleted_on":null,"deleted_by":null,"tenant_id":"00000000-0000-0000-0000-000000000000","account_id":"0193a699-2f15-7881-8b7f-ae50980bcfad","profile_id":"0193a649-e3d0-7881-8b7f-2ef1d89a9aff","cba_id":"1510","currency":"NGN","amount":"10.00","reference":"Ttxnufyrbpb","processor_reference":null,"processor_status":null,"processor_message":null,"status":"processing","entry_type":"debit","narration":"","transaction_date":"2025-01-05T15:57:42.113Z","transaction_type":"fee","processor":"cba","reviewed_on":null,"reviewed_by":null,"batch_id":null,"schedule_id":null,"transfer":null,"transfer_beneficiary":null,"bill_payment_beneficiary":null,"disputes":[],"batch":null,"account":{"id":"0193a699-2f15-7881-8b7f-ae50980bcfad","meta":null,"created_on":"2024-12-08T14:07:57.204Z","created_by":null,"modified_on":"2025-01-05T20:07:13.656Z","modified_by":null,"deleted_on":null,"deleted_by":null,"tenant_id":"00000000-0000-0000-0000-000000000000","name":"expenses","cba_id":"0000000074","profile_id":"0193a649-e3d0-7881-8b7f-2ef1d89a9aff","account_number":"0000000074","bank_id":"0193324f-cad0-7f86-923b-43fb21ac5b29","ledger_balance":"1009427.47","hold_balance":"0.00","available_balance":"1009427.47","currency":"NGN","restricted":false}}],"meta":{"page":1,"total_pages":29,"total_items":283}}