{"status":"success","data":[{"id":"019527ef-b18d-7441-bd2f-8849e2c33ac1","meta":null,"created_on":"2025-02-21T09:56:14.872Z","created_by_id":"01927265-4ed2-79cc-a0e6-e11339a359f3","modified_on":"2025-02-21T09:56:14.872Z","modified_by_id":null,"deleted_on":null,"deleted_by_id":null,"tenant_id":"00000000-0000-0000-0000-000000000000","configurable":false,"title":"Investment Liquidation Pending","body":"<p>Investment Liquidation Pending</p>","variables":null},{"id":"019527ef-afbe-7441-bd2f-7c9c01e5294b","meta":null,"created_on":"2025-02-21T09:56:14.409Z","created_by_id":"01927265-4ed2-79cc-a0e6-e11339a359f3","modified_on":"2025-02-21T09:56:14.409Z","modified_by_id":null,"deleted_on":null,"deleted_by_id":null,"tenant_id":"00000000-0000-0000-0000-000000000000","configurable":false,"title":"Director Verification Approved","body":"<p>Director Verification Approved</p>","variables":null},{"id":"019527ef-ade6-7441-bd2f-6d08cbba3f28","meta":null,"created_on":"2025-02-21T09:56:13.935Z","created_by_id":"01927265-4ed2-79cc-a0e6-e11339a359f3","modified_on":"2025-02-21T09:56:13.935Z","modified_by_id":null,"deleted_on":null,"deleted_by_id":null,"tenant_id":"00000000-0000-0000-0000-000000000000","configurable":false,"title":"Director Verification Rejected","body":"<p>Director Verification Rejected</p>","variables":null},{"id":"019527ef-abfd-7441-bd2f-5b2d2e07e0ca","meta":null,"created_on":"2025-02-21T09:56:13.445Z","created_by_id":"01927265-4ed2-79cc-a0e6-e11339a359f3","modified_on":"2025-02-21T09:56:13.445Z","modified_by_id":null,"deleted_on":null,"deleted_by_id":null,"tenant_id":"00000000-0000-0000-0000-000000000000","configurable":false,"title":"Invite Director","body":"<p>Invite Director</p>","variables":null},{"id":"019527ef-aa16-7441-bd2f-4cb1333f2bad","meta":null,"created_on":"2025-02-21T09:56:12.958Z","created_by_id":"01927265-4ed2-79cc-a0e6-e11339a359f3","modified_on":"2025-02-21T09:56:12.958Z","modified_by_id":null,"deleted_on":null,"deleted_by_id":null,"tenant_id":"00000000-0000-0000-0000-000000000000","configurable":false,"title":"Investment Liquidation Rejected","body":"<p>Investment Liquidation Rejected</p>","variables":null},{"id":"019527ef-a84c-7441-bd2f-3aaef1483228","meta":null,"created_on":"2025-02-21T09:56:12.503Z","created_by_id":"01927265-4ed2-79cc-a0e6-e11339a359f3","modified_on":"2025-02-21T09:56:12.503Z","modified_by_id":null,"deleted_on":null,"deleted_by_id":null,"tenant_id":"00000000-0000-0000-0000-000000000000","configurable":false,"title":"Investment Liquidation Approved","body":"<p>Investment Liquidation Approved</p>","variables":null},{"id":"019527ef-a67f-7441-bd2f-2c7012cd8868","meta":null,"created_on":"2025-02-21T09:56:12.039Z","created_by_id":"01927265-4ed2-79cc-a0e6-e11339a359f3","modified_on":"2025-02-21T09:56:12.039Z","modified_by_id":null,"deleted_on":null,"deleted_by_id":null,"tenant_id":"00000000-0000-0000-0000-000000000000","configurable":false,"title":"Investment Matured","body":"<p>Investment Matured</p>","variables":null},{"id":"019527ef-a4ae-7441-bd2f-1b5e5f130513","meta":null,"created_on":"2025-02-21T09:56:11.574Z","created_by_id":"01927265-4ed2-79cc-a0e6-e11339a359f3","modified_on":"2025-02-21T09:56:11.574Z","modified_by_id":null,"deleted_on":null,"deleted_by_id":null,"tenant_id":"00000000-0000-0000-0000-000000000000","configurable":false,"title":"Investment Reinvest","body":"<p>Investment Reinvest</p>","variables":null},{"id":"019527ef-a2e1-7441-bd2f-0eb624e500fc","meta":null,"created_on":"2025-02-21T09:56:11.115Z","created_by_id":"01927265-4ed2-79cc-a0e6-e11339a359f3","modified_on":"2025-02-21T09:56:11.115Z","modified_by_id":null,"deleted_on":null,"deleted_by_id":null,"tenant_id":"00000000-0000-0000-0000-000000000000","configurable":false,"title":"Investment Failed","body":"<p>Investment Failed</p>","variables":null},{"id":"019527ef-a119-7441-bd2e-fa2db62164df","meta":null,"created_on":"2025-02-21T09:56:10.659Z","created_by_id":"01927265-4ed2-79cc-a0e6-e11339a359f3","modified_on":"2025-02-21T09:56:10.659Z","modified_by_id":null,"deleted_on":null,"deleted_by_id":null,"tenant_id":"00000000-0000-0000-0000-000000000000","configurable":false,"title":"Investment Successful","body":"<p>Investment Successful</p>","variables":null}],"meta":{"page":1,"total_pages":6,"total_items":58}}