{"status":"success","data":[{"id":"01952804-549c-7bb6-842e-f35ac449b780","meta":null,"created_on":"2025-02-21T10:18:47.325Z","created_by_id":"01952804-3fdf-7bb6-842e-9fcd453b1e77","modified_on":"2025-02-21T10:22:29.200Z","modified_by_id":"01952804-3fdf-7bb6-842e-9fcd453b1e77","deleted_on":null,"deleted_by_id":null,"tenant_id":"00000000-0000-0000-0000-000000000000","name":"Adex Teslim","type":"personal","status":"active","review":null,"allowed_time_periods":null,"primary_user_id":"01952804-3fdf-7bb6-842e-9fcd453b1e77","tier_id":"01928f2d-6756-755b-8a9d-c8094db2af27","primary_user":{"id":"01952804-3fdf-7bb6-842e-9fcd453b1e77","meta":null,"created_on":"2025-02-21T10:18:42.015Z","created_by_id":null,"modified_on":"2025-02-21T10:32:14.560Z","modified_by_id":"01952804-3fdf-7bb6-842e-9fcd453b1e77","deleted_on":null,"deleted_by_id":null,"tenant_id":"00000000-0000-0000-0000-000000000000","email":"logoo@mailinator.com","status":"active","first_name":"Adex","last_name":"Teslim","twofa_enabled":false,"last_active":"2025-02-21T10:32:14.559Z","last_ip":"172.70.91.140","allowed_ips":null,"last_timezone":"Europe/London","last_location":"London","phone":"+2348138096700","review":null,"gender":"female","date_of_birth":"1994-06-20","cba_id":"79","photo_id":null,"referral_code":"5QSWNM","allowed_locations":null,"referred_by":"019372de-17ef-7cc2-8fc0-43fe11ba042f"},"tier":{"id":"01928f2d-6756-755b-8a9d-c8094db2af27","meta":null,"created_on":"2024-10-15T07:56:10.789Z","created_by_id":null,"modified_on":"2025-01-23T15:14:24.513Z","modified_by_id":"01927265-4ed2-79cc-a0e6-e11339a359f3","deleted_on":null,"deleted_by_id":null,"tenant_id":"00000000-0000-0000-0000-000000000000","profile_type":"personal","name":"Tier 1","description":"Tier 1","level":1,"enabled":true,"balance_limit":2000000,"single_sending_limit":500000,"single_receiving_limit":500000,"period_sending_limit":500000,"period_sending_limit_time_unit":"day","period_receiving_limit":500000,"period_receiving_limit_time_unit":"day","requirements":[{"id":"019318f9-c895-744d-8f65-4636cc26dd1c","type_id":"019318f9-c895-744d-8f65-4636cc26dd1c","type":"verification","slug":"phone","name":"Phone","description":"Verify yor number"},{"id":"019318f9-c895-744d-8f65-4636cc26dd1d","type_id":"019318f9-c895-744d-8f65-4636cc26dd1d","type":"verification","slug":"email","name":"Email","description":"Verify your email"},{"id":"019318f9-c895-744d-8f65-4636cc26dd1f","type_id":"019318f9-c895-744d-8f65-4636cc26dd1f","type":"verification","slug":"liveness","name":"Image liveness check","description":"This step helps us verify your identity by matching your image with the credentials you’ve provided."},{"id":"01933d40-03e5-777c-a6e6-bf72eb1c8968","type_id":"01933d40-03e5-777c-a6e6-bf72eb1c8968","type":"verification","slug":"bvn","name":"BVN","description":"BVN"}]}},{"id":"01952800-4253-7bb6-842e-131b598460ef","meta":null,"created_on":"2025-02-21T10:14:20.499Z","created_by_id":"01952800-2691-7bb6-842d-be6fefdfe788","modified_on":"2025-02-21T10:14:20.499Z","modified_by_id":null,"deleted_on":null,"deleted_by_id":null,"tenant_id":"00000000-0000-0000-0000-000000000000","name":"Fred Isitt","type":"personal","status":"active","review":null,"allowed_time_periods":null,"primary_user_id":"01952800-2691-7bb6-842d-be6fefdfe788","tier_id":null,"primary_user":{"id":"01952800-2691-7bb6-842d-be6fefdfe788","meta":null,"created_on":"2025-02-21T10:14:13.326Z","created_by_id":null,"modified_on":"2025-02-21T10:17:41.586Z","modified_by_id":"01952800-2691-7bb6-842d-be6fefdfe788","deleted_on":null,"deleted_by_id":null,"tenant_id":"00000000-0000-0000-0000-000000000000","email":"logo@mailinator.com","status":"active","first_name":"Fred","last_name":"Isitt","twofa_enabled":false,"last_active":"2025-02-21T10:17:41.585Z","last_ip":"172.71.102.228","allowed_ips":null,"last_timezone":"Europe/Amsterdam","last_location":"Amsterdam","phone":"+2348138096444","review":null,"gender":null,"date_of_birth":null,"cba_id":null,"photo_id":null,"referral_code":"R98ZN2","allowed_locations":null,"referred_by":"019372de-17ef-7cc2-8fc0-43fe11ba042f"},"tier":null},{"id":"019527b9-bc11-7bb6-8429-ed1386ad1d6c","meta":null,"created_on":"2025-02-21T08:57:18.609Z","created_by_id":"019527b9-a642-7bb6-8429-95c15b1f1347","modified_on":"2025-02-21T08:58:35.824Z","modified_by_id":"019527b9-a642-7bb6-8429-95c15b1f1347","deleted_on":null,"deleted_by_id":null,"tenant_id":"00000000-0000-0000-0000-000000000000","name":"Slate Brown","type":"personal","status":"active","review":null,"allowed_time_periods":null,"primary_user_id":"019527b9-a642-7bb6-8429-95c15b1f1347","tier_id":"01928f2d-6756-755b-8a9d-c8094db2af27","primary_user":{"id":"019527b9-a642-7bb6-8429-95c15b1f1347","meta":null,"created_on":"2025-02-21T08:57:13.026Z","created_by_id":null,"modified_on":"2025-02-21T09:02:09.679Z","modified_by_id":"019527b9-a642-7bb6-8429-95c15b1f1347","deleted_on":null,"deleted_by_id":null,"tenant_id":"00000000-0000-0000-0000-000000000000","email":"brownn@mailinator.com","status":"active","first_name":"Slate","last_name":"Brown","twofa_enabled":false,"last_active":"2025-02-21T09:02:09.678Z","last_ip":"172.71.182.7","allowed_ips":null,"last_timezone":"Europe/Amsterdam","last_location":"Amsterdam","phone":"+2348138096211","review":null,"gender":"female","date_of_birth":"1994-06-20","cba_id":"77","photo_id":null,"referral_code":"ZVOIXK","allowed_locations":null,"referred_by":"019372de-17ef-7cc2-8fc0-43fe11ba042f"},"tier":{"id":"01928f2d-6756-755b-8a9d-c8094db2af27","meta":null,"created_on":"2024-10-15T07:56:10.789Z","created_by_id":null,"modified_on":"2025-01-23T15:14:24.513Z","modified_by_id":"01927265-4ed2-79cc-a0e6-e11339a359f3","deleted_on":null,"deleted_by_id":null,"tenant_id":"00000000-0000-0000-0000-000000000000","profile_type":"personal","name":"Tier 1","description":"Tier 1","level":1,"enabled":true,"balance_limit":2000000,"single_sending_limit":500000,"single_receiving_limit":500000,"period_sending_limit":500000,"period_sending_limit_time_unit":"day","period_receiving_limit":500000,"period_receiving_limit_time_unit":"day","requirements":[{"id":"019318f9-c895-744d-8f65-4636cc26dd1f","type_id":"019318f9-c895-744d-8f65-4636cc26dd1f","type":"verification","slug":"liveness","name":"Image liveness check","description":"This step helps us verify your identity by matching your image with the credentials you’ve provided."},{"id":"019318f9-c895-744d-8f65-4636cc26dd1c","type_id":"019318f9-c895-744d-8f65-4636cc26dd1c","type":"verification","slug":"phone","name":"Phone","description":"Verify yor number"},{"id":"019318f9-c895-744d-8f65-4636cc26dd1d","type_id":"019318f9-c895-744d-8f65-4636cc26dd1d","type":"verification","slug":"email","name":"Email","description":"Verify your email"},{"id":"01933d40-03e5-777c-a6e6-bf72eb1c8968","type_id":"01933d40-03e5-777c-a6e6-bf72eb1c8968","type":"verification","slug":"bvn","name":"BVN","description":"BVN"}]}},{"id":"019527ac-8ead-7bb6-8428-0f5ba4b92801","meta":null,"created_on":"2025-02-21T08:42:55.021Z","created_by_id":"019527ac-7727-7bb6-8427-b400055ad8d7","modified_on":"2025-02-21T08:44:00.148Z","modified_by_id":"019527ac-7727-7bb6-8427-b400055ad8d7","deleted_on":null,"deleted_by_id":null,"tenant_id":"00000000-0000-0000-0000-000000000000","name":"plen tier","type":"personal","status":"active","review":null,"allowed_time_periods":null,"primary_user_id":"019527ac-7727-7bb6-8427-b400055ad8d7","tier_id":"01928f2d-6756-755b-8a9d-c8094db2af27","primary_user":{"id":"019527ac-7727-7bb6-8427-b400055ad8d7","meta":null,"created_on":"2025-02-21T08:42:48.999Z","created_by_id":null,"modified_on":"2025-02-21T09:47:42.814Z","modified_by_id":"019527ac-7727-7bb6-8427-b400055ad8d7","deleted_on":null,"deleted_by_id":null,"tenant_id":"00000000-0000-0000-0000-000000000000","email":"stran@yopmail.com","status":"active","first_name":"plen","last_name":"tier","twofa_enabled":false,"last_active":"2025-02-21T09:47:42.813Z","last_ip":"172.70.47.123","allowed_ips":null,"last_timezone":"Europe/Amsterdam","last_location":"Amsterdam","phone":"+2348138096675","review":null,"gender":"female","date_of_birth":"1994-06-20","cba_id":"76","photo_id":null,"referral_code":"69O841","allowed_locations":null,"referred_by":"019372de-17ef-7cc2-8fc0-43fe11ba042f"},"tier":{"id":"01928f2d-6756-755b-8a9d-c8094db2af27","meta":null,"created_on":"2024-10-15T07:56:10.789Z","created_by_id":null,"modified_on":"2025-01-23T15:14:24.513Z","modified_by_id":"01927265-4ed2-79cc-a0e6-e11339a359f3","deleted_on":null,"deleted_by_id":null,"tenant_id":"00000000-0000-0000-0000-000000000000","profile_type":"personal","name":"Tier 1","description":"Tier 1","level":1,"enabled":true,"balance_limit":2000000,"single_sending_limit":500000,"single_receiving_limit":500000,"period_sending_limit":500000,"period_sending_limit_time_unit":"day","period_receiving_limit":500000,"period_receiving_limit_time_unit":"day","requirements":[{"id":"019318f9-c895-744d-8f65-4636cc26dd1f","type_id":"019318f9-c895-744d-8f65-4636cc26dd1f","type":"verification","slug":"liveness","name":"Image liveness check","description":"This step helps us verify your identity by matching your image with the credentials you’ve provided."},{"id":"01933d40-03e5-777c-a6e6-bf72eb1c8968","type_id":"01933d40-03e5-777c-a6e6-bf72eb1c8968","type":"verification","slug":"bvn","name":"BVN","description":"BVN"},{"id":"019318f9-c895-744d-8f65-4636cc26dd1d","type_id":"019318f9-c895-744d-8f65-4636cc26dd1d","type":"verification","slug":"email","name":"Email","description":"Verify your email"},{"id":"019318f9-c895-744d-8f65-4636cc26dd1c","type_id":"019318f9-c895-744d-8f65-4636cc26dd1c","type":"verification","slug":"phone","name":"Phone","description":"Verify yor number"}]}},{"id":"01951eff-ccbb-7aa2-a9da-0a2562412f9a","meta":null,"created_on":"2025-02-19T16:17:15.451Z","created_by_id":"01951eff-b044-7aa2-a9d9-f012a11e4578","modified_on":"2025-02-19T16:17:15.451Z","modified_by_id":null,"deleted_on":null,"deleted_by_id":null,"tenant_id":"00000000-0000-0000-0000-000000000000","name":"Ibrahim Azeez","type":"personal","status":"active","review":null,"allowed_time_periods":null,"primary_user_id":"01951eff-b044-7aa2-a9d9-f012a11e4578","tier_id":null,"primary_user":{"id":"01951eff-b044-7aa2-a9d9-f012a11e4578","meta":null,"created_on":"2025-02-19T16:17:08.163Z","created_by_id":null,"modified_on":"2025-02-20T09:33:59.342Z","modified_by_id":"01951eff-b044-7aa2-a9d9-f012a11e4578","deleted_on":null,"deleted_by_id":null,"tenant_id":"00000000-0000-0000-0000-000000000000","email":"cat@mailinator.com","status":"active","first_name":"Ibrahim","last_name":"Azeez","twofa_enabled":false,"last_active":"2025-02-20T09:33:59.341Z","last_ip":"197.234.242.158","allowed_ips":null,"last_timezone":"Africa/Johannesburg","last_location":"Johannesburg","phone":"+23409055744871","review":null,"gender":null,"date_of_birth":null,"cba_id":null,"photo_id":null,"referral_code":"0FZSB4","allowed_locations":null,"referred_by":null},"tier":null},{"id":"01951b4d-eb77-7885-9dd3-63dac9bebc76","meta":null,"created_on":"2025-02-18T23:04:06.261Z","created_by_id":"01951b4d-d3fa-7885-9dd3-4a3db9ebd627","modified_on":"2025-02-20T23:05:15.918Z","modified_by_id":"01951b4d-d3fa-7885-9dd3-4a3db9ebd627","deleted_on":null,"deleted_by_id":null,"tenant_id":"00000000-0000-0000-0000-000000000000","name":"Amidamaru Yisau","type":"personal","status":"active","review":null,"allowed_time_periods":null,"primary_user_id":"01951b4d-d3fa-7885-9dd3-4a3db9ebd627","tier_id":"01928f2d-6756-755b-8a9d-c8094db2af27","primary_user":{"id":"01951b4d-d3fa-7885-9dd3-4a3db9ebd627","meta":null,"created_on":"2025-02-18T23:04:00.249Z","created_by_id":null,"modified_on":"2025-02-20T23:12:37.998Z","modified_by_id":"01951b4d-d3fa-7885-9dd3-4a3db9ebd627","deleted_on":null,"deleted_by_id":null,"tenant_id":"00000000-0000-0000-0000-000000000000","email":"sammieamidamaru@gmail.com","status":"active","first_name":"Amidamaru","last_name":"Yisau","twofa_enabled":false,"last_active":"2025-02-20T23:12:37.996Z","last_ip":"172.71.178.45","allowed_ips":null,"last_timezone":"Europe/London","last_location":"London","phone":"+2348123884092","review":null,"gender":"male","date_of_birth":"1999-07-05","cba_id":"75","photo_id":null,"referral_code":"8IUHO4","allowed_locations":null,"referred_by":null},"tier":{"id":"01928f2d-6756-755b-8a9d-c8094db2af27","meta":null,"created_on":"2024-10-15T07:56:10.789Z","created_by_id":null,"modified_on":"2025-01-23T15:14:24.513Z","modified_by_id":"01927265-4ed2-79cc-a0e6-e11339a359f3","deleted_on":null,"deleted_by_id":null,"tenant_id":"00000000-0000-0000-0000-000000000000","profile_type":"personal","name":"Tier 1","description":"Tier 1","level":1,"enabled":true,"balance_limit":2000000,"single_sending_limit":500000,"single_receiving_limit":500000,"period_sending_limit":500000,"period_sending_limit_time_unit":"day","period_receiving_limit":500000,"period_receiving_limit_time_unit":"day","requirements":[{"id":"01933d40-03e5-777c-a6e6-bf72eb1c8968","type_id":"01933d40-03e5-777c-a6e6-bf72eb1c8968","type":"verification","slug":"bvn","name":"BVN","description":"BVN"},{"id":"019318f9-c895-744d-8f65-4636cc26dd1c","type_id":"019318f9-c895-744d-8f65-4636cc26dd1c","type":"verification","slug":"phone","name":"Phone","description":"Verify yor number"},{"id":"019318f9-c895-744d-8f65-4636cc26dd1d","type_id":"019318f9-c895-744d-8f65-4636cc26dd1d","type":"verification","slug":"email","name":"Email","description":"Verify your email"},{"id":"019318f9-c895-744d-8f65-4636cc26dd1f","type_id":"019318f9-c895-744d-8f65-4636cc26dd1f","type":"verification","slug":"liveness","name":"Image liveness check","description":"This step helps us verify your identity by matching your image with the credentials you’ve provided."}]}},{"id":"01951ab0-40d0-7885-9dd0-9deab59fad20","meta":null,"created_on":"2025-02-18T20:11:53.423Z","created_by_id":"01951ab0-11ac-7885-9dd0-8469ec7404e3","modified_on":"2025-02-18T20:13:35.931Z","modified_by_id":"01951ab0-11ac-7885-9dd0-8469ec7404e3","deleted_on":null,"deleted_by_id":null,"tenant_id":"00000000-0000-0000-0000-000000000000","name":"Abdussamad Yisau","type":"personal","status":"active","review":null,"allowed_time_periods":null,"primary_user_id":"01951ab0-11ac-7885-9dd0-8469ec7404e3","tier_id":"01928f2d-6756-755b-8a9d-c8094db2af27","primary_user":{"id":"01951ab0-11ac-7885-9dd0-8469ec7404e3","meta":null,"created_on":"2025-02-18T20:11:41.356Z","created_by_id":null,"modified_on":"2025-02-18T20:26:23.291Z","modified_by_id":"01951ab0-11ac-7885-9dd0-8469ec7404e3","deleted_on":null,"deleted_by_id":null,"tenant_id":"00000000-0000-0000-0000-000000000000","email":"ayisau222@gmail.com","status":"active","first_name":"Abdussamad","last_name":"Yisau","twofa_enabled":false,"last_active":"2025-02-18T20:26:23.290Z","last_ip":"172.70.90.193","allowed_ips":null,"last_timezone":"Europe/London","last_location":"London","phone":"+23409133779812","review":null,"gender":"male","date_of_birth":"1999-07-05","cba_id":"74","photo_id":null,"referral_code":"132W6E","allowed_locations":null,"referred_by":null},"tier":{"id":"01928f2d-6756-755b-8a9d-c8094db2af27","meta":null,"created_on":"2024-10-15T07:56:10.789Z","created_by_id":null,"modified_on":"2025-01-23T15:14:24.513Z","modified_by_id":"01927265-4ed2-79cc-a0e6-e11339a359f3","deleted_on":null,"deleted_by_id":null,"tenant_id":"00000000-0000-0000-0000-000000000000","profile_type":"personal","name":"Tier 1","description":"Tier 1","level":1,"enabled":true,"balance_limit":2000000,"single_sending_limit":500000,"single_receiving_limit":500000,"period_sending_limit":500000,"period_sending_limit_time_unit":"day","period_receiving_limit":500000,"period_receiving_limit_time_unit":"day","requirements":[{"id":"019318f9-c895-744d-8f65-4636cc26dd1c","type_id":"019318f9-c895-744d-8f65-4636cc26dd1c","type":"verification","slug":"phone","name":"Phone","description":"Verify yor number"},{"id":"01933d40-03e5-777c-a6e6-bf72eb1c8968","type_id":"01933d40-03e5-777c-a6e6-bf72eb1c8968","type":"verification","slug":"bvn","name":"BVN","description":"BVN"},{"id":"019318f9-c895-744d-8f65-4636cc26dd1f","type_id":"019318f9-c895-744d-8f65-4636cc26dd1f","type":"verification","slug":"liveness","name":"Image liveness check","description":"This step helps us verify your identity by matching your image with the credentials you’ve provided."},{"id":"019318f9-c895-744d-8f65-4636cc26dd1d","type_id":"019318f9-c895-744d-8f65-4636cc26dd1d","type":"verification","slug":"email","name":"Email","description":"Verify your email"}]}},{"id":"019519ed-434f-7885-9dcb-bad68d0aae22","meta":null,"created_on":"2025-02-18T16:38:54.543Z","created_by_id":"019519ed-23fa-7885-9dcb-67660fb0472c","modified_on":"2025-02-18T17:41:10.452Z","modified_by_id":"019519ed-23fa-7885-9dcb-67660fb0472c","deleted_on":null,"deleted_by_id":null,"tenant_id":"00000000-0000-0000-0000-000000000000","name":"Olayemi Victoria","type":"personal","status":"active","review":null,"allowed_time_periods":null,"primary_user_id":"019519ed-23fa-7885-9dcb-67660fb0472c","tier_id":"01928f2d-6756-755b-8a9d-c8094db2af27","primary_user":{"id":"019519ed-23fa-7885-9dcb-67660fb0472c","meta":null,"created_on":"2025-02-18T16:38:46.458Z","created_by_id":null,"modified_on":"2025-02-20T18:16:57.200Z","modified_by_id":"019519ed-23fa-7885-9dcb-67660fb0472c","deleted_on":null,"deleted_by_id":null,"tenant_id":"00000000-0000-0000-0000-000000000000","email":"olayemivictoria3@gmail.com","status":"active","first_name":"Olayemi","last_name":"Victoria","twofa_enabled":false,"last_active":"2025-02-20T18:16:57.199Z","last_ip":"172.71.95.136","allowed_ips":null,"last_timezone":"Europe/Amsterdam","last_location":"Amsterdam","phone":"+2348134044021","review":null,"gender":"female","date_of_birth":"1995-07-31","cba_id":"73","photo_id":null,"referral_code":"81LRBE","allowed_locations":null,"referred_by":"019372de-17ef-7cc2-8fc0-43fe11ba042f"},"tier":{"id":"01928f2d-6756-755b-8a9d-c8094db2af27","meta":null,"created_on":"2024-10-15T07:56:10.789Z","created_by_id":null,"modified_on":"2025-01-23T15:14:24.513Z","modified_by_id":"01927265-4ed2-79cc-a0e6-e11339a359f3","deleted_on":null,"deleted_by_id":null,"tenant_id":"00000000-0000-0000-0000-000000000000","profile_type":"personal","name":"Tier 1","description":"Tier 1","level":1,"enabled":true,"balance_limit":2000000,"single_sending_limit":500000,"single_receiving_limit":500000,"period_sending_limit":500000,"period_sending_limit_time_unit":"day","period_receiving_limit":500000,"period_receiving_limit_time_unit":"day","requirements":[{"id":"019318f9-c895-744d-8f65-4636cc26dd1c","type_id":"019318f9-c895-744d-8f65-4636cc26dd1c","type":"verification","slug":"phone","name":"Phone","description":"Verify yor number"},{"id":"019318f9-c895-744d-8f65-4636cc26dd1d","type_id":"019318f9-c895-744d-8f65-4636cc26dd1d","type":"verification","slug":"email","name":"Email","description":"Verify your email"},{"id":"019318f9-c895-744d-8f65-4636cc26dd1f","type_id":"019318f9-c895-744d-8f65-4636cc26dd1f","type":"verification","slug":"liveness","name":"Image liveness check","description":"This step helps us verify your identity by matching your image with the credentials you’ve provided."},{"id":"01933d40-03e5-777c-a6e6-bf72eb1c8968","type_id":"01933d40-03e5-777c-a6e6-bf72eb1c8968","type":"verification","slug":"bvn","name":"BVN","description":"BVN"}]}},{"id":"019519c8-9ed6-7333-b4e3-5f08aedc6994","meta":null,"created_on":"2025-02-18T15:58:53.142Z","created_by_id":"019519c8-80aa-7333-b4e3-3bdde2ca5ee1","modified_on":"2025-02-18T15:58:53.142Z","modified_by_id":null,"deleted_on":null,"deleted_by_id":null,"tenant_id":"00000000-0000-0000-0000-000000000000","name":"Grady Zebah","type":"personal","status":"active","review":null,"allowed_time_periods":null,"primary_user_id":"019519c8-80aa-7333-b4e3-3bdde2ca5ee1","tier_id":null,"primary_user":{"id":"019519c8-80aa-7333-b4e3-3bdde2ca5ee1","meta":null,"created_on":"2025-02-18T15:58:45.336Z","created_by_id":null,"modified_on":"2025-02-21T18:11:52.376Z","modified_by_id":"019519c8-80aa-7333-b4e3-3bdde2ca5ee1","deleted_on":null,"deleted_by_id":null,"tenant_id":"00000000-0000-0000-0000-000000000000","email":"zino.ref2@mailinator.com","status":"active","first_name":"Grady","last_name":"Zebah","twofa_enabled":false,"last_active":"2025-02-21T18:11:52.375Z","last_ip":"172.68.42.137","allowed_ips":null,"last_timezone":"Africa/Johannesburg","last_location":"Johannesburg","phone":"+2349015660263","review":null,"gender":null,"date_of_birth":null,"cba_id":null,"photo_id":null,"referral_code":"Z45UGN","allowed_locations":null,"referred_by":null},"tier":null},{"id":"0195194f-12c9-788d-b55d-619c9f542b92","meta":null,"created_on":"2025-02-18T13:46:07.432Z","created_by_id":"0195194f-0685-788d-b55d-4f8ea7682eca","modified_on":"2025-02-18T13:47:20.452Z","modified_by_id":"0195194f-0685-788d-b55d-4f8ea7682eca","deleted_on":null,"deleted_by_id":null,"tenant_id":"00000000-0000-0000-0000-000000000000","name":"Ibrahim Azeez","type":"personal","status":"active","review":null,"allowed_time_periods":null,"primary_user_id":"0195194f-0685-788d-b55d-4f8ea7682eca","tier_id":"01928f2d-6756-755b-8a9d-c8094db2af27","primary_user":{"id":"0195194f-0685-788d-b55d-4f8ea7682eca","meta":null,"created_on":"2025-02-18T13:46:04.292Z","created_by_id":null,"modified_on":"2025-02-18T13:51:43.370Z","modified_by_id":"0195194f-0685-788d-b55d-4f8ea7682eca","deleted_on":null,"deleted_by_id":null,"tenant_id":"00000000-0000-0000-0000-000000000000","email":"tel@mailinator.com","status":"active","first_name":"Ibrahim","last_name":"Azeez","twofa_enabled":false,"last_active":"2025-02-18T13:51:43.370Z","last_ip":"172.68.42.158","allowed_ips":null,"last_timezone":"Africa/Johannesburg","last_location":"Johannesburg","phone":"+23409055768971","review":null,"gender":"male","date_of_birth":"2001-06-16","cba_id":"69","photo_id":null,"referral_code":"S77WGI","allowed_locations":null,"referred_by":null},"tier":{"id":"01928f2d-6756-755b-8a9d-c8094db2af27","meta":null,"created_on":"2024-10-15T07:56:10.789Z","created_by_id":null,"modified_on":"2025-01-23T15:14:24.513Z","modified_by_id":"01927265-4ed2-79cc-a0e6-e11339a359f3","deleted_on":null,"deleted_by_id":null,"tenant_id":"00000000-0000-0000-0000-000000000000","profile_type":"personal","name":"Tier 1","description":"Tier 1","level":1,"enabled":true,"balance_limit":2000000,"single_sending_limit":500000,"single_receiving_limit":500000,"period_sending_limit":500000,"period_sending_limit_time_unit":"day","period_receiving_limit":500000,"period_receiving_limit_time_unit":"day","requirements":[{"id":"01933d40-03e5-777c-a6e6-bf72eb1c8968","type_id":"01933d40-03e5-777c-a6e6-bf72eb1c8968","type":"verification","slug":"bvn","name":"BVN","description":"BVN"},{"id":"019318f9-c895-744d-8f65-4636cc26dd1f","type_id":"019318f9-c895-744d-8f65-4636cc26dd1f","type":"verification","slug":"liveness","name":"Image liveness check","description":"This step helps us verify your identity by matching your image with the credentials you’ve provided."},{"id":"019318f9-c895-744d-8f65-4636cc26dd1d","type_id":"019318f9-c895-744d-8f65-4636cc26dd1d","type":"verification","slug":"email","name":"Email","description":"Verify your email"},{"id":"019318f9-c895-744d-8f65-4636cc26dd1c","type_id":"019318f9-c895-744d-8f65-4636cc26dd1c","type":"verification","slug":"phone","name":"Phone","description":"Verify yor number"}]}}],"meta":{"page":1,"total_pages":19,"total_items":182}}