{"status":"success","data":[{"id":"019528b0-3c46-7330-84a6-9d88496ec6f9","meta":{"rc-number":"0000000","business-name":"ben@yopmail.com","business-email":"frail@yopmail.com","business-phone":"+23438096544","business-types":"Partnership","business-address":"2 kene stret lagos"},"created_on":"2025-02-21T13:26:33.283Z","created_by_id":"019528af-b076-7330-84a6-1dd76c49ffba","modified_on":"2025-02-21T13:26:33.283Z","modified_by_id":null,"deleted_on":null,"deleted_by_id":null,"tenant_id":"00000000-0000-0000-0000-000000000000","name":"Profile","type":"business","status":"active","review":null,"allowed_time_periods":null,"primary_user_id":"019528af-b076-7330-84a6-1dd76c49ffba","tier_id":null,"primary_user":{"id":"019528af-b076-7330-84a6-1dd76c49ffba","meta":null,"created_on":"2025-02-21T13:25:57.495Z","created_by_id":null,"modified_on":"2025-02-21T15:51:11.892Z","modified_by_id":"019528af-b076-7330-84a6-1dd76c49ffba","deleted_on":null,"deleted_by_id":null,"tenant_id":"00000000-0000-0000-0000-000000000000","email":"ben@yopmail.com","status":"active","first_name":"Samad","last_name":"Ben","twofa_enabled":false,"last_active":"2025-02-21T15:51:11.891Z","last_ip":"172.69.12.174","allowed_ips":null,"last_timezone":"Africa/Lagos","last_location":"Lagos","phone":"+2348138546587","review":null,"gender":null,"date_of_birth":null,"cba_id":"80","photo_id":null,"referral_code":"7P0NKV","allowed_locations":null,"referred_by":"019372de-17ef-7cc2-8fc0-43fe11ba042f"},"tier":null},{"id":"019528b0-2f64-7330-84a6-763dcf0ad5b0","meta":{"rc-number":"0000000","business-name":"ben@yopmail.com","business-email":"frail@yopmail.com","business-phone":"+23438096544","business-types":"Partnership","business-address":"2 kene stret lagos"},"created_on":"2025-02-21T13:26:29.987Z","created_by_id":"019528af-b076-7330-84a6-1dd76c49ffba","modified_on":"2025-02-21T14:16:31.081Z","modified_by_id":"01927265-4ed2-79cc-a0e6-e11339a359f3","deleted_on":null,"deleted_by_id":null,"tenant_id":"00000000-0000-0000-0000-000000000000","name":"Profile","type":"business","status":"active","review":null,"allowed_time_periods":null,"primary_user_id":"019528af-b076-7330-84a6-1dd76c49ffba","tier_id":"0193b131-7257-7cc9-bc92-a7663c2f4536","primary_user":{"id":"019528af-b076-7330-84a6-1dd76c49ffba","meta":null,"created_on":"2025-02-21T13:25:57.495Z","created_by_id":null,"modified_on":"2025-02-21T15:51:11.892Z","modified_by_id":"019528af-b076-7330-84a6-1dd76c49ffba","deleted_on":null,"deleted_by_id":null,"tenant_id":"00000000-0000-0000-0000-000000000000","email":"ben@yopmail.com","status":"active","first_name":"Samad","last_name":"Ben","twofa_enabled":false,"last_active":"2025-02-21T15:51:11.891Z","last_ip":"172.69.12.174","allowed_ips":null,"last_timezone":"Africa/Lagos","last_location":"Lagos","phone":"+2348138546587","review":null,"gender":null,"date_of_birth":null,"cba_id":"80","photo_id":null,"referral_code":"7P0NKV","allowed_locations":null,"referred_by":"019372de-17ef-7cc2-8fc0-43fe11ba042f"},"tier":{"id":"0193b131-7257-7cc9-bc92-a7663c2f4536","meta":null,"created_on":"2024-12-10T15:30:28.056Z","created_by_id":null,"modified_on":"2025-01-22T10:13:37.959Z","modified_by_id":"01927265-4ed2-79cc-a0e6-e11339a359f3","deleted_on":null,"deleted_by_id":null,"tenant_id":"00000000-0000-0000-0000-000000000000","profile_type":"business","name":"Tier 2","description":"Tier 2","level":2,"enabled":true,"balance_limit":0,"single_sending_limit":500000,"single_receiving_limit":500000,"period_sending_limit":500000,"period_sending_limit_time_unit":"day","period_receiving_limit":500000,"period_receiving_limit_time_unit":"day","requirements":[{"id":"0192d2f7-468a-7aac-8d59-19fe3f1dad7b","type_id":"0192d2f7-468a-7aac-8d59-19fe3f1dad7b","type":"document","slug":"Business document","name":"Business document","description":"document type"},{"id":"0193203a-c7f0-700b-8891-b1151e81be94","type_id":"0193203a-c7f0-700b-8891-b1151e81be94","type":"kyc","slug":"identity-upload","name":"Upload ID","description":"Upload a government issued ID like National Passport, Voter’s Card, Driver’s License or National ID Card."}]}},{"id":"019528ae-3591-7330-84a5-f0f7622c75f4","meta":{"rc-number":"0000000","business-name":"leep","business-email":"bLL@yopmail.com","business-phone":"+23438096678","business-types":"Corporation","business-address":"2 kene street lagos"},"created_on":"2025-02-21T13:24:20.497Z","created_by_id":"019528aa-1475-7330-84a5-3c0c931f989f","modified_on":"2025-02-21T13:24:20.497Z","modified_by_id":null,"deleted_on":null,"deleted_by_id":null,"tenant_id":"00000000-0000-0000-0000-000000000000","name":"Profile","type":"business","status":"active","review":null,"allowed_time_periods":null,"primary_user_id":"019528aa-1475-7330-84a5-3c0c931f989f","tier_id":null,"primary_user":{"id":"019528aa-1475-7330-84a5-3c0c931f989f","meta":null,"created_on":"2025-02-21T13:19:49.877Z","created_by_id":null,"modified_on":"2025-02-21T13:24:00.733Z","modified_by_id":"019528aa-1475-7330-84a5-3c0c931f989f","deleted_on":null,"deleted_by_id":null,"tenant_id":"00000000-0000-0000-0000-000000000000","email":"ball@mailinator.com","status":"active","first_name":"Girl","last_name":"Boy","twofa_enabled":false,"last_active":"2025-02-21T13:24:00.732Z","last_ip":"172.71.241.118","allowed_ips":null,"last_timezone":"Europe/London","last_location":"London","phone":"+2348138096445","review":null,"gender":null,"date_of_birth":null,"cba_id":null,"photo_id":null,"referral_code":"HNF4F0","allowed_locations":null,"referred_by":"019372de-17ef-7cc2-8fc0-43fe11ba042f"},"tier":null},{"id":"019528ad-e893-7330-84a5-debfad654ad6","meta":{"rc-number":"0000000","business-name":"leep","business-email":"bLL@yopmail.com","business-phone":"+23438096678","business-types":"Corporation","business-address":"2 kene street lagos"},"created_on":"2025-02-21T13:24:00.783Z","created_by_id":"019528aa-1475-7330-84a5-3c0c931f989f","modified_on":"2025-02-21T13:24:00.783Z","modified_by_id":null,"deleted_on":null,"deleted_by_id":null,"tenant_id":"00000000-0000-0000-0000-000000000000","name":"Profile","type":"business","status":"active","review":null,"allowed_time_periods":null,"primary_user_id":"019528aa-1475-7330-84a5-3c0c931f989f","tier_id":null,"primary_user":{"id":"019528aa-1475-7330-84a5-3c0c931f989f","meta":null,"created_on":"2025-02-21T13:19:49.877Z","created_by_id":null,"modified_on":"2025-02-21T13:24:00.733Z","modified_by_id":"019528aa-1475-7330-84a5-3c0c931f989f","deleted_on":null,"deleted_by_id":null,"tenant_id":"00000000-0000-0000-0000-000000000000","email":"ball@mailinator.com","status":"active","first_name":"Girl","last_name":"Boy","twofa_enabled":false,"last_active":"2025-02-21T13:24:00.732Z","last_ip":"172.71.241.118","allowed_ips":null,"last_timezone":"Europe/London","last_location":"London","phone":"+2348138096445","review":null,"gender":null,"date_of_birth":null,"cba_id":null,"photo_id":null,"referral_code":"HNF4F0","allowed_locations":null,"referred_by":"019372de-17ef-7cc2-8fc0-43fe11ba042f"},"tier":null},{"id":"019528ac-1058-7330-84a5-c65f1b7d8872","meta":{"rc-number":"0000000","business-name":"leep","business-email":"frair@yopmail.com","business-phone":"+23438096678","business-types":"Partnership","business-address":"2 kene street lagos"},"created_on":"2025-02-21T13:21:59.896Z","created_by_id":"019528aa-1475-7330-84a5-3c0c931f989f","modified_on":"2025-02-21T13:21:59.896Z","modified_by_id":null,"deleted_on":null,"deleted_by_id":null,"tenant_id":"00000000-0000-0000-0000-000000000000","name":"Profile","type":"business","status":"active","review":null,"allowed_time_periods":null,"primary_user_id":"019528aa-1475-7330-84a5-3c0c931f989f","tier_id":null,"primary_user":{"id":"019528aa-1475-7330-84a5-3c0c931f989f","meta":null,"created_on":"2025-02-21T13:19:49.877Z","created_by_id":null,"modified_on":"2025-02-21T13:24:00.733Z","modified_by_id":"019528aa-1475-7330-84a5-3c0c931f989f","deleted_on":null,"deleted_by_id":null,"tenant_id":"00000000-0000-0000-0000-000000000000","email":"ball@mailinator.com","status":"active","first_name":"Girl","last_name":"Boy","twofa_enabled":false,"last_active":"2025-02-21T13:24:00.732Z","last_ip":"172.71.241.118","allowed_ips":null,"last_timezone":"Europe/London","last_location":"London","phone":"+2348138096445","review":null,"gender":null,"date_of_birth":null,"cba_id":null,"photo_id":null,"referral_code":"HNF4F0","allowed_locations":null,"referred_by":"019372de-17ef-7cc2-8fc0-43fe11ba042f"},"tier":null},{"id":"019528ab-9c46-7330-84a5-ad67f69a5088","meta":{"rc-number":"0000000","business-name":"leep","business-email":"frar@yopmail.com","business-phone":"+23438096342","business-types":"Partnership","business-address":"2 kene street lagos"},"created_on":"2025-02-21T13:21:30.182Z","created_by_id":"019528aa-1475-7330-84a5-3c0c931f989f","modified_on":"2025-02-21T13:21:30.182Z","modified_by_id":null,"deleted_on":null,"deleted_by_id":null,"tenant_id":"00000000-0000-0000-0000-000000000000","name":"Profile","type":"business","status":"active","review":null,"allowed_time_periods":null,"primary_user_id":"019528aa-1475-7330-84a5-3c0c931f989f","tier_id":null,"primary_user":{"id":"019528aa-1475-7330-84a5-3c0c931f989f","meta":null,"created_on":"2025-02-21T13:19:49.877Z","created_by_id":null,"modified_on":"2025-02-21T13:24:00.733Z","modified_by_id":"019528aa-1475-7330-84a5-3c0c931f989f","deleted_on":null,"deleted_by_id":null,"tenant_id":"00000000-0000-0000-0000-000000000000","email":"ball@mailinator.com","status":"active","first_name":"Girl","last_name":"Boy","twofa_enabled":false,"last_active":"2025-02-21T13:24:00.732Z","last_ip":"172.71.241.118","allowed_ips":null,"last_timezone":"Europe/London","last_location":"London","phone":"+2348138096445","review":null,"gender":null,"date_of_birth":null,"cba_id":null,"photo_id":null,"referral_code":"HNF4F0","allowed_locations":null,"referred_by":"019372de-17ef-7cc2-8fc0-43fe11ba042f"},"tier":null},{"id":"019528aa-b6d7-7330-84a5-95b44b7de053","meta":{"rc-number":"0000000","business-name":"leep","business-email":"fraiil@yopmail.com","business-phone":"+23438096500","business-types":"Partnership","business-address":"2 kene street"},"created_on":"2025-02-21T13:20:31.446Z","created_by_id":"019528aa-1475-7330-84a5-3c0c931f989f","modified_on":"2025-02-21T13:20:31.446Z","modified_by_id":null,"deleted_on":null,"deleted_by_id":null,"tenant_id":"00000000-0000-0000-0000-000000000000","name":"Profile","type":"business","status":"active","review":null,"allowed_time_periods":null,"primary_user_id":"019528aa-1475-7330-84a5-3c0c931f989f","tier_id":null,"primary_user":{"id":"019528aa-1475-7330-84a5-3c0c931f989f","meta":null,"created_on":"2025-02-21T13:19:49.877Z","created_by_id":null,"modified_on":"2025-02-21T13:24:00.733Z","modified_by_id":"019528aa-1475-7330-84a5-3c0c931f989f","deleted_on":null,"deleted_by_id":null,"tenant_id":"00000000-0000-0000-0000-000000000000","email":"ball@mailinator.com","status":"active","first_name":"Girl","last_name":"Boy","twofa_enabled":false,"last_active":"2025-02-21T13:24:00.732Z","last_ip":"172.71.241.118","allowed_ips":null,"last_timezone":"Europe/London","last_location":"London","phone":"+2348138096445","review":null,"gender":null,"date_of_birth":null,"cba_id":null,"photo_id":null,"referral_code":"HNF4F0","allowed_locations":null,"referred_by":"019372de-17ef-7cc2-8fc0-43fe11ba042f"},"tier":null},{"id":"019527e6-9932-7bb6-842c-8fb33421c78c","meta":{"rc-number":"0000000","business-name":"thank you","business-email":"frail@yopmail.com","business-phone":"+23438096578","business-types":"Corporation","business-address":"2 kene street"},"created_on":"2025-02-21T09:46:18.801Z","created_by_id":"019527e5-550b-7bb6-842c-32035b4da6c2","modified_on":"2025-02-21T09:50:30.413Z","modified_by_id":"019527e5-550b-7bb6-842c-32035b4da6c2","deleted_on":null,"deleted_by_id":null,"tenant_id":"00000000-0000-0000-0000-000000000000","name":"Profile","type":"business","status":"active","review":null,"allowed_time_periods":null,"primary_user_id":"019527e5-550b-7bb6-842c-32035b4da6c2","tier_id":"0193b49c-a302-711f-a668-d685d243452a","primary_user":{"id":"019527e5-550b-7bb6-842c-32035b4da6c2","meta":null,"created_on":"2025-02-21T09:44:55.819Z","created_by_id":null,"modified_on":"2025-02-21T10:06:39.223Z","modified_by_id":"019527e5-550b-7bb6-842c-32035b4da6c2","deleted_on":null,"deleted_by_id":null,"tenant_id":"00000000-0000-0000-0000-000000000000","email":"strann@yopmail.com","status":"active","first_name":"Fred","last_name":"Brown","twofa_enabled":false,"last_active":"2025-02-21T10:06:39.222Z","last_ip":"172.70.91.239","allowed_ips":null,"last_timezone":"Europe/London","last_location":"London","phone":"+2348138096578","review":null,"gender":null,"date_of_birth":null,"cba_id":"78","photo_id":null,"referral_code":"K37XIS","allowed_locations":null,"referred_by":"019372de-17ef-7cc2-8fc0-43fe11ba042f"},"tier":{"id":"0193b49c-a302-711f-a668-d685d243452a","meta":null,"created_on":"2024-12-11T07:26:24.515Z","created_by_id":null,"modified_on":"2024-12-11T07:26:24.515Z","modified_by_id":null,"deleted_on":null,"deleted_by_id":null,"tenant_id":"00000000-0000-0000-0000-000000000001","profile_type":"business","name":"Tier 1","description":"Tier 1","level":1,"enabled":true,"balance_limit":0,"single_sending_limit":500000,"single_receiving_limit":500000,"period_sending_limit":500000,"period_sending_limit_time_unit":"day","period_receiving_limit":500000,"period_receiving_limit_time_unit":"day","requirements":[]}},{"id":"0195193b-e13e-788d-b557-ccc1cd05f425","meta":{"rc-number":"0000000","business-name":"Neem","business-email":"hi@neem.co","business-phone":"+23407069375650","business-types":"Partnership","business-address":"LAGOS, NIGERIA, LAGOS, Ibeju-Lekki, LAGOS"},"created_on":"2025-02-18T13:25:09.565Z","created_by_id":"01951937-8883-788d-b555-c914d0a4604b","modified_on":"2025-02-18T16:39:36.488Z","modified_by_id":"01951937-8883-788d-b555-c914d0a4604b","deleted_on":null,"deleted_by_id":null,"tenant_id":"00000000-0000-0000-0000-000000000000","name":"Profile","type":"business","status":"active","review":null,"allowed_time_periods":{"from":"23:00","to":"07:00"},"primary_user_id":"01951937-8883-788d-b555-c914d0a4604b","tier_id":"0193b49c-a302-711f-a668-d685d243452a","primary_user":{"id":"01951937-8883-788d-b555-c914d0a4604b","meta":null,"created_on":"2025-02-18T13:20:24.706Z","created_by_id":null,"modified_on":"2025-02-18T16:50:11.850Z","modified_by_id":"01951937-8883-788d-b555-c914d0a4604b","deleted_on":null,"deleted_by_id":null,"tenant_id":"00000000-0000-0000-0000-000000000000","email":"burujihikmat+CASH@gmail.com","status":"active","first_name":"Hikmat","last_name":"IbrahimBuruji","twofa_enabled":false,"last_active":"2025-02-18T16:50:11.849Z","last_ip":"172.69.170.141","allowed_ips":null,"last_timezone":"America/Chicago","last_location":"Houston","phone":"+23407069375651","review":null,"gender":null,"date_of_birth":null,"cba_id":"66","photo_id":null,"referral_code":"W9ZAWW","allowed_locations":null,"referred_by":null},"tier":{"id":"0193b49c-a302-711f-a668-d685d243452a","meta":null,"created_on":"2024-12-11T07:26:24.515Z","created_by_id":null,"modified_on":"2024-12-11T07:26:24.515Z","modified_by_id":null,"deleted_on":null,"deleted_by_id":null,"tenant_id":"00000000-0000-0000-0000-000000000001","profile_type":"business","name":"Tier 1","description":"Tier 1","level":1,"enabled":true,"balance_limit":0,"single_sending_limit":500000,"single_receiving_limit":500000,"period_sending_limit":500000,"period_sending_limit_time_unit":"day","period_receiving_limit":500000,"period_receiving_limit_time_unit":"day","requirements":[]}},{"id":"01951933-2bae-788d-b554-48cde56702cb","meta":{"rc-number":"0000000","business-name":"Neem","business-email":"abisola@assurdly.com","business-phone":"+23409043973003","business-types":"Sole Proprietorship","business-address":"LAGOS, NIGERIA, LAGOS, Ibeju-Lekki, LAGOS"},"created_on":"2025-02-18T13:15:38.796Z","created_by_id":"01951931-1bf9-788d-b552-ca948d61c53e","modified_on":"2025-02-18T13:45:22.736Z","modified_by_id":"01951931-1bf9-788d-b552-ca948d61c53e","deleted_on":null,"deleted_by_id":null,"tenant_id":"00000000-0000-0000-0000-000000000000","name":"Profile","type":"business","status":"active","review":null,"allowed_time_periods":null,"primary_user_id":"01951931-1bf9-788d-b552-ca948d61c53e","tier_id":"0193b49c-a302-711f-a668-d685d243452a","primary_user":{"id":"01951931-1bf9-788d-b552-ca948d61c53e","meta":null,"created_on":"2025-02-18T13:13:23.704Z","created_by_id":null,"modified_on":"2025-02-18T14:05:35.287Z","modified_by_id":"01951931-1bf9-788d-b552-ca948d61c53e","deleted_on":null,"deleted_by_id":null,"tenant_id":"00000000-0000-0000-0000-000000000000","email":"abisola@assurdly.com","status":"active","first_name":"Oyedotun","last_name":"Abisola","twofa_enabled":false,"last_active":"2025-02-18T14:05:35.287Z","last_ip":"172.71.126.210","allowed_ips":null,"last_timezone":"Europe/Paris","last_location":"Paris","phone":"+2349043973003","review":null,"gender":null,"date_of_birth":null,"cba_id":"68","photo_id":null,"referral_code":"B6WEV6","allowed_locations":null,"referred_by":"019353e7-40aa-7117-98b0-c1a15fba11db"},"tier":{"id":"0193b49c-a302-711f-a668-d685d243452a","meta":null,"created_on":"2024-12-11T07:26:24.515Z","created_by_id":null,"modified_on":"2024-12-11T07:26:24.515Z","modified_by_id":null,"deleted_on":null,"deleted_by_id":null,"tenant_id":"00000000-0000-0000-0000-000000000001","profile_type":"business","name":"Tier 1","description":"Tier 1","level":1,"enabled":true,"balance_limit":0,"single_sending_limit":500000,"single_receiving_limit":500000,"period_sending_limit":500000,"period_sending_limit_time_unit":"day","period_receiving_limit":500000,"period_receiving_limit_time_unit":"day","requirements":[]}}],"meta":{"page":1,"total_pages":14,"total_items":136}}