{"status":"success","data":[{"id":"01964a39-7b3e-722d-ade1-1eeaba84177c","meta":null,"created_on":"2025-04-18T18:46:43.253Z","created_by_id":"019372de-17ef-7cc2-8fc0-43fe11ba042f","modified_on":"2025-04-18T18:46:43.253Z","modified_by_id":null,"deleted_on":null,"deleted_by_id":null,"tenant_id":"00000000-0000-0000-0000-000000000000","user_id":"019372de-17ef-7cc2-8fc0-43fe11ba042f","body":"Your beneficiary John Doe has been successfully added to your account.","title":"Beneficiary Added Successfully","type":"push","status":"sent"},{"id":"01964a39-3ac1-722d-ade0-4d4ff10fbd1a","meta":null,"created_on":"2025-04-18T18:46:26.751Z","created_by_id":"019372de-17ef-7cc2-8fc0-43fe11ba042f","modified_on":"2025-04-18T18:46:26.751Z","modified_by_id":null,"deleted_on":null,"deleted_by_id":null,"tenant_id":"00000000-0000-0000-0000-000000000000","user_id":"019372de-17ef-7cc2-8fc0-43fe11ba042f","body":"The Maker-Checker feature has been enabled. Actions created by one user will require approval by a different user to be processed","title":"Maker-checker Enabled","type":"push","status":"sent"},{"id":"019642a2-275f-7003-bb79-2ba612d6f366","meta":null,"created_on":"2025-04-17T07:24:05.343Z","created_by_id":"019372de-17ef-7cc2-8fc0-43fe11ba042f","modified_on":"2025-04-17T07:24:05.343Z","modified_by_id":null,"deleted_on":null,"deleted_by_id":null,"tenant_id":"00000000-0000-0000-0000-000000000000","user_id":"019372de-17ef-7cc2-8fc0-43fe11ba042f","body":"The Maker-Checker feature has been disabled. Users can now approve their own actions.","title":"Maker-checker Disabled","type":"push","status":"sent"},{"id":"01963fec-4c90-7003-bb76-86be3a3f9e0d","meta":null,"created_on":"2025-04-16T18:46:12.880Z","created_by_id":"019372de-17ef-7cc2-8fc0-43fe11ba042f","modified_on":"2025-04-16T18:46:12.880Z","modified_by_id":null,"deleted_on":null,"deleted_by_id":null,"tenant_id":"00000000-0000-0000-0000-000000000000","user_id":"019372de-17ef-7cc2-8fc0-43fe11ba042f","body":"Your beneficiary John Doe has been successfully added to your account.","title":"Beneficiary Added Successfully","type":"push","status":"sent"},{"id":"01963fec-12c2-7003-bb75-ee2e275320b1","meta":null,"created_on":"2025-04-16T18:45:58.080Z","created_by_id":"019372de-17ef-7cc2-8fc0-43fe11ba042f","modified_on":"2025-04-16T18:45:58.080Z","modified_by_id":null,"deleted_on":null,"deleted_by_id":null,"tenant_id":"00000000-0000-0000-0000-000000000000","user_id":"019372de-17ef-7cc2-8fc0-43fe11ba042f","body":"The Maker-Checker feature has been enabled. Actions created by one user will require approval by a different user to be processed","title":"Maker-checker Enabled","type":"push","status":"sent"},{"id":"0196343b-9f1e-7cce-84d8-3dbdb314697a","meta":null,"created_on":"2025-04-14T12:17:24.766Z","created_by_id":"019372de-17ef-7cc2-8fc0-43fe11ba042f","modified_on":"2025-04-14T12:33:19.650Z","modified_by_id":"019372de-17ef-7cc2-8fc0-43fe11ba042f","deleted_on":null,"deleted_by_id":null,"tenant_id":"00000000-0000-0000-0000-000000000000","user_id":"019372de-17ef-7cc2-8fc0-43fe11ba042f","body":"The Maker-Checker feature has been disabled. Users can now approve their own actions.","title":"Maker-checker Disabled","type":"push","status":"read"},{"id":"0196262d-b5d4-7335-a629-84e305b1a80b","meta":null,"created_on":"2025-04-11T18:47:32.053Z","created_by_id":"019372de-17ef-7cc2-8fc0-43fe11ba042f","modified_on":"2025-04-14T12:33:19.650Z","modified_by_id":"019372de-17ef-7cc2-8fc0-43fe11ba042f","deleted_on":null,"deleted_by_id":null,"tenant_id":"00000000-0000-0000-0000-000000000000","user_id":"019372de-17ef-7cc2-8fc0-43fe11ba042f","body":"Your beneficiary John Doe has been successfully added to your account.","title":"Beneficiary Added Successfully","type":"push","status":"read"},{"id":"0196262d-7f2d-7335-a628-f32ea6eefa77","meta":null,"created_on":"2025-04-11T18:47:18.061Z","created_by_id":"019372de-17ef-7cc2-8fc0-43fe11ba042f","modified_on":"2025-04-14T12:33:19.650Z","modified_by_id":"019372de-17ef-7cc2-8fc0-43fe11ba042f","deleted_on":null,"deleted_by_id":null,"tenant_id":"00000000-0000-0000-0000-000000000000","user_id":"019372de-17ef-7cc2-8fc0-43fe11ba042f","body":"The Maker-Checker feature has been enabled. Actions created by one user will require approval by a different user to be processed","title":"Maker-checker Enabled","type":"push","status":"read"},{"id":"01960a23-c1c5-777d-876e-6f59c6b65782","meta":null,"created_on":"2025-04-06T08:07:17.702Z","created_by_id":"019372de-17ef-7cc2-8fc0-43fe11ba042f","modified_on":"2025-04-06T08:10:46.842Z","modified_by_id":"019372de-17ef-7cc2-8fc0-43fe11ba042f","deleted_on":null,"deleted_by_id":null,"tenant_id":"00000000-0000-0000-0000-000000000000","user_id":"019372de-17ef-7cc2-8fc0-43fe11ba042f","body":"The Maker-Checker feature has been disabled. Users can now approve their own actions.","title":"Maker-checker Disabled","type":"push","status":"read"},{"id":"0195fb64-9566-7887-ab32-00b373b64dd1","meta":null,"created_on":"2025-04-03T11:23:47.938Z","created_by_id":"019372de-17ef-7cc2-8fc0-43fe11ba042f","modified_on":"2025-04-06T08:10:46.842Z","modified_by_id":"019372de-17ef-7cc2-8fc0-43fe11ba042f","deleted_on":null,"deleted_by_id":null,"tenant_id":"00000000-0000-0000-0000-000000000000","user_id":"019372de-17ef-7cc2-8fc0-43fe11ba042f","body":"Your beneficiary John Doe has been successfully added to your account.","title":"Add beneficiary","type":"push","status":"read"}],"meta":{"page":1,"total_pages":15,"total_items":149}}