{"status":"success","data":[{"id":"0194b8d1-526e-7bb8-88ef-c83e8c21e149","meta":null,"created_on":"2025-01-30T20:05:13.455Z","created_by_id":"01927265-4ed2-79cc-a0e6-e11339a359f3","modified_on":"2025-01-30T20:05:13.455Z","modified_by_id":null,"deleted_on":null,"deleted_by_id":null,"tenant_id":"00000000-0000-0000-0000-000000000000","profile_type":"business","slug":"onboarding","name":"Onboarding","description":"Adding new user","version":1,"schemas":[]},{"id":"0194b8d0-975e-7bb8-88ef-baff769d8be5","meta":null,"created_on":"2025-01-30T20:04:25.567Z","created_by_id":"01927265-4ed2-79cc-a0e6-e11339a359f3","modified_on":"2025-01-30T20:04:25.567Z","modified_by_id":null,"deleted_on":null,"deleted_by_id":null,"tenant_id":"00000000-0000-0000-0000-000000000000","profile_type":"business","slug":"cashier","name":"Cashier","description":"test","version":1,"schemas":[{"id":"0194b8d0-9761-7bb8-88ef-c6038192fe47","meta":null,"created_on":"2025-01-30T20:04:25.572Z","created_by_id":"01927265-4ed2-79cc-a0e6-e11339a359f3","modified_on":"2025-01-30T20:04:25.572Z","modified_by_id":null,"deleted_on":null,"deleted_by_id":null,"tenant_id":"00000000-0000-0000-0000-000000000000","profile_type":"personal","slug":"test","name":"test","tags":null,"options":[],"version":1,"type":"text","default":"","enabled":true,"editable":true,"required":true,"order":1,"storage_strategy":"plain","definition_id":"0194b8d0-975e-7bb8-88ef-baff769d8be5"}]},{"id":"01948ca4-0621-7bb0-a716-583bce54dc93","meta":null,"created_on":"2025-01-22T06:12:27.296Z","created_by_id":"0192ee9f-7504-7bb3-919d-9fba49ba9e27","modified_on":"2025-01-23T13:02:25.473Z","modified_by_id":"0192ee9f-7504-7bb3-919d-9fba49ba9e27","deleted_on":null,"deleted_by_id":null,"tenant_id":"00000000-0000-0000-0000-000000000000","profile_type":"business","slug":"vat","name":"Test","description":"Form","version":1,"schemas":[{"id":"01948ca4-0627-7bb0-a716-65b754167dd1","meta":null,"created_on":"2025-01-22T06:12:27.304Z","created_by_id":"0192ee9f-7504-7bb3-919d-9fba49ba9e27","modified_on":"2025-01-24T13:56:18.653Z","modified_by_id":"0192ee9f-7504-7bb3-919d-9fba49ba9e27","deleted_on":null,"deleted_by_id":null,"tenant_id":"00000000-0000-0000-0000-000000000000","profile_type":"personal","slug":"field-name-1","name":"Field name 1","tags":null,"options":[],"version":1,"type":"text","default":"","enabled":true,"editable":true,"required":false,"order":1,"storage_strategy":"plain","definition_id":"01948ca4-0621-7bb0-a716-583bce54dc93"},{"id":"01949899-6a5b-7dd2-b9a3-19f6f17036e1","meta":null,"created_on":"2025-01-24T13:56:18.653Z","created_by_id":"0192ee9f-7504-7bb3-919d-9fba49ba9e27","modified_on":"2025-01-24T13:56:18.653Z","modified_by_id":"0192ee9f-7504-7bb3-919d-9fba49ba9e27","deleted_on":null,"deleted_by_id":null,"tenant_id":"00000000-0000-0000-0000-000000000000","profile_type":"personal","slug":"field-name-2","name":"Field name 2","tags":null,"options":[{"name":"New Role test","value":"New Role test"}],"version":1,"type":"select","default":"","enabled":true,"editable":true,"required":false,"order":2,"storage_strategy":"plain","definition_id":"01948ca4-0621-7bb0-a716-583bce54dc93"}]},{"id":"0193731a-59fe-788a-9877-8bef6d0c2cfc","meta":null,"created_on":"2024-11-28T14:08:47.102Z","created_by_id":null,"modified_on":"2025-01-21T12:44:54.987Z","modified_by_id":"0192ee9f-7504-7bb3-919d-9fba49ba9e27","deleted_on":null,"deleted_by_id":null,"tenant_id":"00000000-0000-0000-0000-000000000000","profile_type":"personal","slug":"personal-information","name":"Personal Information","description":"Provide other personal information (gender, country) and verify your phone number and email address.","version":1,"schemas":[{"id":"0193732d-3883-788a-9877-ce3b193d31c7","meta":null,"created_on":"2024-11-28T14:29:23.717Z","created_by_id":null,"modified_on":"2025-01-21T12:46:55.613Z","modified_by_id":"0192ee9f-7504-7bb3-919d-9fba49ba9e27","deleted_on":null,"deleted_by_id":null,"tenant_id":"00000000-0000-0000-0000-000000000000","profile_type":"personal","slug":"email","name":"Email","tags":null,"options":null,"version":1,"type":"email","default":null,"enabled":true,"editable":true,"required":false,"order":3,"storage_strategy":"plain","definition_id":"0193731a-59fe-788a-9877-8bef6d0c2cfc"},{"id":"0193732d-3883-788a-9877-bbde92f013c9","meta":null,"created_on":"2024-11-28T14:29:23.717Z","created_by_id":null,"modified_on":"2025-01-21T12:46:55.613Z","modified_by_id":"0192ee9f-7504-7bb3-919d-9fba49ba9e27","deleted_on":null,"deleted_by_id":null,"tenant_id":"00000000-0000-0000-0000-000000000000","profile_type":"personal","slug":"first_name","name":"First name","tags":null,"options":null,"version":1,"type":"text","default":null,"enabled":true,"editable":true,"required":false,"order":1,"storage_strategy":"plain","definition_id":"0193731a-59fe-788a-9877-8bef6d0c2cfc"},{"id":"0193732d-3883-788a-9877-d43d4729dd26","meta":null,"created_on":"2024-11-28T14:29:23.717Z","created_by_id":null,"modified_on":"2025-01-21T12:46:55.613Z","modified_by_id":"0192ee9f-7504-7bb3-919d-9fba49ba9e27","deleted_on":null,"deleted_by_id":null,"tenant_id":"00000000-0000-0000-0000-000000000000","profile_type":"personal","slug":"phone","name":"Phone number","tags":null,"options":null,"version":1,"type":"tel","default":null,"enabled":true,"editable":true,"required":false,"order":4,"storage_strategy":"plain","definition_id":"0193731a-59fe-788a-9877-8bef6d0c2cfc"},{"id":"0193732d-3883-788a-9877-c2da86c3a245","meta":null,"created_on":"2024-11-28T14:29:23.717Z","created_by_id":null,"modified_on":"2025-01-21T12:46:55.613Z","modified_by_id":"0192ee9f-7504-7bb3-919d-9fba49ba9e27","deleted_on":null,"deleted_by_id":null,"tenant_id":"00000000-0000-0000-0000-000000000000","profile_type":"personal","slug":"last_name","name":"Last name","tags":null,"options":null,"version":1,"type":"text","default":null,"enabled":true,"editable":true,"required":false,"order":2,"storage_strategy":"plain","definition_id":"0193731a-59fe-788a-9877-8bef6d0c2cfc"},{"id":"0193732d-3883-788a-9877-db7406ac23db","meta":null,"created_on":"2024-11-28T14:29:23.717Z","created_by_id":null,"modified_on":"2025-01-21T12:46:55.613Z","modified_by_id":"0192ee9f-7504-7bb3-919d-9fba49ba9e27","deleted_on":null,"deleted_by_id":null,"tenant_id":"00000000-0000-0000-0000-000000000000","profile_type":"personal","slug":"gender","name":"Gender","tags":null,"options":[{"name":"Male"},{"name":"Female"},{"name":"Prefer not to say"}],"version":1,"type":"select","default":null,"enabled":true,"editable":true,"required":false,"order":5,"storage_strategy":"plain","definition_id":"0193731a-59fe-788a-9877-8bef6d0c2cfc"}]},{"id":"019368b2-54d3-7dd8-85d8-1e8eeb915459","meta":null,"created_on":"2024-11-26T13:38:57.875Z","created_by_id":null,"modified_on":"2024-11-26T13:38:57.875Z","modified_by_id":null,"deleted_on":null,"deleted_by_id":null,"tenant_id":"00000000-0000-0000-0000-000000000000","profile_type":"business","slug":"add-directors","name":"Add directors","description":"Update the information of the directors of your business.","version":1,"schemas":[]},{"id":"019367c5-1c25-7115-b8f2-70b1fbd2115e","meta":null,"created_on":"2024-11-26T09:19:51.334Z","created_by_id":null,"modified_on":"2024-11-26T09:19:51.334Z","modified_by_id":null,"deleted_on":null,"deleted_by_id":null,"tenant_id":"00000000-0000-0000-0000-000000000000","profile_type":"business","slug":"scuml-certificate","name":"SCUML Certificate","description":"SCUML Certificate","version":1,"schemas":[{"id":"019367c6-5630-7115-b8f2-88e85681db03","meta":null,"created_on":"2024-11-26T09:21:11.730Z","created_by_id":null,"modified_on":"2024-11-26T09:21:11.730Z","modified_by_id":null,"deleted_on":null,"deleted_by_id":null,"tenant_id":"00000000-0000-0000-0000-000000000000","profile_type":"business","slug":"scuml-certificate","name":"Upload the Special Control Unit Against Money Laundering (SCUML) certificate.","tags":null,"options":null,"version":1,"type":"file","default":null,"enabled":true,"editable":true,"required":true,"order":1,"storage_strategy":"plain","definition_id":"019367c5-1c25-7115-b8f2-70b1fbd2115e"}]},{"id":"019367ba-8336-7115-b8f2-373bddb29090","meta":null,"created_on":"2024-11-26T09:08:16.823Z","created_by_id":null,"modified_on":"2024-11-26T09:08:16.823Z","modified_by_id":null,"deleted_on":null,"deleted_by_id":null,"tenant_id":"00000000-0000-0000-0000-000000000000","profile_type":"personal","slug":"other-pep-relationship","name":"Other PEP Relationship","description":"Other PEP Relationship","version":1,"schemas":[{"id":"019367bc-b10d-7115-b8f2-39a790061bd2","meta":null,"created_on":"2024-11-26T09:10:39.631Z","created_by_id":null,"modified_on":"2025-01-22T04:27:12.944Z","modified_by_id":"0192ee9f-7504-7bb3-919d-9fba49ba9e27","deleted_on":null,"deleted_by_id":null,"tenant_id":"00000000-0000-0000-0000-000000000000","profile_type":"personal","slug":"other-pep-relationship","name":"Specify Relationship","tags":null,"options":null,"version":1,"type":"text","default":null,"enabled":true,"editable":true,"required":true,"order":1,"storage_strategy":"plain","definition_id":"019367ba-8336-7115-b8f2-373bddb29090"},{"id":"019367bc-b10d-7115-b8f2-40b251b386eb","meta":null,"created_on":"2024-11-26T09:10:39.631Z","created_by_id":null,"modified_on":"2025-01-22T04:27:12.944Z","modified_by_id":"0192ee9f-7504-7bb3-919d-9fba49ba9e27","deleted_on":null,"deleted_by_id":null,"tenant_id":"00000000-0000-0000-0000-000000000000","profile_type":"personal","slug":"other-pep-relationship-name","name":"Name","tags":null,"options":null,"version":1,"type":"text","default":null,"enabled":true,"editable":true,"required":true,"order":2,"storage_strategy":"plain","definition_id":"019367ba-8336-7115-b8f2-373bddb29090"},{"id":"019367bc-b10d-7115-b8f2-57cdbd2f3d36","meta":null,"created_on":"2024-11-26T09:10:39.631Z","created_by_id":null,"modified_on":"2025-01-22T04:27:12.944Z","modified_by_id":"0192ee9f-7504-7bb3-919d-9fba49ba9e27","deleted_on":null,"deleted_by_id":null,"tenant_id":"00000000-0000-0000-0000-000000000000","profile_type":"personal","slug":"other-pep-relationship-institution-designation","name":"Designation in the Institution","tags":null,"options":null,"version":1,"type":"text","default":null,"enabled":true,"editable":true,"required":true,"order":4,"storage_strategy":"plain","definition_id":"019367ba-8336-7115-b8f2-373bddb29090"},{"id":"019367bc-b10d-7115-b8f2-4f70356d77e0","meta":null,"created_on":"2024-11-26T09:10:39.631Z","created_by_id":null,"modified_on":"2025-01-22T04:27:12.944Z","modified_by_id":"0192ee9f-7504-7bb3-919d-9fba49ba9e27","deleted_on":null,"deleted_by_id":null,"tenant_id":"00000000-0000-0000-0000-000000000000","profile_type":"personal","slug":"other-pep-relationship-institution-name","name":"Name of Institution","tags":null,"options":null,"version":1,"type":"text","default":null,"enabled":true,"editable":true,"required":true,"order":3,"storage_strategy":"plain","definition_id":"019367ba-8336-7115-b8f2-373bddb29090"}]},{"id":"019367b2-0af9-7115-b8f1-dc685d92e97f","meta":null,"created_on":"2024-11-26T08:59:01.754Z","created_by_id":null,"modified_on":"2025-01-22T12:32:11.455Z","modified_by_id":"0192ee9f-7504-7bb3-919d-9fba49ba9e27","deleted_on":null,"deleted_by_id":null,"tenant_id":"00000000-0000-0000-0000-000000000000","profile_type":"personal","slug":"enhanced-due-diligence","name":"Enhanced Due Diligence","description":"Enhanced Due Diligence","version":1,"schemas":[{"id":"01938557-903c-7ccf-b7e0-eb67cc3ad445","meta":null,"created_on":"2024-12-02T03:08:48.573Z","created_by_id":null,"modified_on":"2025-02-19T18:44:53.167Z","modified_by_id":"01927265-4ed2-79cc-a0e6-e11339a359f3","deleted_on":null,"deleted_by_id":null,"tenant_id":"00000000-0000-0000-0000-000000000000","profile_type":"business","slug":"business-address","name":"Business address","tags":null,"options":null,"version":1,"type":"text","default":null,"enabled":true,"editable":true,"required":false,"order":6,"storage_strategy":"plain","definition_id":"019367b2-0af9-7115-b8f1-dc685d92e97f"},{"id":"01938557-903c-7ccf-b7e0-c0db2a75fd42","meta":null,"created_on":"2024-12-02T03:08:48.573Z","created_by_id":null,"modified_on":"2025-02-19T18:44:53.167Z","modified_by_id":"01927265-4ed2-79cc-a0e6-e11339a359f3","deleted_on":null,"deleted_by_id":null,"tenant_id":"00000000-0000-0000-0000-000000000000","profile_type":"business","slug":"business-types","name":"Business Type","tags":null,"options":[{"name":"Sole Proprietorship"},{"name":"Partnership"},{"name":"Corporation"},{"name":"Limited Liability Partnership (LLP)"},{"name":"Nonprofit Organization"},{"name":"Cooperative (Co-op)"},{"name":"Joint Venture"},{"name":"Franchise"}],"version":1,"type":"select","default":null,"enabled":true,"editable":true,"required":false,"order":1,"storage_strategy":"plain","definition_id":"019367b2-0af9-7115-b8f1-dc685d92e97f"},{"id":"01938557-903c-7ccf-b7e0-ca7f89bba9e8","meta":null,"created_on":"2024-12-02T03:08:48.573Z","created_by_id":null,"modified_on":"2025-02-19T18:44:53.167Z","modified_by_id":"01927265-4ed2-79cc-a0e6-e11339a359f3","deleted_on":null,"deleted_by_id":null,"tenant_id":"00000000-0000-0000-0000-000000000000","profile_type":"business","slug":"rc-number","name":"RC/BN Number","tags":null,"options":null,"version":1,"type":"select","default":null,"enabled":true,"editable":true,"required":false,"order":2,"storage_strategy":"plain","definition_id":"019367b2-0af9-7115-b8f1-dc685d92e97f"},{"id":"01938557-903c-7ccf-b7e0-e1b01e6191eb","meta":null,"created_on":"2024-12-02T03:08:48.573Z","created_by_id":null,"modified_on":"2025-02-19T18:44:53.167Z","modified_by_id":"01927265-4ed2-79cc-a0e6-e11339a359f3","deleted_on":null,"deleted_by_id":null,"tenant_id":"00000000-0000-0000-0000-000000000000","profile_type":"business","slug":"business-phone","name":"Business phone number","tags":null,"options":null,"version":1,"type":"number","default":null,"enabled":true,"editable":true,"required":false,"order":5,"storage_strategy":"plain","definition_id":"019367b2-0af9-7115-b8f1-dc685d92e97f"},{"id":"01938557-903c-7ccf-b7e0-d31ee48d2a52","meta":null,"created_on":"2024-12-02T03:08:48.573Z","created_by_id":null,"modified_on":"2025-02-19T18:44:53.167Z","modified_by_id":"01927265-4ed2-79cc-a0e6-e11339a359f3","deleted_on":null,"deleted_by_id":null,"tenant_id":"00000000-0000-0000-0000-000000000000","profile_type":"business","slug":"business-name","name":"Business Name","tags":null,"options":null,"version":1,"type":"text","default":null,"enabled":true,"editable":true,"required":false,"order":3,"storage_strategy":"plain","definition_id":"019367b2-0af9-7115-b8f1-dc685d92e97f"},{"id":"01938557-903c-7ccf-b7e0-dd6be6d7d533","meta":null,"created_on":"2024-12-02T03:08:48.573Z","created_by_id":null,"modified_on":"2025-02-19T18:44:53.167Z","modified_by_id":"01927265-4ed2-79cc-a0e6-e11339a359f3","deleted_on":null,"deleted_by_id":null,"tenant_id":"00000000-0000-0000-0000-000000000000","profile_type":"business","slug":"business-email","name":"Business Email","tags":null,"options":null,"version":1,"type":"email","default":null,"enabled":true,"editable":true,"required":false,"order":4,"storage_strategy":"plain","definition_id":"019367b2-0af9-7115-b8f1-dc685d92e97f"}]},{"id":"01933d2f-aa30-7ddd-a344-aa4e37d9f705","meta":null,"created_on":"2024-11-18T02:52:34.224Z","created_by_id":null,"modified_on":"2025-01-21T13:39:18.205Z","modified_by_id":"0192ee9f-7504-7bb3-919d-9fba49ba9e27","deleted_on":null,"deleted_by_id":null,"tenant_id":"00000000-0000-0000-0000-000000000000","profile_type":"personal","slug":"employment-information","name":"Employment information","description":"Provide your employment information as part of requirements to ensure your account accuracy.","version":1,"schemas":[{"id":"01933d51-e364-7116-984a-79708e407899","meta":null,"created_on":"2024-11-18T03:29:57.094Z","created_by_id":null,"modified_on":"2025-01-21T13:49:33.510Z","modified_by_id":"0192ee9f-7504-7bb3-919d-9fba49ba9e27","deleted_on":null,"deleted_by_id":null,"tenant_id":"00000000-0000-0000-0000-000000000000","profile_type":"personal","slug":"monthly-income","name":"How much do you earn monthly?","tags":null,"options":[{"name":"Less than $500"},{"name":"$500 - $1,000"},{"name":"$1,000 - $2,000"},{"name":"$2,000 - $5,000"},{"name":"$5,000 - $10,000"},{"name":"$10,000 - $20,000"},{"name":"Over $20,000"}],"version":1,"type":"select","default":null,"enabled":true,"editable":true,"required":false,"order":5,"storage_strategy":"plain","definition_id":"01933d2f-aa30-7ddd-a344-aa4e37d9f705"},{"id":"01933d46-6e92-7116-984a-2e508e9db398","meta":null,"created_on":"2024-11-18T03:17:26.293Z","created_by_id":null,"modified_on":"2025-01-21T13:49:33.510Z","modified_by_id":"0192ee9f-7504-7bb3-919d-9fba49ba9e27","deleted_on":null,"deleted_by_id":null,"tenant_id":"00000000-0000-0000-0000-000000000000","profile_type":"personal","slug":"sector","name":"What sector do you work in?","tags":null,"options":[{"name":"Technology"},{"name":"Healthcare"},{"name":"Education"},{"name":"Finance"},{"name":"Construction"},{"name":"Retail"},{"name":"Hospitality"},{"name":"Transportation"},{"name":"Government"},{"name":"Manufacturing"},{"name":"Nonprofit"},{"name":"Arts and Entertainment"},{"name":"Agriculture"},{"name":"Energy"},{"name":"Other"}],"version":1,"type":"select","default":null,"enabled":true,"editable":true,"required":false,"order":2,"storage_strategy":"plain","definition_id":"01933d2f-aa30-7ddd-a344-aa4e37d9f705"},{"id":"01933d51-e364-7116-984a-6d74e584a40c","meta":null,"created_on":"2024-11-18T03:29:57.094Z","created_by_id":null,"modified_on":"2025-01-21T13:49:33.510Z","modified_by_id":"0192ee9f-7504-7bb3-919d-9fba49ba9e27","deleted_on":null,"deleted_by_id":null,"tenant_id":"00000000-0000-0000-0000-000000000000","profile_type":"personal","slug":"occupation","name":"What’s your occupation?","tags":null,"options":[{"name":"Software Engineer"},{"name":"Doctor"},{"name":"Teacher"},{"name":"Artist"},{"name":"Lawyer"},{"name":"Accountant"},{"name":"Nurse"},{"name":"Scientist"},{"name":"Engineer"},{"name":"Writer"},{"name":"Mechanic"},{"name":"Chef"},{"name":"Architect"},{"name":"Police Officer"},{"name":"Entrepreneur"},{"name":"Other"}],"version":1,"type":"select","default":null,"enabled":true,"editable":true,"required":false,"order":3,"storage_strategy":"plain","definition_id":"01933d2f-aa30-7ddd-a344-aa4e37d9f705"},{"id":"01933d51-e364-7116-984a-70abaf8017e3","meta":null,"created_on":"2024-11-18T03:29:57.094Z","created_by_id":null,"modified_on":"2025-01-21T13:49:33.510Z","modified_by_id":"0192ee9f-7504-7bb3-919d-9fba49ba9e27","deleted_on":null,"deleted_by_id":null,"tenant_id":"00000000-0000-0000-0000-000000000000","profile_type":"personal","slug":"currency","name":"What currency do you earn in?","tags":null,"options":[{"name":"USD - United States Dollar"},{"name":"EUR - Euro"},{"name":"GBP - British Pound"},{"name":"NGN - Nigerian Naira"},{"name":"INR - Indian Rupee"},{"name":"AUD - Australian Dollar"},{"name":"CAD - Canadian Dollar"},{"name":"JPY - Japanese Yen"},{"name":"CNY - Chinese Yuan"},{"name":"ZAR - South African Rand"},{"name":"BRL - Brazilian Real"},{"name":"KES - Kenyan Shilling"},{"name":"Other"}],"version":1,"type":"select","default":null,"enabled":true,"editable":true,"required":false,"order":4,"storage_strategy":"plain","definition_id":"01933d2f-aa30-7ddd-a344-aa4e37d9f705"},{"id":"01933d42-3c4c-7dd7-91c1-f09987b458c6","meta":null,"created_on":"2024-11-18T03:12:51.281Z","created_by_id":null,"modified_on":"2025-01-21T13:49:33.510Z","modified_by_id":"0192ee9f-7504-7bb3-919d-9fba49ba9e27","deleted_on":null,"deleted_by_id":null,"tenant_id":"00000000-0000-0000-0000-000000000000","profile_type":"personal","slug":"employment-status","name":"What’s your employment status","tags":null,"options":[{"name":"Full-time"},{"name":"Part-time"},{"name":"Self-employed"},{"name":"Freelance"},{"name":"Temporary/Contract"},{"name":"Internship"},{"name":"Seasonal"},{"name":"Unemployed"},{"name":"Retired"},{"name":"Student"},{"name":"Other"}],"version":1,"type":"select","default":null,"enabled":true,"editable":true,"required":false,"order":1,"storage_strategy":"plain","definition_id":"01933d2f-aa30-7ddd-a344-aa4e37d9f705"}]},{"id":"0193203a-c7f0-700b-8891-b1151e81be94","meta":null,"created_on":"2024-11-12T11:55:43.472Z","created_by_id":null,"modified_on":"2024-11-12T11:55:43.472Z","modified_by_id":null,"deleted_on":null,"deleted_by_id":null,"tenant_id":"00000000-0000-0000-0000-000000000000","profile_type":"personal","slug":"identity-upload","name":"Upload ID","description":"Upload a government issued ID like National Passport, Voter’s Card, Driver’s License or National ID Card.","version":1,"schemas":[{"id":"01933d14-6623-7ddd-a344-5b40c50858cd","meta":null,"created_on":"2024-11-18T02:22:47.333Z","created_by_id":null,"modified_on":"2025-02-10T10:44:25.578Z","modified_by_id":null,"deleted_on":null,"deleted_by_id":null,"tenant_id":"00000000-0000-0000-0000-000000000000","profile_type":"personal","slug":"identification","name":"Identifications","tags":null,"options":[{"name":"International Passport","description":"Upload a photo of the front page of your national passport.","type_id":"01933d1c-b704-7ddd-a344-750b3344040e"},{"name":"Voter’s Card","description":"Upload a photo of your voter’s card.","type_id":"0192f2a4-ca56-7cc3-9e93-2f88c5ab082d"},{"name":"National ID card","description":"Upload a photo of your national ID card.","type_id":"01933d1d-cfbc-7ddd-a344-7ab060497945"},{"name":"Driver’s License","description":"Upload a photo of your driver’s license.","type_id":"01933d1e-507d-7ddd-a344-85601bd113ca"}],"version":1,"type":"select","default":null,"enabled":true,"editable":true,"required":false,"order":1,"storage_strategy":"plain","definition_id":"0193203a-c7f0-700b-8891-b1151e81be94"}]}],"meta":{"page":1,"total_pages":2,"total_items":11}}