{"status":"success","data":[{"id":"0195d3c9-0bbc-7666-bf91-b43a0cef6fca","meta":null,"created_on":"2025-03-26T18:48:43.195Z","created_by_id":"019317a0-b7e5-7eeb-a7eb-bd18cf39a633","modified_on":"2025-03-26T18:48:47.783Z","modified_by_id":"019317a0-b7e5-7eeb-a7eb-bd18cf39a633","deleted_on":null,"deleted_by_id":null,"tenant_id":"00000000-0000-0000-0000-000000000000","account_id":"0193912b-6f5e-7335-b5bc-3302dcc08103","profile_id":"01931947-9fea-744d-8f66-118c138292e3","cba_id":"4028","currency":"NGN","amount":"900.00","balance_after":null,"reference":"T8Z3Y17M7LNI","processor_reference":null,"processor_status":null,"processor_message":"Request failed with status code 400","status":"failed","entry_type":"debit","narration":"Bill payment to gotv for 1102003467","transaction_date":"2025-03-26T18:48:43.195Z","transaction_type":"bill-payment","processor":"baxipay","reviewed_on":null,"reviewed_by":null,"batch_id":null,"schedule_id":null,"account":{"id":"0193912b-6f5e-7335-b5bc-3302dcc08103","meta":null,"created_on":"2024-12-04T10:16:03.166Z","created_by_id":null,"modified_on":"2025-03-26T18:48:52.030Z","modified_by_id":"019317a0-b7e5-7eeb-a7eb-bd18cf39a633","deleted_on":null,"deleted_by_id":null,"tenant_id":"00000000-0000-0000-0000-000000000000","name":"Education","type":"account","cba_id":"0000000041","status":"active","profile_id":"01931947-9fea-744d-8f66-118c138292e3","account_number":"0000000041","bank_id":"0193324f-cad0-7f86-923b-43fb21ac5b29","ledger_balance":"1470.69","hold_balance":"0.00","available_balance":"1470.69","currency":"NGN","restricted":false},"transfer":null,"disputes":[],"batch":null,"transfer_beneficiary":null,"bill_payment_beneficiary":null},{"id":"0195d3c8-fc8e-7666-bf91-ab88c89c3a8d","meta":null,"created_on":"2025-03-26T18:48:39.309Z","created_by_id":"019317a0-b7e5-7eeb-a7eb-bd18cf39a633","modified_on":"2025-03-26T18:48:39.802Z","modified_by_id":"019317a0-b7e5-7eeb-a7eb-bd18cf39a633","deleted_on":null,"deleted_by_id":null,"tenant_id":"00000000-0000-0000-0000-000000000000","account_id":"0193912b-6f5e-7335-b5bc-3302dcc08103","profile_id":"01931947-9fea-744d-8f66-118c138292e3","cba_id":"4027","currency":"NGN","amount":"200.00","balance_after":null,"reference":"TM8BHZE99O5Q","processor_reference":null,"processor_status":null,"processor_message":"11020034671 is not a valid phone number","status":"failed","entry_type":"debit","narration":"Bill payment to 9mobile for 11020034671","transaction_date":"2025-03-26T18:48:39.309Z","transaction_type":"bill-payment","processor":"baxipay","reviewed_on":null,"reviewed_by":null,"batch_id":null,"schedule_id":null,"account":{"id":"0193912b-6f5e-7335-b5bc-3302dcc08103","meta":null,"created_on":"2024-12-04T10:16:03.166Z","created_by_id":null,"modified_on":"2025-03-26T18:48:52.030Z","modified_by_id":"019317a0-b7e5-7eeb-a7eb-bd18cf39a633","deleted_on":null,"deleted_by_id":null,"tenant_id":"00000000-0000-0000-0000-000000000000","name":"Education","type":"account","cba_id":"0000000041","status":"active","profile_id":"01931947-9fea-744d-8f66-118c138292e3","account_number":"0000000041","bank_id":"0193324f-cad0-7f86-923b-43fb21ac5b29","ledger_balance":"1470.69","hold_balance":"0.00","available_balance":"1470.69","currency":"NGN","restricted":false},"transfer":null,"disputes":[],"batch":null,"transfer_beneficiary":null,"bill_payment_beneficiary":null},{"id":"0195d3c8-f59d-7666-bf91-a1bff34888b2","meta":null,"created_on":"2025-03-26T18:48:37.532Z","created_by_id":"019317a0-b7e5-7eeb-a7eb-bd18cf39a633","modified_on":"2025-03-26T18:48:38.104Z","modified_by_id":"019317a0-b7e5-7eeb-a7eb-bd18cf39a633","deleted_on":null,"deleted_by_id":null,"tenant_id":"00000000-0000-0000-0000-000000000000","account_id":"0193912b-6f5e-7335-b5bc-3302dcc08103","profile_id":"01931947-9fea-744d-8f66-118c138292e3","cba_id":"4026","currency":"NGN","amount":"50.00","balance_after":null,"reference":"TG7SPS19Z8C5","processor_reference":null,"processor_status":null,"processor_message":"11020034671 is not a valid phone number","status":"failed","entry_type":"debit","narration":"Bill payment to airtel for 11020034671","transaction_date":"2025-03-26T18:48:37.530Z","transaction_type":"bill-payment","processor":"baxipay","reviewed_on":null,"reviewed_by":null,"batch_id":null,"schedule_id":null,"account":{"id":"0193912b-6f5e-7335-b5bc-3302dcc08103","meta":null,"created_on":"2024-12-04T10:16:03.166Z","created_by_id":null,"modified_on":"2025-03-26T18:48:52.030Z","modified_by_id":"019317a0-b7e5-7eeb-a7eb-bd18cf39a633","deleted_on":null,"deleted_by_id":null,"tenant_id":"00000000-0000-0000-0000-000000000000","name":"Education","type":"account","cba_id":"0000000041","status":"active","profile_id":"01931947-9fea-744d-8f66-118c138292e3","account_number":"0000000041","bank_id":"0193324f-cad0-7f86-923b-43fb21ac5b29","ledger_balance":"1470.69","hold_balance":"0.00","available_balance":"1470.69","currency":"NGN","restricted":false},"transfer":null,"disputes":[],"batch":null,"transfer_beneficiary":null,"bill_payment_beneficiary":null},{"id":"0195d3c8-e958-7666-bf91-99c1492fc157","meta":null,"created_on":"2025-03-26T18:48:34.391Z","created_by_id":"019317a0-b7e5-7eeb-a7eb-bd18cf39a633","modified_on":"2025-03-26T18:48:34.996Z","modified_by_id":"019317a0-b7e5-7eeb-a7eb-bd18cf39a633","deleted_on":null,"deleted_by_id":null,"tenant_id":"00000000-0000-0000-0000-000000000000","account_id":"0193912b-6f5e-7335-b5bc-3302dcc08103","profile_id":"01931947-9fea-744d-8f66-118c138292e3","cba_id":"4025","currency":"NGN","amount":"100.00","balance_after":null,"reference":"T20K0TMMHV53","processor_reference":null,"processor_status":null,"processor_message":"11020034671 is not a valid phone number","status":"failed","entry_type":"debit","narration":"Bill payment to mtn for 11020034671","transaction_date":"2025-03-26T18:48:34.391Z","transaction_type":"bill-payment","processor":"baxipay","reviewed_on":null,"reviewed_by":null,"batch_id":null,"schedule_id":null,"account":{"id":"0193912b-6f5e-7335-b5bc-3302dcc08103","meta":null,"created_on":"2024-12-04T10:16:03.166Z","created_by_id":null,"modified_on":"2025-03-26T18:48:52.030Z","modified_by_id":"019317a0-b7e5-7eeb-a7eb-bd18cf39a633","deleted_on":null,"deleted_by_id":null,"tenant_id":"00000000-0000-0000-0000-000000000000","name":"Education","type":"account","cba_id":"0000000041","status":"active","profile_id":"01931947-9fea-744d-8f66-118c138292e3","account_number":"0000000041","bank_id":"0193324f-cad0-7f86-923b-43fb21ac5b29","ledger_balance":"1470.69","hold_balance":"0.00","available_balance":"1470.69","currency":"NGN","restricted":false},"transfer":null,"disputes":[],"batch":null,"transfer_beneficiary":null,"bill_payment_beneficiary":null},{"id":"0195d3c8-e12e-7666-bf91-9721fc171396","meta":null,"created_on":"2025-03-26T18:48:32.301Z","created_by_id":"019317a0-b7e5-7eeb-a7eb-bd18cf39a633","modified_on":"2025-03-26T18:48:33.103Z","modified_by_id":"019317a0-b7e5-7eeb-a7eb-bd18cf39a633","deleted_on":null,"deleted_by_id":null,"tenant_id":"00000000-0000-0000-0000-000000000000","account_id":"0193912b-6f5e-7335-b5bc-3302dcc08103","profile_id":"01931947-9fea-744d-8f66-118c138292e3","cba_id":"4024","currency":"NGN","amount":"100.00","balance_after":null,"reference":"TZKF1UQOL1CW","processor_reference":null,"processor_status":null,"processor_message":"ensure you supply a valid accountId","status":"failed","entry_type":"debit","narration":"Bill payment to smile for 1102003467","transaction_date":"2025-03-26T18:48:32.301Z","transaction_type":"bill-payment","processor":"baxipay","reviewed_on":null,"reviewed_by":null,"batch_id":null,"schedule_id":null,"account":{"id":"0193912b-6f5e-7335-b5bc-3302dcc08103","meta":null,"created_on":"2024-12-04T10:16:03.166Z","created_by_id":null,"modified_on":"2025-03-26T18:48:52.030Z","modified_by_id":"019317a0-b7e5-7eeb-a7eb-bd18cf39a633","deleted_on":null,"deleted_by_id":null,"tenant_id":"00000000-0000-0000-0000-000000000000","name":"Education","type":"account","cba_id":"0000000041","status":"active","profile_id":"01931947-9fea-744d-8f66-118c138292e3","account_number":"0000000041","bank_id":"0193324f-cad0-7f86-923b-43fb21ac5b29","ledger_balance":"1470.69","hold_balance":"0.00","available_balance":"1470.69","currency":"NGN","restricted":false},"transfer":null,"disputes":[],"batch":null,"transfer_beneficiary":null,"bill_payment_beneficiary":null},{"id":"0195d3c8-da77-7666-bf91-8d64f5c4d3d9","meta":null,"created_on":"2025-03-26T18:48:30.513Z","created_by_id":"019317a0-b7e5-7eeb-a7eb-bd18cf39a633","modified_on":"2025-03-26T18:48:31.057Z","modified_by_id":"019317a0-b7e5-7eeb-a7eb-bd18cf39a633","deleted_on":null,"deleted_by_id":null,"tenant_id":"00000000-0000-0000-0000-000000000000","account_id":"0193912b-6f5e-7335-b5bc-3302dcc08103","profile_id":"01931947-9fea-744d-8f66-118c138292e3","cba_id":"4023","currency":"NGN","amount":"100.00","balance_after":null,"reference":"TQP1RT2B844E","processor_reference":null,"processor_status":null,"processor_message":"01102003467 is not a valid phone number","status":"failed","entry_type":"debit","narration":"Bill payment to 9mobile for 1102003467","transaction_date":"2025-03-26T18:48:30.513Z","transaction_type":"bill-payment","processor":"baxipay","reviewed_on":null,"reviewed_by":null,"batch_id":null,"schedule_id":null,"account":{"id":"0193912b-6f5e-7335-b5bc-3302dcc08103","meta":null,"created_on":"2024-12-04T10:16:03.166Z","created_by_id":null,"modified_on":"2025-03-26T18:48:52.030Z","modified_by_id":"019317a0-b7e5-7eeb-a7eb-bd18cf39a633","deleted_on":null,"deleted_by_id":null,"tenant_id":"00000000-0000-0000-0000-000000000000","name":"Education","type":"account","cba_id":"0000000041","status":"active","profile_id":"01931947-9fea-744d-8f66-118c138292e3","account_number":"0000000041","bank_id":"0193324f-cad0-7f86-923b-43fb21ac5b29","ledger_balance":"1470.69","hold_balance":"0.00","available_balance":"1470.69","currency":"NGN","restricted":false},"transfer":null,"disputes":[],"batch":null,"transfer_beneficiary":null,"bill_payment_beneficiary":null},{"id":"0195d3c8-d461-7666-bf91-6db8c51d6eb9","meta":null,"created_on":"2025-03-26T18:48:29.025Z","created_by_id":"019317a0-b7e5-7eeb-a7eb-bd18cf39a633","modified_on":"2025-03-26T18:48:29.689Z","modified_by_id":"019317a0-b7e5-7eeb-a7eb-bd18cf39a633","deleted_on":null,"deleted_by_id":null,"tenant_id":"00000000-0000-0000-0000-000000000000","account_id":"0193912b-6f5e-7335-b5bc-3302dcc08103","profile_id":"01931947-9fea-744d-8f66-118c138292e3","cba_id":"4022","currency":"NGN","amount":"100.00","balance_after":null,"reference":"T9GC5B5UYTTU","processor_reference":null,"processor_status":null,"processor_message":"01102003467 is not a valid phone number","status":"failed","entry_type":"debit","narration":"Bill payment to airtel for 1102003467","transaction_date":"2025-03-26T18:48:29.023Z","transaction_type":"bill-payment","processor":"baxipay","reviewed_on":null,"reviewed_by":null,"batch_id":null,"schedule_id":null,"account":{"id":"0193912b-6f5e-7335-b5bc-3302dcc08103","meta":null,"created_on":"2024-12-04T10:16:03.166Z","created_by_id":null,"modified_on":"2025-03-26T18:48:52.030Z","modified_by_id":"019317a0-b7e5-7eeb-a7eb-bd18cf39a633","deleted_on":null,"deleted_by_id":null,"tenant_id":"00000000-0000-0000-0000-000000000000","name":"Education","type":"account","cba_id":"0000000041","status":"active","profile_id":"01931947-9fea-744d-8f66-118c138292e3","account_number":"0000000041","bank_id":"0193324f-cad0-7f86-923b-43fb21ac5b29","ledger_balance":"1470.69","hold_balance":"0.00","available_balance":"1470.69","currency":"NGN","restricted":false},"transfer":null,"disputes":[],"batch":null,"transfer_beneficiary":null,"bill_payment_beneficiary":null},{"id":"0195d3c8-cc0c-7666-bf91-4cdffc7feeba","meta":null,"created_on":"2025-03-26T18:48:26.891Z","created_by_id":"019317a0-b7e5-7eeb-a7eb-bd18cf39a633","modified_on":"2025-03-26T18:48:27.697Z","modified_by_id":"019317a0-b7e5-7eeb-a7eb-bd18cf39a633","deleted_on":null,"deleted_by_id":null,"tenant_id":"00000000-0000-0000-0000-000000000000","account_id":"0193912b-6f5e-7335-b5bc-3302dcc08103","profile_id":"01931947-9fea-744d-8f66-118c138292e3","cba_id":"4021","currency":"NGN","amount":"100.00","balance_after":null,"reference":"TSDRMNZL1Q0Z","processor_reference":null,"processor_status":null,"processor_message":"01102003467 is not a valid phone number","status":"failed","entry_type":"debit","narration":"Bill payment to glo for 1102003467","transaction_date":"2025-03-26T18:48:26.890Z","transaction_type":"bill-payment","processor":"baxipay","reviewed_on":null,"reviewed_by":null,"batch_id":null,"schedule_id":null,"account":{"id":"0193912b-6f5e-7335-b5bc-3302dcc08103","meta":null,"created_on":"2024-12-04T10:16:03.166Z","created_by_id":null,"modified_on":"2025-03-26T18:48:52.030Z","modified_by_id":"019317a0-b7e5-7eeb-a7eb-bd18cf39a633","deleted_on":null,"deleted_by_id":null,"tenant_id":"00000000-0000-0000-0000-000000000000","name":"Education","type":"account","cba_id":"0000000041","status":"active","profile_id":"01931947-9fea-744d-8f66-118c138292e3","account_number":"0000000041","bank_id":"0193324f-cad0-7f86-923b-43fb21ac5b29","ledger_balance":"1470.69","hold_balance":"0.00","available_balance":"1470.69","currency":"NGN","restricted":false},"transfer":null,"disputes":[],"batch":null,"transfer_beneficiary":null,"bill_payment_beneficiary":null},{"id":"0195d3c8-b56c-7666-bf91-378229e90add","meta":null,"created_on":"2025-03-26T18:48:21.099Z","created_by_id":"019317a0-b7e5-7eeb-a7eb-bd18cf39a633","modified_on":"2025-03-26T18:48:21.738Z","modified_by_id":"019317a0-b7e5-7eeb-a7eb-bd18cf39a633","deleted_on":null,"deleted_by_id":null,"tenant_id":"00000000-0000-0000-0000-000000000000","account_id":"0193912b-6f5e-7335-b5bc-3302dcc08103","profile_id":"01931947-9fea-744d-8f66-118c138292e3","cba_id":"4020","currency":"NGN","amount":"100.00","balance_after":null,"reference":"TH4B19DK2MU8","processor_reference":null,"processor_status":null,"processor_message":"07918852161 is not a valid phone number","status":"failed","entry_type":"debit","narration":"Bill payment to mtn for 7918852161","transaction_date":"2025-03-26T18:48:21.099Z","transaction_type":"bill-payment","processor":"baxipay","reviewed_on":null,"reviewed_by":null,"batch_id":null,"schedule_id":null,"account":{"id":"0193912b-6f5e-7335-b5bc-3302dcc08103","meta":null,"created_on":"2024-12-04T10:16:03.166Z","created_by_id":null,"modified_on":"2025-03-26T18:48:52.030Z","modified_by_id":"019317a0-b7e5-7eeb-a7eb-bd18cf39a633","deleted_on":null,"deleted_by_id":null,"tenant_id":"00000000-0000-0000-0000-000000000000","name":"Education","type":"account","cba_id":"0000000041","status":"active","profile_id":"01931947-9fea-744d-8f66-118c138292e3","account_number":"0000000041","bank_id":"0193324f-cad0-7f86-923b-43fb21ac5b29","ledger_balance":"1470.69","hold_balance":"0.00","available_balance":"1470.69","currency":"NGN","restricted":false},"transfer":null,"disputes":[],"batch":null,"transfer_beneficiary":null,"bill_payment_beneficiary":null},{"id":"0195d3c8-4d94-7666-bf90-05d00820e52a","meta":null,"created_on":"2025-03-26T18:47:54.515Z","created_by_id":"019317a0-b7e5-7eeb-a7eb-bd18cf39a633","modified_on":"2025-03-26T18:47:56.943Z","modified_by_id":"019317a0-b7e5-7eeb-a7eb-bd18cf39a633","deleted_on":null,"deleted_by_id":null,"tenant_id":"00000000-0000-0000-0000-000000000000","account_id":"0193912b-6f5e-7335-b5bc-3302dcc08103","profile_id":"01931947-9fea-744d-8f66-118c138292e3","cba_id":"4019","currency":"NGN","amount":"10.00","balance_after":null,"reference":"TEX0BRN60ET9","processor_reference":null,"processor_status":null,"processor_message":null,"status":"success","entry_type":"debit","narration":"Sodiq","transaction_date":"2025-03-26T18:47:54.512Z","transaction_type":"fee","processor":"cba","reviewed_on":null,"reviewed_by":null,"batch_id":null,"schedule_id":null,"account":{"id":"0193912b-6f5e-7335-b5bc-3302dcc08103","meta":null,"created_on":"2024-12-04T10:16:03.166Z","created_by_id":null,"modified_on":"2025-03-26T18:48:52.030Z","modified_by_id":"019317a0-b7e5-7eeb-a7eb-bd18cf39a633","deleted_on":null,"deleted_by_id":null,"tenant_id":"00000000-0000-0000-0000-000000000000","name":"Education","type":"account","cba_id":"0000000041","status":"active","profile_id":"01931947-9fea-744d-8f66-118c138292e3","account_number":"0000000041","bank_id":"0193324f-cad0-7f86-923b-43fb21ac5b29","ledger_balance":"1470.69","hold_balance":"0.00","available_balance":"1470.69","currency":"NGN","restricted":false},"transfer":null,"disputes":[],"batch":null,"transfer_beneficiary":null,"bill_payment_beneficiary":null}],"meta":{"page":1,"total_pages":200,"total_items":2000}}