{"status":"success","data":[{"id":"0193f29a-be08-799a-85b4-46a9b0def00b","meta":null,"created_on":"2024-12-23T08:20:47.752Z","created_by":"019317a0-b7e5-7eeb-a7eb-bd18cf39a633","modified_on":"2024-12-23T08:20:49.643Z","modified_by":null,"deleted_on":null,"deleted_by":null,"tenant_id":"00000000-0000-0000-0000-000000000000","account_id":"019390f5-db96-7335-b5bb-74eac1376a9c","profile_id":"01931947-9fea-744d-8f66-118c138292e3","cba_id":"1109","currency":"NGN","amount":"10.00","reference":"Tcoytdquqdy","processor_reference":null,"processor_status":null,"processor_message":null,"status":"success","entry_type":"debit","narration":"Sodiq","transaction_date":"2024-12-23T08:20:47.751Z","transaction_type":"fee","processor":"cba","reviewed_on":null,"reviewed_by":null,"batch_id":null,"schedule_id":null,"transfer":null,"transfer_beneficiary":null,"bill_payment_beneficiary":null,"disputes":[],"batch":null,"account":{"id":"019390f5-db96-7335-b5bb-74eac1376a9c","meta":null,"created_on":"2024-12-04T09:17:31.925Z","created_by":null,"modified_on":"2024-12-23T08:20:45.832Z","modified_by":null,"deleted_on":null,"deleted_by":null,"tenant_id":"00000000-0000-0000-0000-000000000000","name":"Travel","cba_id":"0000000040","profile_id":"01931947-9fea-744d-8f66-118c138292e3","account_number":"0000000040","bank_id":"0193324f-cad0-7f86-923b-43fb21ac5b29","ledger_balance":"638010.09","hold_balance":"0.00","available_balance":"638010.09","currency":"NGN","restricted":false}},{"id":"0193f29a-bd8d-799a-85b4-372ad85c2d8d","meta":null,"created_on":"2024-12-23T08:20:47.589Z","created_by":"019317a0-b7e5-7eeb-a7eb-bd18cf39a633","modified_on":"2024-12-23T08:20:49.643Z","modified_by":null,"deleted_on":null,"deleted_by":null,"tenant_id":"00000000-0000-0000-0000-000000000000","account_id":"019390f5-db96-7335-b5bb-74eac1376a9c","profile_id":"01931947-9fea-744d-8f66-118c138292e3","cba_id":"285","currency":"NGN","amount":"1000.00","reference":"Tcoytdquqdy","processor_reference":null,"processor_status":null,"processor_message":null,"status":"success","entry_type":"debit","narration":"Sodiq","transaction_date":"2024-12-23T08:20:47.546Z","transaction_type":"transfer","processor":"cba","reviewed_on":null,"reviewed_by":null,"batch_id":null,"schedule_id":null,"transfer":{"id":"0193f29a-bd98-799a-85b4-3d551a3b4f85","meta":null,"created_on":"2024-12-23T08:20:47.589Z","created_by":"019317a0-b7e5-7eeb-a7eb-bd18cf39a633","modified_on":"2024-12-23T08:20:47.589Z","modified_by":null,"deleted_on":null,"deleted_by":null,"tenant_id":"00000000-0000-0000-0000-000000000000","bank_code":"050030","bank_name":"NORTHQUEST FINANCE COMPANY LIMITED ","account_name":"John Doe","account_number":"0000000041","profile_id":"01931947-9fea-744d-8f66-118c138292e3","transaction_id":"0193f29a-bd8d-799a-85b4-372ad85c2d8d","account_id":"019390f5-db96-7335-b5bb-74eac1376a9c"},"transfer_beneficiary":null,"bill_payment_beneficiary":null,"disputes":[],"batch":null,"account":{"id":"019390f5-db96-7335-b5bb-74eac1376a9c","meta":null,"created_on":"2024-12-04T09:17:31.925Z","created_by":null,"modified_on":"2024-12-23T08:20:45.832Z","modified_by":null,"deleted_on":null,"deleted_by":null,"tenant_id":"00000000-0000-0000-0000-000000000000","name":"Travel","cba_id":"0000000040","profile_id":"01931947-9fea-744d-8f66-118c138292e3","account_number":"0000000040","bank_id":"0193324f-cad0-7f86-923b-43fb21ac5b29","ledger_balance":"638010.09","hold_balance":"0.00","available_balance":"638010.09","currency":"NGN","restricted":false}},{"id":"0193f29a-c5c9-799a-85b4-5885920b01d0","meta":null,"created_on":"2024-12-23T08:20:49.643Z","created_by":null,"modified_on":"2024-12-23T08:20:49.643Z","modified_by":null,"deleted_on":null,"deleted_by":null,"tenant_id":"00000000-0000-0000-0000-000000000000","account_id":"0193912b-6f5e-7335-b5bc-3302dcc08103","profile_id":"01931947-9fea-744d-8f66-118c138292e3","cba_id":null,"currency":"NGN","amount":"1000.00","reference":"Tcoytdquqdy","processor_reference":null,"processor_status":null,"processor_message":null,"status":"success","entry_type":"credit","narration":"Sodiq","transaction_date":"2024-12-23T08:20:47.546Z","transaction_type":"funding","processor":"cba","reviewed_on":null,"reviewed_by":null,"batch_id":null,"schedule_id":null,"transfer":null,"transfer_beneficiary":null,"bill_payment_beneficiary":null,"disputes":[],"batch":null,"account":{"id":"0193912b-6f5e-7335-b5bc-3302dcc08103","meta":null,"created_on":"2024-12-04T10:16:03.166Z","created_by":null,"modified_on":"2024-12-22T11:04:17.708Z","modified_by":null,"deleted_on":null,"deleted_by":null,"tenant_id":"00000000-0000-0000-0000-000000000000","name":"Education","cba_id":"0000000041","profile_id":"01931947-9fea-744d-8f66-118c138292e3","account_number":"0000000041","bank_id":"0193324f-cad0-7f86-923b-43fb21ac5b29","ledger_balance":"17.61","hold_balance":"0.00","available_balance":"17.61","currency":"NGN","restricted":false}},{"id":"0193f205-cea8-799a-85b2-bc3db8ee0677","meta":null,"created_on":"2024-12-23T05:38:07.144Z","created_by":"019317a0-b7e5-7eeb-a7eb-bd18cf39a633","modified_on":"2024-12-23T05:38:08.736Z","modified_by":null,"deleted_on":null,"deleted_by":null,"tenant_id":"00000000-0000-0000-0000-000000000000","account_id":"019390f5-db96-7335-b5bb-74eac1376a9c","profile_id":"01931947-9fea-744d-8f66-118c138292e3","cba_id":"1108","currency":"NGN","amount":"10.00","reference":"Tjmrczlylwm","processor_reference":null,"processor_status":null,"processor_message":null,"status":"success","entry_type":"debit","narration":"","transaction_date":"2024-12-23T05:38:07.143Z","transaction_type":"fee","processor":"cba","reviewed_on":null,"reviewed_by":null,"batch_id":null,"schedule_id":null,"transfer":null,"transfer_beneficiary":null,"bill_payment_beneficiary":null,"disputes":[],"batch":null,"account":{"id":"019390f5-db96-7335-b5bb-74eac1376a9c","meta":null,"created_on":"2024-12-04T09:17:31.925Z","created_by":null,"modified_on":"2024-12-23T08:20:45.832Z","modified_by":null,"deleted_on":null,"deleted_by":null,"tenant_id":"00000000-0000-0000-0000-000000000000","name":"Travel","cba_id":"0000000040","profile_id":"01931947-9fea-744d-8f66-118c138292e3","account_number":"0000000040","bank_id":"0193324f-cad0-7f86-923b-43fb21ac5b29","ledger_balance":"638010.09","hold_balance":"0.00","available_balance":"638010.09","currency":"NGN","restricted":false}},{"id":"0193f205-ce9a-799a-85b2-a4c609ea94b2","meta":null,"created_on":"2024-12-23T05:38:07.130Z","created_by":"019317a0-b7e5-7eeb-a7eb-bd18cf39a633","modified_on":"2024-12-23T05:38:08.730Z","modified_by":null,"deleted_on":null,"deleted_by":null,"tenant_id":"00000000-0000-0000-0000-000000000000","account_id":"019390f5-db96-7335-b5bb-74eac1376a9c","profile_id":"01931947-9fea-744d-8f66-118c138292e3","cba_id":"1107","currency":"NGN","amount":"1000.00","reference":"Tjmrczlylwm","processor_reference":null,"processor_status":null,"processor_message":null,"status":"success","entry_type":"debit","narration":"","transaction_date":"2024-12-23T05:38:07.065Z","transaction_type":"transfer","processor":"nip","reviewed_on":null,"reviewed_by":null,"batch_id":null,"schedule_id":null,"transfer":{"id":"0193f205-ce9d-799a-85b2-a8a62c915647","meta":null,"created_on":"2024-12-23T05:38:07.130Z","created_by":"019317a0-b7e5-7eeb-a7eb-bd18cf39a633","modified_on":"2024-12-23T05:38:07.130Z","modified_by":null,"deleted_on":null,"deleted_by":null,"tenant_id":"00000000-0000-0000-0000-000000000000","bank_code":"000014","bank_name":"Access Bank","account_name":"John Doe","account_number":"0112345678","profile_id":"01931947-9fea-744d-8f66-118c138292e3","transaction_id":"0193f205-ce9a-799a-85b2-a4c609ea94b2","account_id":"019390f5-db96-7335-b5bb-74eac1376a9c"},"transfer_beneficiary":{"id":"0193f205-cea1-799a-85b2-b35735775172","meta":null,"created_on":"2024-12-23T05:38:07.130Z","created_by":"019317a0-b7e5-7eeb-a7eb-bd18cf39a633","modified_on":"2024-12-23T05:38:07.130Z","modified_by":null,"deleted_on":null,"deleted_by":null,"tenant_id":"00000000-0000-0000-0000-000000000000","transaction_id":"0193f205-ce9a-799a-85b2-a4c609ea94b2","beneficiary_id":"0193a720-e549-7881-8b82-ba1fee449278"},"bill_payment_beneficiary":null,"disputes":[],"batch":null,"account":{"id":"019390f5-db96-7335-b5bb-74eac1376a9c","meta":null,"created_on":"2024-12-04T09:17:31.925Z","created_by":null,"modified_on":"2024-12-23T08:20:45.832Z","modified_by":null,"deleted_on":null,"deleted_by":null,"tenant_id":"00000000-0000-0000-0000-000000000000","name":"Travel","cba_id":"0000000040","profile_id":"01931947-9fea-744d-8f66-118c138292e3","account_number":"0000000040","bank_id":"0193324f-cad0-7f86-923b-43fb21ac5b29","ledger_balance":"638010.09","hold_balance":"0.00","available_balance":"638010.09","currency":"NGN","restricted":false}},{"id":"0193f205-3591-799a-85b2-9d4dfd27f3af","meta":null,"created_on":"2024-12-23T05:37:27.953Z","created_by":"019317a0-b7e5-7eeb-a7eb-bd18cf39a633","modified_on":"2024-12-23T05:37:29.492Z","modified_by":null,"deleted_on":null,"deleted_by":null,"tenant_id":"00000000-0000-0000-0000-000000000000","account_id":"019390f5-db96-7335-b5bb-74eac1376a9c","profile_id":"01931947-9fea-744d-8f66-118c138292e3","cba_id":"1106","currency":"NGN","amount":"10.00","reference":"Twcfryozmbh","processor_reference":null,"processor_status":null,"processor_message":null,"status":"success","entry_type":"debit","narration":"","transaction_date":"2024-12-23T05:37:27.952Z","transaction_type":"fee","processor":"cba","reviewed_on":null,"reviewed_by":null,"batch_id":null,"schedule_id":null,"transfer":null,"transfer_beneficiary":null,"bill_payment_beneficiary":null,"disputes":[],"batch":null,"account":{"id":"019390f5-db96-7335-b5bb-74eac1376a9c","meta":null,"created_on":"2024-12-04T09:17:31.925Z","created_by":null,"modified_on":"2024-12-23T08:20:45.832Z","modified_by":null,"deleted_on":null,"deleted_by":null,"tenant_id":"00000000-0000-0000-0000-000000000000","name":"Travel","cba_id":"0000000040","profile_id":"01931947-9fea-744d-8f66-118c138292e3","account_number":"0000000040","bank_id":"0193324f-cad0-7f86-923b-43fb21ac5b29","ledger_balance":"638010.09","hold_balance":"0.00","available_balance":"638010.09","currency":"NGN","restricted":false}},{"id":"0193f205-357e-799a-85b2-84d60f043710","meta":null,"created_on":"2024-12-23T05:37:27.934Z","created_by":"019317a0-b7e5-7eeb-a7eb-bd18cf39a633","modified_on":"2024-12-23T05:37:29.487Z","modified_by":null,"deleted_on":null,"deleted_by":null,"tenant_id":"00000000-0000-0000-0000-000000000000","account_id":"019390f5-db96-7335-b5bb-74eac1376a9c","profile_id":"01931947-9fea-744d-8f66-118c138292e3","cba_id":"1105","currency":"NGN","amount":"1000.00","reference":"Twcfryozmbh","processor_reference":null,"processor_status":null,"processor_message":null,"status":"success","entry_type":"debit","narration":"","transaction_date":"2024-12-23T05:37:27.858Z","transaction_type":"transfer","processor":"nip","reviewed_on":null,"reviewed_by":null,"batch_id":null,"schedule_id":null,"transfer":{"id":"0193f205-3584-799a-85b2-8b67b90f53f7","meta":null,"created_on":"2024-12-23T05:37:27.934Z","created_by":"019317a0-b7e5-7eeb-a7eb-bd18cf39a633","modified_on":"2024-12-23T05:37:27.934Z","modified_by":null,"deleted_on":null,"deleted_by":null,"tenant_id":"00000000-0000-0000-0000-000000000000","bank_code":"000014","bank_name":"Access Bank","account_name":"John Doe","account_number":"0112345678","profile_id":"01931947-9fea-744d-8f66-118c138292e3","transaction_id":"0193f205-357e-799a-85b2-84d60f043710","account_id":"019390f5-db96-7335-b5bb-74eac1376a9c"},"transfer_beneficiary":{"id":"0193f205-3587-799a-85b2-948d1b29d8b0","meta":null,"created_on":"2024-12-23T05:37:27.934Z","created_by":"019317a0-b7e5-7eeb-a7eb-bd18cf39a633","modified_on":"2024-12-23T05:37:27.934Z","modified_by":null,"deleted_on":null,"deleted_by":null,"tenant_id":"00000000-0000-0000-0000-000000000000","transaction_id":"0193f205-357e-799a-85b2-84d60f043710","beneficiary_id":"0193a720-e549-7881-8b82-ba1fee449278"},"bill_payment_beneficiary":null,"disputes":[],"batch":null,"account":{"id":"019390f5-db96-7335-b5bb-74eac1376a9c","meta":null,"created_on":"2024-12-04T09:17:31.925Z","created_by":null,"modified_on":"2024-12-23T08:20:45.832Z","modified_by":null,"deleted_on":null,"deleted_by":null,"tenant_id":"00000000-0000-0000-0000-000000000000","name":"Travel","cba_id":"0000000040","profile_id":"01931947-9fea-744d-8f66-118c138292e3","account_number":"0000000040","bank_id":"0193324f-cad0-7f86-923b-43fb21ac5b29","ledger_balance":"638010.09","hold_balance":"0.00","available_balance":"638010.09","currency":"NGN","restricted":false}},{"id":"0193f139-d80c-799a-85af-7fb1c43a5788","meta":null,"created_on":"2024-12-23T01:55:20.205Z","created_by":"019317a0-b7e5-7eeb-a7eb-bd18cf39a633","modified_on":"2024-12-23T01:55:21.437Z","modified_by":null,"deleted_on":null,"deleted_by":null,"tenant_id":"00000000-0000-0000-0000-000000000000","account_id":"019390f5-db96-7335-b5bb-74eac1376a9c","profile_id":"01931947-9fea-744d-8f66-118c138292e3","cba_id":"1098","currency":"NGN","amount":"100.00","reference":"Tfzpyfrftpj","processor_reference":null,"processor_status":null,"processor_message":null,"status":"success","entry_type":"debit","narration":"Bill payment to airtel for 09055755671","transaction_date":"2024-12-23T01:55:20.203Z","transaction_type":"bill-payment","processor":"baxipay","reviewed_on":null,"reviewed_by":null,"batch_id":null,"schedule_id":null,"transfer":null,"transfer_beneficiary":null,"bill_payment_beneficiary":null,"disputes":[],"batch":null,"account":{"id":"019390f5-db96-7335-b5bb-74eac1376a9c","meta":null,"created_on":"2024-12-04T09:17:31.925Z","created_by":null,"modified_on":"2024-12-23T08:20:45.832Z","modified_by":null,"deleted_on":null,"deleted_by":null,"tenant_id":"00000000-0000-0000-0000-000000000000","name":"Travel","cba_id":"0000000040","profile_id":"01931947-9fea-744d-8f66-118c138292e3","account_number":"0000000040","bank_id":"0193324f-cad0-7f86-923b-43fb21ac5b29","ledger_balance":"638010.09","hold_balance":"0.00","available_balance":"638010.09","currency":"NGN","restricted":false}},{"id":"0193e2de-3b75-7ccf-aea0-6d09de2f9b72","meta":null,"created_on":"2024-12-20T07:00:35.318Z","created_by":"019317a0-b7e5-7eeb-a7eb-bd18cf39a633","modified_on":"2024-12-20T07:00:39.594Z","modified_by":null,"deleted_on":null,"deleted_by":null,"tenant_id":"00000000-0000-0000-0000-000000000000","account_id":"019390f5-db96-7335-b5bb-74eac1376a9c","profile_id":"01931947-9fea-744d-8f66-118c138292e3","cba_id":"1083","currency":"NGN","amount":"500.00","reference":"Tjqwvorweur","processor_reference":null,"processor_status":null,"processor_message":null,"status":"success","entry_type":"debit","narration":"Bill payment to 9mobile for 00000000000","transaction_date":"2024-12-20T07:00:35.316Z","transaction_type":"bill-payment","processor":"baxipay","reviewed_on":null,"reviewed_by":null,"batch_id":null,"schedule_id":null,"transfer":null,"transfer_beneficiary":null,"bill_payment_beneficiary":null,"disputes":[],"batch":null,"account":{"id":"019390f5-db96-7335-b5bb-74eac1376a9c","meta":null,"created_on":"2024-12-04T09:17:31.925Z","created_by":null,"modified_on":"2024-12-23T08:20:45.832Z","modified_by":null,"deleted_on":null,"deleted_by":null,"tenant_id":"00000000-0000-0000-0000-000000000000","name":"Travel","cba_id":"0000000040","profile_id":"01931947-9fea-744d-8f66-118c138292e3","account_number":"0000000040","bank_id":"0193324f-cad0-7f86-923b-43fb21ac5b29","ledger_balance":"638010.09","hold_balance":"0.00","available_balance":"638010.09","currency":"NGN","restricted":false}},{"id":"0193dfca-7b3d-7001-b224-804edab946f9","meta":null,"created_on":"2024-12-19T16:40:09.276Z","created_by":"019317a0-b7e5-7eeb-a7eb-bd18cf39a633","modified_on":"2024-12-19T16:40:11.171Z","modified_by":null,"deleted_on":null,"deleted_by":null,"tenant_id":"00000000-0000-0000-0000-000000000000","account_id":"019390f5-db96-7335-b5bb-74eac1376a9c","profile_id":"01931947-9fea-744d-8f66-118c138292e3","cba_id":"1066","currency":"NGN","amount":"500.00","reference":"Tamizcfleak","processor_reference":null,"processor_status":null,"processor_message":null,"status":"success","entry_type":"debit","narration":"Bill payment to eko_electric_prepaid for 012345678901","transaction_date":"2024-12-19T16:40:09.275Z","transaction_type":"bill-payment","processor":"baxipay","reviewed_on":null,"reviewed_by":null,"batch_id":null,"schedule_id":null,"transfer":null,"transfer_beneficiary":null,"bill_payment_beneficiary":null,"disputes":[],"batch":null,"account":{"id":"019390f5-db96-7335-b5bb-74eac1376a9c","meta":null,"created_on":"2024-12-04T09:17:31.925Z","created_by":null,"modified_on":"2024-12-23T08:20:45.832Z","modified_by":null,"deleted_on":null,"deleted_by":null,"tenant_id":"00000000-0000-0000-0000-000000000000","name":"Travel","cba_id":"0000000040","profile_id":"01931947-9fea-744d-8f66-118c138292e3","account_number":"0000000040","bank_id":"0193324f-cad0-7f86-923b-43fb21ac5b29","ledger_balance":"638010.09","hold_balance":"0.00","available_balance":"638010.09","currency":"NGN","restricted":false}}],"meta":{"page":1,"total_pages":142,"total_items":1417}}