{"status":"success","data":[{"id":"01940b0e-cfe2-7005-a009-9c706b93eaa2","meta":null,"created_on":"2024-12-28T02:18:27.682Z","created_by":"0193de45-6bd7-7ddc-9295-99ab46743e21","modified_on":"2024-12-28T02:18:29.319Z","modified_by":null,"deleted_on":null,"deleted_by":null,"tenant_id":"00000000-0000-0000-0000-000000000000","account_id":"0193a699-2f15-7881-8b7f-ae50980bcfad","profile_id":"0193a649-e3d0-7881-8b7f-2ef1d89a9aff","cba_id":"1168","currency":"NGN","amount":"10.00","reference":"Tzzmcrkuene","processor_reference":null,"processor_status":null,"processor_message":null,"status":"success","entry_type":"debit","narration":"Sodiq","transaction_date":"2024-12-28T02:18:27.680Z","transaction_type":"fee","processor":"cba","reviewed_on":null,"reviewed_by":null,"batch_id":null,"schedule_id":null,"transfer":null,"transfer_beneficiary":null,"bill_payment_beneficiary":null,"disputes":[],"batch":null,"account":{"id":"0193a699-2f15-7881-8b7f-ae50980bcfad","meta":null,"created_on":"2024-12-08T14:07:57.204Z","created_by":null,"modified_on":"2024-12-29T20:07:06.637Z","modified_by":null,"deleted_on":null,"deleted_by":null,"tenant_id":"00000000-0000-0000-0000-000000000000","name":"expenses","cba_id":"0000000074","profile_id":"0193a649-e3d0-7881-8b7f-2ef1d89a9aff","account_number":"0000000074","bank_id":"0193324f-cad0-7f86-923b-43fb21ac5b29","ledger_balance":"1030917.93","hold_balance":"0.00","available_balance":"1030917.93","currency":"NGN","restricted":true}},{"id":"01940b0e-ceec-7005-a009-8f98824b2e6c","meta":null,"created_on":"2024-12-28T02:18:27.436Z","created_by":"0193de45-6bd7-7ddc-9295-99ab46743e21","modified_on":"2024-12-28T02:18:29.314Z","modified_by":null,"deleted_on":null,"deleted_by":null,"tenant_id":"00000000-0000-0000-0000-000000000000","account_id":"0193a699-2f15-7881-8b7f-ae50980bcfad","profile_id":"0193a649-e3d0-7881-8b7f-2ef1d89a9aff","cba_id":"1167","currency":"NGN","amount":"100.23","reference":"Tzzmcrkuene","processor_reference":null,"processor_status":null,"processor_message":null,"status":"success","entry_type":"debit","narration":"Sodiq","transaction_date":"2024-12-28T02:18:27.422Z","transaction_type":"transfer","processor":"nip","reviewed_on":null,"reviewed_by":null,"batch_id":null,"schedule_id":null,"transfer":{"id":"01940b0e-cf18-7005-a009-9058eff95157","meta":null,"created_on":"2024-12-28T02:18:27.436Z","created_by":"0193de45-6bd7-7ddc-9295-99ab46743e21","modified_on":"2024-12-28T02:18:27.436Z","modified_by":null,"deleted_on":null,"deleted_by":null,"tenant_id":"00000000-0000-0000-0000-000000000000","bank_code":"999998","bank_name":"vee test","account_name":"vee Test","account_number":"0112345678","profile_id":"0193a649-e3d0-7881-8b7f-2ef1d89a9aff","transaction_id":"01940b0e-ceec-7005-a009-8f98824b2e6c","account_id":"0193a699-2f15-7881-8b7f-ae50980bcfad"},"transfer_beneficiary":null,"bill_payment_beneficiary":null,"disputes":[],"batch":null,"account":{"id":"0193a699-2f15-7881-8b7f-ae50980bcfad","meta":null,"created_on":"2024-12-08T14:07:57.204Z","created_by":null,"modified_on":"2024-12-29T20:07:06.637Z","modified_by":null,"deleted_on":null,"deleted_by":null,"tenant_id":"00000000-0000-0000-0000-000000000000","name":"expenses","cba_id":"0000000074","profile_id":"0193a649-e3d0-7881-8b7f-2ef1d89a9aff","account_number":"0000000074","bank_id":"0193324f-cad0-7f86-923b-43fb21ac5b29","ledger_balance":"1030917.93","hold_balance":"0.00","available_balance":"1030917.93","currency":"NGN","restricted":true}},{"id":"019409c5-37a8-7226-a91d-0b4f6bac000e","meta":null,"created_on":"2024-12-27T20:18:27.368Z","created_by":"0193de45-6bd7-7ddc-9295-99ab46743e21","modified_on":"2024-12-27T20:18:28.737Z","modified_by":null,"deleted_on":null,"deleted_by":null,"tenant_id":"00000000-0000-0000-0000-000000000000","account_id":"0193a699-2f15-7881-8b7f-ae50980bcfad","profile_id":"0193a649-e3d0-7881-8b7f-2ef1d89a9aff","cba_id":"1156","currency":"NGN","amount":"100.00","reference":"Tijdmcvmhdw","processor_reference":null,"processor_status":null,"processor_message":null,"status":"success","entry_type":"debit","narration":"Bill payment to 9mobile for 09055755858","transaction_date":"2024-12-27T20:18:27.366Z","transaction_type":"bill-payment","processor":"baxipay","reviewed_on":null,"reviewed_by":null,"batch_id":null,"schedule_id":null,"transfer":null,"transfer_beneficiary":null,"bill_payment_beneficiary":null,"disputes":[],"batch":null,"account":{"id":"0193a699-2f15-7881-8b7f-ae50980bcfad","meta":null,"created_on":"2024-12-08T14:07:57.204Z","created_by":null,"modified_on":"2024-12-29T20:07:06.637Z","modified_by":null,"deleted_on":null,"deleted_by":null,"tenant_id":"00000000-0000-0000-0000-000000000000","name":"expenses","cba_id":"0000000074","profile_id":"0193a649-e3d0-7881-8b7f-2ef1d89a9aff","account_number":"0000000074","bank_id":"0193324f-cad0-7f86-923b-43fb21ac5b29","ledger_balance":"1030917.93","hold_balance":"0.00","available_balance":"1030917.93","currency":"NGN","restricted":true}},{"id":"01940939-a00b-7666-8641-af5375990642","meta":null,"created_on":"2024-12-27T17:45:59.051Z","created_by":"019372de-17ef-7cc2-8fc0-43fe11ba042f","modified_on":"2024-12-27T17:46:11.438Z","modified_by":null,"deleted_on":null,"deleted_by":null,"tenant_id":"00000000-0000-0000-0000-000000000000","account_id":"0193a699-2f15-7881-8b7f-ae50980bcfad","profile_id":"0193a649-e3d0-7881-8b7f-2ef1d89a9aff","cba_id":"1152","currency":"NGN","amount":"14250.00","reference":"Tltmbdgvrfk","processor_reference":null,"processor_status":null,"processor_message":null,"status":"success","entry_type":"debit","narration":"Bill payment to dstv for 22322322322","transaction_date":"2024-12-27T17:45:59.050Z","transaction_type":"bill-payment","processor":"baxipay","reviewed_on":null,"reviewed_by":null,"batch_id":null,"schedule_id":null,"transfer":null,"transfer_beneficiary":null,"bill_payment_beneficiary":null,"disputes":[],"batch":null,"account":{"id":"0193a699-2f15-7881-8b7f-ae50980bcfad","meta":null,"created_on":"2024-12-08T14:07:57.204Z","created_by":null,"modified_on":"2024-12-29T20:07:06.637Z","modified_by":null,"deleted_on":null,"deleted_by":null,"tenant_id":"00000000-0000-0000-0000-000000000000","name":"expenses","cba_id":"0000000074","profile_id":"0193a649-e3d0-7881-8b7f-2ef1d89a9aff","account_number":"0000000074","bank_id":"0193324f-cad0-7f86-923b-43fb21ac5b29","ledger_balance":"1030917.93","hold_balance":"0.00","available_balance":"1030917.93","currency":"NGN","restricted":true}},{"id":"019400c8-f1ec-7666-863a-d5e319babf1f","meta":null,"created_on":"2024-12-26T02:25:56.717Z","created_by":"019372de-17ef-7cc2-8fc0-43fe11ba042f","modified_on":"2024-12-26T02:25:57.796Z","modified_by":null,"deleted_on":null,"deleted_by":null,"tenant_id":"00000000-0000-0000-0000-000000000000","account_id":"0193a699-2f15-7881-8b7f-ae50980bcfad","profile_id":"0193a649-e3d0-7881-8b7f-2ef1d89a9aff","cba_id":"1138","currency":"NGN","amount":"100.00","reference":"Txsavfogkvt","processor_reference":null,"processor_status":null,"processor_message":null,"status":"success","entry_type":"debit","narration":"Bill payment to mtn for 7918852161","transaction_date":"2024-12-26T02:25:56.715Z","transaction_type":"bill-payment","processor":"baxipay","reviewed_on":null,"reviewed_by":null,"batch_id":null,"schedule_id":null,"transfer":null,"transfer_beneficiary":null,"bill_payment_beneficiary":null,"disputes":[],"batch":null,"account":{"id":"0193a699-2f15-7881-8b7f-ae50980bcfad","meta":null,"created_on":"2024-12-08T14:07:57.204Z","created_by":null,"modified_on":"2024-12-29T20:07:06.637Z","modified_by":null,"deleted_on":null,"deleted_by":null,"tenant_id":"00000000-0000-0000-0000-000000000000","name":"expenses","cba_id":"0000000074","profile_id":"0193a649-e3d0-7881-8b7f-2ef1d89a9aff","account_number":"0000000074","bank_id":"0193324f-cad0-7f86-923b-43fb21ac5b29","ledger_balance":"1030917.93","hold_balance":"0.00","available_balance":"1030917.93","currency":"NGN","restricted":true}},{"id":"0193fb24-f772-7666-8637-ec163c5ab602","meta":null,"created_on":"2024-12-25T00:08:44.145Z","created_by":"0193de45-6bd7-7ddc-9295-99ab46743e21","modified_on":"2024-12-25T00:08:45.455Z","modified_by":null,"deleted_on":null,"deleted_by":null,"tenant_id":"00000000-0000-0000-0000-000000000000","account_id":"0193a699-2f15-7881-8b7f-ae50980bcfad","profile_id":"0193a649-e3d0-7881-8b7f-2ef1d89a9aff","cba_id":"1134","currency":"NGN","amount":"100.00","reference":"Tktzvamjxln","processor_reference":null,"processor_status":null,"processor_message":null,"status":"success","entry_type":"debit","narration":"Bill payment to mtn for 7918852161","transaction_date":"2024-12-25T00:08:44.143Z","transaction_type":"bill-payment","processor":"baxipay","reviewed_on":null,"reviewed_by":null,"batch_id":null,"schedule_id":null,"transfer":null,"transfer_beneficiary":null,"bill_payment_beneficiary":null,"disputes":[],"batch":null,"account":{"id":"0193a699-2f15-7881-8b7f-ae50980bcfad","meta":null,"created_on":"2024-12-08T14:07:57.204Z","created_by":null,"modified_on":"2024-12-29T20:07:06.637Z","modified_by":null,"deleted_on":null,"deleted_by":null,"tenant_id":"00000000-0000-0000-0000-000000000000","name":"expenses","cba_id":"0000000074","profile_id":"0193a649-e3d0-7881-8b7f-2ef1d89a9aff","account_number":"0000000074","bank_id":"0193324f-cad0-7f86-923b-43fb21ac5b29","ledger_balance":"1030917.93","hold_balance":"0.00","available_balance":"1030917.93","currency":"NGN","restricted":true}},{"id":"0193fac6-35ad-7666-8637-c673e66b91cf","meta":null,"created_on":"2024-12-24T22:25:14.156Z","created_by":"0193de45-6bd7-7ddc-9295-99ab46743e21","modified_on":"2024-12-24T22:25:18.870Z","modified_by":null,"deleted_on":null,"deleted_by":null,"tenant_id":"00000000-0000-0000-0000-000000000000","account_id":"0193a699-2f15-7881-8b7f-ae50980bcfad","profile_id":"0193a649-e3d0-7881-8b7f-2ef1d89a9aff","cba_id":"1133","currency":"NGN","amount":"2150.00","reference":"Typcrhqnsgy","processor_reference":null,"processor_status":null,"processor_message":null,"status":"success","entry_type":"debit","narration":"Bill payment to dstv for 22822834591","transaction_date":"2024-12-24T22:25:14.154Z","transaction_type":"bill-payment","processor":"baxipay","reviewed_on":null,"reviewed_by":null,"batch_id":null,"schedule_id":null,"transfer":null,"transfer_beneficiary":null,"bill_payment_beneficiary":null,"disputes":[],"batch":null,"account":{"id":"0193a699-2f15-7881-8b7f-ae50980bcfad","meta":null,"created_on":"2024-12-08T14:07:57.204Z","created_by":null,"modified_on":"2024-12-29T20:07:06.637Z","modified_by":null,"deleted_on":null,"deleted_by":null,"tenant_id":"00000000-0000-0000-0000-000000000000","name":"expenses","cba_id":"0000000074","profile_id":"0193a649-e3d0-7881-8b7f-2ef1d89a9aff","account_number":"0000000074","bank_id":"0193324f-cad0-7f86-923b-43fb21ac5b29","ledger_balance":"1030917.93","hold_balance":"0.00","available_balance":"1030917.93","currency":"NGN","restricted":true}},{"id":"0193fac5-f630-7666-8637-b98c681ec9da","meta":null,"created_on":"2024-12-24T22:24:57.904Z","created_by":"0193de45-6bd7-7ddc-9295-99ab46743e21","modified_on":"2024-12-24T22:25:15.959Z","modified_by":null,"deleted_on":null,"deleted_by":null,"tenant_id":"00000000-0000-0000-0000-000000000000","account_id":"0193a699-2f15-7881-8b7f-ae50980bcfad","profile_id":"0193a649-e3d0-7881-8b7f-2ef1d89a9aff","cba_id":"1132","currency":"NGN","amount":"2150.00","reference":"Tngmudbuhil","processor_reference":null,"processor_status":null,"processor_message":null,"status":"success","entry_type":"debit","narration":"Bill payment to dstv for 22822834591","transaction_date":"2024-12-24T22:24:57.903Z","transaction_type":"bill-payment","processor":"baxipay","reviewed_on":null,"reviewed_by":null,"batch_id":null,"schedule_id":null,"transfer":null,"transfer_beneficiary":null,"bill_payment_beneficiary":null,"disputes":[],"batch":null,"account":{"id":"0193a699-2f15-7881-8b7f-ae50980bcfad","meta":null,"created_on":"2024-12-08T14:07:57.204Z","created_by":null,"modified_on":"2024-12-29T20:07:06.637Z","modified_by":null,"deleted_on":null,"deleted_by":null,"tenant_id":"00000000-0000-0000-0000-000000000000","name":"expenses","cba_id":"0000000074","profile_id":"0193a649-e3d0-7881-8b7f-2ef1d89a9aff","account_number":"0000000074","bank_id":"0193324f-cad0-7f86-923b-43fb21ac5b29","ledger_balance":"1030917.93","hold_balance":"0.00","available_balance":"1030917.93","currency":"NGN","restricted":true}},{"id":"0193fac1-bb6b-7666-8637-b5b6d0cdf17e","meta":null,"created_on":"2024-12-24T22:20:20.715Z","created_by":"0193de45-6bd7-7ddc-9295-99ab46743e21","modified_on":"2024-12-24T22:20:22.140Z","modified_by":null,"deleted_on":null,"deleted_by":null,"tenant_id":"00000000-0000-0000-0000-000000000000","account_id":"0193a699-2f15-7881-8b7f-ae50980bcfad","profile_id":"0193a649-e3d0-7881-8b7f-2ef1d89a9aff","cba_id":"1131","currency":"NGN","amount":"100.00","reference":"Tmeiibiynya","processor_reference":null,"processor_status":null,"processor_message":null,"status":"success","entry_type":"debit","narration":"Bill payment to mtn for 7918852161","transaction_date":"2024-12-24T22:20:20.714Z","transaction_type":"bill-payment","processor":"baxipay","reviewed_on":null,"reviewed_by":null,"batch_id":null,"schedule_id":null,"transfer":null,"transfer_beneficiary":null,"bill_payment_beneficiary":null,"disputes":[],"batch":null,"account":{"id":"0193a699-2f15-7881-8b7f-ae50980bcfad","meta":null,"created_on":"2024-12-08T14:07:57.204Z","created_by":null,"modified_on":"2024-12-29T20:07:06.637Z","modified_by":null,"deleted_on":null,"deleted_by":null,"tenant_id":"00000000-0000-0000-0000-000000000000","name":"expenses","cba_id":"0000000074","profile_id":"0193a649-e3d0-7881-8b7f-2ef1d89a9aff","account_number":"0000000074","bank_id":"0193324f-cad0-7f86-923b-43fb21ac5b29","ledger_balance":"1030917.93","hold_balance":"0.00","available_balance":"1030917.93","currency":"NGN","restricted":true}},{"id":"0193f8ad-5546-7664-82d4-d01567a805db","meta":null,"created_on":"2024-12-24T12:38:49.414Z","created_by":"019372de-17ef-7cc2-8fc0-43fe11ba042f","modified_on":"2024-12-24T12:38:50.973Z","modified_by":null,"deleted_on":null,"deleted_by":null,"tenant_id":"00000000-0000-0000-0000-000000000000","account_id":"0193a699-2f15-7881-8b7f-ae50980bcfad","profile_id":"0193a649-e3d0-7881-8b7f-2ef1d89a9aff","cba_id":"1125","currency":"NGN","amount":"100.00","reference":"Tibcjpwqkjh","processor_reference":null,"processor_status":null,"processor_message":null,"status":"success","entry_type":"debit","narration":"Bill payment to mtn for 7918852161","transaction_date":"2024-12-24T12:38:49.412Z","transaction_type":"bill-payment","processor":"baxipay","reviewed_on":null,"reviewed_by":null,"batch_id":null,"schedule_id":null,"transfer":null,"transfer_beneficiary":null,"bill_payment_beneficiary":null,"disputes":[],"batch":null,"account":{"id":"0193a699-2f15-7881-8b7f-ae50980bcfad","meta":null,"created_on":"2024-12-08T14:07:57.204Z","created_by":null,"modified_on":"2024-12-29T20:07:06.637Z","modified_by":null,"deleted_on":null,"deleted_by":null,"tenant_id":"00000000-0000-0000-0000-000000000000","name":"expenses","cba_id":"0000000074","profile_id":"0193a649-e3d0-7881-8b7f-2ef1d89a9aff","account_number":"0000000074","bank_id":"0193324f-cad0-7f86-923b-43fb21ac5b29","ledger_balance":"1030917.93","hold_balance":"0.00","available_balance":"1030917.93","currency":"NGN","restricted":true}}],"meta":{"page":1,"total_pages":25,"total_items":246}}