{"status":"success","data":[{"id":"0193ff1c-7314-7666-863a-36c61cf77dd0","meta":null,"created_on":"2024-12-25T18:37:54.834Z","created_by":"019317a0-b7e5-7eeb-a7eb-bd18cf39a633","modified_on":"2024-12-25T18:37:56.931Z","modified_by":null,"deleted_on":null,"deleted_by":null,"tenant_id":"00000000-0000-0000-0000-000000000000","account_id":"019390f5-db96-7335-b5bb-74eac1376a9c","profile_id":"01931947-9fea-744d-8f66-118c138292e3","cba_id":"1135","currency":"NGN","amount":"10.00","reference":"Tukzngljeir","processor_reference":null,"processor_status":null,"processor_message":null,"status":"success","entry_type":"debit","narration":"Sodiq","transaction_date":"2024-12-25T18:37:54.832Z","transaction_type":"fee","processor":"cba","reviewed_on":null,"reviewed_by":null,"batch_id":null,"schedule_id":null,"transfer":null,"transfer_beneficiary":null,"bill_payment_beneficiary":null,"disputes":[],"batch":null,"account":{"id":"019390f5-db96-7335-b5bb-74eac1376a9c","meta":null,"created_on":"2024-12-04T09:17:31.925Z","created_by":null,"modified_on":"2024-12-25T18:37:53.371Z","modified_by":null,"deleted_on":null,"deleted_by":null,"tenant_id":"00000000-0000-0000-0000-000000000000","name":"Travel","cba_id":"0000000040","profile_id":"01931947-9fea-744d-8f66-118c138292e3","account_number":"0000000040","bank_id":"0193324f-cad0-7f86-923b-43fb21ac5b29","ledger_balance":"613500.09","hold_balance":"0.00","available_balance":"613500.09","currency":"NGN","restricted":false}},{"id":"0193ff1c-7b44-7666-863a-39326b15cbcd","meta":null,"created_on":"2024-12-25T18:37:56.931Z","created_by":null,"modified_on":"2024-12-25T18:37:56.931Z","modified_by":null,"deleted_on":null,"deleted_by":null,"tenant_id":"00000000-0000-0000-0000-000000000000","account_id":"0193912b-6f5e-7335-b5bc-3302dcc08103","profile_id":"01931947-9fea-744d-8f66-118c138292e3","cba_id":null,"currency":"NGN","amount":"1000.00","reference":"Tukzngljeir","processor_reference":null,"processor_status":null,"processor_message":null,"status":"success","entry_type":"credit","narration":"Sodiq","transaction_date":"2024-12-25T18:37:54.668Z","transaction_type":"funding","processor":"cba","reviewed_on":null,"reviewed_by":null,"batch_id":null,"schedule_id":null,"transfer":null,"transfer_beneficiary":null,"bill_payment_beneficiary":null,"disputes":[],"batch":null,"account":{"id":"0193912b-6f5e-7335-b5bc-3302dcc08103","meta":null,"created_on":"2024-12-04T10:16:03.166Z","created_by":null,"modified_on":"2024-12-22T11:04:17.708Z","modified_by":null,"deleted_on":null,"deleted_by":null,"tenant_id":"00000000-0000-0000-0000-000000000000","name":"Education","cba_id":"0000000041","profile_id":"01931947-9fea-744d-8f66-118c138292e3","account_number":"0000000041","bank_id":"0193324f-cad0-7f86-923b-43fb21ac5b29","ledger_balance":"17.61","hold_balance":"0.00","available_balance":"17.61","currency":"NGN","restricted":false}},{"id":"0193ff1c-72c3-7666-863a-202981c82042","meta":null,"created_on":"2024-12-25T18:37:54.755Z","created_by":"019317a0-b7e5-7eeb-a7eb-bd18cf39a633","modified_on":"2024-12-25T18:37:56.935Z","modified_by":null,"deleted_on":null,"deleted_by":null,"tenant_id":"00000000-0000-0000-0000-000000000000","account_id":"019390f5-db96-7335-b5bb-74eac1376a9c","profile_id":"01931947-9fea-744d-8f66-118c138292e3","cba_id":"287","currency":"NGN","amount":"1000.00","reference":"Tukzngljeir","processor_reference":null,"processor_status":null,"processor_message":null,"status":"success","entry_type":"debit","narration":"Sodiq","transaction_date":"2024-12-25T18:37:54.668Z","transaction_type":"transfer","processor":"cba","reviewed_on":null,"reviewed_by":null,"batch_id":null,"schedule_id":null,"transfer":{"id":"0193ff1c-72c9-7666-863a-29b85bfabde7","meta":null,"created_on":"2024-12-25T18:37:54.755Z","created_by":"019317a0-b7e5-7eeb-a7eb-bd18cf39a633","modified_on":"2024-12-25T18:37:54.755Z","modified_by":null,"deleted_on":null,"deleted_by":null,"tenant_id":"00000000-0000-0000-0000-000000000000","bank_code":"050030","bank_name":"NORTHQUEST FINANCE COMPANY LIMITED ","account_name":"John Doe","account_number":"0000000041","profile_id":"01931947-9fea-744d-8f66-118c138292e3","transaction_id":"0193ff1c-72c3-7666-863a-202981c82042","account_id":"019390f5-db96-7335-b5bb-74eac1376a9c"},"transfer_beneficiary":null,"bill_payment_beneficiary":null,"disputes":[],"batch":null,"account":{"id":"019390f5-db96-7335-b5bb-74eac1376a9c","meta":null,"created_on":"2024-12-04T09:17:31.925Z","created_by":null,"modified_on":"2024-12-25T18:37:53.371Z","modified_by":null,"deleted_on":null,"deleted_by":null,"tenant_id":"00000000-0000-0000-0000-000000000000","name":"Travel","cba_id":"0000000040","profile_id":"01931947-9fea-744d-8f66-118c138292e3","account_number":"0000000040","bank_id":"0193324f-cad0-7f86-923b-43fb21ac5b29","ledger_balance":"613500.09","hold_balance":"0.00","available_balance":"613500.09","currency":"NGN","restricted":false}},{"id":"0193f950-b139-7666-8635-899cfb8aa6dd","meta":null,"created_on":"2024-12-24T15:37:15.321Z","created_by":"019317a0-b7e5-7eeb-a7eb-bd18cf39a633","modified_on":"2024-12-24T15:37:16.649Z","modified_by":null,"deleted_on":null,"deleted_by":null,"tenant_id":"00000000-0000-0000-0000-000000000000","account_id":"019390f5-db96-7335-b5bb-74eac1376a9c","profile_id":"01931947-9fea-744d-8f66-118c138292e3","cba_id":"1130","currency":"NGN","amount":"500.00","reference":"Tccadthqgdv","processor_reference":null,"processor_status":null,"processor_message":null,"status":"success","entry_type":"debit","narration":"Bill payment to airtel for 08056056277","transaction_date":"2024-12-24T15:37:15.320Z","transaction_type":"bill-payment","processor":"baxipay","reviewed_on":null,"reviewed_by":null,"batch_id":null,"schedule_id":null,"transfer":null,"transfer_beneficiary":null,"bill_payment_beneficiary":null,"disputes":[],"batch":null,"account":{"id":"019390f5-db96-7335-b5bb-74eac1376a9c","meta":null,"created_on":"2024-12-04T09:17:31.925Z","created_by":null,"modified_on":"2024-12-25T18:37:53.371Z","modified_by":null,"deleted_on":null,"deleted_by":null,"tenant_id":"00000000-0000-0000-0000-000000000000","name":"Travel","cba_id":"0000000040","profile_id":"01931947-9fea-744d-8f66-118c138292e3","account_number":"0000000040","bank_id":"0193324f-cad0-7f86-923b-43fb21ac5b29","ledger_balance":"613500.09","hold_balance":"0.00","available_balance":"613500.09","currency":"NGN","restricted":false}},{"id":"0193f94e-0f71-7666-8635-85ca6d2e7760","meta":null,"created_on":"2024-12-24T15:34:22.833Z","created_by":"019317a0-b7e5-7eeb-a7eb-bd18cf39a633","modified_on":"2024-12-24T15:34:24.235Z","modified_by":null,"deleted_on":null,"deleted_by":null,"tenant_id":"00000000-0000-0000-0000-000000000000","account_id":"019390f5-db96-7335-b5bb-74eac1376a9c","profile_id":"01931947-9fea-744d-8f66-118c138292e3","cba_id":"1129","currency":"NGN","amount":"5000.00","reference":"Tobfdxyuvvi","processor_reference":null,"processor_status":null,"processor_message":null,"status":"success","entry_type":"debit","narration":"Bill payment to 9mobile for 09055655214","transaction_date":"2024-12-24T15:34:22.832Z","transaction_type":"bill-payment","processor":"baxipay","reviewed_on":null,"reviewed_by":null,"batch_id":null,"schedule_id":null,"transfer":null,"transfer_beneficiary":null,"bill_payment_beneficiary":null,"disputes":[],"batch":null,"account":{"id":"019390f5-db96-7335-b5bb-74eac1376a9c","meta":null,"created_on":"2024-12-04T09:17:31.925Z","created_by":null,"modified_on":"2024-12-25T18:37:53.371Z","modified_by":null,"deleted_on":null,"deleted_by":null,"tenant_id":"00000000-0000-0000-0000-000000000000","name":"Travel","cba_id":"0000000040","profile_id":"01931947-9fea-744d-8f66-118c138292e3","account_number":"0000000040","bank_id":"0193324f-cad0-7f86-923b-43fb21ac5b29","ledger_balance":"613500.09","hold_balance":"0.00","available_balance":"613500.09","currency":"NGN","restricted":false}},{"id":"0193f8fe-8fd5-7666-8634-697e735c7504","meta":null,"created_on":"2024-12-24T14:07:32.821Z","created_by":"019317a0-b7e5-7eeb-a7eb-bd18cf39a633","modified_on":"2024-12-24T14:07:37.292Z","modified_by":null,"deleted_on":null,"deleted_by":null,"tenant_id":"00000000-0000-0000-0000-000000000000","account_id":"019390f5-db96-7335-b5bb-74eac1376a9c","profile_id":"01931947-9fea-744d-8f66-118c138292e3","cba_id":"1128","currency":"NGN","amount":"9000.00","reference":"Tnuzdpnvcab","processor_reference":null,"processor_status":null,"processor_message":null,"status":"success","entry_type":"debit","narration":"Bill payment to dstv for 22828439439","transaction_date":"2024-12-24T14:07:32.819Z","transaction_type":"bill-payment","processor":"baxipay","reviewed_on":null,"reviewed_by":null,"batch_id":null,"schedule_id":null,"transfer":null,"transfer_beneficiary":null,"bill_payment_beneficiary":null,"disputes":[],"batch":null,"account":{"id":"019390f5-db96-7335-b5bb-74eac1376a9c","meta":null,"created_on":"2024-12-04T09:17:31.925Z","created_by":null,"modified_on":"2024-12-25T18:37:53.371Z","modified_by":null,"deleted_on":null,"deleted_by":null,"tenant_id":"00000000-0000-0000-0000-000000000000","name":"Travel","cba_id":"0000000040","profile_id":"01931947-9fea-744d-8f66-118c138292e3","account_number":"0000000040","bank_id":"0193324f-cad0-7f86-923b-43fb21ac5b29","ledger_balance":"613500.09","hold_balance":"0.00","available_balance":"613500.09","currency":"NGN","restricted":false}},{"id":"0193f8fc-6270-7666-8634-5071a049eafb","meta":null,"created_on":"2024-12-24T14:05:10.128Z","created_by":"019317a0-b7e5-7eeb-a7eb-bd18cf39a633","modified_on":"2024-12-24T14:05:12.583Z","modified_by":null,"deleted_on":null,"deleted_by":null,"tenant_id":"00000000-0000-0000-0000-000000000000","account_id":"019390f5-db96-7335-b5bb-74eac1376a9c","profile_id":"01931947-9fea-744d-8f66-118c138292e3","cba_id":"1127","currency":"NGN","amount":"9000.00","reference":"Txdkckjzfeq","processor_reference":null,"processor_status":null,"processor_message":null,"status":"success","entry_type":"debit","narration":"Bill payment to dstv for 22828439439","transaction_date":"2024-12-24T14:05:10.127Z","transaction_type":"bill-payment","processor":"baxipay","reviewed_on":null,"reviewed_by":null,"batch_id":null,"schedule_id":null,"transfer":null,"transfer_beneficiary":null,"bill_payment_beneficiary":null,"disputes":[],"batch":null,"account":{"id":"019390f5-db96-7335-b5bb-74eac1376a9c","meta":null,"created_on":"2024-12-04T09:17:31.925Z","created_by":null,"modified_on":"2024-12-25T18:37:53.371Z","modified_by":null,"deleted_on":null,"deleted_by":null,"tenant_id":"00000000-0000-0000-0000-000000000000","name":"Travel","cba_id":"0000000040","profile_id":"01931947-9fea-744d-8f66-118c138292e3","account_number":"0000000040","bank_id":"0193324f-cad0-7f86-923b-43fb21ac5b29","ledger_balance":"613500.09","hold_balance":"0.00","available_balance":"613500.09","currency":"NGN","restricted":false}},{"id":"0193f8fb-b81a-7666-8634-4f037d904e86","meta":null,"created_on":"2024-12-24T14:04:26.521Z","created_by":"019317a0-b7e5-7eeb-a7eb-bd18cf39a633","modified_on":"2024-12-24T14:04:27.546Z","modified_by":null,"deleted_on":null,"deleted_by":null,"tenant_id":"00000000-0000-0000-0000-000000000000","account_id":"019390f5-db96-7335-b5bb-74eac1376a9c","profile_id":"01931947-9fea-744d-8f66-118c138292e3","cba_id":"1126","currency":"NGN","amount":"9000.00","reference":"Twfodcpwggp","processor_reference":null,"processor_status":null,"processor_message":"Smart card number must be 10 or 11 digits","status":"failed","entry_type":"debit","narration":"Bill payment to dstv for 22828439439343","transaction_date":"2024-12-24T14:04:26.519Z","transaction_type":"bill-payment","processor":"baxipay","reviewed_on":null,"reviewed_by":null,"batch_id":null,"schedule_id":null,"transfer":null,"transfer_beneficiary":null,"bill_payment_beneficiary":null,"disputes":[],"batch":null,"account":{"id":"019390f5-db96-7335-b5bb-74eac1376a9c","meta":null,"created_on":"2024-12-04T09:17:31.925Z","created_by":null,"modified_on":"2024-12-25T18:37:53.371Z","modified_by":null,"deleted_on":null,"deleted_by":null,"tenant_id":"00000000-0000-0000-0000-000000000000","name":"Travel","cba_id":"0000000040","profile_id":"01931947-9fea-744d-8f66-118c138292e3","account_number":"0000000040","bank_id":"0193324f-cad0-7f86-923b-43fb21ac5b29","ledger_balance":"613500.09","hold_balance":"0.00","available_balance":"613500.09","currency":"NGN","restricted":false}},{"id":"0193f29a-be08-799a-85b4-46a9b0def00b","meta":null,"created_on":"2024-12-23T08:20:47.752Z","created_by":"019317a0-b7e5-7eeb-a7eb-bd18cf39a633","modified_on":"2024-12-23T08:20:49.643Z","modified_by":null,"deleted_on":null,"deleted_by":null,"tenant_id":"00000000-0000-0000-0000-000000000000","account_id":"019390f5-db96-7335-b5bb-74eac1376a9c","profile_id":"01931947-9fea-744d-8f66-118c138292e3","cba_id":"1109","currency":"NGN","amount":"10.00","reference":"Tcoytdquqdy","processor_reference":null,"processor_status":null,"processor_message":null,"status":"success","entry_type":"debit","narration":"Sodiq","transaction_date":"2024-12-23T08:20:47.751Z","transaction_type":"fee","processor":"cba","reviewed_on":null,"reviewed_by":null,"batch_id":null,"schedule_id":null,"transfer":null,"transfer_beneficiary":null,"bill_payment_beneficiary":null,"disputes":[],"batch":null,"account":{"id":"019390f5-db96-7335-b5bb-74eac1376a9c","meta":null,"created_on":"2024-12-04T09:17:31.925Z","created_by":null,"modified_on":"2024-12-25T18:37:53.371Z","modified_by":null,"deleted_on":null,"deleted_by":null,"tenant_id":"00000000-0000-0000-0000-000000000000","name":"Travel","cba_id":"0000000040","profile_id":"01931947-9fea-744d-8f66-118c138292e3","account_number":"0000000040","bank_id":"0193324f-cad0-7f86-923b-43fb21ac5b29","ledger_balance":"613500.09","hold_balance":"0.00","available_balance":"613500.09","currency":"NGN","restricted":false}},{"id":"0193f29a-bd8d-799a-85b4-372ad85c2d8d","meta":null,"created_on":"2024-12-23T08:20:47.589Z","created_by":"019317a0-b7e5-7eeb-a7eb-bd18cf39a633","modified_on":"2024-12-23T08:20:49.643Z","modified_by":null,"deleted_on":null,"deleted_by":null,"tenant_id":"00000000-0000-0000-0000-000000000000","account_id":"019390f5-db96-7335-b5bb-74eac1376a9c","profile_id":"01931947-9fea-744d-8f66-118c138292e3","cba_id":"285","currency":"NGN","amount":"1000.00","reference":"Tcoytdquqdy","processor_reference":null,"processor_status":null,"processor_message":null,"status":"success","entry_type":"debit","narration":"Sodiq","transaction_date":"2024-12-23T08:20:47.546Z","transaction_type":"transfer","processor":"cba","reviewed_on":null,"reviewed_by":null,"batch_id":null,"schedule_id":null,"transfer":{"id":"0193f29a-bd98-799a-85b4-3d551a3b4f85","meta":null,"created_on":"2024-12-23T08:20:47.589Z","created_by":"019317a0-b7e5-7eeb-a7eb-bd18cf39a633","modified_on":"2024-12-23T08:20:47.589Z","modified_by":null,"deleted_on":null,"deleted_by":null,"tenant_id":"00000000-0000-0000-0000-000000000000","bank_code":"050030","bank_name":"NORTHQUEST FINANCE COMPANY LIMITED ","account_name":"John Doe","account_number":"0000000041","profile_id":"01931947-9fea-744d-8f66-118c138292e3","transaction_id":"0193f29a-bd8d-799a-85b4-372ad85c2d8d","account_id":"019390f5-db96-7335-b5bb-74eac1376a9c"},"transfer_beneficiary":null,"bill_payment_beneficiary":null,"disputes":[],"batch":null,"account":{"id":"019390f5-db96-7335-b5bb-74eac1376a9c","meta":null,"created_on":"2024-12-04T09:17:31.925Z","created_by":null,"modified_on":"2024-12-25T18:37:53.371Z","modified_by":null,"deleted_on":null,"deleted_by":null,"tenant_id":"00000000-0000-0000-0000-000000000000","name":"Travel","cba_id":"0000000040","profile_id":"01931947-9fea-744d-8f66-118c138292e3","account_number":"0000000040","bank_id":"0193324f-cad0-7f86-923b-43fb21ac5b29","ledger_balance":"613500.09","hold_balance":"0.00","available_balance":"613500.09","currency":"NGN","restricted":false}}],"meta":{"page":1,"total_pages":143,"total_items":1425}}