{"status":"success","data":[{"id":"01969cf9-20f2-7eeb-b172-342cad8f29c7","meta":null,"created_on":"2025-05-04T20:24:54.770Z","created_by_id":"019372de-17ef-7cc2-8fc0-43fe11ba042f","modified_on":"2025-05-04T20:24:54.770Z","modified_by_id":null,"deleted_on":null,"deleted_by_id":null,"tenant_id":"00000000-0000-0000-0000-000000000000","user_id":"019372de-17ef-7cc2-8fc0-43fe11ba042f","body":"Your beneficiary John Doe has been successfully added to your account.","title":"Beneficiary Added Successfully","type":"push","status":"sent"},{"id":"01969cf8-f463-7eeb-b171-9d4c6cec8189","meta":null,"created_on":"2025-05-04T20:24:43.304Z","created_by_id":"019372de-17ef-7cc2-8fc0-43fe11ba042f","modified_on":"2025-05-04T20:24:43.304Z","modified_by_id":null,"deleted_on":null,"deleted_by_id":null,"tenant_id":"00000000-0000-0000-0000-000000000000","user_id":"019372de-17ef-7cc2-8fc0-43fe11ba042f","body":"The Maker-Checker feature has been enabled. Actions created by one user will require approval by a different user to be processed","title":"Maker-checker Enabled","type":"push","status":"sent"},{"id":"01969253-f7a3-7884-93b6-93f6a7e37f00","meta":null,"created_on":"2025-05-02T18:48:18.592Z","created_by_id":"019372de-17ef-7cc2-8fc0-43fe11ba042f","modified_on":"2025-05-02T18:48:18.592Z","modified_by_id":null,"deleted_on":null,"deleted_by_id":null,"tenant_id":"00000000-0000-0000-0000-000000000000","user_id":"019372de-17ef-7cc2-8fc0-43fe11ba042f","body":"Your beneficiary John Doe has been successfully added to your account.","title":"Beneficiary Added Successfully","type":"push","status":"sent"},{"id":"01969253-aa48-7884-93b5-c4d39bfd8066","meta":null,"created_on":"2025-05-02T18:47:58.792Z","created_by_id":"019372de-17ef-7cc2-8fc0-43fe11ba042f","modified_on":"2025-05-02T18:47:58.792Z","modified_by_id":null,"deleted_on":null,"deleted_by_id":null,"tenant_id":"00000000-0000-0000-0000-000000000000","user_id":"019372de-17ef-7cc2-8fc0-43fe11ba042f","body":"The Maker-Checker feature has been enabled. Actions created by one user will require approval by a different user to be processed","title":"Maker-checker Enabled","type":"push","status":"sent"},{"id":"01968804-e4da-7112-b01a-85b03301459c","meta":null,"created_on":"2025-04-30T18:45:44.282Z","created_by_id":"019372de-17ef-7cc2-8fc0-43fe11ba042f","modified_on":"2025-04-30T18:45:44.282Z","modified_by_id":null,"deleted_on":null,"deleted_by_id":null,"tenant_id":"00000000-0000-0000-0000-000000000000","user_id":"019372de-17ef-7cc2-8fc0-43fe11ba042f","body":"Your beneficiary John Doe has been successfully added to your account.","title":"Beneficiary Added Successfully","type":"push","status":"sent"},{"id":"01968804-afb4-7112-b019-c46ff717acb2","meta":null,"created_on":"2025-04-30T18:45:30.579Z","created_by_id":"019372de-17ef-7cc2-8fc0-43fe11ba042f","modified_on":"2025-04-30T18:45:30.579Z","modified_by_id":null,"deleted_on":null,"deleted_by_id":null,"tenant_id":"00000000-0000-0000-0000-000000000000","user_id":"019372de-17ef-7cc2-8fc0-43fe11ba042f","body":"The Maker-Checker feature has been enabled. Actions created by one user will require approval by a different user to be processed","title":"Maker-checker Enabled","type":"push","status":"sent"},{"id":"01968237-a66d-788f-a3d8-3ed5cbd94b8c","meta":null,"created_on":"2025-04-29T15:43:27.340Z","created_by_id":"019372de-17ef-7cc2-8fc0-43fe11ba042f","modified_on":"2025-04-29T15:43:27.340Z","modified_by_id":null,"deleted_on":null,"deleted_by_id":null,"tenant_id":"00000000-0000-0000-0000-000000000000","user_id":"019372de-17ef-7cc2-8fc0-43fe11ba042f","body":"The Maker-Checker feature has been disabled. Users can now approve their own actions.","title":"Maker-checker Disabled","type":"push","status":"sent"},{"id":"019678ec-7596-7664-b418-7a2ff40c0be4","meta":null,"created_on":"2025-04-27T20:24:44.694Z","created_by_id":"019372de-17ef-7cc2-8fc0-43fe11ba042f","modified_on":"2025-04-27T20:24:44.694Z","modified_by_id":null,"deleted_on":null,"deleted_by_id":null,"tenant_id":"00000000-0000-0000-0000-000000000000","user_id":"019372de-17ef-7cc2-8fc0-43fe11ba042f","body":"Your beneficiary John Doe has been successfully added to your account.","title":"Beneficiary Added Successfully","type":"push","status":"sent"},{"id":"019678ec-4577-7664-b417-e42dc3e39748","meta":null,"created_on":"2025-04-27T20:24:32.372Z","created_by_id":"019372de-17ef-7cc2-8fc0-43fe11ba042f","modified_on":"2025-04-27T20:24:32.372Z","modified_by_id":null,"deleted_on":null,"deleted_by_id":null,"tenant_id":"00000000-0000-0000-0000-000000000000","user_id":"019372de-17ef-7cc2-8fc0-43fe11ba042f","body":"The Maker-Checker feature has been enabled. Actions created by one user will require approval by a different user to be processed","title":"Maker-checker Enabled","type":"push","status":"sent"},{"id":"01966e46-e540-7664-b413-b8b60382e176","meta":null,"created_on":"2025-04-25T18:47:42.165Z","created_by_id":"019372de-17ef-7cc2-8fc0-43fe11ba042f","modified_on":"2025-04-25T18:47:42.165Z","modified_by_id":null,"deleted_on":null,"deleted_by_id":null,"tenant_id":"00000000-0000-0000-0000-000000000000","user_id":"019372de-17ef-7cc2-8fc0-43fe11ba042f","body":"Your beneficiary John Doe has been successfully added to your account.","title":"Beneficiary Added Successfully","type":"push","status":"sent"}],"meta":{"page":1,"total_pages":17,"total_items":170}}