{"status":"success","data":[{"id":"019497f5-fce5-7dd2-b9a0-f89181c802ff","created_on":"2025-01-24T10:57:48.261Z","email":"Yan@yopmail.com","first_name":"Feee","last_name":"yes","last_active":"2025-01-24T11:05:29.718Z","phone":null,"userProfile":{"id":"019497f5-fceb-7dd2-b9a1-045cac259aad","status":"active","role_id":"019485a0-e971-7886-8c7b-57eec9197a22","role":{"name":"caesarsage","slug":"caesarsage"}}},{"id":"01949742-bc1c-7ccf-a602-4e9981872839","created_on":"2025-01-24T07:42:00.732Z","email":"caesar.de.hero@gmail.com","first_name":null,"last_name":null,"last_active":"2025-01-24T07:42:00.732Z","phone":null,"userProfile":{"id":"01949742-bc26-7ccf-a602-51b54ea8b6fb","status":"active","role_id":"01949420-128c-7228-a8d2-e340e02367eb","role":{"name":"All roles ","slug":"all-roles"}}},{"id":"019493cc-a96a-7aa1-bdcd-f28ebe86524e","created_on":"2025-01-23T15:34:11.050Z","email":"ran@yopmail.com","first_name":"Feee","last_name":"flee","last_active":"2025-01-23T15:38:00.919Z","phone":null,"userProfile":{"id":"019493cc-a970-7aa1-bdcd-fadcbf0ffe30","status":"active","role_id":"01926788-56f8-7336-86de-98a2678c8611","role":{"name":"Authorizer","slug":"authorizer"}}},{"id":"019493a2-88f5-7cc6-93e5-ce1349d553c7","created_on":"2025-01-23T14:48:10.229Z","email":"rander@yopmail.com","first_name":"Adey","last_name":"Train","last_active":"2025-01-23T14:48:10.229Z","phone":null,"userProfile":{"id":"019493a2-88fc-7cc6-93e5-d4e96a8b8692","status":"active","role_id":"01926788-1eaf-7336-86de-89316b9797d9","role":{"name":"Initiator","slug":"initiator"}}},{"id":"0194939a-406b-7cc6-93e5-88de51673c0f","created_on":"2025-01-23T14:39:07.370Z","email":"rand@yopmail.com","first_name":"Adere","last_name":"Rant","last_active":"2025-01-23T14:39:07.370Z","phone":null,"userProfile":{"id":"0194939a-4072-7cc6-93e5-96e30ae527fc","status":"active","role_id":"01926788-1eaf-7336-86de-89316b9797d9","role":{"name":"Initiator","slug":"initiator"}}},{"id":"0194779e-0699-722d-b130-8816d366e2fc","created_on":"2025-01-18T04:13:52.665Z","email":"destinyerhabor6@gmail.com","first_name":"Destiny","last_name":"Erhabor","last_active":"2025-01-29T16:06:04.029Z","phone":null,"userProfile":{"id":"0194799f-14dc-722d-b131-aca193c9e35a","status":"active","role_id":"01926788-56f8-7336-86de-98a2678c8611","role":{"name":"Authorizer","slug":"authorizer"}}},{"id":"01946808-7023-777b-9e0c-2de1732fd3a5","created_on":"2025-01-15T03:36:11.043Z","email":"Klein@mailinator.com","first_name":"Cornelius","last_name":"Ferry","last_active":"2025-01-23T16:27:44.343Z","phone":null,"userProfile":{"id":"01946808-702b-777b-9e0c-36d7e3825b42","status":"active","role_id":"019485a0-e971-7886-8c7b-57eec9197a22","role":{"name":"caesarsage","slug":"caesarsage"}}},{"id":"01944a80-f3cb-7881-990d-98798437f1f3","created_on":"2025-01-09T09:59:12.588Z","email":"calista@mailinator.com","first_name":"Haven","last_name":"Mitchell","last_active":"2025-01-22T14:29:37.380Z","phone":null,"userProfile":{"id":"01944a80-f3d1-7881-990d-a4d23f1656fe","status":"active","role_id":"01926788-1eaf-7336-86de-89316b9797d9","role":{"name":"Initiator","slug":"initiator"}}},{"id":"01943b41-f4ca-722f-821b-30a276bebb7f","created_on":"2025-01-06T10:56:05.835Z","email":"janet@assurdly.com","first_name":"jayne","last_name":"ade","last_active":"2025-01-28T14:28:28.225Z","phone":"+23408160247584","userProfile":{"id":"019464c9-2f09-777b-9e05-d5aabe61fd5d","status":"active","role_id":"019435d3-5e27-7aa1-b636-0e6113f9564e","role":{"name":"Handmade Rubber Mouse","slug":"handmade-rubber-mouse"}}},{"id":"019372de-17ef-7cc2-8fc0-43fe11ba042f","created_on":"2024-11-28T13:02:58.029Z","email":"Ismael@mailinator.com","first_name":"Sunday","last_name":"Testing","last_active":"2025-01-29T18:43:45.616Z","phone":"+2349055755671","userProfile":{"id":"0193a649-e3d7-7881-8b7f-353dff30db39","status":"active","role_id":"01926788-704b-7336-86de-a5f24f6e9083","role":{"name":"Owner","slug":"owner"}}}],"meta":{"page":1,"total_pages":2,"total_items":11}}