{"status":"success","data":[{"id":"0194b311-cf42-7aaf-88c1-8a9e80e792d3","meta":null,"created_on":"2025-01-29T17:17:56.419Z","created_by_id":"019372de-17ef-7cc2-8fc0-43fe11ba042f","modified_on":"2025-01-29T17:17:57.938Z","modified_by_id":"019372de-17ef-7cc2-8fc0-43fe11ba042f","deleted_on":null,"deleted_by_id":null,"tenant_id":"00000000-0000-0000-0000-000000000000","account_id":"0193a699-2f15-7881-8b7f-ae50980bcfad","profile_id":"0193a649-e3d0-7881-8b7f-2ef1d89a9aff","cba_id":"2151","currency":"NGN","amount":"10.00","balance_after":null,"reference":"Tsuwokoimwv","processor_reference":null,"processor_status":null,"processor_message":null,"status":"success","entry_type":"debit","narration":null,"transaction_date":"2025-01-29T17:17:56.418Z","transaction_type":"fee","processor":"cba","reviewed_on":null,"reviewed_by":null,"batch_id":null,"schedule_id":null,"account":{"id":"0193a699-2f15-7881-8b7f-ae50980bcfad","meta":null,"created_on":"2024-12-08T14:07:57.204Z","created_by_id":null,"modified_on":"2025-01-29T18:44:29.335Z","modified_by_id":"019372de-17ef-7cc2-8fc0-43fe11ba042f","deleted_on":null,"deleted_by_id":null,"tenant_id":"00000000-0000-0000-0000-000000000000","name":"expenses","cba_id":"0000000074","status":"active","profile_id":"0193a649-e3d0-7881-8b7f-2ef1d89a9aff","account_number":"0000000074","bank_id":"0193324f-cad0-7f86-923b-43fb21ac5b29","ledger_balance":"359161.02","hold_balance":"0.00","available_balance":"359161.02","currency":"NGN","restricted":false},"transfer":null,"disputes":[],"batch":null,"transfer_beneficiary":null,"bill_payment_beneficiary":null},{"id":"0194b311-cf0b-7aaf-88c1-7aff1aaedf71","meta":null,"created_on":"2025-01-29T17:17:56.363Z","created_by_id":"019372de-17ef-7cc2-8fc0-43fe11ba042f","modified_on":"2025-01-29T17:17:57.932Z","modified_by_id":"019372de-17ef-7cc2-8fc0-43fe11ba042f","deleted_on":null,"deleted_by_id":null,"tenant_id":"00000000-0000-0000-0000-000000000000","account_id":"0193a699-2f15-7881-8b7f-ae50980bcfad","profile_id":"0193a649-e3d0-7881-8b7f-2ef1d89a9aff","cba_id":"2150","currency":"NGN","amount":"4000.00","balance_after":null,"reference":"Tsuwokoimwv","processor_reference":null,"processor_status":null,"processor_message":null,"status":"success","entry_type":"debit","narration":null,"transaction_date":"2025-01-29T17:17:56.350Z","transaction_type":"transfer","processor":"nip","reviewed_on":null,"reviewed_by":null,"batch_id":null,"schedule_id":null,"account":{"id":"0193a699-2f15-7881-8b7f-ae50980bcfad","meta":null,"created_on":"2024-12-08T14:07:57.204Z","created_by_id":null,"modified_on":"2025-01-29T18:44:29.335Z","modified_by_id":"019372de-17ef-7cc2-8fc0-43fe11ba042f","deleted_on":null,"deleted_by_id":null,"tenant_id":"00000000-0000-0000-0000-000000000000","name":"expenses","cba_id":"0000000074","status":"active","profile_id":"0193a649-e3d0-7881-8b7f-2ef1d89a9aff","account_number":"0000000074","bank_id":"0193324f-cad0-7f86-923b-43fb21ac5b29","ledger_balance":"359161.02","hold_balance":"0.00","available_balance":"359161.02","currency":"NGN","restricted":false},"transfer":{"id":"0194b311-cf11-7aaf-88c1-8488741b928f","meta":null,"created_on":"2025-01-29T17:17:56.363Z","created_by_id":"019372de-17ef-7cc2-8fc0-43fe11ba042f","modified_on":"2025-01-29T17:17:56.363Z","modified_by_id":null,"deleted_on":null,"deleted_by_id":null,"tenant_id":"00000000-0000-0000-0000-000000000000","bank_code":"000007","bank_name":"Fidelity Bank","bank_logo":"https://lendstack-s3.s3.us-east-2.amazonaws.com/bank_logos/070.png","account_name":"John Doe","account_number":"0112345678","profile_id":"0193a649-e3d0-7881-8b7f-2ef1d89a9aff","transaction_id":"0194b311-cf0b-7aaf-88c1-7aff1aaedf71","account_id":"0193a699-2f15-7881-8b7f-ae50980bcfad"},"disputes":[],"batch":null,"transfer_beneficiary":null,"bill_payment_beneficiary":null},{"id":"0194b2a3-76fb-7ff7-af81-6a9b27fafa59","meta":null,"created_on":"2025-01-29T15:17:24.687Z","created_by_id":"019372de-17ef-7cc2-8fc0-43fe11ba042f","modified_on":"2025-01-29T15:17:24.687Z","modified_by_id":null,"deleted_on":null,"deleted_by_id":null,"tenant_id":"00000000-0000-0000-0000-000000000000","account_id":"0193a699-2f15-7881-8b7f-ae50980bcfad","profile_id":"0193a649-e3d0-7881-8b7f-2ef1d89a9aff","cba_id":null,"currency":"NGN","amount":"100.00","balance_after":null,"reference":"Tkjmakyrrjb","processor_reference":null,"processor_status":null,"processor_message":null,"status":"processing","entry_type":"debit","narration":"Bar","transaction_date":"2025-01-29T15:17:24.859Z","transaction_type":"transfer","processor":"nip","reviewed_on":null,"reviewed_by":null,"batch_id":"0194b2a3-764f-7ff7-af81-6723580b8e55","schedule_id":null,"account":{"id":"0193a699-2f15-7881-8b7f-ae50980bcfad","meta":null,"created_on":"2024-12-08T14:07:57.204Z","created_by_id":null,"modified_on":"2025-01-29T18:44:29.335Z","modified_by_id":"019372de-17ef-7cc2-8fc0-43fe11ba042f","deleted_on":null,"deleted_by_id":null,"tenant_id":"00000000-0000-0000-0000-000000000000","name":"expenses","cba_id":"0000000074","status":"active","profile_id":"0193a649-e3d0-7881-8b7f-2ef1d89a9aff","account_number":"0000000074","bank_id":"0193324f-cad0-7f86-923b-43fb21ac5b29","ledger_balance":"359161.02","hold_balance":"0.00","available_balance":"359161.02","currency":"NGN","restricted":false},"transfer":{"id":"0194b2a3-7706-7ff7-af81-7244ac7ef682","meta":null,"created_on":"2025-01-29T15:17:24.687Z","created_by_id":"019372de-17ef-7cc2-8fc0-43fe11ba042f","modified_on":"2025-01-29T15:17:24.687Z","modified_by_id":null,"deleted_on":null,"deleted_by_id":null,"tenant_id":"00000000-0000-0000-0000-000000000000","bank_code":"000016","bank_name":"First Bank of Nigeria","bank_logo":"https://lendstack-s3.s3.us-east-2.amazonaws.com/bank_logos/011.png","account_name":"John Doe","account_number":"1111111111","profile_id":"0193a649-e3d0-7881-8b7f-2ef1d89a9aff","transaction_id":"0194b2a3-76fb-7ff7-af81-6a9b27fafa59","account_id":"0193a699-2f15-7881-8b7f-ae50980bcfad"},"disputes":[],"batch":{"id":"0194b2a3-764f-7ff7-af81-6723580b8e55","meta":null,"created_on":"2025-01-29T15:17:24.687Z","created_by_id":"019372de-17ef-7cc2-8fc0-43fe11ba042f","modified_on":"2025-01-29T15:17:24.687Z","modified_by_id":null,"deleted_on":null,"deleted_by_id":null,"tenant_id":"00000000-0000-0000-0000-000000000000","status":"approved"},"transfer_beneficiary":null,"bill_payment_beneficiary":null},{"id":"0194b2a2-439e-7ff7-af81-4edc2eb2b432","meta":null,"created_on":"2025-01-29T15:16:06.175Z","created_by_id":"019372de-17ef-7cc2-8fc0-43fe11ba042f","modified_on":"2025-01-29T15:16:07.996Z","modified_by_id":"019372de-17ef-7cc2-8fc0-43fe11ba042f","deleted_on":null,"deleted_by_id":null,"tenant_id":"00000000-0000-0000-0000-000000000000","account_id":"0193a699-2f15-7881-8b7f-ae50980bcfad","profile_id":"0193a649-e3d0-7881-8b7f-2ef1d89a9aff","cba_id":"2149","currency":"NGN","amount":"10.00","balance_after":null,"reference":"Tddcsymjkbe","processor_reference":null,"processor_status":null,"processor_message":null,"status":"success","entry_type":"debit","narration":null,"transaction_date":"2025-01-29T15:16:06.174Z","transaction_type":"fee","processor":"cba","reviewed_on":null,"reviewed_by":null,"batch_id":null,"schedule_id":null,"account":{"id":"0193a699-2f15-7881-8b7f-ae50980bcfad","meta":null,"created_on":"2024-12-08T14:07:57.204Z","created_by_id":null,"modified_on":"2025-01-29T18:44:29.335Z","modified_by_id":"019372de-17ef-7cc2-8fc0-43fe11ba042f","deleted_on":null,"deleted_by_id":null,"tenant_id":"00000000-0000-0000-0000-000000000000","name":"expenses","cba_id":"0000000074","status":"active","profile_id":"0193a649-e3d0-7881-8b7f-2ef1d89a9aff","account_number":"0000000074","bank_id":"0193324f-cad0-7f86-923b-43fb21ac5b29","ledger_balance":"359161.02","hold_balance":"0.00","available_balance":"359161.02","currency":"NGN","restricted":false},"transfer":null,"disputes":[],"batch":null,"transfer_beneficiary":null,"bill_payment_beneficiary":null},{"id":"0194b2a2-4392-7ff7-af81-3a996ccbec59","meta":null,"created_on":"2025-01-29T15:16:06.162Z","created_by_id":"019372de-17ef-7cc2-8fc0-43fe11ba042f","modified_on":"2025-01-29T15:16:07.990Z","modified_by_id":"019372de-17ef-7cc2-8fc0-43fe11ba042f","deleted_on":null,"deleted_by_id":null,"tenant_id":"00000000-0000-0000-0000-000000000000","account_id":"0193a699-2f15-7881-8b7f-ae50980bcfad","profile_id":"0193a649-e3d0-7881-8b7f-2ef1d89a9aff","cba_id":"2148","currency":"NGN","amount":"10000.00","balance_after":null,"reference":"Tddcsymjkbe","processor_reference":null,"processor_status":null,"processor_message":null,"status":"success","entry_type":"debit","narration":null,"transaction_date":"2025-01-29T15:16:06.152Z","transaction_type":"transfer","processor":"nip","reviewed_on":null,"reviewed_by":null,"batch_id":null,"schedule_id":null,"account":{"id":"0193a699-2f15-7881-8b7f-ae50980bcfad","meta":null,"created_on":"2024-12-08T14:07:57.204Z","created_by_id":null,"modified_on":"2025-01-29T18:44:29.335Z","modified_by_id":"019372de-17ef-7cc2-8fc0-43fe11ba042f","deleted_on":null,"deleted_by_id":null,"tenant_id":"00000000-0000-0000-0000-000000000000","name":"expenses","cba_id":"0000000074","status":"active","profile_id":"0193a649-e3d0-7881-8b7f-2ef1d89a9aff","account_number":"0000000074","bank_id":"0193324f-cad0-7f86-923b-43fb21ac5b29","ledger_balance":"359161.02","hold_balance":"0.00","available_balance":"359161.02","currency":"NGN","restricted":false},"transfer":{"id":"0194b2a2-4396-7ff7-af81-4577bee711b5","meta":null,"created_on":"2025-01-29T15:16:06.162Z","created_by_id":"019372de-17ef-7cc2-8fc0-43fe11ba042f","modified_on":"2025-01-29T15:16:06.162Z","modified_by_id":null,"deleted_on":null,"deleted_by_id":null,"tenant_id":"00000000-0000-0000-0000-000000000000","bank_code":"050030","bank_name":"NORTHQUEST FINANCE COMPANY LIMITED ","bank_logo":"https://cdn.prod.website-files.com/67342b6ac3243e10a48bee9d/673b02614b7fc0a77c0172b2_NorthQuest%20Finance%20%20Logo-p-500.png","account_name":"John Doe","account_number":"8139354433","profile_id":"0193a649-e3d0-7881-8b7f-2ef1d89a9aff","transaction_id":"0194b2a2-4392-7ff7-af81-3a996ccbec59","account_id":"0193a699-2f15-7881-8b7f-ae50980bcfad"},"disputes":[],"batch":null,"transfer_beneficiary":null,"bill_payment_beneficiary":null},{"id":"0194ae2d-7e3a-722c-b44d-926c96635577","meta":null,"created_on":"2025-01-28T18:30:04.600Z","created_by_id":"019372de-17ef-7cc2-8fc0-43fe11ba042f","modified_on":"2025-01-28T18:30:06.722Z","modified_by_id":"019372de-17ef-7cc2-8fc0-43fe11ba042f","deleted_on":null,"deleted_by_id":null,"tenant_id":"00000000-0000-0000-0000-000000000000","account_id":"0193a699-2f15-7881-8b7f-ae50980bcfad","profile_id":"0193a649-e3d0-7881-8b7f-2ef1d89a9aff","cba_id":"2147","currency":"NGN","amount":"10.00","balance_after":null,"reference":"Tdfgzeychvz","processor_reference":null,"processor_status":null,"processor_message":null,"status":"success","entry_type":"debit","narration":null,"transaction_date":"2025-01-28T18:30:04.599Z","transaction_type":"fee","processor":"cba","reviewed_on":null,"reviewed_by":null,"batch_id":null,"schedule_id":null,"account":{"id":"0193a699-2f15-7881-8b7f-ae50980bcfad","meta":null,"created_on":"2024-12-08T14:07:57.204Z","created_by_id":null,"modified_on":"2025-01-29T18:44:29.335Z","modified_by_id":"019372de-17ef-7cc2-8fc0-43fe11ba042f","deleted_on":null,"deleted_by_id":null,"tenant_id":"00000000-0000-0000-0000-000000000000","name":"expenses","cba_id":"0000000074","status":"active","profile_id":"0193a649-e3d0-7881-8b7f-2ef1d89a9aff","account_number":"0000000074","bank_id":"0193324f-cad0-7f86-923b-43fb21ac5b29","ledger_balance":"359161.02","hold_balance":"0.00","available_balance":"359161.02","currency":"NGN","restricted":false},"transfer":null,"disputes":[],"batch":null,"transfer_beneficiary":null,"bill_payment_beneficiary":null},{"id":"0194ae2d-7dee-722c-b44d-802aefbb06a5","meta":null,"created_on":"2025-01-28T18:30:04.525Z","created_by_id":"019372de-17ef-7cc2-8fc0-43fe11ba042f","modified_on":"2025-01-28T18:30:06.710Z","modified_by_id":"019372de-17ef-7cc2-8fc0-43fe11ba042f","deleted_on":null,"deleted_by_id":null,"tenant_id":"00000000-0000-0000-0000-000000000000","account_id":"0193a699-2f15-7881-8b7f-ae50980bcfad","profile_id":"0193a649-e3d0-7881-8b7f-2ef1d89a9aff","cba_id":"2146","currency":"NGN","amount":"100.00","balance_after":null,"reference":"Tdfgzeychvz","processor_reference":null,"processor_status":null,"processor_message":null,"status":"success","entry_type":"debit","narration":null,"transaction_date":"2025-01-28T18:30:04.514Z","transaction_type":"transfer","processor":"nip","reviewed_on":null,"reviewed_by":null,"batch_id":null,"schedule_id":null,"account":{"id":"0193a699-2f15-7881-8b7f-ae50980bcfad","meta":null,"created_on":"2024-12-08T14:07:57.204Z","created_by_id":null,"modified_on":"2025-01-29T18:44:29.335Z","modified_by_id":"019372de-17ef-7cc2-8fc0-43fe11ba042f","deleted_on":null,"deleted_by_id":null,"tenant_id":"00000000-0000-0000-0000-000000000000","name":"expenses","cba_id":"0000000074","status":"active","profile_id":"0193a649-e3d0-7881-8b7f-2ef1d89a9aff","account_number":"0000000074","bank_id":"0193324f-cad0-7f86-923b-43fb21ac5b29","ledger_balance":"359161.02","hold_balance":"0.00","available_balance":"359161.02","currency":"NGN","restricted":false},"transfer":{"id":"0194ae2d-7df5-722c-b44d-880201d18c17","meta":null,"created_on":"2025-01-28T18:30:04.525Z","created_by_id":"019372de-17ef-7cc2-8fc0-43fe11ba042f","modified_on":"2025-01-28T18:30:04.525Z","modified_by_id":null,"deleted_on":null,"deleted_by_id":null,"tenant_id":"00000000-0000-0000-0000-000000000000","bank_code":"000014","bank_name":"Access Bank","bank_logo":"https://lendstack-s3.s3.us-east-2.amazonaws.com/bank_logos/044.png","account_name":"John Doe","account_number":"0112345678","profile_id":"0193a649-e3d0-7881-8b7f-2ef1d89a9aff","transaction_id":"0194ae2d-7dee-722c-b44d-802aefbb06a5","account_id":"0193a699-2f15-7881-8b7f-ae50980bcfad"},"disputes":[],"batch":null,"transfer_beneficiary":null,"bill_payment_beneficiary":null},{"id":"0194abe1-8abc-7003-a092-0308ba43acb7","meta":null,"created_on":"2025-01-28T07:47:52.636Z","created_by_id":"019372de-17ef-7cc2-8fc0-43fe11ba042f","modified_on":"2025-01-28T07:47:54.618Z","modified_by_id":"019372de-17ef-7cc2-8fc0-43fe11ba042f","deleted_on":null,"deleted_by_id":null,"tenant_id":"00000000-0000-0000-0000-000000000000","account_id":"0193a699-2f15-7881-8b7f-ae50980bcfad","profile_id":"0193a649-e3d0-7881-8b7f-2ef1d89a9aff","cba_id":"2140","currency":"NGN","amount":"500.00","balance_after":null,"reference":"Turadamhjld","processor_reference":null,"processor_status":null,"processor_message":"+2349055755671 is not a valid phone number","status":"failed","entry_type":"debit","narration":"Bill payment to eko_electric_prepaid for 23456787654","transaction_date":"2025-01-28T07:47:52.635Z","transaction_type":"bill-payment","processor":"baxipay","reviewed_on":null,"reviewed_by":null,"batch_id":null,"schedule_id":null,"account":{"id":"0193a699-2f15-7881-8b7f-ae50980bcfad","meta":null,"created_on":"2024-12-08T14:07:57.204Z","created_by_id":null,"modified_on":"2025-01-29T18:44:29.335Z","modified_by_id":"019372de-17ef-7cc2-8fc0-43fe11ba042f","deleted_on":null,"deleted_by_id":null,"tenant_id":"00000000-0000-0000-0000-000000000000","name":"expenses","cba_id":"0000000074","status":"active","profile_id":"0193a649-e3d0-7881-8b7f-2ef1d89a9aff","account_number":"0000000074","bank_id":"0193324f-cad0-7f86-923b-43fb21ac5b29","ledger_balance":"359161.02","hold_balance":"0.00","available_balance":"359161.02","currency":"NGN","restricted":false},"transfer":null,"disputes":[],"batch":null,"transfer_beneficiary":null,"bill_payment_beneficiary":null},{"id":"0194a6ba-317b-7dd7-aac9-c4aa757132d6","meta":null,"created_on":"2025-01-27T07:46:47.804Z","created_by_id":"019372de-17ef-7cc2-8fc0-43fe11ba042f","modified_on":"2025-01-27T12:58:50.637Z","modified_by_id":"019372de-17ef-7cc2-8fc0-43fe11ba042f","deleted_on":null,"deleted_by_id":null,"tenant_id":"00000000-0000-0000-0000-000000000000","account_id":"0193a699-2f15-7881-8b7f-ae50980bcfad","profile_id":"0193a649-e3d0-7881-8b7f-2ef1d89a9aff","cba_id":"2104","currency":"NGN","amount":"1800.00","balance_after":"373291.02","reference":"Tesfmeyxwtr","processor_reference":null,"processor_status":null,"processor_message":null,"status":"success","entry_type":"debit","narration":"Bill payment to waec for 1102003467","transaction_date":"2025-01-27T07:46:47.803Z","transaction_type":"bill-payment","processor":"baxipay","reviewed_on":null,"reviewed_by":null,"batch_id":null,"schedule_id":null,"account":{"id":"0193a699-2f15-7881-8b7f-ae50980bcfad","meta":null,"created_on":"2024-12-08T14:07:57.204Z","created_by_id":null,"modified_on":"2025-01-29T18:44:29.335Z","modified_by_id":"019372de-17ef-7cc2-8fc0-43fe11ba042f","deleted_on":null,"deleted_by_id":null,"tenant_id":"00000000-0000-0000-0000-000000000000","name":"expenses","cba_id":"0000000074","status":"active","profile_id":"0193a649-e3d0-7881-8b7f-2ef1d89a9aff","account_number":"0000000074","bank_id":"0193324f-cad0-7f86-923b-43fb21ac5b29","ledger_balance":"359161.02","hold_balance":"0.00","available_balance":"359161.02","currency":"NGN","restricted":false},"transfer":null,"disputes":[{"id":"0194a7d7-e19a-7dd7-aad0-32eacd84d9b4","meta":null,"created_on":"2025-01-27T12:58:50.650Z","created_by_id":"019372de-17ef-7cc2-8fc0-43fe11ba042f","modified_on":"2025-01-27T12:58:50.650Z","modified_by_id":null,"deleted_on":null,"deleted_by_id":null,"tenant_id":"00000000-0000-0000-0000-000000000000","file_id":null,"transaction_id":"0194a6ba-317b-7dd7-aac9-c4aa757132d6","status":"pending","note":"Why","comment":null,"reviewed_on":null,"reviewed_by":null,"profile_id":"0193a649-e3d0-7881-8b7f-2ef1d89a9aff"}],"batch":null,"transfer_beneficiary":null,"bill_payment_beneficiary":null},{"id":"0194a673-ed18-7dd7-aac8-9b0315f02692","meta":null,"created_on":"2025-01-27T06:30:02.777Z","created_by_id":"01927265-4ed2-79cc-a0e6-e11339a359f3","modified_on":"2025-01-27T06:30:02.777Z","modified_by_id":null,"deleted_on":null,"deleted_by_id":null,"tenant_id":"00000000-0000-0000-0000-000000000000","account_id":"0193a699-2f15-7881-8b7f-ae50980bcfad","profile_id":"0193a649-e3d0-7881-8b7f-2ef1d89a9aff","cba_id":null,"currency":"NGN","amount":"100.00","balance_after":null,"reference":"Tqfpcmjqvyv","processor_reference":null,"processor_status":null,"processor_message":null,"status":"success","entry_type":"credit","narration":"Dispute resolved for transaction Tqfpcmjqvyv","transaction_date":"2025-01-27T06:30:02.775Z","transaction_type":"reversal","processor":"cba","reviewed_on":null,"reviewed_by":null,"batch_id":null,"schedule_id":null,"account":{"id":"0193a699-2f15-7881-8b7f-ae50980bcfad","meta":null,"created_on":"2024-12-08T14:07:57.204Z","created_by_id":null,"modified_on":"2025-01-29T18:44:29.335Z","modified_by_id":"019372de-17ef-7cc2-8fc0-43fe11ba042f","deleted_on":null,"deleted_by_id":null,"tenant_id":"00000000-0000-0000-0000-000000000000","name":"expenses","cba_id":"0000000074","status":"active","profile_id":"0193a649-e3d0-7881-8b7f-2ef1d89a9aff","account_number":"0000000074","bank_id":"0193324f-cad0-7f86-923b-43fb21ac5b29","ledger_balance":"359161.02","hold_balance":"0.00","available_balance":"359161.02","currency":"NGN","restricted":false},"transfer":null,"disputes":[],"batch":null,"transfer_beneficiary":null,"bill_payment_beneficiary":null}],"meta":{"page":1,"total_pages":73,"total_items":721}}