{"status":"success","data":[{"id":"0194b315-2c40-7aaf-88c1-ff649a703e50","meta":null,"created_on":"2025-01-29T17:21:36.832Z","created_by_id":"019372de-17ef-7cc2-8fc0-43fe11ba042f","modified_on":"2025-01-29T17:21:36.832Z","modified_by_id":null,"deleted_on":null,"deleted_by_id":null,"tenant_id":"00000000-0000-0000-0000-000000000000","profile_id":"0193a649-e3d0-7881-8b7f-2ef1d89a9aff","status":"pending","command":"TransferCommand","command_data":{"account_id":"0193f0e2-ab16-799a-85ae-fa4fbe2990a7","data":{"account_number":"1780004070","bank_code":"044","amount":100.23,"narration":"Sodiq","pin":"1234","bank_name":"Northquest Finance","account_name":"Mike Jacob","logo_url":"https://lendstack-s3.s3.us-east-2.amazonaws.com/bank_logos/044.png"}},"maker_id":"019372de-17ef-7cc2-8fc0-43fe11ba042f","made_on":"2025-01-29T17:21:36.828Z","checker_id":null,"checked_on":null,"maker_checker_id":"0193df18-702c-7ddc-9298-482c857161b9","reason":null},{"id":"0194b314-542d-7aaf-88c1-f32f59d49bbb","meta":null,"created_on":"2025-01-29T17:20:41.516Z","created_by_id":"019372de-17ef-7cc2-8fc0-43fe11ba042f","modified_on":"2025-01-29T17:20:41.516Z","modified_by_id":null,"deleted_on":null,"deleted_by_id":null,"tenant_id":"00000000-0000-0000-0000-000000000000","profile_id":"0193a649-e3d0-7881-8b7f-2ef1d89a9aff","status":"pending","command":"TransferCommand","command_data":{"account_id":"0193f0e2-ab16-799a-85ae-fa4fbe2990a7","data":{"account_number":"1780004070","bank_code":"999998","amount":100.23,"narration":"Sodiq","pin":"1234","bank_name":"Northquest Finance","account_name":"Mike Jacob"}},"maker_id":"019372de-17ef-7cc2-8fc0-43fe11ba042f","made_on":"2025-01-29T17:20:41.515Z","checker_id":null,"checked_on":null,"maker_checker_id":"0193df18-702c-7ddc-9298-482c857161b9","reason":null},{"id":"0194b311-12f5-7aaf-88c1-7317a3425a69","meta":null,"created_on":"2025-01-29T17:17:08.139Z","created_by_id":"019372de-17ef-7cc2-8fc0-43fe11ba042f","modified_on":"2025-01-29T17:17:56.223Z","modified_by_id":"019372de-17ef-7cc2-8fc0-43fe11ba042f","deleted_on":null,"deleted_by_id":null,"tenant_id":"00000000-0000-0000-0000-000000000000","profile_id":"0193a649-e3d0-7881-8b7f-2ef1d89a9aff","status":"approved","command":"TransferCommand","command_data":{"account_id":"0193a699-2f15-7881-8b7f-ae50980bcfad","data":{"account_number":"0112345678","amount":4000,"bank_code":"070","pin":"1234"}},"maker_id":"019372de-17ef-7cc2-8fc0-43fe11ba042f","made_on":"2025-01-29T17:17:08.138Z","checker_id":"019372de-17ef-7cc2-8fc0-43fe11ba042f","checked_on":null,"maker_checker_id":"0193df18-702c-7ddc-9298-482c857161b9","reason":null},{"id":"0194b305-b5c4-7aaf-88c1-572e66308680","meta":null,"created_on":"2025-01-29T17:04:43.460Z","created_by_id":"019372de-17ef-7cc2-8fc0-43fe11ba042f","modified_on":"2025-01-29T17:04:43.460Z","modified_by_id":null,"deleted_on":null,"deleted_by_id":null,"tenant_id":"00000000-0000-0000-0000-000000000000","profile_id":"0193a649-e3d0-7881-8b7f-2ef1d89a9aff","status":"pending","command":"TransferCommand","command_data":{"account_id":"0193a699-2f15-7881-8b7f-ae50980bcfad","data":{"account_number":"0000009047","bank_code":"000016","amount":1000,"pin":"1234","narration":"","account_name":"John Doe","bank_name":"First"}},"maker_id":"019372de-17ef-7cc2-8fc0-43fe11ba042f","made_on":"2025-01-29T17:04:43.458Z","checker_id":null,"checked_on":null,"maker_checker_id":"0193df18-702c-7ddc-9298-482c857161b9","reason":null},{"id":"0194b1bf-a9cb-7666-8d23-4d5006a5d854","meta":null,"created_on":"2025-01-29T11:08:35.659Z","created_by_id":"019372de-17ef-7cc2-8fc0-43fe11ba042f","modified_on":"2025-01-29T11:08:35.659Z","modified_by_id":null,"deleted_on":null,"deleted_by_id":null,"tenant_id":"00000000-0000-0000-0000-000000000000","profile_id":"0193a649-e3d0-7881-8b7f-2ef1d89a9aff","status":"pending","command":"TransferCommand","command_data":{"account_id":"0193a699-2f15-7881-8b7f-ae50980bcfad","data":{"account_number":"0000000074","amount":500,"bank_code":"050030","pin":"1234"}},"maker_id":"019372de-17ef-7cc2-8fc0-43fe11ba042f","made_on":"2025-01-29T11:08:35.659Z","checker_id":null,"checked_on":null,"maker_checker_id":"0193df18-702c-7ddc-9298-482c857161b9","reason":null},{"id":"0194af1c-a78f-722c-b453-db2585053d48","meta":null,"created_on":"2025-01-28T22:51:18.284Z","created_by_id":"019372de-17ef-7cc2-8fc0-43fe11ba042f","modified_on":"2025-01-28T22:51:18.284Z","modified_by_id":null,"deleted_on":null,"deleted_by_id":null,"tenant_id":"00000000-0000-0000-0000-000000000000","profile_id":"0193a649-e3d0-7881-8b7f-2ef1d89a9aff","status":"pending","command":"TransferCommand","command_data":{"account_id":"0193a699-2f15-7881-8b7f-ae50980bcfad","data":{"account_number":"0112345678","amount":100,"bank_code":"000014","pin":"1234"}},"maker_id":"019372de-17ef-7cc2-8fc0-43fe11ba042f","made_on":"2025-01-28T22:51:18.283Z","checker_id":null,"checked_on":null,"maker_checker_id":"0193df18-702c-7ddc-9298-482c857161b9","reason":null},{"id":"0194aee8-9ce2-722c-b452-816312c64ef7","meta":null,"created_on":"2025-01-28T21:54:27.682Z","created_by_id":"019372de-17ef-7cc2-8fc0-43fe11ba042f","modified_on":"2025-01-28T21:54:27.682Z","modified_by_id":null,"deleted_on":null,"deleted_by_id":null,"tenant_id":"00000000-0000-0000-0000-000000000000","profile_id":"0193a649-e3d0-7881-8b7f-2ef1d89a9aff","status":"pending","command":"BulkTransferCommand","command_data":{"account_id":"0193a699-2f15-7881-8b7f-ae50980bcfad","data":[{"bank_code":"011","account_number":"1001110001","amount":"12","narration":"Narrate"},{"bank_code":"214","account_number":"4949494949","amount":"50","narration":""}]},"maker_id":"019372de-17ef-7cc2-8fc0-43fe11ba042f","made_on":"2025-01-28T21:54:27.681Z","checker_id":null,"checked_on":null,"maker_checker_id":"0193df18-702c-7ddc-9298-482c857161b9","reason":null},{"id":"0194aee7-e7a4-722c-b452-39f7f90fde10","meta":null,"created_on":"2025-01-28T21:53:41.284Z","created_by_id":"019372de-17ef-7cc2-8fc0-43fe11ba042f","modified_on":"2025-01-28T21:53:41.284Z","modified_by_id":null,"deleted_on":null,"deleted_by_id":null,"tenant_id":"00000000-0000-0000-0000-000000000000","profile_id":"0193a649-e3d0-7881-8b7f-2ef1d89a9aff","status":"pending","command":"ScheduleTransferCommand","command_data":{"data":{"account_id":"0193a699-2f15-7881-8b7f-ae50980bcfad","type":"transfer","frequency":"monthly","start_date":"2025-01-30T00:00:00.000Z","end_date":"2025-01-31T00:00:00.000Z","pin":"1234","recipients":[{"amount":1000,"account_number":"0112345678","bank_code":"058","narration":"Net","account_name":"John Doe","bank_name":"Guaranty Trust Bank"}]}},"maker_id":"019372de-17ef-7cc2-8fc0-43fe11ba042f","made_on":"2025-01-28T21:53:41.283Z","checker_id":null,"checked_on":null,"maker_checker_id":"0193df18-702c-7ddc-9298-482c857161b9","reason":null},{"id":"0194aee3-0296-722c-b452-0fb7e49fbdff","meta":null,"created_on":"2025-01-28T21:48:20.502Z","created_by_id":"019372de-17ef-7cc2-8fc0-43fe11ba042f","modified_on":"2025-01-28T21:48:20.502Z","modified_by_id":null,"deleted_on":null,"deleted_by_id":null,"tenant_id":"00000000-0000-0000-0000-000000000000","profile_id":"0193a649-e3d0-7881-8b7f-2ef1d89a9aff","status":"pending","command":"TransferCommand","command_data":{"account_id":"0193a699-2f15-7881-8b7f-ae50980bcfad","data":{"account_number":"0112345678","amount":100,"bank_code":"000014","pin":"1234"}},"maker_id":"019372de-17ef-7cc2-8fc0-43fe11ba042f","made_on":"2025-01-28T21:48:20.502Z","checker_id":null,"checked_on":null,"maker_checker_id":"0193df18-702c-7ddc-9298-482c857161b9","reason":null},{"id":"0194aee0-a9c2-722c-b452-072f29b53fa9","meta":null,"created_on":"2025-01-28T21:45:46.691Z","created_by_id":"019372de-17ef-7cc2-8fc0-43fe11ba042f","modified_on":"2025-01-28T21:45:46.691Z","modified_by_id":null,"deleted_on":null,"deleted_by_id":null,"tenant_id":"00000000-0000-0000-0000-000000000000","profile_id":"0193a649-e3d0-7881-8b7f-2ef1d89a9aff","status":"pending","command":"BulkTransferCommand","command_data":{"account_id":"0193a699-2f15-7881-8b7f-ae50980bcfad","data":[{"bank_code":"070","account_number":"1234564932","amount":"100","narration":""},{"bank_code":"050","account_number":"2223333333","amount":"200","narration":"Narrate"}]},"maker_id":"019372de-17ef-7cc2-8fc0-43fe11ba042f","made_on":"2025-01-28T21:45:46.690Z","checker_id":null,"checked_on":null,"maker_checker_id":"0193df18-702c-7ddc-9298-482c857161b9","reason":null}],"meta":{"page":1,"total_pages":23,"total_items":225}}