{"status":"success","data":[{"id":"0194a9c0-f949-7ff6-95f6-afbcbd3d2eac","created_on":"2025-01-27T21:53:03.817Z","email":"l.adeosun.la@gmail.com","first_name":null,"last_name":null,"last_active":"2025-01-27T21:53:03.817Z","phone":null,"userProfile":{"id":"0194a9c0-f951-7ff6-95f6-b3553305491d","status":"pending","role_id":"01926788-56f8-7336-86de-98a2678c8611","role":{"name":"Authorizer","slug":"authorizer"}}},{"id":"019497f5-fce5-7dd2-b9a0-f89181c802ff","created_on":"2025-01-24T10:57:48.261Z","email":"Yan@yopmail.com","first_name":"Feee","last_name":"yes","last_active":"2025-01-24T11:05:29.718Z","phone":null,"userProfile":{"id":"019497f5-fceb-7dd2-b9a1-045cac259aad","status":"active","role_id":"019485a0-e971-7886-8c7b-57eec9197a22","role":{"name":"caesarsage","slug":"caesarsage"}}},{"id":"019497f4-a00e-7dd2-b9a0-eb070385514b","created_on":"2025-01-24T10:56:18.958Z","email":"yang@yopmail.com","first_name":"Jane","last_name":"stay","last_active":"2025-01-24T10:56:18.958Z","phone":null,"userProfile":{"id":"019497f4-a011-7dd2-b9a0-f129ef25b0da","status":"inactive","role_id":"01926788-1eaf-7336-86de-89316b9797d9","role":{"name":"Initiator","slug":"initiator"}}},{"id":"0194975f-334a-7ccf-a602-eed2ef8095d3","created_on":"2025-01-24T08:13:06.250Z","email":"destinyerhabor6+ZE@gmail.com","first_name":null,"last_name":null,"last_active":"2025-01-24T08:13:06.250Z","phone":null,"userProfile":{"id":"0194975f-3351-7ccf-a602-f10fc9a55bcc","status":"pending","role_id":"019485a0-e971-7886-8c7b-57eec9197a22","role":{"name":"caesarsage","slug":"caesarsage"}}},{"id":"01949742-bc1c-7ccf-a602-4e9981872839","created_on":"2025-01-24T07:42:00.732Z","email":"caesar.de.hero@gmail.com","first_name":null,"last_name":null,"last_active":"2025-01-24T07:42:00.732Z","phone":null,"userProfile":{"id":"01949742-bc26-7ccf-a602-51b54ea8b6fb","status":"active","role_id":"01949420-128c-7228-a8d2-e340e02367eb","role":{"name":"All roles ","slug":"all-roles"}}},{"id":"01949444-2364-7228-a8d5-2849410f4d26","created_on":"2025-01-23T17:44:41.060Z","email":"random@yopmail.com","first_name":"Feee","last_name":"stay","last_active":"2025-01-23T17:50:46.007Z","phone":null,"userProfile":{"id":"01949444-2369-7228-a8d5-31c9b2b7271c","status":"inactive","role_id":"01926788-56f8-7336-86de-98a2678c8611","role":{"name":"Authorizer","slug":"authorizer"}}},{"id":"019493cc-a96a-7aa1-bdcd-f28ebe86524e","created_on":"2025-01-23T15:34:11.050Z","email":"ran@yopmail.com","first_name":"Feee","last_name":"flee","last_active":"2025-01-23T15:38:00.919Z","phone":null,"userProfile":{"id":"019493cc-a970-7aa1-bdcd-fadcbf0ffe30","status":"active","role_id":"01926788-56f8-7336-86de-98a2678c8611","role":{"name":"Authorizer","slug":"authorizer"}}},{"id":"019493c9-e445-7aa1-bdcc-10e248fce7a1","created_on":"2025-01-23T15:31:09.510Z","email":"too@yopmail.com","first_name":null,"last_name":null,"last_active":"2025-01-23T15:31:09.510Z","phone":null,"userProfile":{"id":"019493c9-e44b-7aa1-bdcc-1ca61e5b541d","status":"pending","role_id":"019485a0-e971-7886-8c7b-57eec9197a22","role":{"name":"caesarsage","slug":"caesarsage"}}},{"id":"019493a2-88f5-7cc6-93e5-ce1349d553c7","created_on":"2025-01-23T14:48:10.229Z","email":"rander@yopmail.com","first_name":"Adey","last_name":"Train","last_active":"2025-01-23T14:48:10.229Z","phone":null,"userProfile":{"id":"019493a2-88fc-7cc6-93e5-d4e96a8b8692","status":"active","role_id":"01926788-1eaf-7336-86de-89316b9797d9","role":{"name":"Initiator","slug":"initiator"}}},{"id":"0194939a-406b-7cc6-93e5-88de51673c0f","created_on":"2025-01-23T14:39:07.370Z","email":"rand@yopmail.com","first_name":"Adere","last_name":"Rant","last_active":"2025-01-23T14:39:07.370Z","phone":null,"userProfile":{"id":"0194939a-4072-7cc6-93e5-96e30ae527fc","status":"active","role_id":"01926788-1eaf-7336-86de-89316b9797d9","role":{"name":"Initiator","slug":"initiator"}}}],"meta":{"page":1,"total_pages":3,"total_items":29}}