{"status":"success","data":[{"id":"01939f03-f67c-7bb0-8d5a-a521d66cb2b3","meta":null,"created_on":"2024-12-07T02:47:37.341Z","created_by":null,"modified_on":"2024-12-07T02:47:37.341Z","modified_by":null,"deleted_on":null,"deleted_by":null,"tenant_id":"00000000-0000-0000-0000-000000000000","name":"Vat","description":"Value added tax","type":"percentage","category":"vat","currency":"NGN","amount":null,"min_amount":null,"max_amount":null,"percentage":"7.50","vat_id":null},{"id":"01939f24-2cc6-7660-b81f-a5c5fc61bfbf","meta":null,"created_on":"2024-12-07T03:22:48.387Z","created_by":null,"modified_on":"2024-12-07T03:22:48.387Z","modified_by":null,"deleted_on":null,"deleted_by":null,"tenant_id":"00000000-0000-0000-0000-000000000000","name":"Vat","description":"Value added tax","type":"percentage","category":"vat","currency":"NGN","amount":null,"min_amount":null,"max_amount":null,"percentage":"7.50","vat_id":null},{"id":"01939f37-c923-7660-b821-697ca43bc436","meta":null,"created_on":"2024-12-07T03:44:13.601Z","created_by":null,"modified_on":"2024-12-07T03:44:13.601Z","modified_by":null,"deleted_on":null,"deleted_by":null,"tenant_id":"00000000-0000-0000-0000-000000000000","name":"Vat","description":"Value added tax","type":"percentage","category":"vat","currency":"NGN","amount":null,"min_amount":null,"max_amount":null,"percentage":"7.50","vat_id":null},{"id":"0193a6b9-79e6-7881-8b81-46ac066a9127","meta":null,"created_on":"2024-12-08T14:43:13.510Z","created_by":null,"modified_on":"2024-12-08T14:43:13.510Z","modified_by":null,"deleted_on":null,"deleted_by":null,"tenant_id":"00000000-0000-0000-0000-000000000000","name":"Vat","description":"Value added tax","type":"percentage","category":"vat","currency":"NGN","amount":null,"min_amount":null,"max_amount":null,"percentage":"7.50","vat_id":null},{"id":"0193a725-99f9-7881-8b84-08fe047302b3","meta":null,"created_on":"2024-12-08T16:41:19.606Z","created_by":null,"modified_on":"2024-12-08T16:41:19.606Z","modified_by":null,"deleted_on":null,"deleted_by":null,"tenant_id":"00000000-0000-0000-0000-000000000000","name":"Vat","description":"Value added tax","type":"percentage","category":"vat","currency":"NGN","amount":null,"min_amount":null,"max_amount":null,"percentage":"7.50","vat_id":null},{"id":"0193a7e3-2580-7441-9a1a-d80a4b695e30","meta":null,"created_on":"2024-12-08T20:08:21.633Z","created_by":null,"modified_on":"2024-12-08T20:08:21.633Z","modified_by":null,"deleted_on":null,"deleted_by":null,"tenant_id":"00000000-0000-0000-0000-000000000000","name":"Vat","description":"Value added tax","type":"percentage","category":"vat","currency":"NGN","amount":null,"min_amount":null,"max_amount":null,"percentage":"7.50","vat_id":null},{"id":"0193a938-6936-777b-9d88-e460da190183","meta":null,"created_on":"2024-12-09T02:21:06.743Z","created_by":null,"modified_on":"2024-12-09T02:21:06.743Z","modified_by":null,"deleted_on":null,"deleted_by":null,"tenant_id":"00000000-0000-0000-0000-000000000000","name":"Vat","description":"Value added tax","type":"percentage","category":"vat","currency":"NGN","amount":null,"min_amount":null,"max_amount":null,"percentage":"7.50","vat_id":null},{"id":"0193a631-50bd-7881-8b7e-b84df177dac9","meta":null,"created_on":"2024-12-08T12:14:30.078Z","created_by":null,"modified_on":"2024-12-10T15:19:39.475Z","modified_by":null,"deleted_on":null,"deleted_by":null,"tenant_id":"00000000-0000-0000-0000-000000000000","name":"Vat","description":"Value added tax","type":"percentage","category":"vat","currency":"NGN","amount":"0.00","min_amount":"0.00","max_amount":"0.00","percentage":"7.50","vat_id":null},{"id":"01939d44-eae3-7bb0-8d58-730f05ea7fbd","meta":null,"created_on":"2024-12-06T18:39:19.777Z","created_by":null,"modified_on":"2024-12-10T15:23:23.225Z","modified_by":null,"deleted_on":null,"deleted_by":null,"tenant_id":"00000000-0000-0000-0000-000000000000","name":"Transfer Fee - Low Range","description":"Flat fee for transfers between 0 and 5000","type":"flat","category":"internal-transfer","currency":"NGN","amount":"10.00","min_amount":"2000.00","max_amount":"5000.00","percentage":"0.00","vat_id":null},{"id":"01934eb8-50a2-7442-bd77-41ae9c5984b9","meta":null,"created_on":"2024-11-21T12:35:22.402Z","created_by":null,"modified_on":"2024-12-12T07:28:29.121Z","modified_by":null,"deleted_on":null,"deleted_by":null,"tenant_id":"00000000-0000-0000-0000-000000000000","name":"Transfer ","description":"Flat fee for transfers between 0 and 5000","type":"flat","category":"internal-transfer","currency":"NGN","amount":"10.00","min_amount":"10000.00","max_amount":"50000.00","percentage":"0.00","vat_id":null}],"meta":{"page":1,"total_pages":2,"total_items":11}}