{"status":"success","data":[{"id":"0196d01d-a584-7aa1-a929-30130a1bda27","meta":null,"created_on":"2025-05-14T18:45:26.021Z","created_by_id":"019372de-17ef-7cc2-8fc0-43fe11ba042f","modified_on":"2025-05-14T18:45:26.021Z","modified_by_id":null,"deleted_on":null,"deleted_by_id":null,"tenant_id":"00000000-0000-0000-0000-000000000000","bank_code":"000014","bank_name":"Access Bank","account_number":"5308567312","account_name":"John Doe","profile_id":"0193a649-e3d0-7881-8b7f-2ef1d89a9aff"},{"id":"0196c105-5067-7000-bf0c-bdf337a266ae","meta":null,"created_on":"2025-05-11T20:24:33.127Z","created_by_id":"019372de-17ef-7cc2-8fc0-43fe11ba042f","modified_on":"2025-05-11T20:24:33.127Z","modified_by_id":null,"deleted_on":null,"deleted_by_id":null,"tenant_id":"00000000-0000-0000-0000-000000000000","bank_code":"000014","bank_name":"Access Bank","account_number":"3511380212","account_name":"John Doe","profile_id":"0193a649-e3d0-7881-8b7f-2ef1d89a9aff"},{"id":"0196b660-6241-7bba-bcbb-5d51aae9042c","meta":null,"created_on":"2025-05-09T18:48:12.097Z","created_by_id":"019372de-17ef-7cc2-8fc0-43fe11ba042f","modified_on":"2025-05-09T18:48:12.097Z","modified_by_id":null,"deleted_on":null,"deleted_by_id":null,"tenant_id":"00000000-0000-0000-0000-000000000000","bank_code":"000014","bank_name":"Access Bank","account_number":"7465441312","account_name":"John Doe","profile_id":"0193a649-e3d0-7881-8b7f-2ef1d89a9aff"},{"id":"0196ac11-6d4e-7cca-bb5c-4b1b65aedf87","meta":null,"created_on":"2025-05-07T18:45:45.423Z","created_by_id":"019372de-17ef-7cc2-8fc0-43fe11ba042f","modified_on":"2025-05-07T18:45:45.423Z","modified_by_id":null,"deleted_on":null,"deleted_by_id":null,"tenant_id":"00000000-0000-0000-0000-000000000000","bank_code":"000014","bank_name":"Access Bank","account_number":"5381028612","account_name":"John Doe","profile_id":"0193a649-e3d0-7881-8b7f-2ef1d89a9aff"},{"id":"01969cf9-1f7c-7eeb-b172-2311fb809ae5","meta":null,"created_on":"2025-05-04T20:24:54.397Z","created_by_id":"019372de-17ef-7cc2-8fc0-43fe11ba042f","modified_on":"2025-05-04T20:24:54.397Z","modified_by_id":null,"deleted_on":null,"deleted_by_id":null,"tenant_id":"00000000-0000-0000-0000-000000000000","bank_code":"000014","bank_name":"Access Bank","account_number":"8662854612","account_name":"John Doe","profile_id":"0193a649-e3d0-7881-8b7f-2ef1d89a9aff"},{"id":"01969253-f0a0-7884-93b6-86442c823613","meta":null,"created_on":"2025-05-02T18:48:16.801Z","created_by_id":"019372de-17ef-7cc2-8fc0-43fe11ba042f","modified_on":"2025-05-02T18:48:16.801Z","modified_by_id":null,"deleted_on":null,"deleted_by_id":null,"tenant_id":"00000000-0000-0000-0000-000000000000","bank_code":"000014","bank_name":"Access Bank","account_number":"1520108912","account_name":"John Doe","profile_id":"0193a649-e3d0-7881-8b7f-2ef1d89a9aff"},{"id":"01968804-dddf-7112-b01a-7547b8d4452e","meta":null,"created_on":"2025-04-30T18:45:42.495Z","created_by_id":"019372de-17ef-7cc2-8fc0-43fe11ba042f","modified_on":"2025-04-30T18:45:42.495Z","modified_by_id":null,"deleted_on":null,"deleted_by_id":null,"tenant_id":"00000000-0000-0000-0000-000000000000","bank_code":"000014","bank_name":"Access Bank","account_number":"0591752212","account_name":"John Doe","profile_id":"0193a649-e3d0-7881-8b7f-2ef1d89a9aff"},{"id":"019678ec-6fed-7664-b418-690ba3d2d20b","meta":null,"created_on":"2025-04-27T20:24:43.245Z","created_by_id":"019372de-17ef-7cc2-8fc0-43fe11ba042f","modified_on":"2025-04-27T20:24:43.245Z","modified_by_id":null,"deleted_on":null,"deleted_by_id":null,"tenant_id":"00000000-0000-0000-0000-000000000000","bank_code":"000014","bank_name":"Access Bank","account_number":"7270737012","account_name":"John Doe","profile_id":"0193a649-e3d0-7881-8b7f-2ef1d89a9aff"},{"id":"01966e46-dd6c-7664-b413-aa6cb782a816","meta":null,"created_on":"2025-04-25T18:47:40.163Z","created_by_id":"019372de-17ef-7cc2-8fc0-43fe11ba042f","modified_on":"2025-04-25T18:47:40.163Z","modified_by_id":null,"deleted_on":null,"deleted_by_id":null,"tenant_id":"00000000-0000-0000-0000-000000000000","bank_code":"000014","bank_name":"Access Bank","account_number":"4002831512","account_name":"John Doe","profile_id":"0193a649-e3d0-7881-8b7f-2ef1d89a9aff"},{"id":"01966a90-6004-7bbb-ab9f-a1696d9e541a","meta":null,"created_on":"2025-04-25T01:29:28.838Z","created_by_id":"019372de-17ef-7cc2-8fc0-43fe11ba042f","modified_on":"2025-04-25T01:29:28.838Z","modified_by_id":null,"deleted_on":null,"deleted_by_id":null,"tenant_id":"00000000-0000-0000-0000-000000000000","bank_code":"000014","bank_name":"Access Bank","account_number":"2554340412","account_name":"John Doe","profile_id":"0193a649-e3d0-7881-8b7f-2ef1d89a9aff"}],"meta":{"page":1,"total_pages":4,"total_items":33}}