{"status":"success","data":[{"id":"01951f87-e49d-7aa2-a9de-e23928fc3eca","meta":null,"created_on":"2025-02-19T18:45:54.462Z","created_by_id":"019372de-17ef-7cc2-8fc0-43fe11ba042f","modified_on":"2025-02-19T18:45:54.462Z","modified_by_id":null,"deleted_on":null,"deleted_by_id":null,"tenant_id":"00000000-0000-0000-0000-000000000000","profile_id":"0193a649-e3d0-7881-8b7f-2ef1d89a9aff","status":"pending","command":"PayBillPaymentCommand","command_data":{"categoryId":"cabletv","billerId":"dstv","data":{"account_number":"1102003467","amount":29300,"option_id":"PRWFRNSE36","pin":"1234","account_id":"0193a699-2f15-7881-8b7f-ae50980bcfad"}},"maker_id":"019372de-17ef-7cc2-8fc0-43fe11ba042f","made_on":"2025-02-19T18:45:54.461Z","checker_id":null,"checked_on":null,"maker_checker_id":"0193df18-702c-7ddc-9298-482c857161b9","reason":null},{"id":"01951f87-e245-7aa2-a9de-d195b83daea5","meta":null,"created_on":"2025-02-19T18:45:53.858Z","created_by_id":"019372de-17ef-7cc2-8fc0-43fe11ba042f","modified_on":"2025-02-19T18:45:53.858Z","modified_by_id":null,"deleted_on":null,"deleted_by_id":null,"tenant_id":"00000000-0000-0000-0000-000000000000","profile_id":"0193a649-e3d0-7881-8b7f-2ef1d89a9aff","status":"pending","command":"PayBillPaymentCommand","command_data":{"categoryId":"epin","billerId":"waec","data":{"account_number":"1102003467","amount":1800,"option_id":"1800","pin":"1234","account_id":"0193a699-2f15-7881-8b7f-ae50980bcfad"}},"maker_id":"019372de-17ef-7cc2-8fc0-43fe11ba042f","made_on":"2025-02-19T18:45:53.857Z","checker_id":null,"checked_on":null,"maker_checker_id":"0193df18-702c-7ddc-9298-482c857161b9","reason":null},{"id":"01951f87-dff6-7aa2-a9de-c296858a26bd","meta":null,"created_on":"2025-02-19T18:45:53.270Z","created_by_id":"019372de-17ef-7cc2-8fc0-43fe11ba042f","modified_on":"2025-02-19T18:45:53.270Z","modified_by_id":null,"deleted_on":null,"deleted_by_id":null,"tenant_id":"00000000-0000-0000-0000-000000000000","profile_id":"0193a649-e3d0-7881-8b7f-2ef1d89a9aff","status":"pending","command":"PayBillPaymentCommand","command_data":{"categoryId":"electricity","billerId":"abuja_electric_postpaid","data":{"account_number":"07034953306","amount":2300,"pin":"1234","account_id":"0193a699-2f15-7881-8b7f-ae50980bcfad"}},"maker_id":"019372de-17ef-7cc2-8fc0-43fe11ba042f","made_on":"2025-02-19T18:45:53.269Z","checker_id":null,"checked_on":null,"maker_checker_id":"0193df18-702c-7ddc-9298-482c857161b9","reason":null},{"id":"01951f87-d29a-7aa2-a9de-bd4f60bc3fdc","meta":null,"created_on":"2025-02-19T18:45:49.850Z","created_by_id":"019372de-17ef-7cc2-8fc0-43fe11ba042f","modified_on":"2025-02-19T18:45:49.850Z","modified_by_id":null,"deleted_on":null,"deleted_by_id":null,"tenant_id":"00000000-0000-0000-0000-000000000000","profile_id":"0193a649-e3d0-7881-8b7f-2ef1d89a9aff","status":"pending","command":"PayBillPaymentCommand","command_data":{"categoryId":"cabletv","billerId":"startimes","data":{"account_number":"1102003467","amount":90,"option_id":"novaday","pin":"1234","account_id":"019390f5-db96-7335-b5bb-74eac1376a9c"}},"maker_id":"019372de-17ef-7cc2-8fc0-43fe11ba042f","made_on":"2025-02-19T18:45:49.849Z","checker_id":null,"checked_on":null,"maker_checker_id":"0193df18-702c-7ddc-9298-482c857161b9","reason":null},{"id":"01951f87-c444-7aa2-a9de-ab4a019d1dd7","meta":null,"created_on":"2025-02-19T18:45:46.180Z","created_by_id":"019372de-17ef-7cc2-8fc0-43fe11ba042f","modified_on":"2025-02-19T18:45:46.180Z","modified_by_id":null,"deleted_on":null,"deleted_by_id":null,"tenant_id":"00000000-0000-0000-0000-000000000000","profile_id":"0193a649-e3d0-7881-8b7f-2ef1d89a9aff","status":"pending","command":"PayBillPaymentCommand","command_data":{"categoryId":"cabletv","billerId":"gotv","data":{"account_number":"1102003467","amount":900,"option_id":"GOHAN","pin":"1234","account_id":"0193a699-2f15-7881-8b7f-ae50980bcfad"}},"maker_id":"019372de-17ef-7cc2-8fc0-43fe11ba042f","made_on":"2025-02-19T18:45:46.179Z","checker_id":null,"checked_on":null,"maker_checker_id":"0193df18-702c-7ddc-9298-482c857161b9","reason":null},{"id":"01951f87-b7c6-7aa2-a9de-9a045890d56d","meta":null,"created_on":"2025-02-19T18:45:42.982Z","created_by_id":"019372de-17ef-7cc2-8fc0-43fe11ba042f","modified_on":"2025-02-19T18:45:42.982Z","modified_by_id":null,"deleted_on":null,"deleted_by_id":null,"tenant_id":"00000000-0000-0000-0000-000000000000","profile_id":"0193a649-e3d0-7881-8b7f-2ef1d89a9aff","status":"pending","command":"PayBillPaymentCommand","command_data":{"categoryId":"cabletv","billerId":"dstv","data":{"account_number":"1102003467","amount":5300,"option_id":"NNJ2E36","pin":"1234","account_id":"0193a699-2f15-7881-8b7f-ae50980bcfad"}},"maker_id":"019372de-17ef-7cc2-8fc0-43fe11ba042f","made_on":"2025-02-19T18:45:42.981Z","checker_id":null,"checked_on":null,"maker_checker_id":"0193df18-702c-7ddc-9298-482c857161b9","reason":null},{"id":"01951f87-b43e-7aa2-a9de-8d466bf6b113","meta":null,"created_on":"2025-02-19T18:45:42.078Z","created_by_id":"019372de-17ef-7cc2-8fc0-43fe11ba042f","modified_on":"2025-02-19T18:45:42.078Z","modified_by_id":null,"deleted_on":null,"deleted_by_id":null,"tenant_id":"00000000-0000-0000-0000-000000000000","profile_id":"0193a649-e3d0-7881-8b7f-2ef1d89a9aff","status":"pending","command":"PayBillPaymentCommand","command_data":{"categoryId":"databundle","billerId":"smile","data":{"account_number":"11020034671","amount":1800,"option_id":"101","pin":"1234","account_id":"0193a699-2f15-7881-8b7f-ae50980bcfad"}},"maker_id":"019372de-17ef-7cc2-8fc0-43fe11ba042f","made_on":"2025-02-19T18:45:42.063Z","checker_id":null,"checked_on":null,"maker_checker_id":"0193df18-702c-7ddc-9298-482c857161b9","reason":null},{"id":"01951f87-b170-7aa2-a9de-7823850d6997","meta":null,"created_on":"2025-02-19T18:45:41.361Z","created_by_id":"019372de-17ef-7cc2-8fc0-43fe11ba042f","modified_on":"2025-02-19T18:45:41.361Z","modified_by_id":null,"deleted_on":null,"deleted_by_id":null,"tenant_id":"00000000-0000-0000-0000-000000000000","profile_id":"0193a649-e3d0-7881-8b7f-2ef1d89a9aff","status":"pending","command":"PayBillPaymentCommand","command_data":{"categoryId":"databundle","billerId":"9mobile","data":{"account_number":"11020034671","amount":200,"option_id":"200","pin":"1234","account_id":"0193a699-2f15-7881-8b7f-ae50980bcfad"}},"maker_id":"019372de-17ef-7cc2-8fc0-43fe11ba042f","made_on":"2025-02-19T18:45:41.360Z","checker_id":null,"checked_on":null,"maker_checker_id":"0193df18-702c-7ddc-9298-482c857161b9","reason":null},{"id":"01951f87-aebd-7aa2-a9de-6f066d973e6c","meta":null,"created_on":"2025-02-19T18:45:40.670Z","created_by_id":"019372de-17ef-7cc2-8fc0-43fe11ba042f","modified_on":"2025-02-19T18:45:40.670Z","modified_by_id":null,"deleted_on":null,"deleted_by_id":null,"tenant_id":"00000000-0000-0000-0000-000000000000","profile_id":"0193a649-e3d0-7881-8b7f-2ef1d89a9aff","status":"pending","command":"PayBillPaymentCommand","command_data":{"categoryId":"databundle","billerId":"airtel","data":{"account_number":"11020034671","amount":50,"option_id":"49.99","pin":"1234","account_id":"0193a699-2f15-7881-8b7f-ae50980bcfad"}},"maker_id":"019372de-17ef-7cc2-8fc0-43fe11ba042f","made_on":"2025-02-19T18:45:40.669Z","checker_id":null,"checked_on":null,"maker_checker_id":"0193df18-702c-7ddc-9298-482c857161b9","reason":null},{"id":"01951f87-a86e-7aa2-a9de-4c00d5580c9c","meta":null,"created_on":"2025-02-19T18:45:39.054Z","created_by_id":"019372de-17ef-7cc2-8fc0-43fe11ba042f","modified_on":"2025-02-19T18:45:39.054Z","modified_by_id":null,"deleted_on":null,"deleted_by_id":null,"tenant_id":"00000000-0000-0000-0000-000000000000","profile_id":"0193a649-e3d0-7881-8b7f-2ef1d89a9aff","status":"pending","command":"PayBillPaymentCommand","command_data":{"categoryId":"databundle","billerId":"mtn","data":{"account_number":"11020034671","amount":100,"option_id":"100","pin":"1234","account_id":"0193a699-2f15-7881-8b7f-ae50980bcfad"}},"maker_id":"019372de-17ef-7cc2-8fc0-43fe11ba042f","made_on":"2025-02-19T18:45:39.053Z","checker_id":null,"checked_on":null,"maker_checker_id":"0193df18-702c-7ddc-9298-482c857161b9","reason":null}],"meta":{"page":1,"total_pages":43,"total_items":430}}