{"status":"success","data":[{"id":"01953843-dcb4-7771-99b0-358bab54e521","meta":null,"created_on":"2025-02-24T14:02:06.388Z","created_by_id":"01927265-4ed2-79cc-a0e6-e11339a359f3","modified_on":"2025-02-24T14:02:06.388Z","modified_by_id":null,"deleted_on":null,"deleted_by_id":null,"tenant_id":"00000000-0000-0000-0000-000000000000","profile_type":null,"slug":"pep-relationship-status","name":"PEP Status","description":"Kindly confirm the statements below","version":1,"schemas":[{"id":"01953843-dcb9-7771-99b0-48e1d4c65e0c","meta":null,"created_on":"2025-02-24T14:02:06.395Z","created_by_id":"01927265-4ed2-79cc-a0e6-e11339a359f3","modified_on":"2025-02-24T14:02:06.395Z","modified_by_id":null,"deleted_on":null,"deleted_by_id":null,"tenant_id":"00000000-0000-0000-0000-000000000000","profile_type":"business","slug":"name-of-pep-relation","name":"Name of PEP relation","tags":null,"options":null,"version":1,"type":"text","default":null,"enabled":true,"editable":true,"required":false,"regex":null,"order":3,"storage_strategy":"plain","definition_id":"01953843-dcb4-7771-99b0-358bab54e521"},{"id":"01953843-dcb9-7771-99b0-3a2ba69819f4","meta":null,"created_on":"2025-02-24T14:02:06.395Z","created_by_id":"01927265-4ed2-79cc-a0e6-e11339a359f3","modified_on":"2025-02-24T14:02:06.395Z","modified_by_id":null,"deleted_on":null,"deleted_by_id":null,"tenant_id":"00000000-0000-0000-0000-000000000000","profile_type":"business","slug":"pep-relation-status","name":"Are you or related to anyone that is a PEP or FEP? ","tags":null,"options":[{"name":"Yes, I am","description":"","value":"yes, I am"},{"name":"No, I am not","description":"","value":"no, I am not"}],"version":1,"type":"radio","default":null,"enabled":true,"editable":true,"required":true,"regex":null,"order":1,"storage_strategy":"plain","definition_id":"01953843-dcb4-7771-99b0-358bab54e521"},{"id":"01953843-dcb9-7771-99b0-54f1c21e6c9b","meta":null,"created_on":"2025-02-24T14:02:06.395Z","created_by_id":"01927265-4ed2-79cc-a0e6-e11339a359f3","modified_on":"2025-02-24T14:02:06.395Z","modified_by_id":null,"deleted_on":null,"deleted_by_id":null,"tenant_id":"00000000-0000-0000-0000-000000000000","profile_type":"business","slug":"pep-relationship","name":"Relationship","tags":null,"options":[{"name":"Friend","description":"","value":"friend"},{"name":"Sister","description":"","value":"sister"},{"name":"Brother","description":"","value":"brother"},{"name":"Father","description":"","value":"father"},{"name":"Mother","description":"","value":"mother"}],"version":1,"type":"select","default":null,"enabled":true,"editable":true,"required":false,"regex":null,"order":4,"storage_strategy":"plain","definition_id":"01953843-dcb4-7771-99b0-358bab54e521"},{"id":"01953843-dcb9-7771-99b0-66676e0e1ca6","meta":null,"created_on":"2025-02-24T14:02:06.395Z","created_by_id":"01927265-4ed2-79cc-a0e6-e11339a359f3","modified_on":"2025-02-24T14:02:06.395Z","modified_by_id":null,"deleted_on":null,"deleted_by_id":null,"tenant_id":"00000000-0000-0000-0000-000000000000","profile_type":"business","slug":"designation-in-institution","name":"Designation in the institution","tags":null,"options":null,"version":1,"type":"text","default":null,"enabled":true,"editable":true,"required":false,"regex":null,"order":6,"storage_strategy":"plain","definition_id":"01953843-dcb4-7771-99b0-358bab54e521"},{"id":"01953843-dcb9-7771-99b0-5b923a66077c","meta":null,"created_on":"2025-02-24T14:02:06.395Z","created_by_id":"01927265-4ed2-79cc-a0e6-e11339a359f3","modified_on":"2025-02-24T14:02:06.395Z","modified_by_id":null,"deleted_on":null,"deleted_by_id":null,"tenant_id":"00000000-0000-0000-0000-000000000000","profile_type":"business","slug":"name-of-of-institution","name":"Name of Institution","tags":null,"options":null,"version":1,"type":"text","default":null,"enabled":true,"editable":true,"required":false,"regex":null,"order":5,"storage_strategy":"plain","definition_id":"01953843-dcb4-7771-99b0-358bab54e521"},{"id":"01953843-dcb9-7771-99b0-42c03722a910","meta":null,"created_on":"2025-02-24T14:02:06.395Z","created_by_id":"01927265-4ed2-79cc-a0e6-e11339a359f3","modified_on":"2025-02-24T14:02:06.395Z","modified_by_id":null,"deleted_on":null,"deleted_by_id":null,"tenant_id":"00000000-0000-0000-0000-000000000000","profile_type":"business","slug":"if-yes","name":"If yes, kindly state your relationship with the person.","tags":null,"options":[{"name":"Myself","description":"","value":"myself"},{"name":"Other","description":"","value":"other"}],"version":1,"type":"radio","default":null,"enabled":true,"editable":true,"required":false,"regex":null,"order":2,"storage_strategy":"plain","definition_id":"01953843-dcb4-7771-99b0-358bab54e521"}]},{"id":"019528d0-b981-7330-84a8-913c99e59599","meta":null,"created_on":"2025-02-21T14:02:02.497Z","created_by_id":"01927265-4ed2-79cc-a0e6-e11339a359f3","modified_on":"2025-02-21T14:02:02.497Z","modified_by_id":null,"deleted_on":null,"deleted_by_id":null,"tenant_id":"00000000-0000-0000-0000-000000000000","profile_type":null,"slug":"security-questions","name":"Security Questions","description":"Security Questions","version":1,"schemas":[{"id":"019528d0-b986-7330-84a8-9d865d327b81","meta":null,"created_on":"2025-02-21T14:02:02.504Z","created_by_id":"01927265-4ed2-79cc-a0e6-e11339a359f3","modified_on":"2025-02-21T14:02:02.504Z","modified_by_id":null,"deleted_on":null,"deleted_by_id":null,"tenant_id":"00000000-0000-0000-0000-000000000000","profile_type":"personal","slug":"security-questions","name":"Security Questions","tags":null,"options":[{"name":"What was the name of your first bank?","description":"What was the name of your first bank?","value":"What was the name of your first bank?"},{"name":"What city were you in when you opened your first bank account?","description":"What city were you in when you opened your first bank account?","value":"What city were you in when you opened your first bank account?"},{"name":"What is the nickname of your first car?","description":"What is the nickname of your first car?","value":"What is the nickname of your first car?"},{"name":"What was the name of your childhood best friend?","description":"What was the name of your childhood best friend?","value":"What was the name of your childhood best friend?"},{"name":"What is the name of your first pet?","description":"What is the name of your first pet?","value":"What is the name of your first pet?"}],"version":1,"type":"select","default":null,"enabled":true,"editable":true,"required":false,"regex":null,"order":1,"storage_strategy":"plain","definition_id":"019528d0-b981-7330-84a8-913c99e59599"}]},{"id":"0194b8d1-526e-7bb8-88ef-c83e8c21e149","meta":null,"created_on":"2025-01-30T20:05:13.455Z","created_by_id":"01927265-4ed2-79cc-a0e6-e11339a359f3","modified_on":"2025-01-30T20:05:13.455Z","modified_by_id":null,"deleted_on":null,"deleted_by_id":null,"tenant_id":"00000000-0000-0000-0000-000000000000","profile_type":"business","slug":"onboarding","name":"Onboarding","description":"Adding new user","version":1,"schemas":[]},{"id":"0194b8d0-975e-7bb8-88ef-baff769d8be5","meta":null,"created_on":"2025-01-30T20:04:25.567Z","created_by_id":"01927265-4ed2-79cc-a0e6-e11339a359f3","modified_on":"2025-01-30T20:04:25.567Z","modified_by_id":null,"deleted_on":null,"deleted_by_id":null,"tenant_id":"00000000-0000-0000-0000-000000000000","profile_type":"business","slug":"cashier","name":"Cashier","description":"test","version":1,"schemas":[{"id":"0194b8d0-9761-7bb8-88ef-c6038192fe47","meta":null,"created_on":"2025-01-30T20:04:25.572Z","created_by_id":"01927265-4ed2-79cc-a0e6-e11339a359f3","modified_on":"2025-01-30T20:04:25.572Z","modified_by_id":null,"deleted_on":null,"deleted_by_id":null,"tenant_id":"00000000-0000-0000-0000-000000000000","profile_type":"personal","slug":"test","name":"test","tags":null,"options":[],"version":1,"type":"text","default":"","enabled":true,"editable":true,"required":true,"regex":null,"order":1,"storage_strategy":"plain","definition_id":"0194b8d0-975e-7bb8-88ef-baff769d8be5"}]},{"id":"01948ca4-0621-7bb0-a716-583bce54dc93","meta":null,"created_on":"2025-01-22T06:12:27.296Z","created_by_id":"0192ee9f-7504-7bb3-919d-9fba49ba9e27","modified_on":"2025-01-23T13:02:25.473Z","modified_by_id":"0192ee9f-7504-7bb3-919d-9fba49ba9e27","deleted_on":null,"deleted_by_id":null,"tenant_id":"00000000-0000-0000-0000-000000000000","profile_type":"business","slug":"vat","name":"Test","description":"Form","version":1,"schemas":[{"id":"01948ca4-0627-7bb0-a716-65b754167dd1","meta":null,"created_on":"2025-01-22T06:12:27.304Z","created_by_id":"0192ee9f-7504-7bb3-919d-9fba49ba9e27","modified_on":"2025-01-24T13:56:18.653Z","modified_by_id":"0192ee9f-7504-7bb3-919d-9fba49ba9e27","deleted_on":null,"deleted_by_id":null,"tenant_id":"00000000-0000-0000-0000-000000000000","profile_type":"personal","slug":"field-name-1","name":"Field name 1","tags":null,"options":[],"version":1,"type":"text","default":"","enabled":true,"editable":true,"required":false,"regex":null,"order":1,"storage_strategy":"plain","definition_id":"01948ca4-0621-7bb0-a716-583bce54dc93"},{"id":"01949899-6a5b-7dd2-b9a3-19f6f17036e1","meta":null,"created_on":"2025-01-24T13:56:18.653Z","created_by_id":"0192ee9f-7504-7bb3-919d-9fba49ba9e27","modified_on":"2025-01-24T13:56:18.653Z","modified_by_id":"0192ee9f-7504-7bb3-919d-9fba49ba9e27","deleted_on":null,"deleted_by_id":null,"tenant_id":"00000000-0000-0000-0000-000000000000","profile_type":"personal","slug":"field-name-2","name":"Field name 2","tags":null,"options":[{"name":"New Role test","value":"New Role test"}],"version":1,"type":"select","default":"","enabled":true,"editable":true,"required":false,"regex":null,"order":2,"storage_strategy":"plain","definition_id":"01948ca4-0621-7bb0-a716-583bce54dc93"}]},{"id":"0193731a-59fe-788a-9877-8bef6d0c2cfc","meta":null,"created_on":"2024-11-28T14:08:47.102Z","created_by_id":null,"modified_on":"2025-01-21T12:44:54.987Z","modified_by_id":"0192ee9f-7504-7bb3-919d-9fba49ba9e27","deleted_on":null,"deleted_by_id":null,"tenant_id":"00000000-0000-0000-0000-000000000000","profile_type":"personal","slug":"personal-information","name":"Personal Information","description":"Provide other personal information (gender, country) and verify your phone number and email address.","version":1,"schemas":[{"id":"0193732d-3883-788a-9877-db7406ac23db","meta":null,"created_on":"2024-11-28T14:29:23.717Z","created_by_id":null,"modified_on":"2025-01-21T12:46:55.613Z","modified_by_id":"0192ee9f-7504-7bb3-919d-9fba49ba9e27","deleted_on":null,"deleted_by_id":null,"tenant_id":"00000000-0000-0000-0000-000000000000","profile_type":"personal","slug":"gender","name":"Gender","tags":null,"options":[{"name":"Male"},{"name":"Female"},{"name":"Prefer not to say"}],"version":1,"type":"select","default":null,"enabled":true,"editable":true,"required":false,"regex":null,"order":5,"storage_strategy":"plain","definition_id":"0193731a-59fe-788a-9877-8bef6d0c2cfc"},{"id":"0193732d-3883-788a-9877-bbde92f013c9","meta":null,"created_on":"2024-11-28T14:29:23.717Z","created_by_id":null,"modified_on":"2025-01-21T12:46:55.613Z","modified_by_id":"0192ee9f-7504-7bb3-919d-9fba49ba9e27","deleted_on":null,"deleted_by_id":null,"tenant_id":"00000000-0000-0000-0000-000000000000","profile_type":"personal","slug":"first_name","name":"First name","tags":null,"options":null,"version":1,"type":"text","default":null,"enabled":true,"editable":true,"required":false,"regex":null,"order":1,"storage_strategy":"plain","definition_id":"0193731a-59fe-788a-9877-8bef6d0c2cfc"},{"id":"0193732d-3883-788a-9877-d43d4729dd26","meta":null,"created_on":"2024-11-28T14:29:23.717Z","created_by_id":null,"modified_on":"2025-01-21T12:46:55.613Z","modified_by_id":"0192ee9f-7504-7bb3-919d-9fba49ba9e27","deleted_on":null,"deleted_by_id":null,"tenant_id":"00000000-0000-0000-0000-000000000000","profile_type":"personal","slug":"phone","name":"Phone number","tags":null,"options":null,"version":1,"type":"tel","default":null,"enabled":true,"editable":true,"required":false,"regex":null,"order":4,"storage_strategy":"plain","definition_id":"0193731a-59fe-788a-9877-8bef6d0c2cfc"},{"id":"0193732d-3883-788a-9877-c2da86c3a245","meta":null,"created_on":"2024-11-28T14:29:23.717Z","created_by_id":null,"modified_on":"2025-01-21T12:46:55.613Z","modified_by_id":"0192ee9f-7504-7bb3-919d-9fba49ba9e27","deleted_on":null,"deleted_by_id":null,"tenant_id":"00000000-0000-0000-0000-000000000000","profile_type":"personal","slug":"last_name","name":"Last name","tags":null,"options":null,"version":1,"type":"text","default":null,"enabled":true,"editable":true,"required":false,"regex":null,"order":2,"storage_strategy":"plain","definition_id":"0193731a-59fe-788a-9877-8bef6d0c2cfc"},{"id":"0193732d-3883-788a-9877-ce3b193d31c7","meta":null,"created_on":"2024-11-28T14:29:23.717Z","created_by_id":null,"modified_on":"2025-01-21T12:46:55.613Z","modified_by_id":"0192ee9f-7504-7bb3-919d-9fba49ba9e27","deleted_on":null,"deleted_by_id":null,"tenant_id":"00000000-0000-0000-0000-000000000000","profile_type":"personal","slug":"email","name":"Email","tags":null,"options":null,"version":1,"type":"email","default":null,"enabled":true,"editable":true,"required":false,"regex":null,"order":3,"storage_strategy":"plain","definition_id":"0193731a-59fe-788a-9877-8bef6d0c2cfc"}]},{"id":"019368b2-54d3-7dd8-85d8-1e8eeb915459","meta":null,"created_on":"2024-11-26T13:38:57.875Z","created_by_id":null,"modified_on":"2024-11-26T13:38:57.875Z","modified_by_id":null,"deleted_on":null,"deleted_by_id":null,"tenant_id":"00000000-0000-0000-0000-000000000000","profile_type":"business","slug":"add-directors","name":"Add directors","description":"Update the information of the directors of your business.","version":1,"schemas":[]},{"id":"019367c5-1c25-7115-b8f2-70b1fbd2115e","meta":null,"created_on":"2024-11-26T09:19:51.334Z","created_by_id":null,"modified_on":"2024-11-26T09:19:51.334Z","modified_by_id":null,"deleted_on":null,"deleted_by_id":null,"tenant_id":"00000000-0000-0000-0000-000000000000","profile_type":"business","slug":"scuml-certificate","name":"SCUML Certificate","description":"SCUML Certificate","version":1,"schemas":[{"id":"019367c6-5630-7115-b8f2-88e85681db03","meta":null,"created_on":"2024-11-26T09:21:11.730Z","created_by_id":null,"modified_on":"2024-11-26T09:21:11.730Z","modified_by_id":null,"deleted_on":null,"deleted_by_id":null,"tenant_id":"00000000-0000-0000-0000-000000000000","profile_type":"business","slug":"scuml-certificate","name":"Upload the Special Control Unit Against Money Laundering (SCUML) certificate.","tags":null,"options":null,"version":1,"type":"file","default":null,"enabled":true,"editable":true,"required":true,"regex":null,"order":1,"storage_strategy":"plain","definition_id":"019367c5-1c25-7115-b8f2-70b1fbd2115e"}]},{"id":"019367ba-8336-7115-b8f2-373bddb29090","meta":null,"created_on":"2024-11-26T09:08:16.823Z","created_by_id":null,"modified_on":"2024-11-26T09:08:16.823Z","modified_by_id":null,"deleted_on":null,"deleted_by_id":null,"tenant_id":"00000000-0000-0000-0000-000000000000","profile_type":"personal","slug":"other-pep-relationship","name":"Other PEP Relationship","description":"Other PEP Relationship","version":1,"schemas":[{"id":"019367bc-b10d-7115-b8f2-39a790061bd2","meta":null,"created_on":"2024-11-26T09:10:39.631Z","created_by_id":null,"modified_on":"2025-01-22T04:27:12.944Z","modified_by_id":"0192ee9f-7504-7bb3-919d-9fba49ba9e27","deleted_on":null,"deleted_by_id":null,"tenant_id":"00000000-0000-0000-0000-000000000000","profile_type":"personal","slug":"other-pep-relationship","name":"Specify Relationship","tags":null,"options":null,"version":1,"type":"text","default":null,"enabled":true,"editable":true,"required":true,"regex":null,"order":1,"storage_strategy":"plain","definition_id":"019367ba-8336-7115-b8f2-373bddb29090"},{"id":"019367bc-b10d-7115-b8f2-57cdbd2f3d36","meta":null,"created_on":"2024-11-26T09:10:39.631Z","created_by_id":null,"modified_on":"2025-01-22T04:27:12.944Z","modified_by_id":"0192ee9f-7504-7bb3-919d-9fba49ba9e27","deleted_on":null,"deleted_by_id":null,"tenant_id":"00000000-0000-0000-0000-000000000000","profile_type":"personal","slug":"other-pep-relationship-institution-designation","name":"Designation in the Institution","tags":null,"options":null,"version":1,"type":"text","default":null,"enabled":true,"editable":true,"required":true,"regex":null,"order":4,"storage_strategy":"plain","definition_id":"019367ba-8336-7115-b8f2-373bddb29090"},{"id":"019367bc-b10d-7115-b8f2-4f70356d77e0","meta":null,"created_on":"2024-11-26T09:10:39.631Z","created_by_id":null,"modified_on":"2025-01-22T04:27:12.944Z","modified_by_id":"0192ee9f-7504-7bb3-919d-9fba49ba9e27","deleted_on":null,"deleted_by_id":null,"tenant_id":"00000000-0000-0000-0000-000000000000","profile_type":"personal","slug":"other-pep-relationship-institution-name","name":"Name of Institution","tags":null,"options":null,"version":1,"type":"text","default":null,"enabled":true,"editable":true,"required":true,"regex":null,"order":3,"storage_strategy":"plain","definition_id":"019367ba-8336-7115-b8f2-373bddb29090"},{"id":"019367bc-b10d-7115-b8f2-40b251b386eb","meta":null,"created_on":"2024-11-26T09:10:39.631Z","created_by_id":null,"modified_on":"2025-01-22T04:27:12.944Z","modified_by_id":"0192ee9f-7504-7bb3-919d-9fba49ba9e27","deleted_on":null,"deleted_by_id":null,"tenant_id":"00000000-0000-0000-0000-000000000000","profile_type":"personal","slug":"other-pep-relationship-name","name":"Name","tags":null,"options":null,"version":1,"type":"text","default":null,"enabled":true,"editable":true,"required":true,"regex":null,"order":2,"storage_strategy":"plain","definition_id":"019367ba-8336-7115-b8f2-373bddb29090"}]},{"id":"019367b2-0af9-7115-b8f1-dc685d92e97f","meta":null,"created_on":"2024-11-26T08:59:01.754Z","created_by_id":null,"modified_on":"2025-01-22T12:32:11.455Z","modified_by_id":"0192ee9f-7504-7bb3-919d-9fba49ba9e27","deleted_on":null,"deleted_by_id":null,"tenant_id":"00000000-0000-0000-0000-000000000000","profile_type":"personal","slug":"enhanced-due-diligence","name":"Enhanced Due Diligence","description":"Enhanced Due Diligence","version":1,"schemas":[{"id":"01938557-903c-7ccf-b7e0-eb67cc3ad445","meta":null,"created_on":"2024-12-02T03:08:48.573Z","created_by_id":null,"modified_on":"2025-02-28T18:44:02.285Z","modified_by_id":"01927265-4ed2-79cc-a0e6-e11339a359f3","deleted_on":null,"deleted_by_id":null,"tenant_id":"00000000-0000-0000-0000-000000000000","profile_type":"business","slug":"business-address","name":"Business address","tags":null,"options":null,"version":1,"type":"text","default":null,"enabled":true,"editable":true,"required":false,"regex":null,"order":6,"storage_strategy":"plain","definition_id":"019367b2-0af9-7115-b8f1-dc685d92e97f"},{"id":"01938557-903c-7ccf-b7e0-e1b01e6191eb","meta":null,"created_on":"2024-12-02T03:08:48.573Z","created_by_id":null,"modified_on":"2025-02-28T18:44:02.285Z","modified_by_id":"01927265-4ed2-79cc-a0e6-e11339a359f3","deleted_on":null,"deleted_by_id":null,"tenant_id":"00000000-0000-0000-0000-000000000000","profile_type":"business","slug":"business-phone","name":"Business phone number","tags":null,"options":null,"version":1,"type":"number","default":null,"enabled":true,"editable":true,"required":false,"regex":null,"order":5,"storage_strategy":"plain","definition_id":"019367b2-0af9-7115-b8f1-dc685d92e97f"},{"id":"01938557-903c-7ccf-b7e0-dd6be6d7d533","meta":null,"created_on":"2024-12-02T03:08:48.573Z","created_by_id":null,"modified_on":"2025-02-28T18:44:02.285Z","modified_by_id":"01927265-4ed2-79cc-a0e6-e11339a359f3","deleted_on":null,"deleted_by_id":null,"tenant_id":"00000000-0000-0000-0000-000000000000","profile_type":"business","slug":"business-email","name":"Business Email","tags":null,"options":null,"version":1,"type":"email","default":null,"enabled":true,"editable":true,"required":false,"regex":null,"order":4,"storage_strategy":"plain","definition_id":"019367b2-0af9-7115-b8f1-dc685d92e97f"},{"id":"01938557-903c-7ccf-b7e0-d31ee48d2a52","meta":null,"created_on":"2024-12-02T03:08:48.573Z","created_by_id":null,"modified_on":"2025-02-28T18:44:02.285Z","modified_by_id":"01927265-4ed2-79cc-a0e6-e11339a359f3","deleted_on":null,"deleted_by_id":null,"tenant_id":"00000000-0000-0000-0000-000000000000","profile_type":"business","slug":"business-name","name":"Business Name","tags":null,"options":null,"version":1,"type":"text","default":null,"enabled":true,"editable":true,"required":false,"regex":null,"order":3,"storage_strategy":"plain","definition_id":"019367b2-0af9-7115-b8f1-dc685d92e97f"},{"id":"01938557-903c-7ccf-b7e0-ca7f89bba9e8","meta":null,"created_on":"2024-12-02T03:08:48.573Z","created_by_id":null,"modified_on":"2025-02-28T18:44:02.285Z","modified_by_id":"01927265-4ed2-79cc-a0e6-e11339a359f3","deleted_on":null,"deleted_by_id":null,"tenant_id":"00000000-0000-0000-0000-000000000000","profile_type":"business","slug":"rc-number","name":"RC/BN Number","tags":null,"options":null,"version":1,"type":"select","default":null,"enabled":true,"editable":true,"required":false,"regex":null,"order":2,"storage_strategy":"plain","definition_id":"019367b2-0af9-7115-b8f1-dc685d92e97f"},{"id":"01938557-903c-7ccf-b7e0-c0db2a75fd42","meta":null,"created_on":"2024-12-02T03:08:48.573Z","created_by_id":null,"modified_on":"2025-02-28T18:44:02.285Z","modified_by_id":"01927265-4ed2-79cc-a0e6-e11339a359f3","deleted_on":null,"deleted_by_id":null,"tenant_id":"00000000-0000-0000-0000-000000000000","profile_type":"business","slug":"business-types","name":"Business Type","tags":null,"options":[{"name":"Sole Proprietorship"},{"name":"Partnership"},{"name":"Corporation"},{"name":"Limited Liability Partnership (LLP)"},{"name":"Nonprofit Organization"},{"name":"Cooperative (Co-op)"},{"name":"Joint Venture"},{"name":"Franchise"}],"version":1,"type":"select","default":null,"enabled":true,"editable":true,"required":false,"regex":null,"order":1,"storage_strategy":"plain","definition_id":"019367b2-0af9-7115-b8f1-dc685d92e97f"}]}],"meta":{"page":1,"total_pages":2,"total_items":13}}