{"status":"success","data":[{"id":"01951929-5e4b-788d-b550-380f960319d5","meta":null,"created_on":"2025-02-18T13:04:56.393Z","created_by_id":"019372de-17ef-7cc2-8fc0-43fe11ba042f","modified_on":"2025-02-18T13:04:56.393Z","modified_by_id":null,"deleted_on":null,"deleted_by_id":null,"tenant_id":"00000000-0000-0000-0000-000000000000","profile_id":"0193a649-e3d0-7881-8b7f-2ef1d89a9aff","status":"pending","command":"TransferCommand","command_data":{"account_id":"0193a699-2f15-7881-8b7f-ae50980bcfad","data":{"account_number":"0112345678","amount":100,"bank_code":"011","pin":"1234"}},"maker_id":"019372de-17ef-7cc2-8fc0-43fe11ba042f","made_on":"2025-02-18T13:04:56.393Z","checker_id":null,"checked_on":null,"maker_checker_id":"0193df18-702c-7ddc-9298-482c857161b9","reason":null},{"id":"01951929-186b-788d-b550-325b4ebf846a","meta":null,"created_on":"2025-02-18T13:04:38.506Z","created_by_id":"019372de-17ef-7cc2-8fc0-43fe11ba042f","modified_on":"2025-02-18T13:04:38.506Z","modified_by_id":null,"deleted_on":null,"deleted_by_id":null,"tenant_id":"00000000-0000-0000-0000-000000000000","profile_id":"0193a649-e3d0-7881-8b7f-2ef1d89a9aff","status":"pending","command":"TransferCommand","command_data":{"account_id":"0193a699-2f15-7881-8b7f-ae50980bcfad","data":{"account_number":"0000000074","bank_code":"050030","amount":1000,"pin":"1234","narration":"","account_name":"Eazi Wallet","bank_name":"NORTHQUEST"}},"maker_id":"019372de-17ef-7cc2-8fc0-43fe11ba042f","made_on":"2025-02-18T13:04:38.506Z","checker_id":null,"checked_on":null,"maker_checker_id":"0193df18-702c-7ddc-9298-482c857161b9","reason":null},{"id":"01951927-f75f-788d-b550-01a25beb2eef","meta":null,"created_on":"2025-02-18T13:03:24.510Z","created_by_id":"019372de-17ef-7cc2-8fc0-43fe11ba042f","modified_on":"2025-02-18T13:03:24.510Z","modified_by_id":null,"deleted_on":null,"deleted_by_id":null,"tenant_id":"00000000-0000-0000-0000-000000000000","profile_id":"0193a649-e3d0-7881-8b7f-2ef1d89a9aff","status":"pending","command":"TransferCommand","command_data":{"account_id":"0193a699-2f15-7881-8b7f-ae50980bcfad","data":{"account_number":"0112345678","amount":100,"bank_code":"011","pin":"1234"}},"maker_id":"019372de-17ef-7cc2-8fc0-43fe11ba042f","made_on":"2025-02-18T13:03:24.510Z","checker_id":null,"checked_on":null,"maker_checker_id":"0193df18-702c-7ddc-9298-482c857161b9","reason":null},{"id":"01951927-4074-788d-b54f-dbb1469e6543","meta":null,"created_on":"2025-02-18T13:02:37.683Z","created_by_id":"019372de-17ef-7cc2-8fc0-43fe11ba042f","modified_on":"2025-02-18T13:02:37.683Z","modified_by_id":null,"deleted_on":null,"deleted_by_id":null,"tenant_id":"00000000-0000-0000-0000-000000000000","profile_id":"0193a649-e3d0-7881-8b7f-2ef1d89a9aff","status":"pending","command":"TransferCommand","command_data":{"account_id":"0193a699-2f15-7881-8b7f-ae50980bcfad","data":{"account_number":"0112345678","amount":100,"bank_code":"011","pin":"1234"}},"maker_id":"019372de-17ef-7cc2-8fc0-43fe11ba042f","made_on":"2025-02-18T13:02:37.683Z","checker_id":null,"checked_on":null,"maker_checker_id":"0193df18-702c-7ddc-9298-482c857161b9","reason":null},{"id":"01951925-f860-788d-b54f-c4946d654ac3","meta":null,"created_on":"2025-02-18T13:01:13.693Z","created_by_id":"019372de-17ef-7cc2-8fc0-43fe11ba042f","modified_on":"2025-02-18T13:01:13.693Z","modified_by_id":null,"deleted_on":null,"deleted_by_id":null,"tenant_id":"00000000-0000-0000-0000-000000000000","profile_id":"0193a649-e3d0-7881-8b7f-2ef1d89a9aff","status":"pending","command":"ScheduleTransferCommand","command_data":{"data":{"account_id":"0193a699-2f15-7881-8b7f-ae50980bcfad","type":"transfer","frequency":"once","start_date":"2025-02-19T00:00:00.000Z","end_date":"2025-02-19T00:00:00.000Z","pin":"1234","recipients":[{"amount":1000,"account_number":"0000000074","bank_code":"050030","narration":"No","account_name":"Eazi Wallet","bank_name":"NORTHQUEST FINANCE COMPANY LIMITED "}]}},"maker_id":"019372de-17ef-7cc2-8fc0-43fe11ba042f","made_on":"2025-02-18T13:01:13.688Z","checker_id":null,"checked_on":null,"maker_checker_id":"0193df18-702c-7ddc-9298-482c857161b9","reason":null},{"id":"01951925-20cf-788d-b54f-ba738c761a21","meta":null,"created_on":"2025-02-18T13:00:18.509Z","created_by_id":"019372de-17ef-7cc2-8fc0-43fe11ba042f","modified_on":"2025-02-18T13:00:18.509Z","modified_by_id":null,"deleted_on":null,"deleted_by_id":null,"tenant_id":"00000000-0000-0000-0000-000000000000","profile_id":"0193a649-e3d0-7881-8b7f-2ef1d89a9aff","status":"pending","command":"TransferCommand","command_data":{"account_id":"0193a699-2f15-7881-8b7f-ae50980bcfad","data":{"account_number":"0000000074","amount":1000,"bank_code":"050030","pin":"1234"}},"maker_id":"019372de-17ef-7cc2-8fc0-43fe11ba042f","made_on":"2025-02-18T13:00:18.509Z","checker_id":null,"checked_on":null,"maker_checker_id":"0193df18-702c-7ddc-9298-482c857161b9","reason":null},{"id":"01951924-f763-788d-b54f-b24d6a4530e9","meta":null,"created_on":"2025-02-18T13:00:07.906Z","created_by_id":"019372de-17ef-7cc2-8fc0-43fe11ba042f","modified_on":"2025-02-18T13:00:07.906Z","modified_by_id":null,"deleted_on":null,"deleted_by_id":null,"tenant_id":"00000000-0000-0000-0000-000000000000","profile_id":"0193a649-e3d0-7881-8b7f-2ef1d89a9aff","status":"pending","command":"TransferCommand","command_data":{"account_id":"0193a699-2f15-7881-8b7f-ae50980bcfad","data":{"account_number":"0000000074","amount":1000,"bank_code":"050030","pin":"1234"}},"maker_id":"019372de-17ef-7cc2-8fc0-43fe11ba042f","made_on":"2025-02-18T13:00:07.904Z","checker_id":null,"checked_on":null,"maker_checker_id":"0193df18-702c-7ddc-9298-482c857161b9","reason":null},{"id":"0195114d-c05e-7551-ae46-000f196b8b1b","meta":null,"created_on":"2025-02-17T00:27:43.070Z","created_by_id":"019372de-17ef-7cc2-8fc0-43fe11ba042f","modified_on":"2025-02-17T00:27:43.070Z","modified_by_id":null,"deleted_on":null,"deleted_by_id":null,"tenant_id":"00000000-0000-0000-0000-000000000000","profile_id":"0193a649-e3d0-7881-8b7f-2ef1d89a9aff","status":"pending","command":"PayBillPaymentCommand","command_data":{"categoryId":"airtime","billerId":"glo","data":{"account_number":"09055755671","amount":100,"beneficiary_id":"0194b87c-20fa-7bb8-88ea-631daa0e36cb","pin":"1234","account_id":""}},"maker_id":"019372de-17ef-7cc2-8fc0-43fe11ba042f","made_on":"2025-02-17T00:27:43.068Z","checker_id":null,"checked_on":null,"maker_checker_id":"0193df18-702c-7ddc-9298-482c857161b9","reason":null},{"id":"0195114b-1710-7551-ae45-fd950f8faa70","meta":null,"created_on":"2025-02-17T00:24:48.657Z","created_by_id":"019372de-17ef-7cc2-8fc0-43fe11ba042f","modified_on":"2025-02-17T00:24:48.657Z","modified_by_id":null,"deleted_on":null,"deleted_by_id":null,"tenant_id":"00000000-0000-0000-0000-000000000000","profile_id":"0193a649-e3d0-7881-8b7f-2ef1d89a9aff","status":"pending","command":"PayBillPaymentCommand","command_data":{"categoryId":"airtime","billerId":"mtn","data":{"account_number":"09055755671","amount":100,"option_id":"prepaid","pin":"1234","beneficiary_id":"0194b87c-20fa-7bb8-88ea-631daa0e36cb","account_id":""}},"maker_id":"019372de-17ef-7cc2-8fc0-43fe11ba042f","made_on":"2025-02-17T00:24:48.656Z","checker_id":null,"checked_on":null,"maker_checker_id":"0193df18-702c-7ddc-9298-482c857161b9","reason":null},{"id":"0195112d-6779-7551-ae45-4f9e5bae469d","meta":null,"created_on":"2025-02-16T23:52:23.162Z","created_by_id":"019372de-17ef-7cc2-8fc0-43fe11ba042f","modified_on":"2025-02-16T23:52:23.162Z","modified_by_id":null,"deleted_on":null,"deleted_by_id":null,"tenant_id":"00000000-0000-0000-0000-000000000000","profile_id":"0193a649-e3d0-7881-8b7f-2ef1d89a9aff","status":"pending","command":"PayBillPaymentCommand","command_data":{"categoryId":"airtime","billerId":"mtn","data":{"account_number":"09055755671","amount":100,"option_id":"prepaid","pin":"1234","beneficiary_id":"0194502f-410c-7005-abf1-3319f50bdf59","account_id":""}},"maker_id":"019372de-17ef-7cc2-8fc0-43fe11ba042f","made_on":"2025-02-16T23:52:23.161Z","checker_id":null,"checked_on":null,"maker_checker_id":"0193df18-702c-7ddc-9298-482c857161b9","reason":null}],"meta":{"page":1,"total_pages":42,"total_items":413}}