{"status":"success","data":[{"id":"01951f87-3342-7aa2-a9dd-59ed52f3cfb2","meta":null,"created_on":"2025-02-19T18:45:09.058Z","created_by_id":"019372de-17ef-7cc2-8fc0-43fe11ba042f","modified_on":"2025-02-19T18:45:09.058Z","modified_by_id":null,"deleted_on":null,"deleted_by_id":null,"tenant_id":"00000000-0000-0000-0000-000000000000","account_id":"0193a699-2f15-7881-8b7f-ae50980bcfad","profile_id":"0193a649-e3d0-7881-8b7f-2ef1d89a9aff","cba_id":null,"currency":"NGN","amount":"10.00","balance_after":null,"reference":"Tfpdwyqdwyk","processor_reference":null,"processor_status":null,"processor_message":null,"status":"processing","entry_type":"debit","narration":"","transaction_date":"2025-02-19T18:45:09.057Z","transaction_type":"fee","processor":"cba","reviewed_on":null,"reviewed_by":null,"batch_id":null,"schedule_id":null,"account":{"id":"0193a699-2f15-7881-8b7f-ae50980bcfad","meta":null,"created_on":"2024-12-08T14:07:57.204Z","created_by_id":null,"modified_on":"2025-02-19T18:45:08.480Z","modified_by_id":"019372de-17ef-7cc2-8fc0-43fe11ba042f","deleted_on":null,"deleted_by_id":null,"tenant_id":"00000000-0000-0000-0000-000000000000","name":"expenses","cba_id":"0000000074","status":"active","profile_id":"0193a649-e3d0-7881-8b7f-2ef1d89a9aff","account_number":"0000000074","bank_id":"0193324f-cad0-7f86-923b-43fb21ac5b29","ledger_balance":"710121608.11","hold_balance":"0.00","available_balance":"710121608.11","currency":"NGN","restricted":false},"transfer":null,"disputes":[],"batch":null,"transfer_beneficiary":null,"bill_payment_beneficiary":null},{"id":"01951f87-32d5-7aa2-a9dd-4b417ad69db6","meta":null,"created_on":"2025-02-19T18:45:08.863Z","created_by_id":"019372de-17ef-7cc2-8fc0-43fe11ba042f","modified_on":"2025-02-19T18:45:08.863Z","modified_by_id":null,"deleted_on":null,"deleted_by_id":null,"tenant_id":"00000000-0000-0000-0000-000000000000","account_id":"0193a699-2f15-7881-8b7f-ae50980bcfad","profile_id":"0193a649-e3d0-7881-8b7f-2ef1d89a9aff","cba_id":null,"currency":"NGN","amount":"1000.00","balance_after":null,"reference":"Tfpdwyqdwyk","processor_reference":null,"processor_status":null,"processor_message":null,"status":"processing","entry_type":"debit","narration":"","transaction_date":"2025-02-19T18:45:08.751Z","transaction_type":"transfer","processor":"nip","reviewed_on":null,"reviewed_by":null,"batch_id":null,"schedule_id":null,"account":{"id":"0193a699-2f15-7881-8b7f-ae50980bcfad","meta":null,"created_on":"2024-12-08T14:07:57.204Z","created_by_id":null,"modified_on":"2025-02-19T18:45:08.480Z","modified_by_id":"019372de-17ef-7cc2-8fc0-43fe11ba042f","deleted_on":null,"deleted_by_id":null,"tenant_id":"00000000-0000-0000-0000-000000000000","name":"expenses","cba_id":"0000000074","status":"active","profile_id":"0193a649-e3d0-7881-8b7f-2ef1d89a9aff","account_number":"0000000074","bank_id":"0193324f-cad0-7f86-923b-43fb21ac5b29","ledger_balance":"710121608.11","hold_balance":"0.00","available_balance":"710121608.11","currency":"NGN","restricted":false},"transfer":{"id":"01951f87-32e0-7aa2-a9dd-54d5a8d214cc","meta":null,"created_on":"2025-02-19T18:45:08.863Z","created_by_id":"019372de-17ef-7cc2-8fc0-43fe11ba042f","modified_on":"2025-02-19T18:45:08.863Z","modified_by_id":null,"deleted_on":null,"deleted_by_id":null,"tenant_id":"00000000-0000-0000-0000-000000000000","bank_code":"050030","bank_name":"NORTHQUEST FINANCE COMPANY LIMITED ","bank_logo":"https://cdn.prod.website-files.com/67342b6ac3243e10a48bee9d/673b02614b7fc0a77c0172b2_NorthQuest%20Finance%20%20Logo-p-500.png","account_name":"Eazi Wallet","account_number":"0000000074","profile_id":"0193a649-e3d0-7881-8b7f-2ef1d89a9aff","transaction_id":"01951f87-32d5-7aa2-a9dd-4b417ad69db6","account_id":"0193a699-2f15-7881-8b7f-ae50980bcfad"},"disputes":[],"batch":null,"transfer_beneficiary":null,"bill_payment_beneficiary":null},{"id":"01951a3f-6a92-7885-9dcf-1fbcf5298642","meta":null,"created_on":"2025-02-18T18:08:38.546Z","created_by_id":"019519ed-23fa-7885-9dcb-67660fb0472c","modified_on":"2025-02-18T18:08:38.546Z","modified_by_id":null,"deleted_on":null,"deleted_by_id":null,"tenant_id":"00000000-0000-0000-0000-000000000000","account_id":"01951065-f30c-7bbe-8a30-3eee60a72183","profile_id":"0193a649-e3d0-7881-8b7f-2ef1d89a9aff","cba_id":null,"currency":"NGN","amount":"50.00","balance_after":null,"reference":"Tqtdryvpksl","processor_reference":null,"processor_status":null,"processor_message":null,"status":"success","entry_type":"credit","narration":"","transaction_date":"2025-02-18T18:08:37.838Z","transaction_type":"funding","processor":"cba","reviewed_on":null,"reviewed_by":null,"batch_id":null,"schedule_id":null,"account":{"id":"01951065-f30c-7bbe-8a30-3eee60a72183","meta":null,"created_on":"2025-02-16T20:14:31.692Z","created_by_id":"019372de-17ef-7cc2-8fc0-43fe11ba042f","modified_on":"2025-02-19T18:45:09.866Z","modified_by_id":"019372de-17ef-7cc2-8fc0-43fe11ba042f","deleted_on":null,"deleted_by_id":null,"tenant_id":"00000000-0000-0000-0000-000000000000","name":"Credit Card Account","cba_id":"0000000390","status":"active","profile_id":"0193a649-e3d0-7881-8b7f-2ef1d89a9aff","account_number":"0000000390","bank_id":"0193324f-cad0-7f86-923b-43fb21ac5b29","ledger_balance":"730.00","hold_balance":"0.00","available_balance":"730.00","currency":"NGN","restricted":false},"transfer":null,"disputes":[],"batch":null,"transfer_beneficiary":null,"bill_payment_beneficiary":null},{"id":"01951a3b-3549-7885-9dce-ee592e36400c","meta":null,"created_on":"2025-02-18T18:04:02.760Z","created_by_id":"019519ed-23fa-7885-9dcb-67660fb0472c","modified_on":"2025-02-18T18:04:02.760Z","modified_by_id":null,"deleted_on":null,"deleted_by_id":null,"tenant_id":"00000000-0000-0000-0000-000000000000","account_id":"01951065-f30c-7bbe-8a30-3eee60a72183","profile_id":"0193a649-e3d0-7881-8b7f-2ef1d89a9aff","cba_id":null,"currency":"NGN","amount":"200.00","balance_after":null,"reference":"Tumwjxafhab","processor_reference":null,"processor_status":null,"processor_message":null,"status":"success","entry_type":"credit","narration":"","transaction_date":"2025-02-18T18:04:02.171Z","transaction_type":"funding","processor":"cba","reviewed_on":null,"reviewed_by":null,"batch_id":null,"schedule_id":null,"account":{"id":"01951065-f30c-7bbe-8a30-3eee60a72183","meta":null,"created_on":"2025-02-16T20:14:31.692Z","created_by_id":"019372de-17ef-7cc2-8fc0-43fe11ba042f","modified_on":"2025-02-19T18:45:09.866Z","modified_by_id":"019372de-17ef-7cc2-8fc0-43fe11ba042f","deleted_on":null,"deleted_by_id":null,"tenant_id":"00000000-0000-0000-0000-000000000000","name":"Credit Card Account","cba_id":"0000000390","status":"active","profile_id":"0193a649-e3d0-7881-8b7f-2ef1d89a9aff","account_number":"0000000390","bank_id":"0193324f-cad0-7f86-923b-43fb21ac5b29","ledger_balance":"730.00","hold_balance":"0.00","available_balance":"730.00","currency":"NGN","restricted":false},"transfer":null,"disputes":[],"batch":null,"transfer_beneficiary":null,"bill_payment_beneficiary":null},{"id":"01951a32-0a67-7885-9dce-4607f7fe635a","meta":null,"created_on":"2025-02-18T17:54:01.958Z","created_by_id":"019372de-17ef-7cc2-8fc0-43fe11ba042f","modified_on":"2025-02-18T17:54:02.591Z","modified_by_id":"019372de-17ef-7cc2-8fc0-43fe11ba042f","deleted_on":null,"deleted_by_id":null,"tenant_id":"00000000-0000-0000-0000-000000000000","account_id":"01951065-f30c-7bbe-8a30-3eee60a72183","profile_id":"0193a649-e3d0-7881-8b7f-2ef1d89a9aff","cba_id":"3355","currency":"NGN","amount":"10.00","balance_after":null,"reference":"Tcyvuomszao","processor_reference":null,"processor_status":null,"processor_message":null,"status":"success","entry_type":"debit","narration":"testing","transaction_date":"2025-02-18T17:54:01.954Z","transaction_type":"fee","processor":"cba","reviewed_on":null,"reviewed_by":null,"batch_id":null,"schedule_id":null,"account":{"id":"01951065-f30c-7bbe-8a30-3eee60a72183","meta":null,"created_on":"2025-02-16T20:14:31.692Z","created_by_id":"019372de-17ef-7cc2-8fc0-43fe11ba042f","modified_on":"2025-02-19T18:45:09.866Z","modified_by_id":"019372de-17ef-7cc2-8fc0-43fe11ba042f","deleted_on":null,"deleted_by_id":null,"tenant_id":"00000000-0000-0000-0000-000000000000","name":"Credit Card Account","cba_id":"0000000390","status":"active","profile_id":"0193a649-e3d0-7881-8b7f-2ef1d89a9aff","account_number":"0000000390","bank_id":"0193324f-cad0-7f86-923b-43fb21ac5b29","ledger_balance":"730.00","hold_balance":"0.00","available_balance":"730.00","currency":"NGN","restricted":false},"transfer":null,"disputes":[],"batch":null,"transfer_beneficiary":null,"bill_payment_beneficiary":null},{"id":"01951a32-0a31-7885-9dce-3385a4fad371","meta":null,"created_on":"2025-02-18T17:54:01.901Z","created_by_id":"019372de-17ef-7cc2-8fc0-43fe11ba042f","modified_on":"2025-02-18T17:54:01.901Z","modified_by_id":"019372de-17ef-7cc2-8fc0-43fe11ba042f","deleted_on":null,"deleted_by_id":null,"tenant_id":"00000000-0000-0000-0000-000000000000","account_id":"01951065-f30c-7bbe-8a30-3eee60a72183","profile_id":"0193a649-e3d0-7881-8b7f-2ef1d89a9aff","cba_id":"452","currency":"NGN","amount":"510.00","balance_after":null,"reference":"Tcyvuomszao","processor_reference":null,"processor_status":null,"processor_message":null,"status":"processing","entry_type":"debit","narration":"testing","transaction_date":"2025-02-18T17:54:01.861Z","transaction_type":"transfer","processor":"nip","reviewed_on":null,"reviewed_by":null,"batch_id":null,"schedule_id":null,"account":{"id":"01951065-f30c-7bbe-8a30-3eee60a72183","meta":null,"created_on":"2025-02-16T20:14:31.692Z","created_by_id":"019372de-17ef-7cc2-8fc0-43fe11ba042f","modified_on":"2025-02-19T18:45:09.866Z","modified_by_id":"019372de-17ef-7cc2-8fc0-43fe11ba042f","deleted_on":null,"deleted_by_id":null,"tenant_id":"00000000-0000-0000-0000-000000000000","name":"Credit Card Account","cba_id":"0000000390","status":"active","profile_id":"0193a649-e3d0-7881-8b7f-2ef1d89a9aff","account_number":"0000000390","bank_id":"0193324f-cad0-7f86-923b-43fb21ac5b29","ledger_balance":"730.00","hold_balance":"0.00","available_balance":"730.00","currency":"NGN","restricted":false},"transfer":{"id":"01951a32-0a48-7885-9dce-3ed0121fc1f7","meta":null,"created_on":"2025-02-18T17:54:01.901Z","created_by_id":"019372de-17ef-7cc2-8fc0-43fe11ba042f","modified_on":"2025-02-18T17:54:01.901Z","modified_by_id":null,"deleted_on":null,"deleted_by_id":null,"tenant_id":"00000000-0000-0000-0000-000000000000","bank_code":"050030","bank_name":"NORTHQUEST FINANCE COMPANY LIMITED ","bank_logo":"https://cdn.prod.website-files.com/67342b6ac3243e10a48bee9d/673b02614b7fc0a77c0172b2_NorthQuest%20Finance%20%20Logo-p-500.png","account_name":"Olayemi Victoria","account_number":"8134044021","profile_id":"0193a649-e3d0-7881-8b7f-2ef1d89a9aff","transaction_id":"01951a32-0a31-7885-9dce-3385a4fad371","account_id":"01951065-f30c-7bbe-8a30-3eee60a72183"},"disputes":[],"batch":null,"transfer_beneficiary":null,"bill_payment_beneficiary":null},{"id":"019519b5-c6e6-7333-b4e2-9019dcfe6383","meta":null,"created_on":"2025-02-18T15:38:18.214Z","created_by_id":"0194f52a-3a64-700c-a1fa-18f978a25ca5","modified_on":"2025-02-18T15:38:18.214Z","modified_by_id":null,"deleted_on":null,"deleted_by_id":null,"tenant_id":"00000000-0000-0000-0000-000000000000","account_id":"0193a699-2f15-7881-8b7f-ae50980bcfad","profile_id":"0193a649-e3d0-7881-8b7f-2ef1d89a9aff","cba_id":null,"currency":"NGN","amount":"1000.00","balance_after":null,"reference":"Tmrazkbrixz","processor_reference":null,"processor_status":null,"processor_message":null,"status":"success","entry_type":"credit","narration":"","transaction_date":"2025-02-18T15:38:16.127Z","transaction_type":"funding","processor":"cba","reviewed_on":null,"reviewed_by":null,"batch_id":null,"schedule_id":null,"account":{"id":"0193a699-2f15-7881-8b7f-ae50980bcfad","meta":null,"created_on":"2024-12-08T14:07:57.204Z","created_by_id":null,"modified_on":"2025-02-19T18:45:08.480Z","modified_by_id":"019372de-17ef-7cc2-8fc0-43fe11ba042f","deleted_on":null,"deleted_by_id":null,"tenant_id":"00000000-0000-0000-0000-000000000000","name":"expenses","cba_id":"0000000074","status":"active","profile_id":"0193a649-e3d0-7881-8b7f-2ef1d89a9aff","account_number":"0000000074","bank_id":"0193324f-cad0-7f86-923b-43fb21ac5b29","ledger_balance":"710121608.11","hold_balance":"0.00","available_balance":"710121608.11","currency":"NGN","restricted":false},"transfer":null,"disputes":[],"batch":null,"transfer_beneficiary":null,"bill_payment_beneficiary":null},{"id":"019519b4-a4ac-7333-b4e2-6af8af0cbcbe","meta":null,"created_on":"2025-02-18T15:37:03.914Z","created_by_id":"0194f52a-3a64-700c-a1fa-18f978a25ca5","modified_on":"2025-02-18T15:37:03.914Z","modified_by_id":null,"deleted_on":null,"deleted_by_id":null,"tenant_id":"00000000-0000-0000-0000-000000000000","account_id":"0193a699-2f15-7881-8b7f-ae50980bcfad","profile_id":"0193a649-e3d0-7881-8b7f-2ef1d89a9aff","cba_id":null,"currency":"NGN","amount":"1000.00","balance_after":null,"reference":"Tafwqkkmule","processor_reference":null,"processor_status":null,"processor_message":null,"status":"success","entry_type":"credit","narration":"","transaction_date":"2025-02-18T15:37:01.220Z","transaction_type":"funding","processor":"cba","reviewed_on":null,"reviewed_by":null,"batch_id":null,"schedule_id":null,"account":{"id":"0193a699-2f15-7881-8b7f-ae50980bcfad","meta":null,"created_on":"2024-12-08T14:07:57.204Z","created_by_id":null,"modified_on":"2025-02-19T18:45:08.480Z","modified_by_id":"019372de-17ef-7cc2-8fc0-43fe11ba042f","deleted_on":null,"deleted_by_id":null,"tenant_id":"00000000-0000-0000-0000-000000000000","name":"expenses","cba_id":"0000000074","status":"active","profile_id":"0193a649-e3d0-7881-8b7f-2ef1d89a9aff","account_number":"0000000074","bank_id":"0193324f-cad0-7f86-923b-43fb21ac5b29","ledger_balance":"710121608.11","hold_balance":"0.00","available_balance":"710121608.11","currency":"NGN","restricted":false},"transfer":null,"disputes":[],"batch":null,"transfer_beneficiary":null,"bill_payment_beneficiary":null},{"id":"0195199a-eea5-7333-b4e1-e9a506c772e5","meta":null,"created_on":"2025-02-18T15:08:58.839Z","created_by_id":"019372de-17ef-7cc2-8fc0-43fe11ba042f","modified_on":"2025-02-18T15:09:03.438Z","modified_by_id":"019372de-17ef-7cc2-8fc0-43fe11ba042f","deleted_on":null,"deleted_by_id":null,"tenant_id":"00000000-0000-0000-0000-000000000000","account_id":"0193a699-2f15-7881-8b7f-ae50980bcfad","profile_id":"0193a649-e3d0-7881-8b7f-2ef1d89a9aff","cba_id":"3346","currency":"NGN","amount":"10.00","balance_after":null,"reference":"Tpgeejuzdbf","processor_reference":null,"processor_status":null,"processor_message":null,"status":"success","entry_type":"debit","narration":"Sodiq","transaction_date":"2025-02-18T15:08:58.838Z","transaction_type":"fee","processor":"cba","reviewed_on":null,"reviewed_by":null,"batch_id":null,"schedule_id":null,"account":{"id":"0193a699-2f15-7881-8b7f-ae50980bcfad","meta":null,"created_on":"2024-12-08T14:07:57.204Z","created_by_id":null,"modified_on":"2025-02-19T18:45:08.480Z","modified_by_id":"019372de-17ef-7cc2-8fc0-43fe11ba042f","deleted_on":null,"deleted_by_id":null,"tenant_id":"00000000-0000-0000-0000-000000000000","name":"expenses","cba_id":"0000000074","status":"active","profile_id":"0193a649-e3d0-7881-8b7f-2ef1d89a9aff","account_number":"0000000074","bank_id":"0193324f-cad0-7f86-923b-43fb21ac5b29","ledger_balance":"710121608.11","hold_balance":"0.00","available_balance":"710121608.11","currency":"NGN","restricted":false},"transfer":null,"disputes":[],"batch":null,"transfer_beneficiary":null,"bill_payment_beneficiary":null},{"id":"0195199a-edf7-7333-b4e1-dd4bd18af2a8","meta":null,"created_on":"2025-02-18T15:08:58.725Z","created_by_id":"019372de-17ef-7cc2-8fc0-43fe11ba042f","modified_on":"2025-02-19T01:29:10.017Z","modified_by_id":"019372de-17ef-7cc2-8fc0-43fe11ba042f","deleted_on":null,"deleted_by_id":null,"tenant_id":"00000000-0000-0000-0000-000000000000","account_id":"0193a699-2f15-7881-8b7f-ae50980bcfad","profile_id":"0193a649-e3d0-7881-8b7f-2ef1d89a9aff","cba_id":"3345","currency":"NGN","amount":"100.00","balance_after":"710119618.11","reference":"Tpgeejuzdbf","processor_reference":null,"processor_status":null,"processor_message":null,"status":"success","entry_type":"debit","narration":"Sodiq","transaction_date":"2025-02-18T15:08:58.743Z","transaction_type":"transfer","processor":"nip","reviewed_on":null,"reviewed_by":null,"batch_id":"0195199a-ede6-7333-b4e1-d6a92fe956e2","schedule_id":null,"account":{"id":"0193a699-2f15-7881-8b7f-ae50980bcfad","meta":null,"created_on":"2024-12-08T14:07:57.204Z","created_by_id":null,"modified_on":"2025-02-19T18:45:08.480Z","modified_by_id":"019372de-17ef-7cc2-8fc0-43fe11ba042f","deleted_on":null,"deleted_by_id":null,"tenant_id":"00000000-0000-0000-0000-000000000000","name":"expenses","cba_id":"0000000074","status":"active","profile_id":"0193a649-e3d0-7881-8b7f-2ef1d89a9aff","account_number":"0000000074","bank_id":"0193324f-cad0-7f86-923b-43fb21ac5b29","ledger_balance":"710121608.11","hold_balance":"0.00","available_balance":"710121608.11","currency":"NGN","restricted":false},"transfer":{"id":"0195199a-edfb-7333-b4e1-e297432dc5c1","meta":null,"created_on":"2025-02-18T15:08:58.725Z","created_by_id":"019372de-17ef-7cc2-8fc0-43fe11ba042f","modified_on":"2025-02-18T15:08:58.725Z","modified_by_id":null,"deleted_on":null,"deleted_by_id":null,"tenant_id":"00000000-0000-0000-0000-000000000000","bank_code":"999998","bank_name":"vee test","bank_logo":"https://lendstack-s3.s3.us-east-2.amazonaws.com/bank_logos/035.png","account_name":"Ake Mobolaji & Temabo","account_number":"1780004070","profile_id":"0193a649-e3d0-7881-8b7f-2ef1d89a9aff","transaction_id":"0195199a-edf7-7333-b4e1-dd4bd18af2a8","account_id":"0193a699-2f15-7881-8b7f-ae50980bcfad"},"disputes":[{"id":"01951bd2-ba87-7885-9dd5-3fc195b34bc8","meta":null,"created_on":"2025-02-19T01:29:10.023Z","created_by_id":"019372de-17ef-7cc2-8fc0-43fe11ba042f","modified_on":"2025-02-19T01:29:10.023Z","modified_by_id":null,"deleted_on":null,"deleted_by_id":null,"tenant_id":"00000000-0000-0000-0000-000000000000","file_id":null,"transaction_id":"0195199a-edf7-7333-b4e1-dd4bd18af2a8","status":"pending","note":"Aliquam occaecat molestiae aut minim officia enim aut sed blanditiis sint nisi sed id iste modi ad eu","comment":null,"reviewed_on":null,"reviewed_by":null,"profile_id":"0193a649-e3d0-7881-8b7f-2ef1d89a9aff"}],"batch":{"id":"0195199a-ede6-7333-b4e1-d6a92fe956e2","meta":null,"created_on":"2025-02-18T15:08:58.725Z","created_by_id":"019372de-17ef-7cc2-8fc0-43fe11ba042f","modified_on":"2025-02-18T15:08:58.725Z","modified_by_id":null,"deleted_on":null,"deleted_by_id":null,"tenant_id":"00000000-0000-0000-0000-000000000000","status":"approved","name":null},"transfer_beneficiary":null,"bill_payment_beneficiary":null}],"meta":{"page":1,"total_pages":88,"total_items":879}}