{"status":"success","data":[{"id":"019497f4-a00e-7dd2-b9a0-eb070385514b","created_on":"2025-01-24T10:56:18.958Z","email":"yang@yopmail.com","first_name":"Jane","last_name":"stay","last_active":"2025-01-24T10:56:18.958Z","phone":null,"userProfile":{"id":"019497f4-a011-7dd2-b9a0-f129ef25b0da","status":"inactive","role_id":"01926788-1eaf-7336-86de-89316b9797d9","role":{"name":"Initiator","slug":"initiator"}}},{"id":"01949444-2364-7228-a8d5-2849410f4d26","created_on":"2025-01-23T17:44:41.060Z","email":"random@yopmail.com","first_name":"Feee","last_name":"stay","last_active":"2025-01-23T17:50:46.007Z","phone":null,"userProfile":{"id":"01949444-2369-7228-a8d5-31c9b2b7271c","status":"inactive","role_id":"01926788-56f8-7336-86de-98a2678c8611","role":{"name":"Authorizer","slug":"authorizer"}}},{"id":"019493cc-a96a-7aa1-bdcd-f28ebe86524e","created_on":"2025-01-23T15:34:11.050Z","email":"ran@yopmail.com","first_name":"Feee","last_name":"flee","last_active":"2025-01-23T15:38:00.919Z","phone":null,"userProfile":{"id":"019493cc-a970-7aa1-bdcd-fadcbf0ffe30","status":"active","role_id":"01926788-56f8-7336-86de-98a2678c8611","role":{"name":"Authorizer","slug":"authorizer"}}},{"id":"019493a2-88f5-7cc6-93e5-ce1349d553c7","created_on":"2025-01-23T14:48:10.229Z","email":"rander@yopmail.com","first_name":"Adey","last_name":"Train","last_active":"2025-01-23T14:48:10.229Z","phone":null,"userProfile":{"id":"019493a2-88fc-7cc6-93e5-d4e96a8b8692","status":"active","role_id":"01926788-1eaf-7336-86de-89316b9797d9","role":{"name":"Initiator","slug":"initiator"}}},{"id":"0194939a-406b-7cc6-93e5-88de51673c0f","created_on":"2025-01-23T14:39:07.370Z","email":"rand@yopmail.com","first_name":"Adere","last_name":"Rant","last_active":"2025-01-23T14:39:07.370Z","phone":null,"userProfile":{"id":"0194939a-4072-7cc6-93e5-96e30ae527fc","status":"active","role_id":"01926788-1eaf-7336-86de-89316b9797d9","role":{"name":"Initiator","slug":"initiator"}}},{"id":"0194779e-0699-722d-b130-8816d366e2fc","created_on":"2025-01-18T04:13:52.665Z","email":"destinyerhabor6@gmail.com","first_name":"Destiny","last_name":"Erhabor","last_active":"2025-02-13T17:12:23.267Z","phone":null,"userProfile":{"id":"0194799f-14dc-722d-b131-aca193c9e35a","status":"active","role_id":"01926788-56f8-7336-86de-98a2678c8611","role":{"name":"Authorizer","slug":"authorizer"}}},{"id":"01944a80-f3cb-7881-990d-98798437f1f3","created_on":"2025-01-09T09:59:12.588Z","email":"calista@mailinator.com","first_name":"Haven","last_name":"Mitchell","last_active":"2025-02-13T16:46:12.201Z","phone":null,"userProfile":{"id":"01944a80-f3d1-7881-990d-a4d23f1656fe","status":"active","role_id":"0194cacf-83b2-7000-ba69-ffefe3b6dfcc","role":{"name":"Everything","slug":"everything"}}},{"id":"019438bd-d51e-7aa1-9609-028439fe0fcf","created_on":"2025-01-05T23:12:32.542Z","email":"Easter@mailinator.com","first_name":"Cleveland","last_name":"Runolfsdottir","last_active":"2025-01-05T23:12:32.542Z","phone":null,"userProfile":{"id":"019438bd-d522-7aa1-9609-0a3516f0747f","status":"inactive","role_id":"019435cb-8e7d-7aa1-b635-ad7f79da04bf","role":{"name":"Intelligent Rubber Computer","slug":"intelligent-rubber-computer"}}},{"id":"019435fc-b33e-7994-b9f8-365e85eab562","created_on":"2025-01-05T10:22:20.990Z","email":"Misty@mailinator.com","first_name":"Edison","last_name":"Hand","last_active":"2025-01-05T10:22:20.990Z","phone":null,"userProfile":{"id":"019435fc-b38e-7994-b9f8-3ee000bdeab2","status":"inactive","role_id":"019435cb-8e7d-7aa1-b635-ad7f79da04bf","role":{"name":"Intelligent Rubber Computer","slug":"intelligent-rubber-computer"}}},{"id":"019426ac-eb05-7ccf-bd52-88d996f21e06","created_on":"2025-01-02T11:00:54.149Z","email":"memb@mailinator.com","first_name":null,"last_name":null,"last_active":"2025-01-02T11:00:54.149Z","phone":null,"userProfile":{"id":"019426ac-eb0a-7ccf-bd52-973e64072794","status":"pending","role_id":"01926788-1eaf-7336-86de-89316b9797d9","role":{"name":"Initiator","slug":"initiator"}}}],"meta":{"page":1,"total_pages":2,"total_items":15}}