{"status":"success","data":[{"id":"01945c1e-f292-7554-9587-63c78ce6adde","meta":null,"created_on":"2025-01-12T20:05:19.634Z","created_by":"019372de-17ef-7cc2-8fc0-43fe11ba042f","modified_on":"2025-01-12T20:05:25.190Z","modified_by":null,"deleted_on":null,"deleted_by":null,"tenant_id":"00000000-0000-0000-0000-000000000000","account_id":"0193a699-2f15-7881-8b7f-ae50980bcfad","profile_id":"0193a649-e3d0-7881-8b7f-2ef1d89a9aff","cba_id":"1752","currency":"NGN","amount":"29300.00","reference":"Tfjwuxpogqq","processor_reference":null,"processor_status":null,"processor_message":null,"status":"success","entry_type":"debit","narration":"Bill payment to dstv for 1102003467","transaction_date":"2025-01-12T20:05:19.633Z","transaction_type":"bill-payment","processor":"baxipay","reviewed_on":null,"reviewed_by":null,"batch_id":null,"schedule_id":null,"account":{"id":"0193a699-2f15-7881-8b7f-ae50980bcfad","meta":null,"created_on":"2024-12-08T14:07:57.204Z","created_by":null,"modified_on":"2025-01-12T20:04:18.253Z","modified_by":null,"deleted_on":null,"deleted_by":null,"tenant_id":"00000000-0000-0000-0000-000000000000","name":"expenses","cba_id":"0000000074","status":"active","profile_id":"0193a649-e3d0-7881-8b7f-2ef1d89a9aff","account_number":"0000000074","bank_id":"0193324f-cad0-7f86-923b-43fb21ac5b29","ledger_balance":"794562.63","hold_balance":"0.00","available_balance":"794562.63","currency":"NGN","restricted":false},"transfer":null,"disputes":[],"batch":null,"transfer_beneficiary":null,"bill_payment_beneficiary":null},{"id":"01945c1e-eb98-7554-9587-5ab3647f0750","meta":null,"created_on":"2025-01-12T20:05:17.848Z","created_by":"019372de-17ef-7cc2-8fc0-43fe11ba042f","modified_on":"2025-01-12T20:05:19.208Z","modified_by":null,"deleted_on":null,"deleted_by":null,"tenant_id":"00000000-0000-0000-0000-000000000000","account_id":"0193a699-2f15-7881-8b7f-ae50980bcfad","profile_id":"0193a649-e3d0-7881-8b7f-2ef1d89a9aff","cba_id":"1751","currency":"NGN","amount":"1800.00","reference":"Tmyymxtpeuj","processor_reference":null,"processor_status":null,"processor_message":null,"status":"success","entry_type":"debit","narration":"Bill payment to waec for 1102003467","transaction_date":"2025-01-12T20:05:17.847Z","transaction_type":"bill-payment","processor":"baxipay","reviewed_on":null,"reviewed_by":null,"batch_id":null,"schedule_id":null,"account":{"id":"0193a699-2f15-7881-8b7f-ae50980bcfad","meta":null,"created_on":"2024-12-08T14:07:57.204Z","created_by":null,"modified_on":"2025-01-12T20:04:18.253Z","modified_by":null,"deleted_on":null,"deleted_by":null,"tenant_id":"00000000-0000-0000-0000-000000000000","name":"expenses","cba_id":"0000000074","status":"active","profile_id":"0193a649-e3d0-7881-8b7f-2ef1d89a9aff","account_number":"0000000074","bank_id":"0193324f-cad0-7f86-923b-43fb21ac5b29","ledger_balance":"794562.63","hold_balance":"0.00","available_balance":"794562.63","currency":"NGN","restricted":false},"transfer":null,"disputes":[],"batch":null,"transfer_beneficiary":null,"bill_payment_beneficiary":null},{"id":"01945c1e-e2ca-7554-9587-5426cc988b75","meta":null,"created_on":"2025-01-12T20:05:15.595Z","created_by":"019372de-17ef-7cc2-8fc0-43fe11ba042f","modified_on":"2025-01-12T20:05:16.740Z","modified_by":null,"deleted_on":null,"deleted_by":null,"tenant_id":"00000000-0000-0000-0000-000000000000","account_id":"0193a699-2f15-7881-8b7f-ae50980bcfad","profile_id":"0193a649-e3d0-7881-8b7f-2ef1d89a9aff","cba_id":"1750","currency":"NGN","amount":"2300.00","reference":"Txcnljjgvvp","processor_reference":null,"processor_status":null,"processor_message":"","status":"failed","entry_type":"debit","narration":"Bill payment to abuja_electric_postpaid for 07034953306","transaction_date":"2025-01-12T20:05:15.594Z","transaction_type":"bill-payment","processor":"baxipay","reviewed_on":null,"reviewed_by":null,"batch_id":null,"schedule_id":null,"account":{"id":"0193a699-2f15-7881-8b7f-ae50980bcfad","meta":null,"created_on":"2024-12-08T14:07:57.204Z","created_by":null,"modified_on":"2025-01-12T20:04:18.253Z","modified_by":null,"deleted_on":null,"deleted_by":null,"tenant_id":"00000000-0000-0000-0000-000000000000","name":"expenses","cba_id":"0000000074","status":"active","profile_id":"0193a649-e3d0-7881-8b7f-2ef1d89a9aff","account_number":"0000000074","bank_id":"0193324f-cad0-7f86-923b-43fb21ac5b29","ledger_balance":"794562.63","hold_balance":"0.00","available_balance":"794562.63","currency":"NGN","restricted":false},"transfer":null,"disputes":[],"batch":null,"transfer_beneficiary":null,"bill_payment_beneficiary":null},{"id":"01945c1e-a952-7554-9587-4e9ed3d06f9e","meta":null,"created_on":"2025-01-12T20:05:00.882Z","created_by":"019372de-17ef-7cc2-8fc0-43fe11ba042f","modified_on":"2025-01-12T20:05:11.967Z","modified_by":null,"deleted_on":null,"deleted_by":null,"tenant_id":"00000000-0000-0000-0000-000000000000","account_id":"0193a699-2f15-7881-8b7f-ae50980bcfad","profile_id":"0193a649-e3d0-7881-8b7f-2ef1d89a9aff","cba_id":"1749","currency":"NGN","amount":"900.00","reference":"Tksdpupixei","processor_reference":null,"processor_status":null,"processor_message":null,"status":"success","entry_type":"debit","narration":"Bill payment to gotv for 1102003467","transaction_date":"2025-01-12T20:05:00.881Z","transaction_type":"bill-payment","processor":"baxipay","reviewed_on":null,"reviewed_by":null,"batch_id":null,"schedule_id":null,"account":{"id":"0193a699-2f15-7881-8b7f-ae50980bcfad","meta":null,"created_on":"2024-12-08T14:07:57.204Z","created_by":null,"modified_on":"2025-01-12T20:04:18.253Z","modified_by":null,"deleted_on":null,"deleted_by":null,"tenant_id":"00000000-0000-0000-0000-000000000000","name":"expenses","cba_id":"0000000074","status":"active","profile_id":"0193a649-e3d0-7881-8b7f-2ef1d89a9aff","account_number":"0000000074","bank_id":"0193324f-cad0-7f86-923b-43fb21ac5b29","ledger_balance":"794562.63","hold_balance":"0.00","available_balance":"794562.63","currency":"NGN","restricted":false},"transfer":null,"disputes":[],"batch":null,"transfer_beneficiary":null,"bill_payment_beneficiary":null},{"id":"01945c1e-9432-7554-9587-466833aabe30","meta":null,"created_on":"2025-01-12T20:04:55.474Z","created_by":"019372de-17ef-7cc2-8fc0-43fe11ba042f","modified_on":"2025-01-12T20:04:58.700Z","modified_by":null,"deleted_on":null,"deleted_by":null,"tenant_id":"00000000-0000-0000-0000-000000000000","account_id":"0193a699-2f15-7881-8b7f-ae50980bcfad","profile_id":"0193a649-e3d0-7881-8b7f-2ef1d89a9aff","cba_id":"1748","currency":"NGN","amount":"5300.00","reference":"Tmnkwunxbju","processor_reference":null,"processor_status":null,"processor_message":null,"status":"success","entry_type":"debit","narration":"Bill payment to dstv for 1102003467","transaction_date":"2025-01-12T20:04:55.473Z","transaction_type":"bill-payment","processor":"baxipay","reviewed_on":null,"reviewed_by":null,"batch_id":null,"schedule_id":null,"account":{"id":"0193a699-2f15-7881-8b7f-ae50980bcfad","meta":null,"created_on":"2024-12-08T14:07:57.204Z","created_by":null,"modified_on":"2025-01-12T20:04:18.253Z","modified_by":null,"deleted_on":null,"deleted_by":null,"tenant_id":"00000000-0000-0000-0000-000000000000","name":"expenses","cba_id":"0000000074","status":"active","profile_id":"0193a649-e3d0-7881-8b7f-2ef1d89a9aff","account_number":"0000000074","bank_id":"0193324f-cad0-7f86-923b-43fb21ac5b29","ledger_balance":"794562.63","hold_balance":"0.00","available_balance":"794562.63","currency":"NGN","restricted":false},"transfer":null,"disputes":[],"batch":null,"transfer_beneficiary":null,"bill_payment_beneficiary":null},{"id":"01945c1e-8f67-7554-9587-3abf03c8eaa4","meta":null,"created_on":"2025-01-12T20:04:54.247Z","created_by":"019372de-17ef-7cc2-8fc0-43fe11ba042f","modified_on":"2025-01-12T20:04:54.893Z","modified_by":null,"deleted_on":null,"deleted_by":null,"tenant_id":"00000000-0000-0000-0000-000000000000","account_id":"0193a699-2f15-7881-8b7f-ae50980bcfad","profile_id":"0193a649-e3d0-7881-8b7f-2ef1d89a9aff","cba_id":"1747","currency":"NGN","amount":"1800.00","reference":"Trbnciqolsj","processor_reference":null,"processor_status":null,"processor_message":null,"status":"success","entry_type":"debit","narration":"Bill payment to smile for 11020034671","transaction_date":"2025-01-12T20:04:54.246Z","transaction_type":"bill-payment","processor":"baxipay","reviewed_on":null,"reviewed_by":null,"batch_id":null,"schedule_id":null,"account":{"id":"0193a699-2f15-7881-8b7f-ae50980bcfad","meta":null,"created_on":"2024-12-08T14:07:57.204Z","created_by":null,"modified_on":"2025-01-12T20:04:18.253Z","modified_by":null,"deleted_on":null,"deleted_by":null,"tenant_id":"00000000-0000-0000-0000-000000000000","name":"expenses","cba_id":"0000000074","status":"active","profile_id":"0193a649-e3d0-7881-8b7f-2ef1d89a9aff","account_number":"0000000074","bank_id":"0193324f-cad0-7f86-923b-43fb21ac5b29","ledger_balance":"794562.63","hold_balance":"0.00","available_balance":"794562.63","currency":"NGN","restricted":false},"transfer":null,"disputes":[],"batch":null,"transfer_beneficiary":null,"bill_payment_beneficiary":null},{"id":"01945c1e-8a4b-7554-9587-32d128cc178a","meta":null,"created_on":"2025-01-12T20:04:52.939Z","created_by":"019372de-17ef-7cc2-8fc0-43fe11ba042f","modified_on":"2025-01-12T20:04:53.854Z","modified_by":null,"deleted_on":null,"deleted_by":null,"tenant_id":"00000000-0000-0000-0000-000000000000","account_id":"0193a699-2f15-7881-8b7f-ae50980bcfad","profile_id":"0193a649-e3d0-7881-8b7f-2ef1d89a9aff","cba_id":"1746","currency":"NGN","amount":"200.00","reference":"Thohciebksz","processor_reference":null,"processor_status":null,"processor_message":null,"status":"success","entry_type":"debit","narration":"Bill payment to 9mobile for 11020034671","transaction_date":"2025-01-12T20:04:52.938Z","transaction_type":"bill-payment","processor":"baxipay","reviewed_on":null,"reviewed_by":null,"batch_id":null,"schedule_id":null,"account":{"id":"0193a699-2f15-7881-8b7f-ae50980bcfad","meta":null,"created_on":"2024-12-08T14:07:57.204Z","created_by":null,"modified_on":"2025-01-12T20:04:18.253Z","modified_by":null,"deleted_on":null,"deleted_by":null,"tenant_id":"00000000-0000-0000-0000-000000000000","name":"expenses","cba_id":"0000000074","status":"active","profile_id":"0193a649-e3d0-7881-8b7f-2ef1d89a9aff","account_number":"0000000074","bank_id":"0193324f-cad0-7f86-923b-43fb21ac5b29","ledger_balance":"794562.63","hold_balance":"0.00","available_balance":"794562.63","currency":"NGN","restricted":false},"transfer":null,"disputes":[],"batch":null,"transfer_beneficiary":null,"bill_payment_beneficiary":null},{"id":"01945c1e-84d4-7554-9587-2b92c6405dc6","meta":null,"created_on":"2025-01-12T20:04:51.540Z","created_by":"019372de-17ef-7cc2-8fc0-43fe11ba042f","modified_on":"2025-01-12T20:04:52.521Z","modified_by":null,"deleted_on":null,"deleted_by":null,"tenant_id":"00000000-0000-0000-0000-000000000000","account_id":"0193a699-2f15-7881-8b7f-ae50980bcfad","profile_id":"0193a649-e3d0-7881-8b7f-2ef1d89a9aff","cba_id":"1745","currency":"NGN","amount":"50.00","reference":"Teckodwegzb","processor_reference":null,"processor_status":null,"processor_message":null,"status":"success","entry_type":"debit","narration":"Bill payment to airtel for 11020034671","transaction_date":"2025-01-12T20:04:51.539Z","transaction_type":"bill-payment","processor":"baxipay","reviewed_on":null,"reviewed_by":null,"batch_id":null,"schedule_id":null,"account":{"id":"0193a699-2f15-7881-8b7f-ae50980bcfad","meta":null,"created_on":"2024-12-08T14:07:57.204Z","created_by":null,"modified_on":"2025-01-12T20:04:18.253Z","modified_by":null,"deleted_on":null,"deleted_by":null,"tenant_id":"00000000-0000-0000-0000-000000000000","name":"expenses","cba_id":"0000000074","status":"active","profile_id":"0193a649-e3d0-7881-8b7f-2ef1d89a9aff","account_number":"0000000074","bank_id":"0193324f-cad0-7f86-923b-43fb21ac5b29","ledger_balance":"794562.63","hold_balance":"0.00","available_balance":"794562.63","currency":"NGN","restricted":false},"transfer":null,"disputes":[],"batch":null,"transfer_beneficiary":null,"bill_payment_beneficiary":null},{"id":"01945c1e-7d16-7554-9587-27925e524271","meta":null,"created_on":"2025-01-12T20:04:49.558Z","created_by":"019372de-17ef-7cc2-8fc0-43fe11ba042f","modified_on":"2025-01-12T20:04:50.447Z","modified_by":null,"deleted_on":null,"deleted_by":null,"tenant_id":"00000000-0000-0000-0000-000000000000","account_id":"0193a699-2f15-7881-8b7f-ae50980bcfad","profile_id":"0193a649-e3d0-7881-8b7f-2ef1d89a9aff","cba_id":"1744","currency":"NGN","amount":"100.00","reference":"Tplorgzgdgn","processor_reference":null,"processor_status":null,"processor_message":null,"status":"success","entry_type":"debit","narration":"Bill payment to mtn for 11020034671","transaction_date":"2025-01-12T20:04:49.556Z","transaction_type":"bill-payment","processor":"baxipay","reviewed_on":null,"reviewed_by":null,"batch_id":null,"schedule_id":null,"account":{"id":"0193a699-2f15-7881-8b7f-ae50980bcfad","meta":null,"created_on":"2024-12-08T14:07:57.204Z","created_by":null,"modified_on":"2025-01-12T20:04:18.253Z","modified_by":null,"deleted_on":null,"deleted_by":null,"tenant_id":"00000000-0000-0000-0000-000000000000","name":"expenses","cba_id":"0000000074","status":"active","profile_id":"0193a649-e3d0-7881-8b7f-2ef1d89a9aff","account_number":"0000000074","bank_id":"0193324f-cad0-7f86-923b-43fb21ac5b29","ledger_balance":"794562.63","hold_balance":"0.00","available_balance":"794562.63","currency":"NGN","restricted":false},"transfer":null,"disputes":[],"batch":null,"transfer_beneficiary":null,"bill_payment_beneficiary":null},{"id":"01945c1e-7872-7554-9587-1d1828ae0591","meta":null,"created_on":"2025-01-12T20:04:48.370Z","created_by":"019372de-17ef-7cc2-8fc0-43fe11ba042f","modified_on":"2025-01-12T20:04:49.119Z","modified_by":null,"deleted_on":null,"deleted_by":null,"tenant_id":"00000000-0000-0000-0000-000000000000","account_id":"0193a699-2f15-7881-8b7f-ae50980bcfad","profile_id":"0193a649-e3d0-7881-8b7f-2ef1d89a9aff","cba_id":"1743","currency":"NGN","amount":"100.00","reference":"Tojtohtqenh","processor_reference":null,"processor_status":null,"processor_message":null,"status":"success","entry_type":"debit","narration":"Bill payment to smile for 1102003467","transaction_date":"2025-01-12T20:04:48.369Z","transaction_type":"bill-payment","processor":"baxipay","reviewed_on":null,"reviewed_by":null,"batch_id":null,"schedule_id":null,"account":{"id":"0193a699-2f15-7881-8b7f-ae50980bcfad","meta":null,"created_on":"2024-12-08T14:07:57.204Z","created_by":null,"modified_on":"2025-01-12T20:04:18.253Z","modified_by":null,"deleted_on":null,"deleted_by":null,"tenant_id":"00000000-0000-0000-0000-000000000000","name":"expenses","cba_id":"0000000074","status":"active","profile_id":"0193a649-e3d0-7881-8b7f-2ef1d89a9aff","account_number":"0000000074","bank_id":"0193324f-cad0-7f86-923b-43fb21ac5b29","ledger_balance":"794562.63","hold_balance":"0.00","available_balance":"794562.63","currency":"NGN","restricted":false},"transfer":null,"disputes":[],"batch":null,"transfer_beneficiary":null,"bill_payment_beneficiary":null}],"meta":{"page":1,"total_pages":50,"total_items":492}}