{"status":"success","data":[{"id":"0195d26a-45cb-711c-8833-b628ce71be8a","meta":{},"created_on":"2025-03-26T12:25:34.923Z","created_by_id":"0195d26a-2323-711c-8833-9e3f99ed4f85","modified_on":"2025-03-26T12:31:06.539Z","modified_by_id":"0195d26a-2323-711c-8833-9e3f99ed4f85","deleted_on":null,"deleted_by_id":null,"tenant_id":"00000000-0000-0000-0000-000000000000","name":"Ibrahim Azeez","type":"personal","status":"active","restricted":false,"review":null,"allowed_time_periods":null,"allowed_locations":["019530c4-c08d-7330-a052-626afaaebd24"],"primary_user_id":"0195d26a-2323-711c-8833-9e3f99ed4f85","tier_id":"01928f2d-6756-755b-8a9d-c8094db2af27","primary_user":{"id":"0195d26a-2323-711c-8833-9e3f99ed4f85","meta":null,"created_on":"2025-03-26T12:25:26.050Z","created_by_id":null,"modified_on":"2025-03-26T12:33:46.649Z","modified_by_id":"0195d26a-2323-711c-8833-9e3f99ed4f85","deleted_on":null,"deleted_by_id":null,"tenant_id":"00000000-0000-0000-0000-000000000000","email":"boom@mailinator.com","status":"active","first_name":"Ibrahim","last_name":"Azeez","twofa_enabled":false,"last_active":"2025-03-26T12:33:46.648Z","last_ip":"197.234.242.92","allowed_ips":null,"last_timezone":"Africa/Johannesburg","last_location":"Johannesburg","phone":"+2349058893837","review":null,"gender":"male","date_of_birth":"2001-06-16","cba_id":"140","photo_id":"0195d26a-e0b1-711c-8834-089bb7f9010d","referral_code":"PJ5R4O","referred_by":null,"has_pin":false,"has_password":false},"tier":{"id":"01928f2d-6756-755b-8a9d-c8094db2af27","meta":null,"created_on":"2024-10-15T07:56:10.789Z","created_by_id":null,"modified_on":"2025-01-23T15:14:24.513Z","modified_by_id":"01927265-4ed2-79cc-a0e6-e11339a359f3","deleted_on":null,"deleted_by_id":null,"tenant_id":"00000000-0000-0000-0000-000000000000","profile_type":"personal","name":"Tier 1","description":"Tier 1","level":1,"enabled":true,"balance_limit":2000000,"single_sending_limit":500000,"single_receiving_limit":500000,"period_sending_limit":500000,"period_sending_limit_time_unit":"day","period_receiving_limit":500000,"period_receiving_limit_time_unit":"day","requirements":[{"id":"019318f9-c895-744d-8f65-4636cc26dd1d","type_id":"019318f9-c895-744d-8f65-4636cc26dd1d","type":"verification","slug":"email","name":"Email","description":"Verify your email"},{"id":"019318f9-c895-744d-8f65-4636cc26dd1f","type_id":"019318f9-c895-744d-8f65-4636cc26dd1f","type":"verification","slug":"liveness","name":"Image liveness check","description":"This step helps us verify your identity by matching your image with the credentials you’ve provided."},{"id":"019318f9-c895-744d-8f65-4636cc26dd1c","type_id":"019318f9-c895-744d-8f65-4636cc26dd1c","type":"verification","slug":"phone","name":"Phone","description":"Verify yor number"},{"id":"01933d40-03e5-777c-a6e6-bf72eb1c8968","type_id":"01933d40-03e5-777c-a6e6-bf72eb1c8968","type":"verification","slug":"bvn","name":"BVN","description":"BVN"}]}},{"id":"0195cfc8-96c9-7bb0-a50f-9394dd5a9025","meta":{},"created_on":"2025-03-26T00:09:44.392Z","created_by_id":"0195002b-275c-7ffd-8a4c-1782a05709b6","modified_on":"2025-03-26T00:09:44.392Z","modified_by_id":null,"deleted_on":null,"deleted_by_id":null,"tenant_id":"00000000-0000-0000-0000-000000000000","name":"Fuan Frett","type":"personal","status":"active","restricted":false,"review":null,"allowed_time_periods":null,"allowed_locations":null,"primary_user_id":"0195002b-275c-7ffd-8a4c-1782a05709b6","tier_id":null,"primary_user":{"id":"0195002b-275c-7ffd-8a4c-1782a05709b6","meta":null,"created_on":"2025-02-13T16:36:23.003Z","created_by_id":null,"modified_on":"2025-03-26T00:09:55.680Z","modified_by_id":"0195002b-275c-7ffd-8a4c-1782a05709b6","deleted_on":null,"deleted_by_id":null,"tenant_id":"00000000-0000-0000-0000-000000000000","email":"fuan@yopmail.com","status":"active","first_name":"Fuan","last_name":"Frett","twofa_enabled":false,"last_active":"2025-03-26T00:09:55.680Z","last_ip":"172.68.42.119","allowed_ips":null,"last_timezone":"Africa/Johannesburg","last_location":"Johannesburg","phone":"+2348123470912","review":null,"gender":null,"date_of_birth":null,"cba_id":"82","photo_id":null,"referral_code":"7EENHW","referred_by":null,"has_pin":false,"has_password":false},"tier":null},{"id":"0195cfbe-06b8-7bb0-a50f-2e1c793b4a16","meta":{},"created_on":"2025-03-25T23:58:12.151Z","created_by_id":"01944a80-f3cb-7881-990d-98798437f1f3","modified_on":"2025-03-25T23:58:12.151Z","modified_by_id":null,"deleted_on":null,"deleted_by_id":null,"tenant_id":"00000000-0000-0000-0000-000000000000","name":"Haven Mitchell","type":"personal","status":"active","restricted":false,"review":null,"allowed_time_periods":null,"allowed_locations":null,"primary_user_id":"01944a80-f3cb-7881-990d-98798437f1f3","tier_id":null,"primary_user":{"id":"01944a80-f3cb-7881-990d-98798437f1f3","meta":null,"created_on":"2025-01-09T09:59:12.588Z","created_by_id":null,"modified_on":"2025-03-26T00:05:26.648Z","modified_by_id":"01944a80-f3cb-7881-990d-98798437f1f3","deleted_on":null,"deleted_by_id":null,"tenant_id":"00000000-0000-0000-0000-000000000000","email":"calista@mailinator.com","status":"active","first_name":"Haven","last_name":"Mitchell","twofa_enabled":false,"last_active":"2025-03-26T00:05:26.648Z","last_ip":"172.68.42.172","allowed_ips":null,"last_timezone":"Africa/Johannesburg","last_location":"Johannesburg","phone":null,"review":null,"gender":null,"date_of_birth":null,"cba_id":null,"photo_id":null,"referral_code":"0YUT6L","referred_by":null,"has_pin":false,"has_password":false},"tier":null},{"id":"0195cfad-f6fb-7bb0-a50e-731747d1256d","meta":{},"created_on":"2025-03-25T23:40:39.546Z","created_by_id":"01953cbc-6903-733b-86b3-35f33447c487","modified_on":"2025-03-25T23:40:39.546Z","modified_by_id":null,"deleted_on":null,"deleted_by_id":null,"tenant_id":"00000000-0000-0000-0000-000000000000","name":"Azeez Ibrahim","type":"personal","status":"active","restricted":false,"review":null,"allowed_time_periods":null,"allowed_locations":null,"primary_user_id":"01953cbc-6903-733b-86b3-35f33447c487","tier_id":null,"primary_user":{"id":"01953cbc-6903-733b-86b3-35f33447c487","meta":null,"created_on":"2025-02-25T10:52:15.491Z","created_by_id":null,"modified_on":"2025-03-25T23:43:09.100Z","modified_by_id":"01953cbc-6903-733b-86b3-35f33447c487","deleted_on":null,"deleted_by_id":null,"tenant_id":"00000000-0000-0000-0000-000000000000","email":"testbus@yopmail.com","status":"active","first_name":"Azeez","last_name":"Ibrahim","twofa_enabled":false,"last_active":"2025-03-25T23:43:09.100Z","last_ip":"172.68.42.64","allowed_ips":null,"last_timezone":"Africa/Johannesburg","last_location":"Johannesburg","phone":"+2348023664977","review":null,"gender":null,"date_of_birth":null,"cba_id":"87","photo_id":null,"referral_code":"C2R71F","referred_by":null,"has_pin":false,"has_password":false},"tier":null},{"id":"0195cc93-0d28-788a-b419-581db4d71d02","meta":null,"created_on":"2025-03-25T09:12:24.104Z","created_by_id":"0195b9dd-d430-7447-8ef6-7008a4022429","modified_on":"2025-03-25T09:12:24.104Z","modified_by_id":null,"deleted_on":null,"deleted_by_id":null,"tenant_id":"00000000-0000-0000-0000-000000000000","name":"John Doe","type":"personal","status":"active","restricted":false,"review":null,"allowed_time_periods":null,"allowed_locations":null,"primary_user_id":"0195b9dd-d430-7447-8ef6-7008a4022429","tier_id":null,"primary_user":{"id":"0195b9dd-d430-7447-8ef6-7008a4022429","meta":null,"created_on":"2025-03-21T18:01:17.616Z","created_by_id":null,"modified_on":"2025-03-26T12:15:23.974Z","modified_by_id":"0195b9dd-d430-7447-8ef6-7008a4022429","deleted_on":null,"deleted_by_id":null,"tenant_id":"00000000-0000-0000-0000-000000000000","email":"john@mailinator.com","status":"active","first_name":"John","last_name":"Doe","twofa_enabled":false,"last_active":"2025-03-26T12:15:19.337Z","last_ip":"197.234.242.44","allowed_ips":null,"last_timezone":"Africa/Johannesburg","last_location":"Johannesburg","phone":"+2348000000010","review":null,"gender":null,"date_of_birth":null,"cba_id":null,"photo_id":null,"referral_code":"4LRQJ8","referred_by":null,"has_pin":false,"has_password":false},"tier":null},{"id":"0195cc38-313e-788a-b418-95a74ae8c80d","meta":null,"created_on":"2025-03-25T07:33:09.567Z","created_by_id":"0193cfd4-2de3-766c-bad1-9088f26479d9","modified_on":"2025-03-25T07:33:09.567Z","modified_by_id":null,"deleted_on":null,"deleted_by_id":null,"tenant_id":"00000000-0000-0000-0000-000000000000","name":"Amad Testing","type":"personal","status":"active","restricted":false,"review":null,"allowed_time_periods":null,"allowed_locations":null,"primary_user_id":"0193cfd4-2de3-766c-bad1-9088f26479d9","tier_id":null,"primary_user":{"id":"0193cfd4-2de3-766c-bad1-9088f26479d9","meta":null,"created_on":"2024-12-16T14:16:49.379Z","created_by_id":null,"modified_on":"2025-03-25T23:45:42.691Z","modified_by_id":"0193cfd4-2de3-766c-bad1-9088f26479d9","deleted_on":null,"deleted_by_id":null,"tenant_id":"00000000-0000-0000-0000-000000000000","email":"amad@mailinator.com","status":"active","first_name":"Amad","last_name":"Testing","twofa_enabled":false,"last_active":"2025-03-25T23:45:42.689Z","last_ip":"197.234.243.81","allowed_ips":null,"last_timezone":"Africa/Johannesburg","last_location":"Johannesburg","phone":null,"review":null,"gender":null,"date_of_birth":null,"cba_id":null,"photo_id":null,"referral_code":"WF4C8G","referred_by":null,"has_pin":false,"has_password":false},"tier":null},{"id":"0195c053-3194-7ff4-896c-44b8bad4bcdb","meta":null,"created_on":"2025-03-23T00:07:12.532Z","created_by_id":"0195c052-a360-7ff4-896c-28b6f75ea4a6","modified_on":"2025-03-23T00:07:12.532Z","modified_by_id":null,"deleted_on":null,"deleted_by_id":null,"tenant_id":"00000000-0000-0000-0000-000000000000","name":"kris Esiv","type":"personal","status":"active","restricted":false,"review":null,"allowed_time_periods":null,"allowed_locations":null,"primary_user_id":"0195c052-a360-7ff4-896c-28b6f75ea4a6","tier_id":null,"primary_user":{"id":"0195c052-a360-7ff4-896c-28b6f75ea4a6","meta":null,"created_on":"2025-03-23T00:06:36.127Z","created_by_id":null,"modified_on":"2025-03-23T00:17:22.057Z","modified_by_id":"0195c052-a360-7ff4-896c-28b6f75ea4a6","deleted_on":null,"deleted_by_id":null,"tenant_id":"00000000-0000-0000-0000-000000000000","email":"kris@yopmail.com","status":"active","first_name":"kris","last_name":"Esiv","twofa_enabled":false,"last_active":"2025-03-23T00:17:22.055Z","last_ip":"172.71.95.134","allowed_ips":null,"last_timezone":"Europe/Amsterdam","last_location":"Amsterdam","phone":"+2348136724800","review":null,"gender":null,"date_of_birth":null,"cba_id":null,"photo_id":null,"referral_code":"MAB0RL","referred_by":null,"has_pin":false,"has_password":false},"tier":null},{"id":"0195b2e7-d58b-788b-a924-4706f2d559c0","meta":null,"created_on":"2025-03-20T09:34:52.811Z","created_by_id":"0195b2e7-bb80-788b-a924-2a34e14988c9","modified_on":"2025-03-20T09:34:52.811Z","modified_by_id":null,"deleted_on":null,"deleted_by_id":null,"tenant_id":"00000000-0000-0000-0000-000000000000","name":"Abdussamad Yisau","type":"personal","status":"active","restricted":false,"review":null,"allowed_time_periods":null,"allowed_locations":null,"primary_user_id":"0195b2e7-bb80-788b-a924-2a34e14988c9","tier_id":null,"primary_user":{"id":"0195b2e7-bb80-788b-a924-2a34e14988c9","meta":null,"created_on":"2025-03-20T09:34:46.144Z","created_by_id":null,"modified_on":"2025-03-24T14:59:54.719Z","modified_by_id":"0195b2e7-bb80-788b-a924-2a34e14988c9","deleted_on":null,"deleted_by_id":null,"tenant_id":"00000000-0000-0000-0000-000000000000","email":"hacksawting@gmail.com","status":"active","first_name":"Abdussamad","last_name":"Yisau","twofa_enabled":false,"last_active":"2025-03-24T14:59:54.718Z","last_ip":"172.70.86.96","allowed_ips":null,"last_timezone":"Europe/London","last_location":"London","phone":"+2348123884267","review":null,"gender":null,"date_of_birth":null,"cba_id":null,"photo_id":"0195b90c-dd0b-7447-8ef4-dc11eca0e787","referral_code":"DSLBYL","referred_by":null,"has_pin":false,"has_password":false},"tier":null},{"id":"0195af64-a3b7-7336-9015-d9d7316a381f","meta":{},"created_on":"2025-03-19T17:12:43.190Z","created_by_id":"0195af64-878f-7336-9015-c0ad842de096","modified_on":"2025-03-19T17:35:47.979Z","modified_by_id":"0195af64-878f-7336-9015-c0ad842de096","deleted_on":null,"deleted_by_id":null,"tenant_id":"00000000-0000-0000-0000-000000000000","name":"Adekunle Gold","type":"personal","status":"active","restricted":false,"review":null,"allowed_time_periods":{"from":"19:00","to":"19:00"},"allowed_locations":null,"primary_user_id":"0195af64-878f-7336-9015-c0ad842de096","tier_id":null,"primary_user":{"id":"0195af64-878f-7336-9015-c0ad842de096","meta":null,"created_on":"2025-03-19T17:12:35.981Z","created_by_id":null,"modified_on":"2025-03-26T18:16:20.613Z","modified_by_id":"0195af64-878f-7336-9015-c0ad842de096","deleted_on":null,"deleted_by_id":null,"tenant_id":"00000000-0000-0000-0000-000000000000","email":"adekunle@mailinator.com","status":"active","first_name":"Adekunle","last_name":"Gold","twofa_enabled":false,"last_active":"2025-03-26T18:16:20.613Z","last_ip":"172.71.135.86","allowed_ips":null,"last_timezone":"Europe/Paris","last_location":"Paris","phone":"+2347000000001","review":null,"gender":null,"date_of_birth":null,"cba_id":null,"photo_id":null,"referral_code":"K9VZM7","referred_by":null,"has_pin":false,"has_password":false},"tier":null},{"id":"0195a8e0-814d-733b-b4fb-8df9e3f4847f","meta":null,"created_on":"2025-03-18T10:50:40.331Z","created_by_id":"0195a8e0-5db1-733b-b4fb-77c61d767e44","modified_on":"2025-03-18T10:53:27.430Z","modified_by_id":"0195a8e0-5db1-733b-b4fb-77c61d767e44","deleted_on":null,"deleted_by_id":null,"tenant_id":"00000000-0000-0000-0000-000000000000","name":"Tell Tester","type":"personal","status":"active","restricted":false,"review":null,"allowed_time_periods":null,"allowed_locations":null,"primary_user_id":"0195a8e0-5db1-733b-b4fb-77c61d767e44","tier_id":"01928f2d-6756-755b-8a9d-c8094db2af27","primary_user":{"id":"0195a8e0-5db1-733b-b4fb-77c61d767e44","meta":null,"created_on":"2025-03-18T10:50:31.216Z","created_by_id":null,"modified_on":"2025-03-26T11:31:13.913Z","modified_by_id":"0195a8e0-5db1-733b-b4fb-77c61d767e44","deleted_on":null,"deleted_by_id":null,"tenant_id":"00000000-0000-0000-0000-000000000000","email":"fry@yopmail.com","status":"active","first_name":"Tell","last_name":"Tester","twofa_enabled":false,"last_active":"2025-03-26T11:31:13.912Z","last_ip":"172.68.42.159","allowed_ips":null,"last_timezone":"Africa/Johannesburg","last_location":"Johannesburg","phone":"+2348123695954","review":null,"gender":"female","date_of_birth":"1994-06-20","cba_id":"138","photo_id":null,"referral_code":"H6S9XD","referred_by":null,"has_pin":false,"has_password":false},"tier":{"id":"01928f2d-6756-755b-8a9d-c8094db2af27","meta":null,"created_on":"2024-10-15T07:56:10.789Z","created_by_id":null,"modified_on":"2025-01-23T15:14:24.513Z","modified_by_id":"01927265-4ed2-79cc-a0e6-e11339a359f3","deleted_on":null,"deleted_by_id":null,"tenant_id":"00000000-0000-0000-0000-000000000000","profile_type":"personal","name":"Tier 1","description":"Tier 1","level":1,"enabled":true,"balance_limit":2000000,"single_sending_limit":500000,"single_receiving_limit":500000,"period_sending_limit":500000,"period_sending_limit_time_unit":"day","period_receiving_limit":500000,"period_receiving_limit_time_unit":"day","requirements":[{"id":"019318f9-c895-744d-8f65-4636cc26dd1d","type_id":"019318f9-c895-744d-8f65-4636cc26dd1d","type":"verification","slug":"email","name":"Email","description":"Verify your email"},{"id":"019318f9-c895-744d-8f65-4636cc26dd1f","type_id":"019318f9-c895-744d-8f65-4636cc26dd1f","type":"verification","slug":"liveness","name":"Image liveness check","description":"This step helps us verify your identity by matching your image with the credentials you’ve provided."},{"id":"019318f9-c895-744d-8f65-4636cc26dd1c","type_id":"019318f9-c895-744d-8f65-4636cc26dd1c","type":"verification","slug":"phone","name":"Phone","description":"Verify yor number"},{"id":"01933d40-03e5-777c-a6e6-bf72eb1c8968","type_id":"01933d40-03e5-777c-a6e6-bf72eb1c8968","type":"verification","slug":"bvn","name":"BVN","description":"BVN"}]}}],"meta":{"page":1,"total_pages":26,"total_items":252}}