{"status":"success","data":[{"id":"01955c52-bd80-788d-9cc1-f5295060bd1e","meta":null,"created_on":"2025-03-03T14:04:41.210Z","created_by_id":null,"modified_on":"2025-03-03T16:10:25.749Z","modified_by_id":null,"deleted_on":null,"deleted_by_id":null,"tenant_id":"00000000-0000-0000-0000-000000000000","configurable":false,"title":"Your PIN Reset OTP","body":"[{{tenant_name}}]\nUse this OTP to reset your PIN: {{OTP}","variables":null},{"id":"01955c50-0c98-788d-9cc1-cd1a71221c97","meta":null,"created_on":"2025-03-03T14:01:44.850Z","created_by_id":null,"modified_on":"2025-03-03T16:11:07.717Z","modified_by_id":null,"deleted_on":null,"deleted_by_id":null,"tenant_id":"00000000-0000-0000-0000-000000000000","configurable":false,"title":"Your Password Reset OTP","body":"[{{tenant_name}}]\nUse this OTP to reset your passcode: {{OTP}","variables":null},{"id":"01955bae-319b-7bbd-9e41-c41071f493dd","meta":null,"created_on":"2025-03-03T11:04:57.511Z","created_by_id":null,"modified_on":"2025-03-03T11:10:39.993Z","modified_by_id":null,"deleted_on":null,"deleted_by_id":null,"tenant_id":"00000000-0000-0000-0000-000000000000","configurable":false,"title":"Tier Upgrade Successful","body":"<!DOCTYPE html>\n<html lang=\"en\">\n\n<head>\n  <meta charset=\"UTF-8\">\n  <meta name=\"viewport\" content=\"width=device-width, initial-scale=1.0\">\n  <title>OTP</title>\n  <link rel=\"preconnect\" href=\"https://fonts.googleapis.com\">\n  <link rel=\"preconnect\" href=\"https://fonts.gstatic.com\" crossorigin>\n  <link href=\"https://fonts.googleapis.com/css2?family=Open+Sans:ital,wght@0,300..800;1,300..800&display=swap\"\n    rel=\"stylesheet\">\n  <style>\n    html,\n    body {\n      margin: 0;\n      padding: 0;\n    }\n\n    ul {\n      list-style-type: none;\n    }\n\n    a {\n      text-decoration: none;\n      color: inherit;\n    }\n\n    table {\n      border: 0;\n      border-spacing: 0;\n      border-collapse: collapse\n    }\n\n    body {\n      margin: 0;\n      padding: 0;\n      font-family: \"Open Sans\", sans-serif;\n      background-color: #ECEFF3 !important;\n      color: #0E121B;\n    }\n\n    .email-container {\n      width: 100%;\n      max-width: 600px;\n      margin: 20px auto;\n      background-color: #FFFFFF;\n      border-radius: 16px;\n      box-shadow: 0 4px 8px rgba(0, 0, 0, 0.1);\n    }\n\n    .header {\n      padding: 20px;\n      text-align: left;\n      color: #0E121B;\n    }\n\n    .header h1 {\n      margin: 0;\n      font-size: 24px;\n      font-weight: 700;\n    }\n\n    .content {\n      padding: 30px 30px;\n      color: #0E121B;\n      line-height: 1.6;\n    }\n\n    .content p {\n      font-size: 16px;\n      margin: 0 0 16px;\n    }\n\n    .footer {\n      background-color: #F5F7FA;\n      text-align: center;\n      font-size: 14px;\n      color: #99A0AE;\n      border-bottom-left-radius: 16px;\n      border-bottom-right-radius: 16px;\n    }\n\n    .footer-logo {\n      margin-bottom: 10px;\n    }\n\n    .footer-address {\n      margin: 5px 0;\n      font-size: 14px;\n      color: #99A0AE;\n    }\n\n    .footer .social-icons {\n      display: flex;\n      justify-content: center;\n      gap: 20px;\n      padding: 10px 0;\n    }\n\n    .footer .social-icons a {\n      display: flex;\n      align-items: center;\n      justify-content: center;\n      width: 40px;\n      height: 40px;\n      border: 1px solid #FFFFFFB2;\n      border-radius: 50%;\n      padding: 8px;\n      transition: background-color 0.3s ease;\n    }\n\n    .footer .social-icons a img {\n      width: 20px;\n      height: 20px;\n      opacity: 0.8;\n    }\n\n    .footer p {\n      margin: 5px 0;\n      color: #FFFFFFB2;\n      font-size: 14px;\n    }\n\n    .footer a {\n      color: #FFFFFFB2;\n      text-decoration: none;\n    }\n  </style>\n</head>\n\n<body bgcolor=\"#ECEFF3\" style=\"background-color: #ECEFF3; padding: 20px 0;\">\n  <center>\n    <table class=\"email-container\">\n      <!-- Header -->\n      <tr>\n        <td class=\"header\">\n          <img src=\"{{logo_url}}\"\n            alt=\"Hero image\" width=\"30%\">\n        </td>\n      </tr>\n      <tr>\n        <td class=\"header\">\n          <h1 style=\"font-size:40px; font-weight:600 text-align: center;\">Tier Upgrade Successful</h1>\n        </td>\n      </tr>\n      <!-- Content -->\n    <tr>\n  <td class=\"content\">\n    <p>Hello {{first_name}},</p>\n\n    <p>Great news! Your <b>{{profile_name}}</b> account has been successfully upgraded to the <b>{{tier_name}}</b> tier.</p>\n\n    <p>You now have access to enhanced features and benefits exclusive to this tier.</p>\n\n    <p style=\"margin: 20px 0;\">\n      If you did not request this upgrade or have any questions, please contact our customer support team at {{support_phone}} or send us an email at {{support_email}}.\n    </p>\n\n    <p>Enjoy your new benefits!<br>With Love, <br>The {{tenant_name}} Team</p>\n  </td>\n</tr>\n\n\n      <!-- Footer -->\n      <tr>\n        <td class=\"footer\" style=\"padding:20px 0\">\n          <center>\n            <table width=\"100%\" align=\"center\" style=\"width: 100%; text-align: center; border-collapse: collapse;\">\n              <!-- Logo -->\n              <tr>\n                <td>\n                  <img src=\"{{grey_logo_url}}\"\n                    alt=\"Logo image\" width=\"20%\" style=\"margin-bottom: 10px;\">\n                </td>\n              </tr>\n              <!-- Address -->\n              <tr>\n                <td style=\"padding: 10px;\">\n                  <p style=\"margin: 5px 0; font-size: 14px; color: #99A0AE;\">\n                    {{tenant_address}}\n                  </p>\n                </td>\n              </tr>\n              <!-- Social Icons -->\n              <tr>\n                <td style=\"width: 100%; border-top: #E1E4EA solid; border-bottom: #E1E4EA solid;\">\n                  <table width=\"100%\" style=\"border-collapse: collapse; text-align: center; margin: 0 auto;\">\n                    <tr>\n                      <!-- Facebook -->\n                      <td style=\"padding: 20px;\">\n                        <a href=\"{{facebook_url}}\"\n                          style=\"display: inline-block; width: 40px; height: 40px; text-align: center; line-height: 40px; transition: background-color 0.3s ease;\">\n                          <img\n                            src=\"https://res.cloudinary.com/devplus-devmm/image/upload/v1731960868/facebook_ihlnaz.png\"\n                            alt=\"Facebook\" style=\"width: 20px; height: 20px;\">\n                        </a>\n                      </td>\n                      <!-- Twitter -->\n                      <td style=\"padding: 20px; border-right: #E1E4EA solid; border-left: #E1E4EA solid\">\n                        <a href=\"{{twitter_url}}\"\n                          style=\"display: inline-block; width: 40px; height: 40px; text-align: center; line-height: 40px; transition: background-color 0.3s ease;\">\n                          <img src=\"https://res.cloudinary.com/devplus-devmm/image/upload/v1731960867/x_wabx5y.png\"\n                            alt=\"Twitter\" style=\"width: 20px; height: 20px;\">\n                        </a>\n                      </td>\n                        <!-- Instagram -->\n                      <td style=\"padding: 20px; border-right: #E1E4EA solid; border-left: #E1E4EA solid\">\n                        <a href=\"{{instagram_url}}\"\n                          style=\"display: inline-block; width: 40px; height: 40px; text-align: center; line-height: 40px; transition: background-color 0.3s ease;\">\n                          <img src=\"https://res.cloudinary.com/do1vosluu/image/upload/v1740068321/instagram-line_3_h6c2rw.png\"\n                            alt=\"Twitter\" style=\"width: 20px; height: 20px;\">\n                        </a>\n                      </td>\n                      <!-- LinkedIn -->\n                      <td style=\"padding: 20px;\">\n                        <a href=\"{{linkedin_url}}\"\n                          style=\"display: inline-block; width: 40px; height: 40px; text-align: center; line-height: 40px; transition: background-color 0.3s ease;\">\n                          <img\n                            src=\"https://res.cloudinary.com/devplus-devmm/image/upload/v1731960867/linkedin_jtuprf.png\"\n                            alt=\"LinkedIn\" style=\"width: 20px; height: 20px;\">\n                        </a>\n                      </td>\n                      \n                    </tr>\n                  </table>\n                </td>\n              </tr>\n              <!-- Support Links -->\n              <tr>\n                <td>\n                  <p style=\"margin: 10px 0; font-size: 14px; color: #99A0AE; text-align: center;\">\n                Need help? <a href=\"mailto:{{support_email}}\" style=\"color: #99A0AE; text-decoration: underline;\">Click\n                      here</a>\n                  </p>\n                </td>\n              </tr>\n          \n            </table>\n          </center>\n        </td>\n      </tr>\n\n    </table>\n  </center>\n</body>\n\n</html>","variables":["tenant_name","logo_url","favicon","theme","terms_url","aml_url","privacy_url","support_email","support_phone","address","facebook_url","twitter_url","linkedin_url","white_logo_url","grey_logo_url","first_name","profile_name","tier_name"]},{"id":"019551ad-65ba-722c-9bbb-6d045a740974","meta":null,"created_on":"2025-03-01T12:27:53.136Z","created_by_id":null,"modified_on":"2025-03-01T22:16:21.392Z","modified_by_id":null,"deleted_on":null,"deleted_by_id":null,"tenant_id":"00000000-0000-0000-0000-000000000000","configurable":false,"title":"Action Required: Operation Pending Approval","body":"<!DOCTYPE html>\n<html lang=\"en\">\n\n<head>\n  <meta charset=\"UTF-8\">\n  <meta name=\"viewport\" content=\"width=device-width, initial-scale=1.0\">\n  <title>OTP</title>\n  <link rel=\"preconnect\" href=\"https://fonts.googleapis.com\">\n  <link rel=\"preconnect\" href=\"https://fonts.gstatic.com\" crossorigin>\n  <link href=\"https://fonts.googleapis.com/css2?family=Open+Sans:ital,wght@0,300..800;1,300..800&display=swap\"\n    rel=\"stylesheet\">\n  <style>\n    html,\n    body {\n      margin: 0;\n      padding: 0;\n    }\n\n    ul {\n      list-style-type: none;\n    }\n\n    a {\n      text-decoration: none;\n      color: inherit;\n    }\n\n    table {\n      border: 0;\n      border-spacing: 0;\n      border-collapse: collapse\n    }\n\n    body {\n      margin: 0;\n      padding: 0;\n      font-family: \"Open Sans\", sans-serif;\n      background-color: #ECEFF3 !important;\n      color: #0E121B;\n    }\n\n    .email-container {\n      width: 100%;\n      max-width: 600px;\n      margin: 20px auto;\n      background-color: #FFFFFF;\n      border-radius: 16px;\n      box-shadow: 0 4px 8px rgba(0, 0, 0, 0.1);\n    }\n\n    .header {\n      padding: 20px;\n      text-align: left;\n      color: #0E121B;\n    }\n\n    .header h1 {\n      margin: 0;\n      font-size: 24px;\n      font-weight: 700;\n    }\n\n    .content {\n      padding: 30px 30px;\n      color: #0E121B;\n      line-height: 1.6;\n    }\n\n    .content p {\n      font-size: 16px;\n      margin: 0 0 16px;\n    }\n\n    .footer {\n      background-color: #F5F7FA;\n      text-align: center;\n      font-size: 14px;\n      color: #99A0AE;\n      border-bottom-left-radius: 16px;\n      border-bottom-right-radius: 16px;\n    }\n\n    .footer-logo {\n      margin-bottom: 10px;\n    }\n\n    .footer-address {\n      margin: 5px 0;\n      font-size: 14px;\n      color: #99A0AE;\n    }\n\n    .footer .social-icons {\n      display: flex;\n      justify-content: center;\n      gap: 20px;\n      padding: 10px 0;\n    }\n\n    .footer .social-icons a {\n      display: flex;\n      align-items: center;\n      justify-content: center;\n      width: 40px;\n      height: 40px;\n      border: 1px solid #FFFFFFB2;\n      border-radius: 50%;\n      padding: 8px;\n      transition: background-color 0.3s ease;\n    }\n\n    .footer .social-icons a img {\n      width: 20px;\n      height: 20px;\n      opacity: 0.8;\n    }\n\n    .footer p {\n      margin: 5px 0;\n      color: #FFFFFFB2;\n      font-size: 14px;\n    }\n\n    .footer a {\n      color: #FFFFFFB2;\n      text-decoration: none;\n    }\n  </style>\n</head>\n\n<body bgcolor=\"#ECEFF3\" style=\"background-color: #ECEFF3; padding: 20px 0;\">\n  <center>\n    <table class=\"email-container\">\n      <!-- Header -->\n      <tr>\n        <td class=\"header\">\n          <img src=\"{{logo_url}}\"\n            alt=\"Hero image\" width=\"30%\">\n        </td>\n      </tr>\n      <tr>\n        <td class=\"header\">\n          <h1 style=\"font-size:40px; font-weight:600 text-align: center;\">Operation Pending Approval</h1>\n        </td>\n      </tr>\n      <!-- Content -->\n     <tr>\n  <td class=\"content\">\n    <p>Hello {{first_name}},</p>\n\n    <p>Your recent action on your <b>{{profile_name}}</b> account requires approval before it can be processed.</p>\n\n    <p>This request is currently pending review by an authorised approver. You will receive a notification once a decision has been made.</p>\n\n    <p style=\"margin: 20px 0;\">\n      If you have any concerns, please contact our customer support team immediately at {{support_phone}} or send us an email at {{support_email}}.\n    </p>\n\n    <p>With Love, <br>The {{tenant_name}} Team</p>\n  </td>\n</tr>\n\n      <!-- Footer -->\n      <tr>\n        <td class=\"footer\" style=\"padding:20px 0\">\n          <center>\n            <table width=\"100%\" align=\"center\" style=\"width: 100%; text-align: center; border-collapse: collapse;\">\n              <!-- Logo -->\n              <tr>\n                <td>\n                  <img src=\"{{grey_logo_url}}\"\n                    alt=\"Logo image\" width=\"20%\" style=\"margin-bottom: 10px;\">\n                </td>\n              </tr>\n              <!-- Address -->\n              <tr>\n                <td style=\"padding: 10px;\">\n                  <p style=\"margin: 5px 0; font-size: 14px; color: #99A0AE;\">\n                    {{tenant_address}}\n                  </p>\n                </td>\n              </tr>\n              <!-- Social Icons -->\n              <tr>\n                <td style=\"width: 100%; border-top: #E1E4EA solid; border-bottom: #E1E4EA solid;\">\n                  <table width=\"100%\" style=\"border-collapse: collapse; text-align: center; margin: 0 auto;\">\n                    <tr>\n                      <!-- Facebook -->\n                      <td style=\"padding: 20px;\">\n                        <a href=\"{{facebook_url}}\"\n                          style=\"display: inline-block; width: 40px; height: 40px; text-align: center; line-height: 40px; transition: background-color 0.3s ease;\">\n                          <img\n                            src=\"https://res.cloudinary.com/devplus-devmm/image/upload/v1731960868/facebook_ihlnaz.png\"\n                            alt=\"Facebook\" style=\"width: 20px; height: 20px;\">\n                        </a>\n                      </td>\n                      <!-- Twitter -->\n                      <td style=\"padding: 20px; border-right: #E1E4EA solid; border-left: #E1E4EA solid\">\n                        <a href=\"{{twitter_url}}\"\n                          style=\"display: inline-block; width: 40px; height: 40px; text-align: center; line-height: 40px; transition: background-color 0.3s ease;\">\n                          <img src=\"https://res.cloudinary.com/devplus-devmm/image/upload/v1731960867/x_wabx5y.png\"\n                            alt=\"Twitter\" style=\"width: 20px; height: 20px;\">\n                        </a>\n                      </td>\n                        <!-- Instagram -->\n                      <td style=\"padding: 20px; border-right: #E1E4EA solid; border-left: #E1E4EA solid\">\n                        <a href=\"{{instagram_url}}\"\n                          style=\"display: inline-block; width: 40px; height: 40px; text-align: center; line-height: 40px; transition: background-color 0.3s ease;\">\n                          <img src=\"https://res.cloudinary.com/do1vosluu/image/upload/v1740068321/instagram-line_3_h6c2rw.png\"\n                            alt=\"Twitter\" style=\"width: 20px; height: 20px;\">\n                        </a>\n                      </td>\n                      <!-- LinkedIn -->\n                      <td style=\"padding: 20px;\">\n                        <a href=\"{{linkedin_url}}\"\n                          style=\"display: inline-block; width: 40px; height: 40px; text-align: center; line-height: 40px; transition: background-color 0.3s ease;\">\n                          <img\n                            src=\"https://res.cloudinary.com/devplus-devmm/image/upload/v1731960867/linkedin_jtuprf.png\"\n                            alt=\"LinkedIn\" style=\"width: 20px; height: 20px;\">\n                        </a>\n                      </td>\n                      \n                    </tr>\n                  </table>\n                </td>\n              </tr>\n              <!-- Support Links -->\n              <tr>\n                <td>\n                  <p style=\"margin: 10px 0; font-size: 14px; color: #99A0AE; text-align: center;\">\n                Need help? <a href=\"mailto:{{support_email}}\" style=\"color: #99A0AE; text-decoration: underline;\">Click\n                      here</a>\n                  </p>\n                </td>\n              </tr>\n          \n            </table>\n          </center>\n        </td>\n      </tr>\n\n    </table>\n  </center>\n</body>\n\n</html>","variables":["tenant_name","logo_url","favicon","theme","terms_url","aml_url","privacy_url","support_email","support_phone","address","facebook_url","twitter_url","linkedin_url","white_logo_url","grey_logo_url","first_name","profile_name"]},{"id":"019544a8-dac5-7cca-b243-3dbc85def852","meta":null,"created_on":"2025-02-26T23:47:47.530Z","created_by_id":null,"modified_on":"2025-02-26T23:47:47.530Z","modified_by_id":null,"deleted_on":null,"deleted_by_id":null,"tenant_id":"00000000-0000-0000-0000-000000000000","configurable":false,"title":"Electricity Token","body":"Your electricity token {{token}}","variables":["token"]},{"id":"019544a8-f338-7cca-b244-1ed50936fff5","meta":null,"created_on":"2025-02-26T23:47:47.530Z","created_by_id":null,"modified_on":"2025-02-26T23:47:47.530Z","modified_by_id":null,"deleted_on":null,"deleted_by_id":null,"tenant_id":"00000000-0000-0000-0000-000000000000","configurable":false,"title":"Liquidation Update","body":"Your liquidation request for {{investment_name}} has been approved. Funds will be credited to your account shortly.","variables":["investment_name"]},{"id":"019544a8-dc7d-7cca-b243-4a903427434d","meta":null,"created_on":"2025-02-26T23:47:47.530Z","created_by_id":null,"modified_on":"2025-02-26T23:47:47.530Z","modified_by_id":null,"deleted_on":null,"deleted_by_id":null,"tenant_id":"00000000-0000-0000-0000-000000000000","configurable":false,"title":"Transaction Failed","body":"Bill payments for {{biller}} in the amount of {{bill_amount}} failed.","variables":["biller","bill_amount"]},{"id":"019544a8-d755-7cca-b243-1a834e04e729","meta":null,"created_on":"2025-02-26T23:47:47.530Z","created_by_id":null,"modified_on":"2025-02-26T23:47:47.530Z","modified_by_id":null,"deleted_on":null,"deleted_by_id":null,"tenant_id":"00000000-0000-0000-0000-000000000000","configurable":false,"title":"Data","body":"Mobile data top-up of {{amount}} to this {{phone_number}} was successful","variables":["amount","phone_number"]},{"id":"019544a8-d3ed-7cca-b242-f840f96dce14","meta":null,"created_on":"2025-02-26T23:47:47.530Z","created_by_id":null,"modified_on":"2025-02-26T23:47:47.530Z","modified_by_id":null,"deleted_on":null,"deleted_by_id":null,"tenant_id":"00000000-0000-0000-0000-000000000000","configurable":false,"title":"Successful Deposit","body":"Your account has been credited with {{amount}} from  {{sender_name}}{{sender_bank}} {{sender_account_number}}.","variables":["amount","sender_name","sender_bank","sender_account_number"]},{"id":"019544a8-f18f-7cca-b244-0e32920aef31","meta":null,"created_on":"2025-02-26T23:47:47.530Z","created_by_id":null,"modified_on":"2025-02-26T23:47:47.530Z","modified_by_id":null,"deleted_on":null,"deleted_by_id":null,"tenant_id":"00000000-0000-0000-0000-000000000000","configurable":false,"title":"Investment Update","body":"Your investment in {{investment_name}} has matured.Please review the available options for the next steps in your account.","variables":["investment_name"]}],"meta":{"page":1,"total_pages":11,"total_items":105}}