{"status":"success","data":[{"id":"01960cb9-19bb-7993-88eb-bfa4297e08bd","meta":null,"created_on":"2025-04-06T20:09:39.512Z","created_by_id":"0195d26a-2323-711c-8833-9e3f99ed4f85","modified_on":"2025-04-06T20:09:41.431Z","modified_by_id":"0195d26a-2323-711c-8833-9e3f99ed4f85","deleted_on":null,"deleted_by_id":null,"tenant_id":"00000000-0000-0000-0000-000000000000","account_id":"0195d26b-5331-711c-8834-39e9ecc3f5c1","profile_id":"0195d26a-45cb-711c-8833-b628ce71be8a","cba_id":"4270","currency":"NGN","amount":"10.00","balance_after":null,"reference":"TCL1GHA5N764","processor_reference":null,"processor_status":null,"processor_message":null,"status":"success","entry_type":"debit","narration":"Sodiq","transaction_date":"2025-04-06T20:09:39.509Z","transaction_type":"fee","processor":"cba","reviewed_on":null,"reviewed_by":null,"batch_id":null,"schedule_id":null,"account":{"id":"0195d26b-5331-711c-8834-39e9ecc3f5c1","meta":null,"created_on":"2025-03-26T12:26:43.889Z","created_by_id":"0195d26a-2323-711c-8833-9e3f99ed4f85","modified_on":"2025-04-06T20:09:41.713Z","modified_by_id":"0195d26a-2323-711c-8833-9e3f99ed4f85","deleted_on":null,"deleted_by_id":null,"tenant_id":"00000000-0000-0000-0000-000000000000","name":"IBRAHIM AZEEZ","type":"account","cba_id":"9058893837","status":"active","profile_id":"0195d26a-45cb-711c-8833-b628ce71be8a","account_number":"9058893837","bank_id":"0193324f-cad0-7f86-923b-43fb21ac5b29","ledger_balance":"998496.32","hold_balance":"0.00","available_balance":"998496.32","currency":"NGN","restricted":false},"transfer":null,"disputes":[],"batch":null,"transfer_beneficiary":null,"bill_payment_beneficiary":null},{"id":"01960cb9-18a7-7993-88eb-b5c1d1f6aa3f","meta":null,"created_on":"2025-04-06T20:09:39.239Z","created_by_id":"0195d26a-2323-711c-8833-9e3f99ed4f85","modified_on":"2025-04-06T20:09:40.618Z","modified_by_id":"0195d26a-2323-711c-8833-9e3f99ed4f85","deleted_on":null,"deleted_by_id":null,"tenant_id":"00000000-0000-0000-0000-000000000000","account_id":"0195d26b-5331-711c-8834-39e9ecc3f5c1","profile_id":"0195d26a-45cb-711c-8833-b628ce71be8a","cba_id":"4268","currency":"NGN","amount":"10.00","balance_after":null,"reference":"TRCEUA1MOS4H","processor_reference":null,"processor_status":null,"processor_message":null,"status":"success","entry_type":"debit","narration":"Sodiq","transaction_date":"2025-04-06T20:09:39.238Z","transaction_type":"fee","processor":"cba","reviewed_on":null,"reviewed_by":null,"batch_id":null,"schedule_id":null,"account":{"id":"0195d26b-5331-711c-8834-39e9ecc3f5c1","meta":null,"created_on":"2025-03-26T12:26:43.889Z","created_by_id":"0195d26a-2323-711c-8833-9e3f99ed4f85","modified_on":"2025-04-06T20:09:41.713Z","modified_by_id":"0195d26a-2323-711c-8833-9e3f99ed4f85","deleted_on":null,"deleted_by_id":null,"tenant_id":"00000000-0000-0000-0000-000000000000","name":"IBRAHIM AZEEZ","type":"account","cba_id":"9058893837","status":"active","profile_id":"0195d26a-45cb-711c-8833-b628ce71be8a","account_number":"9058893837","bank_id":"0193324f-cad0-7f86-923b-43fb21ac5b29","ledger_balance":"998496.32","hold_balance":"0.00","available_balance":"998496.32","currency":"NGN","restricted":false},"transfer":null,"disputes":[],"batch":null,"transfer_beneficiary":null,"bill_payment_beneficiary":null},{"id":"01960cb9-1777-7993-88eb-966f189c3fb5","meta":null,"created_on":"2025-04-06T20:09:38.891Z","created_by_id":"0195d26a-2323-711c-8833-9e3f99ed4f85","modified_on":"2025-04-06T20:09:40.517Z","modified_by_id":"0195d26a-2323-711c-8833-9e3f99ed4f85","deleted_on":null,"deleted_by_id":null,"tenant_id":"00000000-0000-0000-0000-000000000000","account_id":"0195d26b-5331-711c-8834-39e9ecc3f5c1","profile_id":"0195d26a-45cb-711c-8833-b628ce71be8a","cba_id":"4267","currency":"NGN","amount":"10.00","balance_after":null,"reference":"TRCEUA1MOS4H","processor_reference":"MOCK_SESSION_ID_67890","processor_status":"success","processor_message":"Transfer Successful","status":"success","entry_type":"debit","narration":"Sodiq","transaction_date":"2025-04-06T20:09:38.934Z","transaction_type":"transfer","processor":"nip","reviewed_on":null,"reviewed_by":null,"batch_id":"01960cb9-174b-7993-88eb-8193ec0a1831","schedule_id":null,"account":{"id":"0195d26b-5331-711c-8834-39e9ecc3f5c1","meta":null,"created_on":"2025-03-26T12:26:43.889Z","created_by_id":"0195d26a-2323-711c-8833-9e3f99ed4f85","modified_on":"2025-04-06T20:09:41.713Z","modified_by_id":"0195d26a-2323-711c-8833-9e3f99ed4f85","deleted_on":null,"deleted_by_id":null,"tenant_id":"00000000-0000-0000-0000-000000000000","name":"IBRAHIM AZEEZ","type":"account","cba_id":"9058893837","status":"active","profile_id":"0195d26a-45cb-711c-8833-b628ce71be8a","account_number":"9058893837","bank_id":"0193324f-cad0-7f86-923b-43fb21ac5b29","ledger_balance":"998496.32","hold_balance":"0.00","available_balance":"998496.32","currency":"NGN","restricted":false},"transfer":{"id":"01960cb9-1779-7993-88eb-a116e1bed22f","meta":null,"created_on":"2025-04-06T20:09:38.891Z","created_by_id":"0195d26a-2323-711c-8833-9e3f99ed4f85","modified_on":"2025-04-06T20:09:38.891Z","modified_by_id":null,"deleted_on":null,"deleted_by_id":null,"tenant_id":"00000000-0000-0000-0000-000000000000","bank_code":"999998","bank_name":"vee test","bank_logo":"https://lendstack-s3.s3.us-east-2.amazonaws.com/bank_logos/035.png","account_name":"John Doe","account_number":"1780004070","profile_id":"0195d26a-45cb-711c-8833-b628ce71be8a","transaction_id":"01960cb9-1777-7993-88eb-966f189c3fb5","account_id":"0195d26b-5331-711c-8834-39e9ecc3f5c1"},"disputes":[],"batch":{"id":"01960cb9-174b-7993-88eb-8193ec0a1831","meta":null,"created_on":"2025-04-06T20:09:38.891Z","created_by_id":"0195d26a-2323-711c-8833-9e3f99ed4f85","modified_on":"2025-04-06T20:09:38.891Z","modified_by_id":null,"deleted_on":null,"deleted_by_id":null,"tenant_id":"00000000-0000-0000-0000-000000000000","status":"approved","name":null},"transfer_beneficiary":null,"bill_payment_beneficiary":null},{"id":"01960cb9-1765-7993-88eb-8a94b4d5cbc8","meta":null,"created_on":"2025-04-06T20:09:38.891Z","created_by_id":"0195d26a-2323-711c-8833-9e3f99ed4f85","modified_on":"2025-04-06T20:09:41.427Z","modified_by_id":"0195d26a-2323-711c-8833-9e3f99ed4f85","deleted_on":null,"deleted_by_id":null,"tenant_id":"00000000-0000-0000-0000-000000000000","account_id":"0195d26b-5331-711c-8834-39e9ecc3f5c1","profile_id":"0195d26a-45cb-711c-8833-b628ce71be8a","cba_id":"4269","currency":"NGN","amount":"10.00","balance_after":null,"reference":"TCL1GHA5N764","processor_reference":"MOCK_SESSION_ID_67890","processor_status":"success","processor_message":"Transfer Successful","status":"success","entry_type":"debit","narration":"Sodiq","transaction_date":"2025-04-06T20:09:38.916Z","transaction_type":"transfer","processor":"nip","reviewed_on":null,"reviewed_by":null,"batch_id":"01960cb9-174b-7993-88eb-8193ec0a1831","schedule_id":null,"account":{"id":"0195d26b-5331-711c-8834-39e9ecc3f5c1","meta":null,"created_on":"2025-03-26T12:26:43.889Z","created_by_id":"0195d26a-2323-711c-8833-9e3f99ed4f85","modified_on":"2025-04-06T20:09:41.713Z","modified_by_id":"0195d26a-2323-711c-8833-9e3f99ed4f85","deleted_on":null,"deleted_by_id":null,"tenant_id":"00000000-0000-0000-0000-000000000000","name":"IBRAHIM AZEEZ","type":"account","cba_id":"9058893837","status":"active","profile_id":"0195d26a-45cb-711c-8833-b628ce71be8a","account_number":"9058893837","bank_id":"0193324f-cad0-7f86-923b-43fb21ac5b29","ledger_balance":"998496.32","hold_balance":"0.00","available_balance":"998496.32","currency":"NGN","restricted":false},"transfer":{"id":"01960cb9-1779-7993-88eb-9daa373ff7ed","meta":null,"created_on":"2025-04-06T20:09:38.891Z","created_by_id":"0195d26a-2323-711c-8833-9e3f99ed4f85","modified_on":"2025-04-06T20:09:38.891Z","modified_by_id":null,"deleted_on":null,"deleted_by_id":null,"tenant_id":"00000000-0000-0000-0000-000000000000","bank_code":"999998","bank_name":"vee test","bank_logo":"https://lendstack-s3.s3.us-east-2.amazonaws.com/bank_logos/035.png","account_name":"John Doe","account_number":"1780004070","profile_id":"0195d26a-45cb-711c-8833-b628ce71be8a","transaction_id":"01960cb9-1765-7993-88eb-8a94b4d5cbc8","account_id":"0195d26b-5331-711c-8834-39e9ecc3f5c1"},"disputes":[],"batch":{"id":"01960cb9-174b-7993-88eb-8193ec0a1831","meta":null,"created_on":"2025-04-06T20:09:38.891Z","created_by_id":"0195d26a-2323-711c-8833-9e3f99ed4f85","modified_on":"2025-04-06T20:09:38.891Z","modified_by_id":null,"deleted_on":null,"deleted_by_id":null,"tenant_id":"00000000-0000-0000-0000-000000000000","status":"approved","name":null},"transfer_beneficiary":null,"bill_payment_beneficiary":null},{"id":"01960cb9-0e69-7993-88eb-77eefa639f46","meta":null,"created_on":"2025-04-06T20:09:36.617Z","created_by_id":"0195d26a-2323-711c-8833-9e3f99ed4f85","modified_on":"2025-04-06T20:09:37.517Z","modified_by_id":"0195d26a-2323-711c-8833-9e3f99ed4f85","deleted_on":null,"deleted_by_id":null,"tenant_id":"00000000-0000-0000-0000-000000000000","account_id":"0195d26b-5331-711c-8834-39e9ecc3f5c1","profile_id":"0195d26a-45cb-711c-8833-b628ce71be8a","cba_id":"4266","currency":"NGN","amount":"10.00","balance_after":null,"reference":"TVB9HT60AVKG","processor_reference":null,"processor_status":null,"processor_message":null,"status":"success","entry_type":"debit","narration":"Sodiq","transaction_date":"2025-04-06T20:09:36.616Z","transaction_type":"fee","processor":"cba","reviewed_on":null,"reviewed_by":null,"batch_id":null,"schedule_id":null,"account":{"id":"0195d26b-5331-711c-8834-39e9ecc3f5c1","meta":null,"created_on":"2025-03-26T12:26:43.889Z","created_by_id":"0195d26a-2323-711c-8833-9e3f99ed4f85","modified_on":"2025-04-06T20:09:41.713Z","modified_by_id":"0195d26a-2323-711c-8833-9e3f99ed4f85","deleted_on":null,"deleted_by_id":null,"tenant_id":"00000000-0000-0000-0000-000000000000","name":"IBRAHIM AZEEZ","type":"account","cba_id":"9058893837","status":"active","profile_id":"0195d26a-45cb-711c-8833-b628ce71be8a","account_number":"9058893837","bank_id":"0193324f-cad0-7f86-923b-43fb21ac5b29","ledger_balance":"998496.32","hold_balance":"0.00","available_balance":"998496.32","currency":"NGN","restricted":false},"transfer":null,"disputes":[],"batch":null,"transfer_beneficiary":null,"bill_payment_beneficiary":null},{"id":"01960cb9-0e03-7993-88eb-654e4e0c8390","meta":null,"created_on":"2025-04-06T20:09:36.515Z","created_by_id":"0195d26a-2323-711c-8833-9e3f99ed4f85","modified_on":"2025-04-06T20:09:37.314Z","modified_by_id":"0195d26a-2323-711c-8833-9e3f99ed4f85","deleted_on":null,"deleted_by_id":null,"tenant_id":"00000000-0000-0000-0000-000000000000","account_id":"0195d26b-5331-711c-8834-39e9ecc3f5c1","profile_id":"0195d26a-45cb-711c-8833-b628ce71be8a","cba_id":"4265","currency":"NGN","amount":"100.23","balance_after":null,"reference":"TVB9HT60AVKG","processor_reference":"MOCK_SESSION_ID_67890","processor_status":"success","processor_message":"Transfer Successful","status":"success","entry_type":"debit","narration":"Sodiq","transaction_date":"2025-04-06T20:09:36.514Z","transaction_type":"transfer","processor":"nip","reviewed_on":null,"reviewed_by":null,"batch_id":null,"schedule_id":null,"account":{"id":"0195d26b-5331-711c-8834-39e9ecc3f5c1","meta":null,"created_on":"2025-03-26T12:26:43.889Z","created_by_id":"0195d26a-2323-711c-8833-9e3f99ed4f85","modified_on":"2025-04-06T20:09:41.713Z","modified_by_id":"0195d26a-2323-711c-8833-9e3f99ed4f85","deleted_on":null,"deleted_by_id":null,"tenant_id":"00000000-0000-0000-0000-000000000000","name":"IBRAHIM AZEEZ","type":"account","cba_id":"9058893837","status":"active","profile_id":"0195d26a-45cb-711c-8833-b628ce71be8a","account_number":"9058893837","bank_id":"0193324f-cad0-7f86-923b-43fb21ac5b29","ledger_balance":"998496.32","hold_balance":"0.00","available_balance":"998496.32","currency":"NGN","restricted":false},"transfer":{"id":"01960cb9-0e11-7993-88eb-6bc2e5355001","meta":null,"created_on":"2025-04-06T20:09:36.515Z","created_by_id":"0195d26a-2323-711c-8833-9e3f99ed4f85","modified_on":"2025-04-06T20:09:36.515Z","modified_by_id":null,"deleted_on":null,"deleted_by_id":null,"tenant_id":"00000000-0000-0000-0000-000000000000","bank_code":"000014","bank_name":"Access Bank","bank_logo":"https://lendstack-s3.s3.us-east-2.amazonaws.com/bank_logos/044.png","account_name":"John Doe","account_number":"1780004070","profile_id":"0195d26a-45cb-711c-8833-b628ce71be8a","transaction_id":"01960cb9-0e03-7993-88eb-654e4e0c8390","account_id":"0195d26b-5331-711c-8834-39e9ecc3f5c1"},"disputes":[],"batch":null,"transfer_beneficiary":null,"bill_payment_beneficiary":null},{"id":"01960c8d-2291-711d-92e4-020dd8660a33","meta":null,"created_on":"2025-04-06T19:21:38.222Z","created_by_id":"0195d26a-2323-711c-8833-9e3f99ed4f85","modified_on":"2025-04-06T19:21:43.395Z","modified_by_id":"0195d26a-2323-711c-8833-9e3f99ed4f85","deleted_on":null,"deleted_by_id":null,"tenant_id":"00000000-0000-0000-0000-000000000000","account_id":"0195d26b-5331-711c-8834-39e9ecc3f5c1","profile_id":"0195d26a-45cb-711c-8833-b628ce71be8a","cba_id":"4260","currency":"NGN","amount":"10.00","balance_after":null,"reference":"TQ750TQS5DYZ","processor_reference":null,"processor_status":null,"processor_message":null,"status":"success","entry_type":"debit","narration":"Sodiq","transaction_date":"2025-04-06T19:21:38.103Z","transaction_type":"fee","processor":"cba","reviewed_on":null,"reviewed_by":null,"batch_id":null,"schedule_id":null,"account":{"id":"0195d26b-5331-711c-8834-39e9ecc3f5c1","meta":null,"created_on":"2025-03-26T12:26:43.889Z","created_by_id":"0195d26a-2323-711c-8833-9e3f99ed4f85","modified_on":"2025-04-06T20:09:41.713Z","modified_by_id":"0195d26a-2323-711c-8833-9e3f99ed4f85","deleted_on":null,"deleted_by_id":null,"tenant_id":"00000000-0000-0000-0000-000000000000","name":"IBRAHIM AZEEZ","type":"account","cba_id":"9058893837","status":"active","profile_id":"0195d26a-45cb-711c-8833-b628ce71be8a","account_number":"9058893837","bank_id":"0193324f-cad0-7f86-923b-43fb21ac5b29","ledger_balance":"998496.32","hold_balance":"0.00","available_balance":"998496.32","currency":"NGN","restricted":false},"transfer":null,"disputes":[],"batch":null,"transfer_beneficiary":null,"bill_payment_beneficiary":null},{"id":"01960c8d-21d2-711d-92e3-f8d18dfd85fe","meta":null,"created_on":"2025-04-06T19:21:38.029Z","created_by_id":"0195d26a-2323-711c-8833-9e3f99ed4f85","modified_on":"2025-04-06T19:21:41.122Z","modified_by_id":"0195d26a-2323-711c-8833-9e3f99ed4f85","deleted_on":null,"deleted_by_id":null,"tenant_id":"00000000-0000-0000-0000-000000000000","account_id":"0195d26b-5331-711c-8834-39e9ecc3f5c1","profile_id":"0195d26a-45cb-711c-8833-b628ce71be8a","cba_id":"4256","currency":"NGN","amount":"10.00","balance_after":null,"reference":"TQIDYZI09O65","processor_reference":null,"processor_status":null,"processor_message":null,"status":"success","entry_type":"debit","narration":"Sodiq","transaction_date":"2025-04-06T19:21:37.910Z","transaction_type":"fee","processor":"cba","reviewed_on":null,"reviewed_by":null,"batch_id":null,"schedule_id":null,"account":{"id":"0195d26b-5331-711c-8834-39e9ecc3f5c1","meta":null,"created_on":"2025-03-26T12:26:43.889Z","created_by_id":"0195d26a-2323-711c-8833-9e3f99ed4f85","modified_on":"2025-04-06T20:09:41.713Z","modified_by_id":"0195d26a-2323-711c-8833-9e3f99ed4f85","deleted_on":null,"deleted_by_id":null,"tenant_id":"00000000-0000-0000-0000-000000000000","name":"IBRAHIM AZEEZ","type":"account","cba_id":"9058893837","status":"active","profile_id":"0195d26a-45cb-711c-8833-b628ce71be8a","account_number":"9058893837","bank_id":"0193324f-cad0-7f86-923b-43fb21ac5b29","ledger_balance":"998496.32","hold_balance":"0.00","available_balance":"998496.32","currency":"NGN","restricted":false},"transfer":null,"disputes":[],"batch":null,"transfer_beneficiary":null,"bill_payment_beneficiary":null},{"id":"01960c8d-1ee0-711d-92e3-d779e52b4cb8","meta":null,"created_on":"2025-04-06T19:21:37.277Z","created_by_id":"0195d26a-2323-711c-8833-9e3f99ed4f85","modified_on":"2025-04-06T19:21:42.010Z","modified_by_id":"0195d26a-2323-711c-8833-9e3f99ed4f85","deleted_on":null,"deleted_by_id":null,"tenant_id":"00000000-0000-0000-0000-000000000000","account_id":"0195d26b-5331-711c-8834-39e9ecc3f5c1","profile_id":"0195d26a-45cb-711c-8833-b628ce71be8a","cba_id":"4258","currency":"NGN","amount":"10.00","balance_after":null,"reference":"TAGST3P3O397","processor_reference":null,"processor_status":null,"processor_message":null,"status":"success","entry_type":"debit","narration":"Sodiq","transaction_date":"2025-04-06T19:21:37.158Z","transaction_type":"fee","processor":"cba","reviewed_on":null,"reviewed_by":null,"batch_id":null,"schedule_id":null,"account":{"id":"0195d26b-5331-711c-8834-39e9ecc3f5c1","meta":null,"created_on":"2025-03-26T12:26:43.889Z","created_by_id":"0195d26a-2323-711c-8833-9e3f99ed4f85","modified_on":"2025-04-06T20:09:41.713Z","modified_by_id":"0195d26a-2323-711c-8833-9e3f99ed4f85","deleted_on":null,"deleted_by_id":null,"tenant_id":"00000000-0000-0000-0000-000000000000","name":"IBRAHIM AZEEZ","type":"account","cba_id":"9058893837","status":"active","profile_id":"0195d26a-45cb-711c-8833-b628ce71be8a","account_number":"9058893837","bank_id":"0193324f-cad0-7f86-923b-43fb21ac5b29","ledger_balance":"998496.32","hold_balance":"0.00","available_balance":"998496.32","currency":"NGN","restricted":false},"transfer":null,"disputes":[],"batch":null,"transfer_beneficiary":null,"bill_payment_beneficiary":null},{"id":"01960c8d-1e75-711d-92e3-cc1459ec523a","meta":null,"created_on":"2025-04-06T19:21:37.170Z","created_by_id":"0195d26a-2323-711c-8833-9e3f99ed4f85","modified_on":"2025-04-06T19:21:41.734Z","modified_by_id":"0195d26a-2323-711c-8833-9e3f99ed4f85","deleted_on":null,"deleted_by_id":null,"tenant_id":"00000000-0000-0000-0000-000000000000","account_id":"0195d26b-5331-711c-8834-39e9ecc3f5c1","profile_id":"0195d26a-45cb-711c-8833-b628ce71be8a","cba_id":"4257","currency":"NGN","amount":"10.00","balance_after":null,"reference":"TELG0A1AL8RV","processor_reference":null,"processor_status":null,"processor_message":null,"status":"success","entry_type":"debit","narration":"Sodiq","transaction_date":"2025-04-06T19:21:37.051Z","transaction_type":"fee","processor":"cba","reviewed_on":null,"reviewed_by":null,"batch_id":null,"schedule_id":null,"account":{"id":"0195d26b-5331-711c-8834-39e9ecc3f5c1","meta":null,"created_on":"2025-03-26T12:26:43.889Z","created_by_id":"0195d26a-2323-711c-8833-9e3f99ed4f85","modified_on":"2025-04-06T20:09:41.713Z","modified_by_id":"0195d26a-2323-711c-8833-9e3f99ed4f85","deleted_on":null,"deleted_by_id":null,"tenant_id":"00000000-0000-0000-0000-000000000000","name":"IBRAHIM AZEEZ","type":"account","cba_id":"9058893837","status":"active","profile_id":"0195d26a-45cb-711c-8833-b628ce71be8a","account_number":"9058893837","bank_id":"0193324f-cad0-7f86-923b-43fb21ac5b29","ledger_balance":"998496.32","hold_balance":"0.00","available_balance":"998496.32","currency":"NGN","restricted":false},"transfer":null,"disputes":[],"batch":null,"transfer_beneficiary":null,"bill_payment_beneficiary":null}],"meta":{"page":1,"total_pages":7,"total_items":64}}