{"status":"success","data":[{"id":"01965418-aceb-722d-adef-c19e378930ed","meta":null,"created_on":"2025-04-20T16:47:05.450Z","created_by_id":"0193d109-a926-7446-abe5-7dafe8b742bd","modified_on":"2025-04-20T16:47:05.450Z","modified_by_id":null,"deleted_on":null,"deleted_by_id":null,"tenant_id":"00000000-0000-0000-0000-000000000000","email":"test1@gmail.com","status":"pending","first_name":null,"last_name":null,"twofa_enabled":false,"last_active":"2025-04-20T16:47:05.450Z","last_login":null,"last_ip":null,"allowed_ips":null,"last_timezone":null,"last_location":null,"role_id":"019653cc-fe3c-722d-aded-c3098e2ba28b","role":{"id":"019653cc-fe3c-722d-aded-c3098e2ba28b","meta":null,"created_on":"2025-04-20T15:24:25.532Z","created_by_id":"0193d109-a926-7446-abe5-7dafe8b742bd","modified_on":"2025-04-20T15:24:25.532Z","modified_by_id":null,"deleted_on":null,"deleted_by_id":null,"name":"new","slug":"new","description":"Flat fee for transfers between 5000 and 10000","status":"active","tenant_id":"00000000-0000-0000-0000-000000000000"},"has_pin":false,"has_password":false},{"id":"01965402-b976-722d-adef-b6a2ae567ba4","meta":null,"created_on":"2025-04-20T16:23:06.870Z","created_by_id":"0193d109-a926-7446-abe5-7dafe8b742bd","modified_on":"2025-04-20T16:23:06.870Z","modified_by_id":null,"deleted_on":null,"deleted_by_id":null,"tenant_id":"00000000-0000-0000-0000-000000000000","email":"SODIQ@gmail.com","status":"pending","first_name":null,"last_name":null,"twofa_enabled":false,"last_active":"2025-04-20T16:23:06.870Z","last_login":null,"last_ip":null,"allowed_ips":null,"last_timezone":null,"last_location":null,"role_id":"019565fb-39d9-7aa8-9c09-58b126e99bf3","role":{"id":"019565fb-39d9-7aa8-9c09-58b126e99bf3","meta":null,"created_on":"2025-03-05T11:05:18.040Z","created_by_id":"01927265-4ed2-79cc-a0e6-e11339a359f3","modified_on":"2025-04-20T15:12:28.752Z","modified_by_id":"0193d109-a926-7446-abe5-7dafe8b742bd","deleted_on":null,"deleted_by_id":null,"name":"Everything","slug":"everything","description":"Everything","status":"active","tenant_id":"00000000-0000-0000-0000-000000000000"},"has_pin":false,"has_password":false},{"id":"019653af-22a6-722d-aded-69e6e8582047","meta":null,"created_on":"2025-04-20T14:51:48.774Z","created_by_id":"0193d109-a926-7446-abe5-7dafe8b742bd","modified_on":"2025-04-20T14:51:48.774Z","modified_by_id":null,"deleted_on":null,"deleted_by_id":null,"tenant_id":"00000000-0000-0000-0000-000000000000","email":"admin@yopmail.com","status":"pending","first_name":null,"last_name":null,"twofa_enabled":false,"last_active":"2025-04-20T14:51:48.774Z","last_login":null,"last_ip":null,"allowed_ips":null,"last_timezone":null,"last_location":null,"role_id":"01945e29-8557-7554-9590-e06ac19e57f7","role":{"id":"01945e29-8557-7554-9590-e06ac19e57f7","meta":null,"created_on":"2025-01-13T05:36:06.999Z","created_by_id":null,"modified_on":"2025-01-13T05:36:06.999Z","modified_by_id":null,"deleted_on":null,"deleted_by_id":null,"name":"Islands","slug":"islands","description":"black","status":"active","tenant_id":"00000000-0000-0000-0000-000000000000"},"has_pin":false,"has_password":false},{"id":"019653ab-6ee0-722d-aded-5102cf7c536e","meta":null,"created_on":"2025-04-20T14:47:46.144Z","created_by_id":"0193d109-a926-7446-abe5-7dafe8b742bd","modified_on":"2025-04-20T14:50:39.114Z","modified_by_id":"0193d109-a926-7446-abe5-7dafe8b742bd","deleted_on":null,"deleted_by_id":null,"tenant_id":"00000000-0000-0000-0000-000000000000","email":"tes33t@gmail.com","status":"pending","first_name":null,"last_name":null,"twofa_enabled":false,"last_active":"2025-04-20T14:47:46.144Z","last_login":null,"last_ip":null,"allowed_ips":null,"last_timezone":null,"last_location":null,"role_id":"0194b895-df4d-7bb8-88eb-a501c0ae8f1d","role":{"id":"0194b895-df4d-7bb8-88eb-a501c0ae8f1d","meta":null,"created_on":"2025-01-30T19:00:17.357Z","created_by_id":"01927265-4ed2-79cc-a0e6-e11339a359f3","modified_on":"2025-04-22T12:21:43.395Z","modified_by_id":"01927265-4ed2-79cc-a0e6-e11339a359f3","deleted_on":null,"deleted_by_id":null,"name":"RAM","slug":"ram","description":"Hat","status":"inactive","tenant_id":"00000000-0000-0000-0000-000000000000"},"has_pin":false,"has_password":false},{"id":"019653a8-57f2-722d-aded-40f2678495f9","meta":null,"created_on":"2025-04-20T14:44:23.666Z","created_by_id":"0193d109-a926-7446-abe5-7dafe8b742bd","modified_on":"2025-04-20T14:44:23.666Z","modified_by_id":null,"deleted_on":null,"deleted_by_id":null,"tenant_id":"00000000-0000-0000-0000-000000000000","email":"destinyerhabor6+test@gmail.com","status":"pending","first_name":null,"last_name":null,"twofa_enabled":false,"last_active":"2025-04-20T14:44:23.666Z","last_login":null,"last_ip":null,"allowed_ips":null,"last_timezone":null,"last_location":null,"role_id":"0194b895-df4d-7bb8-88eb-a501c0ae8f1d","role":{"id":"0194b895-df4d-7bb8-88eb-a501c0ae8f1d","meta":null,"created_on":"2025-01-30T19:00:17.357Z","created_by_id":"01927265-4ed2-79cc-a0e6-e11339a359f3","modified_on":"2025-04-22T12:21:43.395Z","modified_by_id":"01927265-4ed2-79cc-a0e6-e11339a359f3","deleted_on":null,"deleted_by_id":null,"name":"RAM","slug":"ram","description":"Hat","status":"inactive","tenant_id":"00000000-0000-0000-0000-000000000000"},"has_pin":false,"has_password":false},{"id":"01964e9d-e927-722d-ade7-7c9615b30a7f","meta":null,"created_on":"2025-04-19T15:14:53.862Z","created_by_id":"0192cc0f-bd83-700c-a5b9-691965d489a3","modified_on":"2025-04-19T15:14:53.862Z","modified_by_id":null,"deleted_on":null,"deleted_by_id":null,"tenant_id":"00000000-0000-0000-0000-000000000000","email":"tri@meal.com","status":"pending","first_name":null,"last_name":null,"twofa_enabled":false,"last_active":"2025-04-19T15:14:53.862Z","last_login":null,"last_ip":null,"allowed_ips":null,"last_timezone":null,"last_location":null,"role_id":"019565fb-39d9-7aa8-9c09-58b126e99bf3","role":{"id":"019565fb-39d9-7aa8-9c09-58b126e99bf3","meta":null,"created_on":"2025-03-05T11:05:18.040Z","created_by_id":"01927265-4ed2-79cc-a0e6-e11339a359f3","modified_on":"2025-04-20T15:12:28.752Z","modified_by_id":"0193d109-a926-7446-abe5-7dafe8b742bd","deleted_on":null,"deleted_by_id":null,"name":"Everything","slug":"everything","description":"Everything","status":"active","tenant_id":"00000000-0000-0000-0000-000000000000"},"has_pin":false,"has_password":false},{"id":"01961014-845d-7667-b562-4c5dbfff8eb5","meta":null,"created_on":"2025-04-07T11:48:22.238Z","created_by_id":"01927265-4ed2-79cc-a0e6-e11339a359f3","modified_on":"2025-04-07T11:48:22.238Z","modified_by_id":null,"deleted_on":null,"deleted_by_id":null,"tenant_id":"00000000-0000-0000-0000-000000000000","email":"Adeyy@yopmail.com","status":"pending","first_name":null,"last_name":null,"twofa_enabled":false,"last_active":"2025-04-07T11:48:22.238Z","last_login":null,"last_ip":null,"allowed_ips":null,"last_timezone":null,"last_location":null,"role_id":"019565fb-39d9-7aa8-9c09-58b126e99bf3","role":{"id":"019565fb-39d9-7aa8-9c09-58b126e99bf3","meta":null,"created_on":"2025-03-05T11:05:18.040Z","created_by_id":"01927265-4ed2-79cc-a0e6-e11339a359f3","modified_on":"2025-04-20T15:12:28.752Z","modified_by_id":"0193d109-a926-7446-abe5-7dafe8b742bd","deleted_on":null,"deleted_by_id":null,"name":"Everything","slug":"everything","description":"Everything","status":"active","tenant_id":"00000000-0000-0000-0000-000000000000"},"has_pin":false,"has_password":false},{"id":"0195c931-4d48-788a-b417-a8306ac5bfb6","meta":null,"created_on":"2025-03-24T17:26:46.343Z","created_by_id":"0192cc0f-bd83-700c-a5b9-691965d489a3","modified_on":"2025-04-19T15:20:18.488Z","modified_by_id":"0192cc0f-bd83-700c-a5b9-691965d489a3","deleted_on":null,"deleted_by_id":null,"tenant_id":"00000000-0000-0000-0000-000000000000","email":"misan@assurdly.com","status":"inactive","first_name":"Oritsemisan","last_name":"Makpokpomi","twofa_enabled":false,"last_active":"2025-03-27T20:05:50.185Z","last_login":null,"last_ip":"172.70.91.163","allowed_ips":null,"last_timezone":"Europe/London","last_location":null,"role_id":"019565fb-39d9-7aa8-9c09-58b126e99bf3","role":{"id":"019565fb-39d9-7aa8-9c09-58b126e99bf3","meta":null,"created_on":"2025-03-05T11:05:18.040Z","created_by_id":"01927265-4ed2-79cc-a0e6-e11339a359f3","modified_on":"2025-04-20T15:12:28.752Z","modified_by_id":"0193d109-a926-7446-abe5-7dafe8b742bd","deleted_on":null,"deleted_by_id":null,"name":"Everything","slug":"everything","description":"Everything","status":"active","tenant_id":"00000000-0000-0000-0000-000000000000"},"has_pin":false,"has_password":false},{"id":"0195adef-dd3e-7ccb-ba8e-6f2029620128","meta":null,"created_on":"2025-03-19T10:25:32.989Z","created_by_id":"01927265-4ed2-79cc-a0e6-e11339a359f3","modified_on":"2025-03-19T10:25:32.989Z","modified_by_id":null,"deleted_on":null,"deleted_by_id":null,"tenant_id":"00000000-0000-0000-0000-000000000000","email":"chris@yopmail.com","status":"pending","first_name":null,"last_name":null,"twofa_enabled":false,"last_active":"2025-03-19T10:25:32.989Z","last_login":null,"last_ip":null,"allowed_ips":null,"last_timezone":null,"last_location":null,"role_id":"019565fb-39d9-7aa8-9c09-58b126e99bf3","role":{"id":"019565fb-39d9-7aa8-9c09-58b126e99bf3","meta":null,"created_on":"2025-03-05T11:05:18.040Z","created_by_id":"01927265-4ed2-79cc-a0e6-e11339a359f3","modified_on":"2025-04-20T15:12:28.752Z","modified_by_id":"0193d109-a926-7446-abe5-7dafe8b742bd","deleted_on":null,"deleted_by_id":null,"name":"Everything","slug":"everything","description":"Everything","status":"active","tenant_id":"00000000-0000-0000-0000-000000000000"},"has_pin":false,"has_password":false},{"id":"0195708b-4335-711a-acaa-0ea3b8ce50c8","meta":null,"created_on":"2025-03-07T12:18:49.780Z","created_by_id":"01927265-4ed2-79cc-a0e6-e11339a359f3","modified_on":"2025-03-12T17:37:44.789Z","modified_by_id":null,"deleted_on":null,"deleted_by_id":null,"tenant_id":"00000000-0000-0000-0000-000000000000","email":"fred@yopmail.com","status":"active","first_name":"Feee","last_name":"faith","twofa_enabled":false,"last_active":"2025-03-12T20:12:06.396Z","last_login":null,"last_ip":"172.69.195.80","allowed_ips":null,"last_timezone":"Europe/London","last_location":null,"role_id":"019565fb-39d9-7aa8-9c09-58b126e99bf3","role":{"id":"019565fb-39d9-7aa8-9c09-58b126e99bf3","meta":null,"created_on":"2025-03-05T11:05:18.040Z","created_by_id":"01927265-4ed2-79cc-a0e6-e11339a359f3","modified_on":"2025-04-20T15:12:28.752Z","modified_by_id":"0193d109-a926-7446-abe5-7dafe8b742bd","deleted_on":null,"deleted_by_id":null,"name":"Everything","slug":"everything","description":"Everything","status":"active","tenant_id":"00000000-0000-0000-0000-000000000000"},"has_pin":false,"has_password":false}],"meta":{"page":1,"total_pages":8,"total_items":73}}