{"status":"success","data":[{"id":"019663f9-56ca-7eec-b094-2c0a99429418","meta":null,"created_on":"2025-04-23T18:46:47.240Z","created_by_id":"019372de-17ef-7cc2-8fc0-43fe11ba042f","modified_on":"2025-04-23T18:46:47.240Z","modified_by_id":null,"deleted_on":null,"deleted_by_id":null,"tenant_id":"00000000-0000-0000-0000-000000000000","name":"Klocko and Sons Business","type":"business","status":"active","restricted":false,"review":null,"allowed_time_periods":null,"allowed_locations":null,"primary_user_id":"019372de-17ef-7cc2-8fc0-43fe11ba042f","tier_id":null,"primary_user":{"id":"019372de-17ef-7cc2-8fc0-43fe11ba042f","meta":{},"created_on":"2024-11-28T13:02:58.029Z","created_by_id":null,"modified_on":"2025-04-23T18:47:49.556Z","modified_by_id":"019372de-17ef-7cc2-8fc0-43fe11ba042f","deleted_on":null,"deleted_by_id":null,"tenant_id":"00000000-0000-0000-0000-000000000000","email":"ismael@mailinator.com","status":"active","first_name":"Sunday","last_name":"Testing","twofa_enabled":false,"last_active":"2025-04-23T18:47:49.556Z","last_login":null,"last_ip":"20.42.51.82","allowed_ips":null,"last_timezone":"America/New_York","last_location":"Tappahannock","phone":"+2348089722636","review":null,"gender":"male","date_of_birth":null,"cba_id":"31","photo_id":null,"referral_code":"7LD1QN","referred_by":null,"has_pin":false,"has_password":false},"tier":null},{"id":"019654de-f7c9-722d-adf2-d1a0311c2983","meta":null,"created_on":"2025-04-20T20:23:40.745Z","created_by_id":"019372de-17ef-7cc2-8fc0-43fe11ba042f","modified_on":"2025-04-20T20:23:40.745Z","modified_by_id":null,"deleted_on":null,"deleted_by_id":null,"tenant_id":"00000000-0000-0000-0000-000000000000","name":"Wisoky - Kris Business","type":"business","status":"active","restricted":false,"review":null,"allowed_time_periods":null,"allowed_locations":null,"primary_user_id":"019372de-17ef-7cc2-8fc0-43fe11ba042f","tier_id":null,"primary_user":{"id":"019372de-17ef-7cc2-8fc0-43fe11ba042f","meta":{},"created_on":"2024-11-28T13:02:58.029Z","created_by_id":null,"modified_on":"2025-04-23T18:47:49.556Z","modified_by_id":"019372de-17ef-7cc2-8fc0-43fe11ba042f","deleted_on":null,"deleted_by_id":null,"tenant_id":"00000000-0000-0000-0000-000000000000","email":"ismael@mailinator.com","status":"active","first_name":"Sunday","last_name":"Testing","twofa_enabled":false,"last_active":"2025-04-23T18:47:49.556Z","last_login":null,"last_ip":"20.42.51.82","allowed_ips":null,"last_timezone":"America/New_York","last_location":"Tappahannock","phone":"+2348089722636","review":null,"gender":"male","date_of_birth":null,"cba_id":"31","photo_id":null,"referral_code":"7LD1QN","referred_by":null,"has_pin":false,"has_password":false},"tier":null},{"id":"01964a38-f604-722d-addf-ca789bd6838c","meta":null,"created_on":"2025-04-18T18:46:09.154Z","created_by_id":"019372de-17ef-7cc2-8fc0-43fe11ba042f","modified_on":"2025-04-18T18:46:09.154Z","modified_by_id":null,"deleted_on":null,"deleted_by_id":null,"tenant_id":"00000000-0000-0000-0000-000000000000","name":"Heaney Group Business","type":"business","status":"active","restricted":false,"review":null,"allowed_time_periods":null,"allowed_locations":null,"primary_user_id":"019372de-17ef-7cc2-8fc0-43fe11ba042f","tier_id":null,"primary_user":{"id":"019372de-17ef-7cc2-8fc0-43fe11ba042f","meta":{},"created_on":"2024-11-28T13:02:58.029Z","created_by_id":null,"modified_on":"2025-04-23T18:47:49.556Z","modified_by_id":"019372de-17ef-7cc2-8fc0-43fe11ba042f","deleted_on":null,"deleted_by_id":null,"tenant_id":"00000000-0000-0000-0000-000000000000","email":"ismael@mailinator.com","status":"active","first_name":"Sunday","last_name":"Testing","twofa_enabled":false,"last_active":"2025-04-23T18:47:49.556Z","last_login":null,"last_ip":"20.42.51.82","allowed_ips":null,"last_timezone":"America/New_York","last_location":"Tappahannock","phone":"+2348089722636","review":null,"gender":"male","date_of_birth":null,"cba_id":"31","photo_id":null,"referral_code":"7LD1QN","referred_by":null,"has_pin":false,"has_password":false},"tier":null},{"id":"01963feb-a4c3-7003-bb75-2531540722e6","meta":null,"created_on":"2025-04-16T18:45:29.923Z","created_by_id":"019372de-17ef-7cc2-8fc0-43fe11ba042f","modified_on":"2025-04-16T18:45:29.923Z","modified_by_id":null,"deleted_on":null,"deleted_by_id":null,"tenant_id":"00000000-0000-0000-0000-000000000000","name":"Connelly, Stracke and Collins Business","type":"business","status":"active","restricted":false,"review":null,"allowed_time_periods":null,"allowed_locations":null,"primary_user_id":"019372de-17ef-7cc2-8fc0-43fe11ba042f","tier_id":null,"primary_user":{"id":"019372de-17ef-7cc2-8fc0-43fe11ba042f","meta":{},"created_on":"2024-11-28T13:02:58.029Z","created_by_id":null,"modified_on":"2025-04-23T18:47:49.556Z","modified_by_id":"019372de-17ef-7cc2-8fc0-43fe11ba042f","deleted_on":null,"deleted_by_id":null,"tenant_id":"00000000-0000-0000-0000-000000000000","email":"ismael@mailinator.com","status":"active","first_name":"Sunday","last_name":"Testing","twofa_enabled":false,"last_active":"2025-04-23T18:47:49.556Z","last_login":null,"last_ip":"20.42.51.82","allowed_ips":null,"last_timezone":"America/New_York","last_location":"Tappahannock","phone":"+2348089722636","review":null,"gender":"male","date_of_birth":null,"cba_id":"31","photo_id":null,"referral_code":"7LD1QN","referred_by":null,"has_pin":false,"has_password":false},"tier":null},{"id":"019631a8-4da4-7cce-84d6-00d4322c9dbb","meta":{"rc-number":"098789","business-name":"New Business","business-email":"new@business.com","business-phone":"+2349034345678","business-types":"Partnership","business-address":"Lagos"},"created_on":"2025-04-14T00:17:15.684Z","created_by_id":"01959045-934e-7ee0-bd7c-36131b927b13","modified_on":"2025-04-14T00:17:15.684Z","modified_by_id":null,"deleted_on":null,"deleted_by_id":null,"tenant_id":"00000000-0000-0000-0000-000000000000","name":"","type":"business","status":"active","restricted":false,"review":null,"allowed_time_periods":null,"allowed_locations":null,"primary_user_id":"01959045-934e-7ee0-bd7c-36131b927b13","tier_id":null,"primary_user":{"id":"01959045-934e-7ee0-bd7c-36131b927b13","meta":null,"created_on":"2025-03-13T16:10:33.676Z","created_by_id":null,"modified_on":"2025-04-14T00:17:15.676Z","modified_by_id":"01959045-934e-7ee0-bd7c-36131b927b13","deleted_on":null,"deleted_by_id":null,"tenant_id":"00000000-0000-0000-0000-000000000000","email":"ipo@mailinator.com","status":"active","first_name":"Ibrahim","last_name":"Azeez","twofa_enabled":false,"last_active":"2025-04-14T00:17:15.675Z","last_login":null,"last_ip":"41.217.94.74","allowed_ips":null,"last_timezone":"Africa/Lagos","last_location":"Lagos","phone":"+2349055757758","review":null,"gender":"male","date_of_birth":"2001-06-16","cba_id":null,"photo_id":null,"referral_code":"IJTNFX","referred_by":null,"has_pin":false,"has_password":false},"tier":null},{"id":"019631a3-cb16-7cce-84d5-b0e307a7d0c8","meta":{"rc-number":"3456787654","business-name":"New account","business-email":"new@new.com","business-phone":"+2348032453789","business-types":"Limited Liability Partnership (LLP)","business-address":"Lagos"},"created_on":"2025-04-14T00:12:20.119Z","created_by_id":"01944a80-f3cb-7881-990d-98798437f1f3","modified_on":"2025-04-14T00:12:20.119Z","modified_by_id":null,"deleted_on":null,"deleted_by_id":null,"tenant_id":"00000000-0000-0000-0000-000000000000","name":"","type":"business","status":"active","restricted":false,"review":null,"allowed_time_periods":null,"allowed_locations":null,"primary_user_id":"01944a80-f3cb-7881-990d-98798437f1f3","tier_id":null,"primary_user":{"id":"01944a80-f3cb-7881-990d-98798437f1f3","meta":null,"created_on":"2025-01-09T09:59:12.588Z","created_by_id":null,"modified_on":"2025-04-14T13:45:52.772Z","modified_by_id":"01944a80-f3cb-7881-990d-98798437f1f3","deleted_on":null,"deleted_by_id":null,"tenant_id":"00000000-0000-0000-0000-000000000000","email":"calista@mailinator.com","status":"active","first_name":"Haven","last_name":"Mitchell","twofa_enabled":false,"last_active":"2025-04-14T13:45:52.772Z","last_login":null,"last_ip":"102.89.33.72","allowed_ips":null,"last_timezone":"Africa/Lagos","last_location":"Lagos","phone":null,"review":null,"gender":null,"date_of_birth":null,"cba_id":null,"photo_id":null,"referral_code":"0YUT6L","referred_by":null,"has_pin":false,"has_password":false},"tier":null},{"id":"019631a1-c092-7cce-84d5-86af9a63b18a","meta":{"rc-number":"987656789","business-name":"Add account","business-email":"add@account.com","business-phone":"+2348134356478","business-types":"Corporation","business-address":"Lagos"},"created_on":"2025-04-14T00:10:06.354Z","created_by_id":"01944a80-f3cb-7881-990d-98798437f1f3","modified_on":"2025-04-14T00:10:06.354Z","modified_by_id":null,"deleted_on":null,"deleted_by_id":null,"tenant_id":"00000000-0000-0000-0000-000000000000","name":"","type":"business","status":"active","restricted":false,"review":null,"allowed_time_periods":null,"allowed_locations":null,"primary_user_id":"01944a80-f3cb-7881-990d-98798437f1f3","tier_id":null,"primary_user":{"id":"01944a80-f3cb-7881-990d-98798437f1f3","meta":null,"created_on":"2025-01-09T09:59:12.588Z","created_by_id":null,"modified_on":"2025-04-14T13:45:52.772Z","modified_by_id":"01944a80-f3cb-7881-990d-98798437f1f3","deleted_on":null,"deleted_by_id":null,"tenant_id":"00000000-0000-0000-0000-000000000000","email":"calista@mailinator.com","status":"active","first_name":"Haven","last_name":"Mitchell","twofa_enabled":false,"last_active":"2025-04-14T13:45:52.772Z","last_login":null,"last_ip":"102.89.33.72","allowed_ips":null,"last_timezone":"Africa/Lagos","last_location":"Lagos","phone":null,"review":null,"gender":null,"date_of_birth":null,"cba_id":null,"photo_id":null,"referral_code":"0YUT6L","referred_by":null,"has_pin":false,"has_password":false},"tier":null},{"id":"019631a0-2a74-7cce-84d5-6e705611d433","meta":{"rc-number":"87654323456","business-name":"Business Test","business-email":"test@business.com","business-phone":"+2349145647838","business-types":"Partnership","business-address":"Lagos"},"created_on":"2025-04-14T00:08:22.388Z","created_by_id":"01944a80-f3cb-7881-990d-98798437f1f3","modified_on":"2025-04-14T00:08:22.388Z","modified_by_id":null,"deleted_on":null,"deleted_by_id":null,"tenant_id":"00000000-0000-0000-0000-000000000000","name":"","type":"business","status":"active","restricted":false,"review":null,"allowed_time_periods":null,"allowed_locations":null,"primary_user_id":"01944a80-f3cb-7881-990d-98798437f1f3","tier_id":null,"primary_user":{"id":"01944a80-f3cb-7881-990d-98798437f1f3","meta":null,"created_on":"2025-01-09T09:59:12.588Z","created_by_id":null,"modified_on":"2025-04-14T13:45:52.772Z","modified_by_id":"01944a80-f3cb-7881-990d-98798437f1f3","deleted_on":null,"deleted_by_id":null,"tenant_id":"00000000-0000-0000-0000-000000000000","email":"calista@mailinator.com","status":"active","first_name":"Haven","last_name":"Mitchell","twofa_enabled":false,"last_active":"2025-04-14T13:45:52.772Z","last_login":null,"last_ip":"102.89.33.72","allowed_ips":null,"last_timezone":"Africa/Lagos","last_location":"Lagos","phone":null,"review":null,"gender":null,"date_of_birth":null,"cba_id":null,"photo_id":null,"referral_code":"0YUT6L","referred_by":null,"has_pin":false,"has_password":false},"tier":null},{"id":"0196319d-287b-7cce-84d4-dd5591e11b17","meta":{"rc-number":"087656789","business-name":"Add Test","business-email":"add@business.com","business-phone":"+2349123456789","business-types":"Limited Liability Partnership (LLP)","business-address":"Lagos"},"created_on":"2025-04-14T00:05:05.275Z","created_by_id":"0193cfd4-2de3-766c-bad1-9088f26479d9","modified_on":"2025-04-14T00:05:05.275Z","modified_by_id":null,"deleted_on":null,"deleted_by_id":null,"tenant_id":"00000000-0000-0000-0000-000000000000","name":"","type":"business","status":"active","restricted":false,"review":null,"allowed_time_periods":null,"allowed_locations":null,"primary_user_id":"0193cfd4-2de3-766c-bad1-9088f26479d9","tier_id":null,"primary_user":{"id":"0193cfd4-2de3-766c-bad1-9088f26479d9","meta":null,"created_on":"2024-12-16T14:16:49.379Z","created_by_id":null,"modified_on":"2025-04-14T00:24:03.864Z","modified_by_id":"0193cfd4-2de3-766c-bad1-9088f26479d9","deleted_on":null,"deleted_by_id":null,"tenant_id":"00000000-0000-0000-0000-000000000000","email":"amad@mailinator.com","status":"active","first_name":"Amad","last_name":"Testing","twofa_enabled":false,"last_active":"2025-04-14T00:24:03.862Z","last_login":null,"last_ip":"41.217.94.74","allowed_ips":null,"last_timezone":"Africa/Lagos","last_location":"Lagos","phone":null,"review":null,"gender":null,"date_of_birth":null,"cba_id":null,"photo_id":null,"referral_code":"WF4C8G","referred_by":null,"has_pin":false,"has_password":false},"tier":null},{"id":"0196318c-1e53-7cce-84d4-7ce6ca5dfa7d","meta":{"rc-number":"0987654345678","business-name":"Business Test","business-email":"business@account.com","business-phone":"+2349123234567","business-types":"Joint Venture","business-address":"Business"},"created_on":"2025-04-13T23:46:28.523Z","created_by_id":"0193cfd4-2de3-766c-bad1-9088f26479d9","modified_on":"2025-04-13T23:46:28.523Z","modified_by_id":null,"deleted_on":null,"deleted_by_id":null,"tenant_id":"00000000-0000-0000-0000-000000000000","name":"","type":"business","status":"active","restricted":false,"review":null,"allowed_time_periods":null,"allowed_locations":null,"primary_user_id":"0193cfd4-2de3-766c-bad1-9088f26479d9","tier_id":null,"primary_user":{"id":"0193cfd4-2de3-766c-bad1-9088f26479d9","meta":null,"created_on":"2024-12-16T14:16:49.379Z","created_by_id":null,"modified_on":"2025-04-14T00:24:03.864Z","modified_by_id":"0193cfd4-2de3-766c-bad1-9088f26479d9","deleted_on":null,"deleted_by_id":null,"tenant_id":"00000000-0000-0000-0000-000000000000","email":"amad@mailinator.com","status":"active","first_name":"Amad","last_name":"Testing","twofa_enabled":false,"last_active":"2025-04-14T00:24:03.862Z","last_login":null,"last_ip":"41.217.94.74","allowed_ips":null,"last_timezone":"Africa/Lagos","last_location":"Lagos","phone":null,"review":null,"gender":null,"date_of_birth":null,"cba_id":null,"photo_id":null,"referral_code":"WF4C8G","referred_by":null,"has_pin":false,"has_password":false},"tier":null}],"meta":{"page":1,"total_pages":22,"total_items":211}}