{"status":"success","data":[{"id":"01952904-45ef-7330-84ab-f51b9eb1cd81","meta":null,"created_on":"2025-02-21T14:58:20.783Z","created_by_id":"01927265-4ed2-79cc-a0e6-e11339a359f3","modified_on":"2025-02-21T14:58:20.783Z","modified_by_id":null,"deleted_on":null,"deleted_by_id":null,"tenant_id":"00000000-0000-0000-0000-000000000000","profile_type":"business","name":"Utility Bill","description":"Utility bill","enabled":true,"required":true,"parent_id":null},{"id":"0194b932-a1f0-7bb8-88f2-c418eac553e5","meta":null,"created_on":"2025-01-30T21:51:30.800Z","created_by_id":"01927265-4ed2-79cc-a0e6-e11339a359f3","modified_on":"2025-04-08T15:13:52.228Z","modified_by_id":"0192cc0f-bd83-700c-a5b9-691965d489a3","deleted_on":null,"deleted_by_id":null,"tenant_id":"00000000-0000-0000-0000-000000000000","profile_type":"personal","name":"f","description":"Azeez test","enabled":true,"required":false,"parent_id":null},{"id":"0194b242-d2cb-7dda-bb17-47f5578913cd","meta":null,"created_on":"2025-01-29T13:31:51.371Z","created_by_id":"01927265-4ed2-79cc-a0e6-e11339a359f3","modified_on":"2025-01-29T13:31:51.371Z","modified_by_id":null,"deleted_on":null,"deleted_by_id":null,"tenant_id":"00000000-0000-0000-0000-000000000000","profile_type":"business","name":"Jaded","description":"test","enabled":true,"required":false,"parent_id":null},{"id":"0194b242-4f97-7dda-bb17-3b514d68a034","meta":null,"created_on":"2025-01-29T13:31:17.783Z","created_by_id":"01927265-4ed2-79cc-a0e6-e11339a359f3","modified_on":"2025-01-29T13:31:17.783Z","modified_by_id":null,"deleted_on":null,"deleted_by_id":null,"tenant_id":"00000000-0000-0000-0000-000000000000","profile_type":"business","name":"Adetutu's document","description":"for test","enabled":true,"required":false,"parent_id":null},{"id":"0194a4ba-e309-7551-90bf-7cda075e0d47","meta":null,"created_on":"2025-01-26T22:28:18.825Z","created_by_id":"01927265-4ed2-79cc-a0e6-e11339a359f3","modified_on":"2025-01-26T22:28:18.825Z","modified_by_id":null,"deleted_on":null,"deleted_by_id":null,"tenant_id":"00000000-0000-0000-0000-000000000000","profile_type":"business","name":"Scuml certificate","description":"Scuml certificate","enabled":true,"required":true,"parent_id":null},{"id":"01949965-d9f7-7aab-aa65-7d5a19bff4aa","meta":null,"created_on":"2025-01-24T17:39:36.566Z","created_by_id":"01927265-4ed2-79cc-a0e6-e11339a359f3","modified_on":"2025-01-24T17:39:36.566Z","modified_by_id":null,"deleted_on":null,"deleted_by_id":null,"tenant_id":"00000000-0000-0000-0000-000000000000","profile_type":"personal","name":"Proof of address","description":"Proof of address","enabled":true,"required":true,"parent_id":null},{"id":"01945e47-9ca2-7554-9595-7f4bb59494d1","meta":null,"created_on":"2025-01-13T06:08:59.042Z","created_by_id":null,"modified_on":"2025-01-13T06:08:59.042Z","modified_by_id":null,"deleted_on":null,"deleted_by_id":null,"tenant_id":"00000000-0000-0000-0000-000000000000","profile_type":"personal","name":"u","description":"Upload a photo of your driver’s license.","enabled":true,"required":false,"parent_id":null},{"id":"01945e19-0286-7554-958d-7c183c4bb835","meta":null,"created_on":"2025-01-13T05:18:04.934Z","created_by_id":null,"modified_on":"2025-01-13T05:18:04.934Z","modified_by_id":null,"deleted_on":null,"deleted_by_id":null,"tenant_id":"00000000-0000-0000-0000-000000000000","profile_type":"personal","name":"k","description":"Upload a photo of your driver’s license.","enabled":true,"required":false,"parent_id":null},{"id":"01944c72-dd19-7887-97e7-23c82c1dd670","meta":null,"created_on":"2025-01-09T19:03:03.705Z","created_by_id":null,"modified_on":"2025-01-31T11:00:36.453Z","modified_by_id":"0192ee9f-7504-7bb3-919d-9fba49ba9e27","deleted_on":null,"deleted_by_id":null,"tenant_id":"00000000-0000-0000-0000-000000000000","profile_type":"business","name":"Test_Test_Test_Test12","description":"Test1234","enabled":false,"required":false,"parent_id":null},{"id":"01944615-3fa3-788e-b49e-1a267525f097","meta":null,"created_on":"2025-01-08T13:23:05.251Z","created_by_id":null,"modified_on":"2025-01-08T13:23:18.546Z","modified_by_id":null,"deleted_on":null,"deleted_by_id":null,"tenant_id":"00000000-0000-0000-0000-000000000000","profile_type":"business","name":"Test Doc","description":"For Testing purpose","enabled":false,"required":false,"parent_id":null}],"meta":{"page":1,"total_pages":4,"total_items":40}}