{"status":"success","data":[{"id":"019653cc-fe3c-722d-aded-c3098e2ba28b","meta":null,"created_on":"2025-04-20T15:24:25.532Z","created_by_id":"0193d109-a926-7446-abe5-7dafe8b742bd","modified_on":"2025-04-20T15:24:25.532Z","modified_by_id":null,"deleted_on":null,"deleted_by_id":null,"name":"new","slug":"new","description":"Flat fee for transfers between 5000 and 10000","status":"active","tenant_id":"00000000-0000-0000-0000-000000000000","user_count":1},{"id":"019565fb-39d9-7aa8-9c09-58b126e99bf3","meta":null,"created_on":"2025-03-05T11:05:18.040Z","created_by_id":"01927265-4ed2-79cc-a0e6-e11339a359f3","modified_on":"2025-04-20T15:12:28.752Z","modified_by_id":"0193d109-a926-7446-abe5-7dafe8b742bd","deleted_on":null,"deleted_by_id":null,"name":"Everything","slug":"everything","description":"Everything","status":"active","tenant_id":"00000000-0000-0000-0000-000000000000","user_count":7},{"id":"01951a90-6127-7885-9dd0-1943f4ef80c5","meta":null,"created_on":"2025-02-18T19:37:04.550Z","created_by_id":"01927265-4ed2-79cc-a0e6-e11339a359f3","modified_on":"2025-02-18T19:37:04.550Z","modified_by_id":null,"deleted_on":null,"deleted_by_id":null,"name":"Dispute Checker 1","slug":"dispute-checker-1","description":"Approve disputes","status":"active","tenant_id":"00000000-0000-0000-0000-000000000000","user_count":2},{"id":"0194d518-5291-7bb3-a119-630a16a3d8e8","meta":null,"created_on":"2025-02-05T07:52:08.594Z","created_by_id":"01927265-4ed2-79cc-a0e6-e11339a359f3","modified_on":"2025-02-18T16:30:35.734Z","modified_by_id":"01927265-4ed2-79cc-a0e6-e11339a359f3","deleted_on":null,"deleted_by_id":null,"name":"Dispute Updater","slug":"dispute-updater","description":"Dispute Updater","status":"inactive","tenant_id":"00000000-0000-0000-0000-000000000000","user_count":2},{"id":"0194b932-92d0-7bb8-88f2-0bc884cbbed4","meta":null,"created_on":"2025-01-30T21:51:26.928Z","created_by_id":"01927265-4ed2-79cc-a0e6-e11339a359f3","modified_on":"2025-01-30T21:51:26.928Z","modified_by_id":null,"deleted_on":null,"deleted_by_id":null,"name":"interface","slug":"interface","description":"system","status":"active","tenant_id":"00000000-0000-0000-0000-000000000000","user_count":1},{"id":"0194b895-df4d-7bb8-88eb-a501c0ae8f1d","meta":null,"created_on":"2025-01-30T19:00:17.357Z","created_by_id":"01927265-4ed2-79cc-a0e6-e11339a359f3","modified_on":"2025-04-22T12:21:43.395Z","modified_by_id":"01927265-4ed2-79cc-a0e6-e11339a359f3","deleted_on":null,"deleted_by_id":null,"name":"RAM","slug":"ram","description":"Hat","status":"inactive","tenant_id":"00000000-0000-0000-0000-000000000000","user_count":3},{"id":"0194a673-5ab3-7dd7-aac7-b0ebf3ba61e5","meta":null,"created_on":"2025-01-27T06:29:25.299Z","created_by_id":"01927265-4ed2-79cc-a0e6-e11339a359f3","modified_on":"2025-01-27T06:29:25.299Z","modified_by_id":null,"deleted_on":null,"deleted_by_id":null,"name":"Russian","slug":"russian","description":"Brook","status":"active","tenant_id":"00000000-0000-0000-0000-000000000000","user_count":1},{"id":"019489a3-563f-7cc8-abea-5077e5cfb91a","meta":null,"created_on":"2025-01-21T16:12:50.623Z","created_by_id":"01927265-4ed2-79cc-a0e6-e11339a359f3","modified_on":"2025-01-29T11:22:42.543Z","modified_by_id":"01927265-4ed2-79cc-a0e6-e11339a359f3","deleted_on":null,"deleted_by_id":null,"name":"Cashier","slug":"cashier","description":"test","status":"active","tenant_id":"00000000-0000-0000-0000-000000000000","user_count":2},{"id":"01945e47-88e0-7554-9594-afb0d4e370c7","meta":null,"created_on":"2025-01-13T06:08:53.984Z","created_by_id":null,"modified_on":"2025-01-13T06:08:53.984Z","modified_by_id":null,"deleted_on":null,"deleted_by_id":null,"name":"deposit","slug":"deposit","description":"modular","status":"active","tenant_id":"00000000-0000-0000-0000-000000000000","user_count":0},{"id":"01945e2b-41cc-7554-9591-f3f3a36d09bb","meta":null,"created_on":"2025-01-13T05:38:00.770Z","created_by_id":null,"modified_on":"2025-01-13T05:38:00.770Z","modified_by_id":null,"deleted_on":null,"deleted_by_id":null,"name":"China","slug":"china","description":"Mauritius","status":"active","tenant_id":"00000000-0000-0000-0000-000000000000","user_count":1}],"meta":{"page":1,"total_pages":3,"total_items":22}}