{"status":"success","data":[{"id":"0195b958-802b-7447-8ef6-0d0248d09ca4","meta":null,"created_on":"2025-03-21T15:35:39.819Z","created_by_id":"01927265-4ed2-79cc-a0e6-e11339a359f3","modified_on":"2025-04-21T00:37:17.996Z","modified_by_id":"0193d109-a926-7446-abe5-7dafe8b742bd","deleted_on":null,"deleted_by_id":null,"tenant_id":"00000000-0000-0000-0000-000000000000","name":"Transfer Fees - Low Ranges","description":"Flat fee for transfers between 5000 and 10000","type":"flat","category":"interbank-transfer","currency":"NGN","amount":"0.21","min_amount":"4000.00","max_amount":"10000.00","percentage":null,"vat_id":null},{"id":"0193ce93-e02a-7770-a16e-f8bada80078b","meta":null,"created_on":"2024-12-16T08:26:57.962Z","created_by_id":null,"modified_on":"2025-03-24T01:14:33.450Z","modified_by_id":"0193d109-a926-7446-abe5-7dafe8b742bd","deleted_on":null,"deleted_by_id":null,"tenant_id":"00000000-0000-0000-0000-000000000000","name":"Transfer Fee - Low Range","description":"Flat fee for transfers between 0 & 5000","type":"flat","category":"intrabank-transfer","currency":"NGN","amount":"10.00","min_amount":"0.00","max_amount":"4999.99","percentage":null,"vat_id":null},{"id":"0193ce92-6f6b-7770-a16e-f38cf01996e5","meta":null,"created_on":"2024-12-16T08:25:23.563Z","created_by_id":null,"modified_on":"2025-03-24T07:51:24.439Z","modified_by_id":"01927265-4ed2-79cc-a0e6-e11339a359f3","deleted_on":null,"deleted_by_id":null,"tenant_id":"00000000-0000-0000-0000-000000000000","name":"Transfer Fee - Low Ranges","description":"Flat fee for transfers between 0 and 5000","type":"flat","category":"interbank-transfer","currency":"NGN","amount":"10.00","min_amount":"0.00","max_amount":"1999.99","percentage":null,"vat_id":null},{"id":"01934ea4-9d45-7442-bd77-3328576697e9","meta":null,"created_on":"2024-12-15T18:27:20.821Z","created_by_id":null,"modified_on":"2024-12-16T07:22:00.472Z","modified_by_id":null,"deleted_on":null,"deleted_by_id":null,"tenant_id":"00000000-0000-0000-0000-000000000000","name":"Bill Payment Fee","description":"Bill Payment","type":"flat","category":"bill-payment","currency":"NGN","amount":"0.00","min_amount":"0.00","max_amount":null,"percentage":null,"vat_id":null},{"id":"0193a7e3-2580-7441-9a1a-d80a4b695e30","meta":null,"created_on":"2024-12-08T20:08:21.633Z","created_by_id":null,"modified_on":"2024-12-08T20:08:21.633Z","modified_by_id":null,"deleted_on":null,"deleted_by_id":null,"tenant_id":"00000000-0000-0000-0000-000000000000","name":"Vat","description":"Value added tax","type":"percentage","category":"vat","currency":"NGN","amount":null,"min_amount":null,"max_amount":null,"percentage":"7.50","vat_id":null},{"id":"0193a725-99f9-7881-8b84-08fe047302b3","meta":null,"created_on":"2024-12-08T16:41:19.606Z","created_by_id":null,"modified_on":"2024-12-08T16:41:19.606Z","modified_by_id":null,"deleted_on":null,"deleted_by_id":null,"tenant_id":"00000000-0000-0000-0000-000000000000","name":"Vat","description":"Value added tax","type":"percentage","category":"vat","currency":"NGN","amount":null,"min_amount":null,"max_amount":null,"percentage":"7.50","vat_id":null},{"id":"0193a6b9-79e6-7881-8b81-46ac066a9127","meta":null,"created_on":"2024-12-08T14:43:13.510Z","created_by_id":null,"modified_on":"2024-12-08T14:43:13.510Z","modified_by_id":null,"deleted_on":null,"deleted_by_id":null,"tenant_id":"00000000-0000-0000-0000-000000000000","name":"Vat","description":"Value added tax","type":"percentage","category":"vat","currency":"NGN","amount":null,"min_amount":null,"max_amount":null,"percentage":"7.50","vat_id":null},{"id":"0193a631-50bd-7881-8b7e-b84df177dac9","meta":null,"created_on":"2024-12-08T12:14:30.078Z","created_by_id":null,"modified_on":"2024-12-10T15:19:39.475Z","modified_by_id":null,"deleted_on":null,"deleted_by_id":null,"tenant_id":"00000000-0000-0000-0000-000000000000","name":"Vat","description":"Value added tax","type":"percentage","category":"vat","currency":"NGN","amount":"0.00","min_amount":"0.00","max_amount":"0.00","percentage":"7.50","vat_id":null},{"id":"01939f37-c923-7660-b821-697ca43bc436","meta":null,"created_on":"2024-12-07T03:44:13.601Z","created_by_id":null,"modified_on":"2024-12-07T03:44:13.601Z","modified_by_id":null,"deleted_on":null,"deleted_by_id":null,"tenant_id":"00000000-0000-0000-0000-000000000000","name":"Vat","description":"Value added tax","type":"percentage","category":"vat","currency":"NGN","amount":null,"min_amount":null,"max_amount":null,"percentage":"7.50","vat_id":null},{"id":"01939f24-2cc6-7660-b81f-a5c5fc61bfbf","meta":null,"created_on":"2024-12-07T03:22:48.387Z","created_by_id":null,"modified_on":"2024-12-07T03:22:48.387Z","modified_by_id":null,"deleted_on":null,"deleted_by_id":null,"tenant_id":"00000000-0000-0000-0000-000000000000","name":"Vat","description":"Value added tax","type":"percentage","category":"vat","currency":"NGN","amount":null,"min_amount":null,"max_amount":null,"percentage":"7.50","vat_id":null}],"meta":{"page":1,"total_pages":2,"total_items":12}}