{"status":"success","data":[{"id":"01963910-8998-7bb6-aaca-b1930ebb0646","meta":null,"created_on":"2025-04-15T10:48:27.289Z","created_by_id":"01927265-4ed2-79cc-a0e6-e11339a359f3","modified_on":"2025-04-15T10:48:27.289Z","modified_by_id":null,"deleted_on":null,"deleted_by_id":null,"tenant_id":"00000000-0000-0000-0000-000000000000","profile_type":"business","slug":"relieve","name":"Relieve","description":"To help people","version":1,"schemas":[{"id":"01963910-899d-7bb6-aaca-bfe89b786bf0","meta":null,"created_on":"2025-04-15T10:48:27.295Z","created_by_id":"01927265-4ed2-79cc-a0e6-e11339a359f3","modified_on":"2025-04-15T10:48:27.295Z","modified_by_id":null,"deleted_on":null,"deleted_by_id":null,"tenant_id":"00000000-0000-0000-0000-000000000000","profile_type":"personal","slug":"first-name","name":"First Name","tags":null,"options":[],"version":1,"type":"text","default":"","enabled":true,"editable":true,"required":true,"regex":null,"order":1,"storage_strategy":"plain","definition_id":"01963910-8998-7bb6-aaca-b1930ebb0646"}]},{"id":"0196390a-a369-7bb6-aaca-a5e322259040","meta":null,"created_on":"2025-04-15T10:42:00.681Z","created_by_id":"01927265-4ed2-79cc-a0e6-e11339a359f3","modified_on":"2025-04-15T10:42:00.681Z","modified_by_id":null,"deleted_on":null,"deleted_by_id":null,"tenant_id":"00000000-0000-0000-0000-000000000000","profile_type":"personal","slug":"lassora","name":"Lassora","description":"Limited period!","version":1,"schemas":[]},{"id":"01963467-33c1-766c-936f-273268581617","meta":null,"created_on":"2025-04-14T13:05:00.865Z","created_by_id":"01927265-4ed2-79cc-a0e6-e11339a359f3","modified_on":"2025-04-14T13:05:00.865Z","modified_by_id":null,"deleted_on":null,"deleted_by_id":null,"tenant_id":"00000000-0000-0000-0000-000000000000","profile_type":"personal","slug":"student-loan-form","name":"Student Loan form","description":"Test description","version":1,"schemas":[{"id":"01963467-33c5-766c-936f-2bdf5edfe9f5","meta":null,"created_on":"2025-04-14T13:05:00.869Z","created_by_id":"01927265-4ed2-79cc-a0e6-e11339a359f3","modified_on":"2025-04-14T13:05:00.869Z","modified_by_id":null,"deleted_on":null,"deleted_by_id":null,"tenant_id":"00000000-0000-0000-0000-000000000000","profile_type":"personal","slug":"field-name-1","name":"Field name 1","tags":null,"options":[{"name":"Test name","value":"Here"},{"name":"Here again","value":"now"}],"version":1,"type":"radio","default":"","enabled":true,"editable":true,"required":false,"regex":null,"order":1,"storage_strategy":"plain","definition_id":"01963467-33c1-766c-936f-273268581617"}]},{"id":"01963456-ab60-766c-936f-0ee34f6dc9e4","meta":null,"created_on":"2025-04-14T12:46:57.376Z","created_by_id":"01927265-4ed2-79cc-a0e6-e11339a359f3","modified_on":"2025-04-14T12:46:57.376Z","modified_by_id":null,"deleted_on":null,"deleted_by_id":null,"tenant_id":"00000000-0000-0000-0000-000000000000","profile_type":"personal","slug":"collateral-test","name":"Collateral test","description":"Test description","version":1,"schemas":[{"id":"01963456-abba-766c-936f-13d1678d8872","meta":null,"created_on":"2025-04-14T12:46:57.468Z","created_by_id":"01927265-4ed2-79cc-a0e6-e11339a359f3","modified_on":"2025-04-14T12:46:57.468Z","modified_by_id":null,"deleted_on":null,"deleted_by_id":null,"tenant_id":"00000000-0000-0000-0000-000000000000","profile_type":"personal","slug":"field-name-1","name":"Field name 1","tags":null,"options":[],"version":1,"type":"text","default":"","enabled":true,"editable":true,"required":false,"regex":null,"order":1,"storage_strategy":"plain","definition_id":"01963456-ab60-766c-936f-0ee34f6dc9e4"}]},{"id":"0196344f-d5d6-766c-936e-f71df3b93a8d","meta":null,"created_on":"2025-04-14T12:39:29.494Z","created_by_id":"01927265-4ed2-79cc-a0e6-e11339a359f3","modified_on":"2025-04-14T12:39:29.494Z","modified_by_id":null,"deleted_on":null,"deleted_by_id":null,"tenant_id":"00000000-0000-0000-0000-000000000000","profile_type":"personal","slug":"test","name":"Test","description":"Here is a new def","version":1,"schemas":[{"id":"0196344f-d61d-766c-936e-ffce4292d27f","meta":null,"created_on":"2025-04-14T12:39:29.566Z","created_by_id":"01927265-4ed2-79cc-a0e6-e11339a359f3","modified_on":"2025-04-14T12:39:29.566Z","modified_by_id":null,"deleted_on":null,"deleted_by_id":null,"tenant_id":"00000000-0000-0000-0000-000000000000","profile_type":"personal","slug":"field-name-1","name":"Field name 1","tags":null,"options":[],"version":1,"type":"text","default":"","enabled":true,"editable":true,"required":false,"regex":null,"order":1,"storage_strategy":"plain","definition_id":"0196344f-d5d6-766c-936e-f71df3b93a8d"}]},{"id":"01963369-f485-7cce-84d6-c0ab192f9dfe","meta":null,"created_on":"2025-04-14T08:28:24.069Z","created_by_id":"01927265-4ed2-79cc-a0e6-e11339a359f3","modified_on":"2025-04-14T08:28:24.069Z","modified_by_id":null,"deleted_on":null,"deleted_by_id":null,"tenant_id":"00000000-0000-0000-0000-000000000000","profile_type":"personal","slug":"new-device-template","name":"New device Template","description":" web app identifier","version":1,"schemas":[{"id":"01963369-f48a-7cce-84d6-cc7625632d6d","meta":null,"created_on":"2025-04-14T08:28:24.075Z","created_by_id":"01927265-4ed2-79cc-a0e6-e11339a359f3","modified_on":"2025-04-14T08:28:24.075Z","modified_by_id":null,"deleted_on":null,"deleted_by_id":null,"tenant_id":"00000000-0000-0000-0000-000000000000","profile_type":"personal","slug":"field-name-2","name":"Field name 2","tags":null,"options":[],"version":1,"type":"text","default":"","enabled":true,"editable":true,"required":false,"regex":null,"order":1,"storage_strategy":"plain","definition_id":"01963369-f485-7cce-84d6-c0ab192f9dfe"}]},{"id":"01961563-c0c1-7664-8275-d360ceac3a62","meta":null,"created_on":"2025-04-08T12:33:01.122Z","created_by_id":"0192cc0f-bd83-700c-a5b9-691965d489a3","modified_on":"2025-04-08T12:33:01.122Z","modified_by_id":null,"deleted_on":null,"deleted_by_id":null,"tenant_id":"00000000-0000-0000-0000-000000000000","profile_type":"personal","slug":"testing-form","name":"Testing Form","description":"Testing Form","version":1,"schemas":[{"id":"01961563-c0f5-7664-8275-dae9302d0124","meta":null,"created_on":"2025-04-08T12:33:01.176Z","created_by_id":"0192cc0f-bd83-700c-a5b9-691965d489a3","modified_on":"2025-04-08T12:33:01.176Z","modified_by_id":null,"deleted_on":null,"deleted_by_id":null,"tenant_id":"00000000-0000-0000-0000-000000000000","profile_type":"personal","slug":"field-name-1","name":"Field name 1","tags":null,"options":[],"version":1,"type":"text","default":"","enabled":true,"editable":true,"required":false,"regex":null,"order":1,"storage_strategy":"plain","definition_id":"01961563-c0c1-7664-8275-d360ceac3a62"}]},{"id":"0195d240-1b0d-7aa8-afb5-2390989aafe5","meta":null,"created_on":"2025-03-26T11:39:31.682Z","created_by_id":"01927265-4ed2-79cc-a0e6-e11339a359f3","modified_on":"2025-04-08T12:32:35.036Z","modified_by_id":"0192cc0f-bd83-700c-a5b9-691965d489a3","deleted_on":null,"deleted_by_id":null,"tenant_id":"00000000-0000-0000-0000-000000000000","profile_type":"personal","slug":"vehcile-details","name":"Vehcile Details","description":"Please provide your vehicle information","version":1,"schemas":[{"id":"01961563-5aef-7664-8275-a25675eacc63","meta":null,"created_on":"2025-04-08T12:32:35.059Z","created_by_id":"0192cc0f-bd83-700c-a5b9-691965d489a3","modified_on":"2025-04-08T12:32:35.059Z","modified_by_id":null,"deleted_on":null,"deleted_by_id":null,"tenant_id":"00000000-0000-0000-0000-000000000000","profile_type":"personal","slug":"mileage-","name":"Mileage ","tags":null,"options":[],"version":1,"type":"number","default":"","enabled":true,"editable":true,"required":false,"regex":null,"order":4,"storage_strategy":"plain","definition_id":"0195d240-1b0d-7aa8-afb5-2390989aafe5"},{"id":"01961563-5aef-7664-8275-c5d6afbf839e","meta":null,"created_on":"2025-04-08T12:32:35.059Z","created_by_id":"0192cc0f-bd83-700c-a5b9-691965d489a3","modified_on":"2025-04-08T12:32:35.059Z","modified_by_id":null,"deleted_on":null,"deleted_by_id":null,"tenant_id":"00000000-0000-0000-0000-000000000000","profile_type":"personal","slug":"custom-papers","name":"Custom Papers","tags":null,"options":[],"version":1,"type":"file","default":"","enabled":true,"editable":true,"required":false,"regex":null,"order":8,"storage_strategy":"plain","definition_id":"0195d240-1b0d-7aa8-afb5-2390989aafe5"},{"id":"01961563-5aef-7664-8275-bc49dff877ff","meta":null,"created_on":"2025-04-08T12:32:35.059Z","created_by_id":"0192cc0f-bd83-700c-a5b9-691965d489a3","modified_on":"2025-04-08T12:32:35.059Z","modified_by_id":null,"deleted_on":null,"deleted_by_id":null,"tenant_id":"00000000-0000-0000-0000-000000000000","profile_type":"personal","slug":"vehicle-licence-","name":"Vehicle Licence ","tags":null,"options":[],"version":1,"type":"file","default":"","enabled":true,"editable":true,"required":false,"regex":null,"order":7,"storage_strategy":"plain","definition_id":"0195d240-1b0d-7aa8-afb5-2390989aafe5"},{"id":"01961563-5aef-7664-8275-b78edc6302e0","meta":null,"created_on":"2025-04-08T12:32:35.059Z","created_by_id":"0192cc0f-bd83-700c-a5b9-691965d489a3","modified_on":"2025-04-08T12:32:35.059Z","modified_by_id":null,"deleted_on":null,"deleted_by_id":null,"tenant_id":"00000000-0000-0000-0000-000000000000","profile_type":"personal","slug":"proof-of-ownership","name":"Proof of Ownership","tags":null,"options":[],"version":1,"type":"file","default":"","enabled":true,"editable":true,"required":false,"regex":null,"order":6,"storage_strategy":"plain","definition_id":"0195d240-1b0d-7aa8-afb5-2390989aafe5"},{"id":"01961563-5aef-7664-8275-ab11b9551a05","meta":null,"created_on":"2025-04-08T12:32:35.059Z","created_by_id":"0192cc0f-bd83-700c-a5b9-691965d489a3","modified_on":"2025-04-08T12:32:35.059Z","modified_by_id":null,"deleted_on":null,"deleted_by_id":null,"tenant_id":"00000000-0000-0000-0000-000000000000","profile_type":"personal","slug":"proof-of-vehicle-","name":"Proof of Vehicle ","tags":null,"options":[],"version":1,"type":"file","default":"","enabled":true,"editable":true,"required":false,"regex":null,"order":5,"storage_strategy":"plain","definition_id":"0195d240-1b0d-7aa8-afb5-2390989aafe5"},{"id":"01961563-5aef-7664-8275-8dd457a783d8","meta":null,"created_on":"2025-04-08T12:32:35.059Z","created_by_id":"0192cc0f-bd83-700c-a5b9-691965d489a3","modified_on":"2025-04-08T12:32:35.059Z","modified_by_id":null,"deleted_on":null,"deleted_by_id":null,"tenant_id":"00000000-0000-0000-0000-000000000000","profile_type":"personal","slug":"vehicle-identification-number-(vin)","name":"Vehicle Identification Number (VIN)","tags":null,"options":[],"version":1,"type":"text","default":"","enabled":true,"editable":true,"required":false,"regex":null,"order":1,"storage_strategy":"plain","definition_id":"0195d240-1b0d-7aa8-afb5-2390989aafe5"},{"id":"01961563-5aef-7664-8275-965505e5c453","meta":null,"created_on":"2025-04-08T12:32:35.059Z","created_by_id":"0192cc0f-bd83-700c-a5b9-691965d489a3","modified_on":"2025-04-08T12:32:35.059Z","modified_by_id":null,"deleted_on":null,"deleted_by_id":null,"tenant_id":"00000000-0000-0000-0000-000000000000","profile_type":"personal","slug":"vehicle-registration-number-(vrn)","name":"Vehicle Registration Number (VRN)","tags":null,"options":[],"version":1,"type":"text","default":"","enabled":true,"editable":true,"required":false,"regex":null,"order":2,"storage_strategy":"plain","definition_id":"0195d240-1b0d-7aa8-afb5-2390989aafe5"},{"id":"01961563-5aef-7664-8275-9d7640612559","meta":null,"created_on":"2025-04-08T12:32:35.059Z","created_by_id":"0192cc0f-bd83-700c-a5b9-691965d489a3","modified_on":"2025-04-08T12:32:35.059Z","modified_by_id":null,"deleted_on":null,"deleted_by_id":null,"tenant_id":"00000000-0000-0000-0000-000000000000","profile_type":"personal","slug":"plate-number","name":"Plate Number","tags":null,"options":[],"version":1,"type":"text","default":"","enabled":true,"editable":true,"required":false,"regex":null,"order":3,"storage_strategy":"plain","definition_id":"0195d240-1b0d-7aa8-afb5-2390989aafe5"}]},{"id":"0195a8ce-a361-733b-b4fa-7a858c648503","meta":null,"created_on":"2025-03-18T10:31:09.408Z","created_by_id":"0192cc0f-bd83-700c-a5b9-691965d489a3","modified_on":"2025-03-18T10:31:09.408Z","modified_by_id":null,"deleted_on":null,"deleted_by_id":null,"tenant_id":"00000000-0000-0000-0000-000000000000","profile_type":"personal","slug":"loans","name":"loans","description":"Additional information for loan requirements","version":1,"schemas":[{"id":"0195a8ce-a374-733b-b4fa-80121ccc6ce2","meta":null,"created_on":"2025-03-18T10:31:09.428Z","created_by_id":"0192cc0f-bd83-700c-a5b9-691965d489a3","modified_on":"2025-03-18T10:31:09.428Z","modified_by_id":null,"deleted_on":null,"deleted_by_id":null,"tenant_id":"00000000-0000-0000-0000-000000000000","profile_type":"personal","slug":"what-do-you-need-it-for?","name":"What do you need it for?","tags":null,"options":[{"name":"Mortgage","value":"mortgage"},{"name":"Business Expansion","value":"business_expansion"},{"name":"Education","value":"education"},{"name":"Medical Expenses","value":"medical_expenses"},{"name":"Debt Consolidation","value":"debt_consolidation"},{"name":"Car Purchase","value":"car_purchase"},{"name":"Home Renovation","value":"home_renovation"},{"name":"Wedding Expenses","value":"wedding_expenses"},{"name":"Travel","value":"travel"},{"name":"Emergency Funds","value":"emergency_funds"},{"name":"Agriculture","value":"agriculture"}],"version":1,"type":"select","default":"","enabled":true,"editable":true,"required":true,"regex":null,"order":1,"storage_strategy":"plain","definition_id":"0195a8ce-a361-733b-b4fa-7a858c648503"}]},{"id":"0195a860-bf58-733b-b4f9-61d487d286b2","meta":null,"created_on":"2025-03-18T08:31:07.608Z","created_by_id":"0192cc0f-bd83-700c-a5b9-691965d489a3","modified_on":"2025-03-18T08:31:07.608Z","modified_by_id":null,"deleted_on":null,"deleted_by_id":null,"tenant_id":"00000000-0000-0000-0000-000000000000","profile_type":"personal","slug":"address-verification","name":"Address Verification","description":"Your personal information will always be kept safe and private","version":1,"schemas":[{"id":"0195a860-bf70-733b-b4f9-7c7df2d9346e","meta":null,"created_on":"2025-03-18T08:31:07.634Z","created_by_id":"0192cc0f-bd83-700c-a5b9-691965d489a3","modified_on":"2025-03-20T12:16:24.113Z","modified_by_id":null,"deleted_on":null,"deleted_by_id":null,"tenant_id":"00000000-0000-0000-0000-000000000000","profile_type":"personal","slug":"state","name":"State","tags":null,"options":[{"name":"Abia","value":"Abia"},{"name":"Adamawa","value":"Adamawa"},{"name":"Akwa Ibom","value":"Akwa Ibom"},{"name":"Anambra","value":"Anambra"},{"name":"Bauchi","value":"Bauchi"},{"name":"Bayelsa","value":"Bayelsa"},{"name":"Benue","value":"Benue"},{"name":"Borno","value":"Borno"},{"name":"Cross River","value":"Cross River"},{"name":"Delta","value":"Delta"},{"name":"Ebonyi","value":"Ebonyi"},{"name":"Edo","value":"Edo"},{"name":"Ekiti","value":"Ekiti"},{"name":"Enugu","value":"Enugu"},{"name":"Gombe","value":"Gombe"},{"name":"Imo","value":"Imo"},{"name":"Jigawa","value":"Jigawa"},{"name":"Kaduna","value":"Kaduna"},{"name":"Kano","value":"Kano"},{"name":"Katsina","value":"Katsina"},{"name":"Kebbi","value":"Kebbi"},{"name":"Kogi","value":"Kogi"},{"name":"Kwara","value":"Kwara"},{"name":"Lagos","value":"Lagos"},{"name":"Nasarawa","value":"Nasarawa"},{"name":"Niger","value":"Niger"},{"name":"Ogun","value":"Ogun"},{"name":"Ondo","value":"Ondo"},{"name":"Osun","value":"Osun"},{"name":"Oyo","value":"Oyo"},{"name":"Plateau","value":"Plateau"},{"name":"Rivers","value":"Rivers"},{"name":"Sokoto","value":"Sokoto"},{"name":"Taraba","value":"Taraba"},{"name":"Yobe","value":"Yobe"},{"name":"Zamfara","value":"Zamfara"},{"name":"Federal Capital Territory","value":"Federal Capital Territory"}],"version":1,"type":"select","default":"","enabled":true,"editable":true,"required":true,"regex":null,"order":2,"storage_strategy":"plain","definition_id":"0195a860-bf58-733b-b4f9-61d487d286b2"},{"id":"0195a860-bf70-733b-b4f9-9343bf145cf5","meta":null,"created_on":"2025-03-18T08:31:07.634Z","created_by_id":"0192cc0f-bd83-700c-a5b9-691965d489a3","modified_on":"2025-03-20T12:16:24.113Z","modified_by_id":null,"deleted_on":null,"deleted_by_id":null,"tenant_id":"00000000-0000-0000-0000-000000000000","profile_type":"personal","slug":"proof-of-address-(utility-bill)","name":"Proof of address (Utility Bill)","tags":null,"options":[],"version":1,"type":"file","default":"","enabled":true,"editable":true,"required":true,"regex":null,"order":6,"storage_strategy":"plain","definition_id":"0195a860-bf58-733b-b4f9-61d487d286b2"},{"id":"0195a860-bf70-733b-b4f9-8df8feb2e184","meta":null,"created_on":"2025-03-18T08:31:07.634Z","created_by_id":"0192cc0f-bd83-700c-a5b9-691965d489a3","modified_on":"2025-03-20T12:16:24.113Z","modified_by_id":null,"deleted_on":null,"deleted_by_id":null,"tenant_id":"00000000-0000-0000-0000-000000000000","profile_type":"personal","slug":"landmark","name":"Landmark","tags":null,"options":[],"version":1,"type":"text","default":"","enabled":true,"editable":true,"required":true,"regex":null,"order":5,"storage_strategy":"plain","definition_id":"0195a860-bf58-733b-b4f9-61d487d286b2"},{"id":"0195a860-bf70-733b-b4f9-83f982b63683","meta":null,"created_on":"2025-03-18T08:31:07.634Z","created_by_id":"0192cc0f-bd83-700c-a5b9-691965d489a3","modified_on":"2025-03-20T12:16:24.113Z","modified_by_id":null,"deleted_on":null,"deleted_by_id":null,"tenant_id":"00000000-0000-0000-0000-000000000000","profile_type":"personal","slug":"lga","name":"LGA","tags":null,"options":[],"version":1,"type":"text","default":"","enabled":true,"editable":true,"required":true,"regex":null,"order":4,"storage_strategy":"plain","definition_id":"0195a860-bf58-733b-b4f9-61d487d286b2"},{"id":"0195a860-bf70-733b-b4f9-6e17b8e9432b","meta":null,"created_on":"2025-03-18T08:31:07.634Z","created_by_id":"0192cc0f-bd83-700c-a5b9-691965d489a3","modified_on":"2025-03-20T12:16:24.113Z","modified_by_id":null,"deleted_on":null,"deleted_by_id":null,"tenant_id":"00000000-0000-0000-0000-000000000000","profile_type":"personal","slug":"address","name":"Address","tags":null,"options":[],"version":1,"type":"text","default":"","enabled":true,"editable":true,"required":true,"regex":null,"order":1,"storage_strategy":"plain","definition_id":"0195a860-bf58-733b-b4f9-61d487d286b2"},{"id":"0195a860-bf70-733b-b4f9-755aed6feac8","meta":null,"created_on":"2025-03-18T08:31:07.634Z","created_by_id":"0192cc0f-bd83-700c-a5b9-691965d489a3","modified_on":"2025-03-20T12:16:24.113Z","modified_by_id":null,"deleted_on":null,"deleted_by_id":null,"tenant_id":"00000000-0000-0000-0000-000000000000","profile_type":"personal","slug":"city","name":"City","tags":null,"options":[],"version":1,"type":"text","default":"","enabled":true,"editable":true,"required":true,"regex":null,"order":3,"storage_strategy":"plain","definition_id":"0195a860-bf58-733b-b4f9-61d487d286b2"}]}],"meta":{"page":1,"total_pages":3,"total_items":21}}