{"status":"success","data":[{"id":"0196cf08-f08c-7aa1-a927-00f395f981ac","meta":null,"created_on":"2025-05-14T13:43:11.756Z","created_by_id":"019372de-17ef-7cc2-8fc0-43fe11ba042f","modified_on":"2025-05-14T13:59:24.758Z","modified_by_id":"0193d109-a926-7446-abe5-7dafe8b742bd","deleted_on":null,"deleted_by_id":null,"tenant_id":"00000000-0000-0000-0000-000000000000","profile_id":"0193a649-e3d0-7881-8b7f-2ef1d89a9aff","name":"sharp","product_id":"0196b57d-d58f-7bba-bcb5-64c2fb41eead","account_id":"0193a699-2f15-7881-8b7f-ae50980bcfad","is_fixed":true,"allow_top_up":false,"cba_id":"594","deposit":"100000.00","interest_earned":"41.10","balance":"100000.00","end_date":"2025-08-22T13:43:08.901Z","start_date":"2025-05-14T13:43:08.901Z","periodic_amount":100000,"interest_rate":"10.00","interest_period":"yearly","tenor_value":100,"tenor_period":"days","interest_compounding_period":"yearly","interest_posting_period":"yearly","status":"active","frequency":null,"card_id":null,"mandate_id":null,"auto_maturity_action":"withdraw"},{"id":"0196ca68-2be1-7eee-a90d-e2f7e4ff1de4","meta":null,"created_on":"2025-05-13T16:09:06.742Z","created_by_id":"01925343-fbc8-7886-abfb-41c8746fc8ce","modified_on":"2025-05-14T13:59:24.829Z","modified_by_id":"0193d109-a926-7446-abe5-7dafe8b742bd","deleted_on":null,"deleted_by_id":null,"tenant_id":"00000000-0000-0000-0000-000000000000","profile_id":"0193a649-e3d0-7881-8b7f-2ef1d89a9aff","name":"Women Empowerment Loan","product_id":"0196b57d-d58f-7bba-bcb5-64c2fb41eead","account_id":"01951065-f30c-7bbe-8a30-3eee60a72183","is_fixed":true,"allow_top_up":false,"cba_id":"593","deposit":"500.00","interest_earned":"0.00","balance":"0.00","end_date":"2025-06-11T16:09:04.393Z","start_date":"2025-05-13T16:09:04.393Z","periodic_amount":500,"interest_rate":"10.00","interest_period":"yearly","tenor_value":29,"tenor_period":"days","interest_compounding_period":"yearly","interest_posting_period":"yearly","status":"closed","frequency":null,"card_id":null,"mandate_id":null,"auto_maturity_action":"withdraw"},{"id":"0196c39e-58b4-700b-92c0-0e0bf83c3031","meta":null,"created_on":"2025-05-12T08:30:56.744Z","created_by_id":"01925343-fbc8-7886-abfb-41c8746fc8ce","modified_on":"2025-05-14T13:59:24.891Z","modified_by_id":"0193d109-a926-7446-abe5-7dafe8b742bd","deleted_on":null,"deleted_by_id":null,"tenant_id":"00000000-0000-0000-0000-000000000000","profile_id":"0193a649-e3d0-7881-8b7f-2ef1d89a9aff","name":"Women Empowerment Loan","product_id":"0196ab83-3217-7ff4-8b54-ea2f79a13044","account_id":"01951065-f30c-7bbe-8a30-3eee60a72183","is_fixed":true,"allow_top_up":false,"cba_id":"588","deposit":"500.00","interest_earned":"0.62","balance":"500.00","end_date":"2025-06-10T08:30:53.661Z","start_date":"2025-05-12T08:30:53.661Z","periodic_amount":500,"interest_rate":"10.00","interest_period":"yearly","tenor_value":29,"tenor_period":"days","interest_compounding_period":"yearly","interest_posting_period":"yearly","status":"active","frequency":null,"card_id":null,"mandate_id":null,"auto_maturity_action":"withdraw"},{"id":"0196b512-8387-7eea-b449-ac11a1c8c6ab","meta":null,"created_on":"2025-05-09T12:43:31.591Z","created_by_id":"019372de-17ef-7cc2-8fc0-43fe11ba042f","modified_on":"2025-05-14T13:59:24.994Z","modified_by_id":"0193d109-a926-7446-abe5-7dafe8b742bd","deleted_on":null,"deleted_by_id":null,"tenant_id":"00000000-0000-0000-0000-000000000000","profile_id":"0193a649-e3d0-7881-8b7f-2ef1d89a9aff","name":"Test demo","product_id":"0196ab83-3217-7ff4-8b54-ea2f79a13044","account_id":"0193a699-2f15-7881-8b7f-ae50980bcfad","is_fixed":true,"allow_top_up":false,"cba_id":"587","deposit":"5000.00","interest_earned":"12.33","balance":"5000.00","end_date":"2025-05-19T12:43:29.065Z","start_date":"2025-05-09T12:43:29.065Z","periodic_amount":5000,"interest_rate":"10.00","interest_period":"yearly","tenor_value":10,"tenor_period":"days","interest_compounding_period":"yearly","interest_posting_period":"yearly","status":"active","frequency":null,"card_id":null,"mandate_id":null,"auto_maturity_action":"withdraw"},{"id":"0196b455-2c37-7337-a514-bf9d16f87530","meta":null,"created_on":"2025-05-09T09:16:42.936Z","created_by_id":"0194799f-e242-722d-b131-b165d3749dd3","modified_on":"2025-05-14T13:59:25.095Z","modified_by_id":"0193d109-a926-7446-abe5-7dafe8b742bd","deleted_on":null,"deleted_by_id":null,"tenant_id":"00000000-0000-0000-0000-000000000000","profile_id":"0193a649-e3d0-7881-8b7f-2ef1d89a9aff","name":"Premium Savings Plan ADP","product_id":"0196652d-0d12-7eec-b09a-36ab4b96c692","account_id":"0193a699-2f15-7881-8b7f-ae50980bcfad","is_fixed":false,"allow_top_up":false,"cba_id":"586","deposit":"5000.00","interest_earned":"0.00","balance":"5000.00","end_date":"2025-05-29T09:16:41.035Z","start_date":"2025-05-09T09:16:41.035Z","periodic_amount":5000,"interest_rate":"10.00","interest_period":"yearly","tenor_value":20,"tenor_period":"days","interest_compounding_period":"yearly","interest_posting_period":"yearly","status":"active","frequency":null,"card_id":null,"mandate_id":null,"auto_maturity_action":"withdraw"},{"id":"0196afdf-213f-711a-8459-c0657fdd2f2b","meta":null,"created_on":"2025-05-08T12:29:17.972Z","created_by_id":"01925343-fbc8-7886-abfb-41c8746fc8ce","modified_on":"2025-05-14T13:59:24.794Z","modified_by_id":"0193d109-a926-7446-abe5-7dafe8b742bd","deleted_on":null,"deleted_by_id":null,"tenant_id":"00000000-0000-0000-0000-000000000000","profile_id":"0193a649-e3d0-7881-8b7f-2ef1d89a9aff","name":"Women Empowerment Loan","product_id":"0196ab83-3217-7ff4-8b54-ea2f79a13044","account_id":"01951065-f30c-7bbe-8a30-3eee60a72183","is_fixed":true,"allow_top_up":false,"cba_id":"585","deposit":"500.00","interest_earned":"1.44","balance":"500.00","end_date":"2025-06-06T12:29:15.726Z","start_date":"2025-05-08T12:29:15.726Z","periodic_amount":500,"interest_rate":"10.00","interest_period":"yearly","tenor_value":29,"tenor_period":"days","interest_compounding_period":"yearly","interest_posting_period":"yearly","status":"active","frequency":null,"card_id":null,"mandate_id":null,"auto_maturity_action":"withdraw"},{"id":"0196afd2-868c-7441-9134-19c03f47a684","meta":null,"created_on":"2025-05-08T12:15:31.928Z","created_by_id":"01925343-fbc8-7886-abfb-41c8746fc8ce","modified_on":"2025-05-14T13:59:24.858Z","modified_by_id":"0193d109-a926-7446-abe5-7dafe8b742bd","deleted_on":null,"deleted_by_id":null,"tenant_id":"00000000-0000-0000-0000-000000000000","profile_id":"0193a649-e3d0-7881-8b7f-2ef1d89a9aff","name":"Women Empowerment Loan","product_id":"0196ab83-3217-7ff4-8b54-ea2f79a13044","account_id":"01951065-f30c-7bbe-8a30-3eee60a72183","is_fixed":true,"allow_top_up":false,"cba_id":"584","deposit":"300.00","interest_earned":"0.86","balance":"300.00","end_date":"2025-06-06T12:15:29.489Z","start_date":"2025-05-08T12:15:29.489Z","periodic_amount":300,"interest_rate":"10.00","interest_period":"yearly","tenor_value":29,"tenor_period":"days","interest_compounding_period":"yearly","interest_posting_period":"yearly","status":"active","frequency":null,"card_id":null,"mandate_id":null,"auto_maturity_action":"withdraw"},{"id":"0196ac11-f280-7cca-bb5d-b7496a67403b","meta":null,"created_on":"2025-05-07T18:46:19.520Z","created_by_id":"019372de-17ef-7cc2-8fc0-43fe11ba042f","modified_on":"2025-05-14T13:59:25.000Z","modified_by_id":"0193d109-a926-7446-abe5-7dafe8b742bd","deleted_on":null,"deleted_by_id":null,"tenant_id":"00000000-0000-0000-0000-000000000000","profile_id":"0193a649-e3d0-7881-8b7f-2ef1d89a9aff","name":"Vacation Funds","product_id":"0196ab83-3217-7ff4-8b54-ea2f79a13044","account_id":"01951065-f30c-7bbe-8a30-3eee60a72183","is_fixed":true,"allow_top_up":false,"cba_id":"582","deposit":"500.00","interest_earned":"1.64","balance":"500.00","end_date":"2025-08-07T18:46:19.127Z","start_date":"2025-05-07T18:46:19.127Z","periodic_amount":500,"interest_rate":"10.00","interest_period":"yearly","tenor_value":3,"tenor_period":"months","interest_compounding_period":"yearly","interest_posting_period":"yearly","status":"active","frequency":null,"card_id":null,"mandate_id":null,"auto_maturity_action":"withdraw"},{"id":"0196ab87-a608-7ff4-8b55-5e6fc008c3c4","meta":null,"created_on":"2025-05-07T16:15:15.975Z","created_by_id":"019372de-17ef-7cc2-8fc0-43fe11ba042f","modified_on":"2025-05-14T13:59:25.098Z","modified_by_id":"0193d109-a926-7446-abe5-7dafe8b742bd","deleted_on":null,"deleted_by_id":null,"tenant_id":"00000000-0000-0000-0000-000000000000","profile_id":"0193a649-e3d0-7881-8b7f-2ef1d89a9aff","name":"Test demo","product_id":"0196ab83-3217-7ff4-8b54-ea2f79a13044","account_id":"0193a699-2f15-7881-8b7f-ae50980bcfad","is_fixed":true,"allow_top_up":false,"cba_id":"581","deposit":"100000.00","interest_earned":"328.77","balance":"100000.00","end_date":"2025-08-07T16:15:13.379Z","start_date":"2025-05-07T16:15:13.379Z","periodic_amount":100000,"interest_rate":"10.00","interest_period":"yearly","tenor_value":3,"tenor_period":"months","interest_compounding_period":"yearly","interest_posting_period":"yearly","status":"active","frequency":null,"card_id":null,"mandate_id":null,"auto_maturity_action":"withdraw"},{"id":"0196ab77-303f-7bbe-a0ff-2e2effe9d0a3","meta":null,"created_on":"2025-05-07T15:57:17.245Z","created_by_id":"019372de-17ef-7cc2-8fc0-43fe11ba042f","modified_on":"2025-05-14T13:39:05.542Z","modified_by_id":"019372de-17ef-7cc2-8fc0-43fe11ba042f","deleted_on":null,"deleted_by_id":null,"tenant_id":"00000000-0000-0000-0000-000000000000","profile_id":"0193a649-e3d0-7881-8b7f-2ef1d89a9aff","name":"Testing Fixed Investments","product_id":"0196a04c-3a69-7553-8352-07dad42c2af0","account_id":"0193a699-2f15-7881-8b7f-ae50980bcfad","is_fixed":true,"allow_top_up":false,"cba_id":"580","deposit":"100000.00","interest_earned":"328.77","balance":"100000.00","end_date":"2025-05-17T15:57:14.602Z","start_date":"2025-05-07T15:57:14.602Z","periodic_amount":100000,"interest_rate":"5.00","interest_period":"monthly","tenor_value":10,"tenor_period":"days","interest_compounding_period":"monthly","interest_posting_period":"monthly","status":"active","frequency":null,"card_id":null,"mandate_id":null,"auto_maturity_action":"withdraw"}],"meta":{"page":1,"total_pages":5,"total_items":47}}