{"status":"success","data":[{"id":"0196ca79-985f-7aa1-a925-327013c9103a","meta":null,"created_on":"2025-05-13T16:28:08.670Z","created_by_id":"0193d109-a926-7446-abe5-7dafe8b742bd","modified_on":"2025-05-13T16:28:08.823Z","modified_by_id":"0193d109-a926-7446-abe5-7dafe8b742bd","deleted_on":null,"deleted_by_id":null,"tenant_id":"00000000-0000-0000-0000-000000000000","account_id":"01951065-f30c-7bbe-8a30-3eee60a72183","profile_id":"0193a649-e3d0-7881-8b7f-2ef1d89a9aff","cba_id":null,"currency":"NGN","amount":"500.00","balance_after":null,"reference":"TIW4M53MX6O8","processor_reference":null,"processor_status":null,"processor_message":null,"status":"success","entry_type":"credit","narration":null,"transaction_date":"2025-05-13T16:28:08.670Z","transaction_type":"saving-withdrawal","processor":"cba","reviewed_on":null,"reviewed_by":null,"batch_id":null,"schedule_id":null,"account":{"id":"01951065-f30c-7bbe-8a30-3eee60a72183","meta":null,"created_on":"2025-02-16T20:14:31.692Z","created_by_id":"019372de-17ef-7cc2-8fc0-43fe11ba042f","modified_on":"2025-05-14T18:45:08.688Z","modified_by_id":"019372de-17ef-7cc2-8fc0-43fe11ba042f","deleted_on":null,"deleted_by_id":null,"tenant_id":"00000000-0000-0000-0000-000000000000","name":"Credit Card Account","type":"account","cba_id":"0000000390","status":"active","profile_id":"0193a649-e3d0-7881-8b7f-2ef1d89a9aff","account_number":"0000000390","bank_id":"0193324f-cad0-7f86-923b-43fb21ac5b29","ledger_balance":"1392.33","hold_balance":"0.00","available_balance":"1392.33","currency":"NGN","restricted":false},"transfer":null,"disputes":[],"batch":null,"transfer_beneficiary":null,"bill_payment_beneficiary":null},{"id":"0196c947-312e-7aaa-a756-94655d2db97d","meta":null,"created_on":"2025-05-13T10:53:28.198Z","created_by_id":"01925343-fbc8-7886-abfb-41c8746fc8ce","modified_on":"2025-05-13T10:53:31.367Z","modified_by_id":"01925343-fbc8-7886-abfb-41c8746fc8ce","deleted_on":null,"deleted_by_id":null,"tenant_id":"00000000-0000-0000-0000-000000000000","account_id":"0193a699-2f15-7881-8b7f-ae50980bcfad","profile_id":"0193a649-e3d0-7881-8b7f-2ef1d89a9aff","cba_id":null,"currency":"NGN","amount":"13844.00","balance_after":null,"reference":"T0PXTCYJ92NC","processor_reference":null,"processor_status":null,"processor_message":null,"status":"success","entry_type":"credit","narration":null,"transaction_date":"2025-05-13T10:53:28.230Z","transaction_type":"saving-withdrawal","processor":"cba","reviewed_on":null,"reviewed_by":null,"batch_id":null,"schedule_id":null,"account":{"id":"0193a699-2f15-7881-8b7f-ae50980bcfad","meta":null,"created_on":"2024-12-08T14:07:57.204Z","created_by_id":null,"modified_on":"2025-05-14T18:45:08.845Z","modified_by_id":"019372de-17ef-7cc2-8fc0-43fe11ba042f","deleted_on":null,"deleted_by_id":null,"tenant_id":"00000000-0000-0000-0000-000000000000","name":"expenses","type":"account","cba_id":"0000000074","status":"active","profile_id":"0193a649-e3d0-7881-8b7f-2ef1d89a9aff","account_number":"0000000074","bank_id":"0193324f-cad0-7f86-923b-43fb21ac5b29","ledger_balance":"702016827.00","hold_balance":"10001000.00","available_balance":"692015827.00","currency":"NGN","restricted":false},"transfer":null,"disputes":[],"batch":null,"transfer_beneficiary":null,"bill_payment_beneficiary":null},{"id":"0196c945-8ecc-7226-a097-1609edd8f094","meta":null,"created_on":"2025-05-13T10:51:41.096Z","created_by_id":"01925343-fbc8-7886-abfb-41c8746fc8ce","modified_on":"2025-05-13T10:51:42.744Z","modified_by_id":"01925343-fbc8-7886-abfb-41c8746fc8ce","deleted_on":null,"deleted_by_id":null,"tenant_id":"00000000-0000-0000-0000-000000000000","account_id":"0193a699-2f15-7881-8b7f-ae50980bcfad","profile_id":"0193a649-e3d0-7881-8b7f-2ef1d89a9aff","cba_id":null,"currency":"NGN","amount":"13844.00","balance_after":null,"reference":"TPXGNUY84U31","processor_reference":null,"processor_status":null,"processor_message":null,"status":"failed","entry_type":"credit","narration":null,"transaction_date":"2025-05-13T10:51:41.127Z","transaction_type":"saving-withdrawal","processor":"cba","reviewed_on":null,"reviewed_by":null,"batch_id":null,"schedule_id":null,"account":{"id":"0193a699-2f15-7881-8b7f-ae50980bcfad","meta":null,"created_on":"2024-12-08T14:07:57.204Z","created_by_id":null,"modified_on":"2025-05-14T18:45:08.845Z","modified_by_id":"019372de-17ef-7cc2-8fc0-43fe11ba042f","deleted_on":null,"deleted_by_id":null,"tenant_id":"00000000-0000-0000-0000-000000000000","name":"expenses","type":"account","cba_id":"0000000074","status":"active","profile_id":"0193a649-e3d0-7881-8b7f-2ef1d89a9aff","account_number":"0000000074","bank_id":"0193324f-cad0-7f86-923b-43fb21ac5b29","ledger_balance":"702016827.00","hold_balance":"10001000.00","available_balance":"692015827.00","currency":"NGN","restricted":false},"transfer":null,"disputes":[],"batch":null,"transfer_beneficiary":null,"bill_payment_beneficiary":null},{"id":"0196c942-ff21-7662-8586-27ea699f4f60","meta":null,"created_on":"2025-05-13T10:48:53.246Z","created_by_id":"01925343-fbc8-7886-abfb-41c8746fc8ce","modified_on":"2025-05-13T10:48:54.208Z","modified_by_id":"01925343-fbc8-7886-abfb-41c8746fc8ce","deleted_on":null,"deleted_by_id":null,"tenant_id":"00000000-0000-0000-0000-000000000000","account_id":"0193a699-2f15-7881-8b7f-ae50980bcfad","profile_id":"0193a649-e3d0-7881-8b7f-2ef1d89a9aff","cba_id":null,"currency":"NGN","amount":"13844.00","balance_after":null,"reference":"TQK7Q1V2QHCP","processor_reference":null,"processor_status":null,"processor_message":null,"status":"failed","entry_type":"credit","narration":null,"transaction_date":"2025-05-13T10:48:53.277Z","transaction_type":"saving-withdrawal","processor":"cba","reviewed_on":null,"reviewed_by":null,"batch_id":null,"schedule_id":null,"account":{"id":"0193a699-2f15-7881-8b7f-ae50980bcfad","meta":null,"created_on":"2024-12-08T14:07:57.204Z","created_by_id":null,"modified_on":"2025-05-14T18:45:08.845Z","modified_by_id":"019372de-17ef-7cc2-8fc0-43fe11ba042f","deleted_on":null,"deleted_by_id":null,"tenant_id":"00000000-0000-0000-0000-000000000000","name":"expenses","type":"account","cba_id":"0000000074","status":"active","profile_id":"0193a649-e3d0-7881-8b7f-2ef1d89a9aff","account_number":"0000000074","bank_id":"0193324f-cad0-7f86-923b-43fb21ac5b29","ledger_balance":"702016827.00","hold_balance":"10001000.00","available_balance":"692015827.00","currency":"NGN","restricted":false},"transfer":null,"disputes":[],"batch":null,"transfer_beneficiary":null,"bill_payment_beneficiary":null},{"id":"0196c942-29e4-7992-b6e4-a8c2fee30ede","meta":null,"created_on":"2025-05-13T10:47:58.651Z","created_by_id":"01925343-fbc8-7886-abfb-41c8746fc8ce","modified_on":"2025-05-13T10:47:59.692Z","modified_by_id":"01925343-fbc8-7886-abfb-41c8746fc8ce","deleted_on":null,"deleted_by_id":null,"tenant_id":"00000000-0000-0000-0000-000000000000","account_id":"0193a699-2f15-7881-8b7f-ae50980bcfad","profile_id":"0193a649-e3d0-7881-8b7f-2ef1d89a9aff","cba_id":null,"currency":"NGN","amount":"13844.00","balance_after":null,"reference":"TXD8ILBQQF0Q","processor_reference":null,"processor_status":null,"processor_message":null,"status":"failed","entry_type":"credit","narration":null,"transaction_date":"2025-05-13T10:47:58.683Z","transaction_type":"saving-withdrawal","processor":"cba","reviewed_on":null,"reviewed_by":null,"batch_id":null,"schedule_id":null,"account":{"id":"0193a699-2f15-7881-8b7f-ae50980bcfad","meta":null,"created_on":"2024-12-08T14:07:57.204Z","created_by_id":null,"modified_on":"2025-05-14T18:45:08.845Z","modified_by_id":"019372de-17ef-7cc2-8fc0-43fe11ba042f","deleted_on":null,"deleted_by_id":null,"tenant_id":"00000000-0000-0000-0000-000000000000","name":"expenses","type":"account","cba_id":"0000000074","status":"active","profile_id":"0193a649-e3d0-7881-8b7f-2ef1d89a9aff","account_number":"0000000074","bank_id":"0193324f-cad0-7f86-923b-43fb21ac5b29","ledger_balance":"702016827.00","hold_balance":"10001000.00","available_balance":"692015827.00","currency":"NGN","restricted":false},"transfer":null,"disputes":[],"batch":null,"transfer_beneficiary":null,"bill_payment_beneficiary":null},{"id":"0196c929-2388-7ee4-946e-f018a6a595fe","meta":null,"created_on":"2025-05-13T10:20:38.664Z","created_by_id":"019372de-17ef-7cc2-8fc0-43fe11ba042f","modified_on":"2025-05-13T10:20:39.356Z","modified_by_id":"019372de-17ef-7cc2-8fc0-43fe11ba042f","deleted_on":null,"deleted_by_id":null,"tenant_id":"00000000-0000-0000-0000-000000000000","account_id":"01951065-f30c-7bbe-8a30-3eee60a72183","profile_id":"0193a649-e3d0-7881-8b7f-2ef1d89a9aff","cba_id":"5864","currency":"NGN","amount":"10.00","balance_after":null,"reference":"TZVVBDUFRC9U","processor_reference":null,"processor_status":null,"processor_message":null,"status":"success","entry_type":"debit","narration":"f","transaction_date":"2025-05-13T10:20:38.663Z","transaction_type":"fee","processor":"cba","reviewed_on":null,"reviewed_by":null,"batch_id":null,"schedule_id":null,"account":{"id":"01951065-f30c-7bbe-8a30-3eee60a72183","meta":null,"created_on":"2025-02-16T20:14:31.692Z","created_by_id":"019372de-17ef-7cc2-8fc0-43fe11ba042f","modified_on":"2025-05-14T18:45:08.688Z","modified_by_id":"019372de-17ef-7cc2-8fc0-43fe11ba042f","deleted_on":null,"deleted_by_id":null,"tenant_id":"00000000-0000-0000-0000-000000000000","name":"Credit Card Account","type":"account","cba_id":"0000000390","status":"active","profile_id":"0193a649-e3d0-7881-8b7f-2ef1d89a9aff","account_number":"0000000390","bank_id":"0193324f-cad0-7f86-923b-43fb21ac5b29","ledger_balance":"1392.33","hold_balance":"0.00","available_balance":"1392.33","currency":"NGN","restricted":false},"transfer":null,"disputes":[],"batch":null,"transfer_beneficiary":null,"bill_payment_beneficiary":null},{"id":"0196c929-2379-7ee4-946e-e118b0fdc888","meta":null,"created_on":"2025-05-13T10:20:38.649Z","created_by_id":"019372de-17ef-7cc2-8fc0-43fe11ba042f","modified_on":"2025-05-13T10:20:39.356Z","modified_by_id":"019372de-17ef-7cc2-8fc0-43fe11ba042f","deleted_on":null,"deleted_by_id":null,"tenant_id":"00000000-0000-0000-0000-000000000000","account_id":"01951065-f30c-7bbe-8a30-3eee60a72183","profile_id":"0193a649-e3d0-7881-8b7f-2ef1d89a9aff","cba_id":null,"currency":"NGN","amount":"100.00","balance_after":null,"reference":"TZVVBDUFRC9U","processor_reference":null,"processor_status":null,"processor_message":null,"status":"success","entry_type":"debit","narration":"f","transaction_date":"2025-05-13T10:20:38.648Z","transaction_type":"transfer","processor":"cba","reviewed_on":null,"reviewed_by":null,"batch_id":null,"schedule_id":null,"account":{"id":"01951065-f30c-7bbe-8a30-3eee60a72183","meta":null,"created_on":"2025-02-16T20:14:31.692Z","created_by_id":"019372de-17ef-7cc2-8fc0-43fe11ba042f","modified_on":"2025-05-14T18:45:08.688Z","modified_by_id":"019372de-17ef-7cc2-8fc0-43fe11ba042f","deleted_on":null,"deleted_by_id":null,"tenant_id":"00000000-0000-0000-0000-000000000000","name":"Credit Card Account","type":"account","cba_id":"0000000390","status":"active","profile_id":"0193a649-e3d0-7881-8b7f-2ef1d89a9aff","account_number":"0000000390","bank_id":"0193324f-cad0-7f86-923b-43fb21ac5b29","ledger_balance":"1392.33","hold_balance":"0.00","available_balance":"1392.33","currency":"NGN","restricted":false},"transfer":{"id":"0196c929-237f-7ee4-946e-e80f81c369d3","meta":null,"created_on":"2025-05-13T10:20:38.649Z","created_by_id":"019372de-17ef-7cc2-8fc0-43fe11ba042f","modified_on":"2025-05-13T10:20:39.356Z","modified_by_id":"019372de-17ef-7cc2-8fc0-43fe11ba042f","deleted_on":null,"deleted_by_id":null,"tenant_id":"00000000-0000-0000-0000-000000000000","bank_code":"050030","bank_name":"NORTHQUEST FINANCE COMPANY LIMITED ","bank_logo":"https://cdn.prod.website-files.com/67342b6ac3243e10a48bee9d/673b02614b7fc0a77c0172b2_NorthQuest%20Finance%20%20Logo-p-500.png","account_name":"ADETUTU OMOYEMI ISINKAIYE|Brian Sanda","account_number":"8123470000","profile_id":"0193a649-e3d0-7881-8b7f-2ef1d89a9aff","transaction_id":"0196c929-2379-7ee4-946e-e118b0fdc888","account_id":"0195a8dc-0dcf-733b-b4fb-40750b41ed90","cba_id":"863"},"disputes":[],"batch":null,"transfer_beneficiary":null,"bill_payment_beneficiary":null},{"id":"0196c924-b0fc-7ee4-946e-903097b3213a","meta":null,"created_on":"2025-05-13T10:15:47.196Z","created_by_id":"019372de-17ef-7cc2-8fc0-43fe11ba042f","modified_on":"2025-05-13T10:15:49.913Z","modified_by_id":"019372de-17ef-7cc2-8fc0-43fe11ba042f","deleted_on":null,"deleted_by_id":null,"tenant_id":"00000000-0000-0000-0000-000000000000","account_id":"0193a699-2f15-7881-8b7f-ae50980bcfad","profile_id":"0193a649-e3d0-7881-8b7f-2ef1d89a9aff","cba_id":"5861","currency":"NGN","amount":"10.00","balance_after":null,"reference":"TSZM3AZR50Y7","processor_reference":null,"processor_status":null,"processor_message":null,"status":"success","entry_type":"debit","narration":"f","transaction_date":"2025-05-13T10:15:47.195Z","transaction_type":"fee","processor":"cba","reviewed_on":null,"reviewed_by":null,"batch_id":null,"schedule_id":null,"account":{"id":"0193a699-2f15-7881-8b7f-ae50980bcfad","meta":null,"created_on":"2024-12-08T14:07:57.204Z","created_by_id":null,"modified_on":"2025-05-14T18:45:08.845Z","modified_by_id":"019372de-17ef-7cc2-8fc0-43fe11ba042f","deleted_on":null,"deleted_by_id":null,"tenant_id":"00000000-0000-0000-0000-000000000000","name":"expenses","type":"account","cba_id":"0000000074","status":"active","profile_id":"0193a649-e3d0-7881-8b7f-2ef1d89a9aff","account_number":"0000000074","bank_id":"0193324f-cad0-7f86-923b-43fb21ac5b29","ledger_balance":"702016827.00","hold_balance":"10001000.00","available_balance":"692015827.00","currency":"NGN","restricted":false},"transfer":null,"disputes":[],"batch":null,"transfer_beneficiary":null,"bill_payment_beneficiary":null},{"id":"0196c924-b0ea-7ee4-946e-810be6547a67","meta":null,"created_on":"2025-05-13T10:15:47.178Z","created_by_id":"019372de-17ef-7cc2-8fc0-43fe11ba042f","modified_on":"2025-05-13T10:15:49.913Z","modified_by_id":"019372de-17ef-7cc2-8fc0-43fe11ba042f","deleted_on":null,"deleted_by_id":null,"tenant_id":"00000000-0000-0000-0000-000000000000","account_id":"0193a699-2f15-7881-8b7f-ae50980bcfad","profile_id":"0193a649-e3d0-7881-8b7f-2ef1d89a9aff","cba_id":null,"currency":"NGN","amount":"450000.00","balance_after":null,"reference":"TSZM3AZR50Y7","processor_reference":null,"processor_status":null,"processor_message":null,"status":"success","entry_type":"debit","narration":"f","transaction_date":"2025-05-13T10:15:47.177Z","transaction_type":"transfer","processor":"cba","reviewed_on":null,"reviewed_by":null,"batch_id":null,"schedule_id":null,"account":{"id":"0193a699-2f15-7881-8b7f-ae50980bcfad","meta":null,"created_on":"2024-12-08T14:07:57.204Z","created_by_id":null,"modified_on":"2025-05-14T18:45:08.845Z","modified_by_id":"019372de-17ef-7cc2-8fc0-43fe11ba042f","deleted_on":null,"deleted_by_id":null,"tenant_id":"00000000-0000-0000-0000-000000000000","name":"expenses","type":"account","cba_id":"0000000074","status":"active","profile_id":"0193a649-e3d0-7881-8b7f-2ef1d89a9aff","account_number":"0000000074","bank_id":"0193324f-cad0-7f86-923b-43fb21ac5b29","ledger_balance":"702016827.00","hold_balance":"10001000.00","available_balance":"692015827.00","currency":"NGN","restricted":false},"transfer":{"id":"0196c924-b0f0-7ee4-946e-8fa7939a90e7","meta":null,"created_on":"2025-05-13T10:15:47.178Z","created_by_id":"019372de-17ef-7cc2-8fc0-43fe11ba042f","modified_on":"2025-05-13T10:15:49.913Z","modified_by_id":"019372de-17ef-7cc2-8fc0-43fe11ba042f","deleted_on":null,"deleted_by_id":null,"tenant_id":"00000000-0000-0000-0000-000000000000","bank_code":"050030","bank_name":"NORTHQUEST FINANCE COMPANY LIMITED ","bank_logo":"https://cdn.prod.website-files.com/67342b6ac3243e10a48bee9d/673b02614b7fc0a77c0172b2_NorthQuest%20Finance%20%20Logo-p-500.png","account_name":"ADETUTU OMOYEMI ISINKAIYE|Brian Sanda","account_number":"8123470000","profile_id":"0193a649-e3d0-7881-8b7f-2ef1d89a9aff","transaction_id":"0196c924-b0ea-7ee4-946e-810be6547a67","account_id":"0195a8dc-0dcf-733b-b4fb-40750b41ed90","cba_id":"862"},"disputes":[],"batch":null,"transfer_beneficiary":null,"bill_payment_beneficiary":null},{"id":"0196bb0c-b46d-7bb2-84e9-c5e7aa1d0116","meta":null,"created_on":"2025-05-10T16:34:54.183Z","created_by_id":"01925343-fbc8-7886-abfb-41c8746fc8ce","modified_on":"2025-05-10T16:34:56.117Z","modified_by_id":"01925343-fbc8-7886-abfb-41c8746fc8ce","deleted_on":null,"deleted_by_id":null,"tenant_id":"00000000-0000-0000-0000-000000000000","account_id":"0193a699-2f15-7881-8b7f-ae50980bcfad","profile_id":"0193a649-e3d0-7881-8b7f-2ef1d89a9aff","cba_id":null,"currency":"NGN","amount":"2731.00","balance_after":null,"reference":"TCHOWC3B9YWR","processor_reference":null,"processor_status":null,"processor_message":null,"status":"success","entry_type":"debit","narration":null,"transaction_date":"2025-05-10T16:34:54.183Z","transaction_type":"saving-withdrawal","processor":"cba","reviewed_on":null,"reviewed_by":null,"batch_id":null,"schedule_id":null,"account":{"id":"0193a699-2f15-7881-8b7f-ae50980bcfad","meta":null,"created_on":"2024-12-08T14:07:57.204Z","created_by_id":null,"modified_on":"2025-05-14T18:45:08.845Z","modified_by_id":"019372de-17ef-7cc2-8fc0-43fe11ba042f","deleted_on":null,"deleted_by_id":null,"tenant_id":"00000000-0000-0000-0000-000000000000","name":"expenses","type":"account","cba_id":"0000000074","status":"active","profile_id":"0193a649-e3d0-7881-8b7f-2ef1d89a9aff","account_number":"0000000074","bank_id":"0193324f-cad0-7f86-923b-43fb21ac5b29","ledger_balance":"702016827.00","hold_balance":"10001000.00","available_balance":"692015827.00","currency":"NGN","restricted":false},"transfer":null,"disputes":[{"id":"0196c105-9f36-7000-bf0c-d49d1c95d49b","meta":null,"created_on":"2025-05-11T20:24:53.302Z","created_by_id":"019372de-17ef-7cc2-8fc0-43fe11ba042f","modified_on":"2025-05-11T20:24:53.302Z","modified_by_id":null,"deleted_on":null,"deleted_by_id":null,"tenant_id":"00000000-0000-0000-0000-000000000000","file_id":"0194462d-2cbc-788e-b49e-8f0163251b62","transaction_id":"0196bb0c-b46d-7bb2-84e9-c5e7aa1d0116","status":"pending","note":"egbami, e no dey work","comment":null,"reviewed_on":null,"reviewed_by":null,"profile_id":"0193a649-e3d0-7881-8b7f-2ef1d89a9aff"}],"batch":null,"transfer_beneficiary":null,"bill_payment_beneficiary":null}],"meta":{"page":1,"total_pages":142,"total_items":1416}}