{"status":"success","data":[{"id":"0196343b-9f1e-7cce-84d8-3dbdb314697a","meta":null,"created_on":"2025-04-14T12:17:24.766Z","created_by_id":"019372de-17ef-7cc2-8fc0-43fe11ba042f","modified_on":"2025-04-14T12:33:19.650Z","modified_by_id":"019372de-17ef-7cc2-8fc0-43fe11ba042f","deleted_on":null,"deleted_by_id":null,"tenant_id":"00000000-0000-0000-0000-000000000000","user_id":"019372de-17ef-7cc2-8fc0-43fe11ba042f","body":"The Maker-Checker feature has been disabled. Users can now approve their own actions.","title":"Maker-checker Disabled","type":"push","status":"read"},{"id":"0196262d-b5d4-7335-a629-84e305b1a80b","meta":null,"created_on":"2025-04-11T18:47:32.053Z","created_by_id":"019372de-17ef-7cc2-8fc0-43fe11ba042f","modified_on":"2025-04-14T12:33:19.650Z","modified_by_id":"019372de-17ef-7cc2-8fc0-43fe11ba042f","deleted_on":null,"deleted_by_id":null,"tenant_id":"00000000-0000-0000-0000-000000000000","user_id":"019372de-17ef-7cc2-8fc0-43fe11ba042f","body":"Your beneficiary John Doe has been successfully added to your account.","title":"Beneficiary Added Successfully","type":"push","status":"read"},{"id":"0196262d-7f2d-7335-a628-f32ea6eefa77","meta":null,"created_on":"2025-04-11T18:47:18.061Z","created_by_id":"019372de-17ef-7cc2-8fc0-43fe11ba042f","modified_on":"2025-04-14T12:33:19.650Z","modified_by_id":"019372de-17ef-7cc2-8fc0-43fe11ba042f","deleted_on":null,"deleted_by_id":null,"tenant_id":"00000000-0000-0000-0000-000000000000","user_id":"019372de-17ef-7cc2-8fc0-43fe11ba042f","body":"The Maker-Checker feature has been enabled. Actions created by one user will require approval by a different user to be processed","title":"Maker-checker Enabled","type":"push","status":"read"},{"id":"01960a23-c1c5-777d-876e-6f59c6b65782","meta":null,"created_on":"2025-04-06T08:07:17.702Z","created_by_id":"019372de-17ef-7cc2-8fc0-43fe11ba042f","modified_on":"2025-04-06T08:10:46.842Z","modified_by_id":"019372de-17ef-7cc2-8fc0-43fe11ba042f","deleted_on":null,"deleted_by_id":null,"tenant_id":"00000000-0000-0000-0000-000000000000","user_id":"019372de-17ef-7cc2-8fc0-43fe11ba042f","body":"The Maker-Checker feature has been disabled. Users can now approve their own actions.","title":"Maker-checker Disabled","type":"push","status":"read"},{"id":"0195fb64-9566-7887-ab32-00b373b64dd1","meta":null,"created_on":"2025-04-03T11:23:47.938Z","created_by_id":"019372de-17ef-7cc2-8fc0-43fe11ba042f","modified_on":"2025-04-06T08:10:46.842Z","modified_by_id":"019372de-17ef-7cc2-8fc0-43fe11ba042f","deleted_on":null,"deleted_by_id":null,"tenant_id":"00000000-0000-0000-0000-000000000000","user_id":"019372de-17ef-7cc2-8fc0-43fe11ba042f","body":"Your beneficiary John Doe has been successfully added to your account.","title":"Add beneficiary","type":"push","status":"read"},{"id":"0195fb64-6043-7887-ab31-85f0888927a6","meta":null,"created_on":"2025-04-03T11:23:34.338Z","created_by_id":"019372de-17ef-7cc2-8fc0-43fe11ba042f","modified_on":"2025-04-06T08:10:46.842Z","modified_by_id":"019372de-17ef-7cc2-8fc0-43fe11ba042f","deleted_on":null,"deleted_by_id":null,"tenant_id":"00000000-0000-0000-0000-000000000000","user_id":"019372de-17ef-7cc2-8fc0-43fe11ba042f","body":"The Maker-Checker feature has been enabled. Actions created by one user will require approval by a different user to be processed","title":"Maker-checker Enabled","type":"push","status":"read"},{"id":"0195f7d3-0af6-7887-ab28-45230d8d5c14","meta":null,"created_on":"2025-04-02T18:45:58.130Z","created_by_id":"019372de-17ef-7cc2-8fc0-43fe11ba042f","modified_on":"2025-04-06T08:10:46.842Z","modified_by_id":"019372de-17ef-7cc2-8fc0-43fe11ba042f","deleted_on":null,"deleted_by_id":null,"tenant_id":"00000000-0000-0000-0000-000000000000","user_id":"019372de-17ef-7cc2-8fc0-43fe11ba042f","body":"Your beneficiary John Doe has been successfully added to your account.","title":"Add beneficiary","type":"push","status":"read"},{"id":"0195f7d2-b2b3-7887-ab27-bead7b47dba1","meta":null,"created_on":"2025-04-02T18:45:35.535Z","created_by_id":"019372de-17ef-7cc2-8fc0-43fe11ba042f","modified_on":"2025-04-06T08:10:46.842Z","modified_by_id":"019372de-17ef-7cc2-8fc0-43fe11ba042f","deleted_on":null,"deleted_by_id":null,"tenant_id":"00000000-0000-0000-0000-000000000000","user_id":"019372de-17ef-7cc2-8fc0-43fe11ba042f","body":"The Maker-Checker feature has been enabled. Actions created by one user will require approval by a different user to be processed","title":"Maker-checker Enabled","type":"push","status":"read"},{"id":"0195f51d-a678-7887-ab17-deab827a5563","meta":null,"created_on":"2025-04-02T06:08:35.961Z","created_by_id":"019372de-17ef-7cc2-8fc0-43fe11ba042f","modified_on":"2025-04-06T08:10:46.842Z","modified_by_id":"019372de-17ef-7cc2-8fc0-43fe11ba042f","deleted_on":null,"deleted_by_id":null,"tenant_id":"00000000-0000-0000-0000-000000000000","user_id":"019372de-17ef-7cc2-8fc0-43fe11ba042f","body":"Your beneficiary John Doe has been successfully added to your account.","title":"Add beneficiary","type":"push","status":"read"},{"id":"0195f51d-6b06-7887-ab17-59732d89809d","meta":null,"created_on":"2025-04-02T06:08:20.741Z","created_by_id":"019372de-17ef-7cc2-8fc0-43fe11ba042f","modified_on":"2025-04-06T08:10:46.842Z","modified_by_id":"019372de-17ef-7cc2-8fc0-43fe11ba042f","deleted_on":null,"deleted_by_id":null,"tenant_id":"00000000-0000-0000-0000-000000000000","user_id":"019372de-17ef-7cc2-8fc0-43fe11ba042f","body":"The Maker-Checker feature has been enabled. Actions created by one user will require approval by a different user to be processed","title":"Maker-checker Enabled","type":"push","status":"read"}],"meta":{"page":1,"total_pages":15,"total_items":144}}