{"status":"success","data":[{"id":"01963feb-89aa-7003-bb74-b91a411c7c8f","meta":null,"created_on":"2025-04-16T18:45:22.986Z","created_by_id":null,"modified_on":"2025-04-16T18:45:22.986Z","modified_by_id":null,"deleted_on":null,"deleted_by_id":null,"tenant_id":"00000000-0000-0000-0000-000000000000","user_id":"019372de-17ef-7cc2-8fc0-43fe11ba042f","status":"pending","referree_id":"01963feb-8958-7003-bb74-b1235fd4b18b","referree_earning":"233.33","referrer_earning":"100.32","user":{"id":"019372de-17ef-7cc2-8fc0-43fe11ba042f","meta":{},"created_on":"2024-11-28T13:02:58.029Z","created_by_id":null,"modified_on":"2025-04-16T18:46:39.520Z","modified_by_id":"019372de-17ef-7cc2-8fc0-43fe11ba042f","deleted_on":null,"deleted_by_id":null,"tenant_id":"00000000-0000-0000-0000-000000000000","email":"ismael@mailinator.com","status":"active","first_name":"Sunday","last_name":"Testing","twofa_enabled":false,"last_active":"2025-04-16T18:46:30.489Z","last_ip":"52.234.38.122","allowed_ips":null,"last_timezone":"America/Los_Angeles","last_location":"San Jose","phone":"+2348089722636","review":null,"gender":"male","date_of_birth":null,"cba_id":"31","photo_id":null,"referral_code":"7LD1QN","referred_by":null},"referree":{"id":"01963feb-8958-7003-bb74-b1235fd4b18b","meta":null,"created_on":"2025-04-16T18:45:22.905Z","created_by_id":null,"modified_on":"2025-04-16T18:45:23.005Z","modified_by_id":null,"deleted_on":null,"deleted_by_id":null,"tenant_id":"00000000-0000-0000-0000-000000000000","email":"BerryMetzAccount0@mailinator.com","status":"active","first_name":"Schultz","last_name":"Constance","twofa_enabled":false,"last_active":"2025-04-16T18:45:22.905Z","last_ip":"52.234.38.122","allowed_ips":null,"last_timezone":"America/Los_Angeles","last_location":"San Jose","phone":null,"review":null,"gender":null,"date_of_birth":null,"cba_id":null,"photo_id":null,"referral_code":"K15TIE","referred_by":"019372de-17ef-7cc2-8fc0-43fe11ba042f"},"events":[]},{"id":"019630d2-54c6-7886-ad07-3c130ee71255","meta":null,"created_on":"2025-04-13T20:23:32.805Z","created_by_id":null,"modified_on":"2025-04-13T20:23:32.805Z","modified_by_id":null,"deleted_on":null,"deleted_by_id":null,"tenant_id":"00000000-0000-0000-0000-000000000000","user_id":"019372de-17ef-7cc2-8fc0-43fe11ba042f","status":"pending","referree_id":"019630d2-54af-7886-ad07-35f094be26cd","referree_earning":"233.33","referrer_earning":"100.32","user":{"id":"019372de-17ef-7cc2-8fc0-43fe11ba042f","meta":{},"created_on":"2024-11-28T13:02:58.029Z","created_by_id":null,"modified_on":"2025-04-16T18:46:39.520Z","modified_by_id":"019372de-17ef-7cc2-8fc0-43fe11ba042f","deleted_on":null,"deleted_by_id":null,"tenant_id":"00000000-0000-0000-0000-000000000000","email":"ismael@mailinator.com","status":"active","first_name":"Sunday","last_name":"Testing","twofa_enabled":false,"last_active":"2025-04-16T18:46:30.489Z","last_ip":"52.234.38.122","allowed_ips":null,"last_timezone":"America/Los_Angeles","last_location":"San Jose","phone":"+2348089722636","review":null,"gender":"male","date_of_birth":null,"cba_id":"31","photo_id":null,"referral_code":"7LD1QN","referred_by":null},"referree":{"id":"019630d2-54af-7886-ad07-35f094be26cd","meta":null,"created_on":"2025-04-13T20:23:32.782Z","created_by_id":null,"modified_on":"2025-04-13T20:23:32.873Z","modified_by_id":null,"deleted_on":null,"deleted_by_id":null,"tenant_id":"00000000-0000-0000-0000-000000000000","email":"ManuelLueilwitzHawaiis@mailinator.com","status":"active","first_name":"Kuhlman","last_name":"Breana","twofa_enabled":false,"last_active":"2025-04-13T20:23:32.782Z","last_ip":"20.169.15.151","allowed_ips":null,"last_timezone":"America/Phoenix","last_location":"Phoenix","phone":null,"review":null,"gender":null,"date_of_birth":null,"cba_id":null,"photo_id":null,"referral_code":"DGQ4V5","referred_by":"019372de-17ef-7cc2-8fc0-43fe11ba042f"},"events":[]},{"id":"019630c5-73c5-7886-ad07-01a316ed9d8b","meta":null,"created_on":"2025-04-13T20:09:28.773Z","created_by_id":null,"modified_on":"2025-04-13T20:09:28.773Z","modified_by_id":null,"deleted_on":null,"deleted_by_id":null,"tenant_id":"00000000-0000-0000-0000-000000000000","user_id":"019372de-17ef-7cc2-8fc0-43fe11ba042f","status":"pending","referree_id":"019630c5-7370-7886-ad06-fc611f5fc926","referree_earning":"233.33","referrer_earning":"100.32","user":{"id":"019372de-17ef-7cc2-8fc0-43fe11ba042f","meta":{},"created_on":"2024-11-28T13:02:58.029Z","created_by_id":null,"modified_on":"2025-04-16T18:46:39.520Z","modified_by_id":"019372de-17ef-7cc2-8fc0-43fe11ba042f","deleted_on":null,"deleted_by_id":null,"tenant_id":"00000000-0000-0000-0000-000000000000","email":"ismael@mailinator.com","status":"active","first_name":"Sunday","last_name":"Testing","twofa_enabled":false,"last_active":"2025-04-16T18:46:30.489Z","last_ip":"52.234.38.122","allowed_ips":null,"last_timezone":"America/Los_Angeles","last_location":"San Jose","phone":"+2348089722636","review":null,"gender":"male","date_of_birth":null,"cba_id":"31","photo_id":null,"referral_code":"7LD1QN","referred_by":null},"referree":{"id":"019630c5-7370-7886-ad06-fc611f5fc926","meta":null,"created_on":"2025-04-13T20:09:28.688Z","created_by_id":null,"modified_on":"2025-04-13T20:09:28.791Z","modified_by_id":null,"deleted_on":null,"deleted_by_id":null,"tenant_id":"00000000-0000-0000-0000-000000000000","email":"HeidiHuelRoads@mailinator.com","status":"active","first_name":"Osinski","last_name":"Kaleb","twofa_enabled":false,"last_active":"2025-04-13T20:09:28.688Z","last_ip":"20.25.204.41","allowed_ips":null,"last_timezone":"America/Chicago","last_location":"Chicago","phone":null,"review":null,"gender":null,"date_of_birth":null,"cba_id":null,"photo_id":null,"referral_code":"2IM3CW","referred_by":"019372de-17ef-7cc2-8fc0-43fe11ba042f"},"events":[]},{"id":"0196262d-d92f-7335-a629-bf17a5948e60","meta":null,"created_on":"2025-04-11T18:47:41.104Z","created_by_id":null,"modified_on":"2025-04-11T18:47:41.104Z","modified_by_id":null,"deleted_on":null,"deleted_by_id":null,"tenant_id":"00000000-0000-0000-0000-000000000000","user_id":"019372de-17ef-7cc2-8fc0-43fe11ba042f","status":"pending","referree_id":"0196262d-d927-7335-a629-b486f3d6bcc9","referree_earning":"233.33","referrer_earning":"100.32","user":{"id":"019372de-17ef-7cc2-8fc0-43fe11ba042f","meta":{},"created_on":"2024-11-28T13:02:58.029Z","created_by_id":null,"modified_on":"2025-04-16T18:46:39.520Z","modified_by_id":"019372de-17ef-7cc2-8fc0-43fe11ba042f","deleted_on":null,"deleted_by_id":null,"tenant_id":"00000000-0000-0000-0000-000000000000","email":"ismael@mailinator.com","status":"active","first_name":"Sunday","last_name":"Testing","twofa_enabled":false,"last_active":"2025-04-16T18:46:30.489Z","last_ip":"52.234.38.122","allowed_ips":null,"last_timezone":"America/Los_Angeles","last_location":"San Jose","phone":"+2348089722636","review":null,"gender":"male","date_of_birth":null,"cba_id":"31","photo_id":null,"referral_code":"7LD1QN","referred_by":null},"referree":{"id":"0196262d-d927-7335-a629-b486f3d6bcc9","meta":null,"created_on":"2025-04-11T18:47:41.018Z","created_by_id":null,"modified_on":"2025-04-11T18:47:41.120Z","modified_by_id":null,"deleted_on":null,"deleted_by_id":null,"tenant_id":"00000000-0000-0000-0000-000000000000","email":"GinoOberbrunnermulti-byte@mailinator.com","status":"active","first_name":"Breitenberg","last_name":"Jovan","twofa_enabled":false,"last_active":"2025-04-11T18:47:41.018Z","last_ip":"23.98.188.69","allowed_ips":null,"last_timezone":"America/Chicago","last_location":"San Antonio","phone":null,"review":null,"gender":null,"date_of_birth":null,"cba_id":null,"photo_id":null,"referral_code":"LRGWR0","referred_by":"019372de-17ef-7cc2-8fc0-43fe11ba042f"},"events":[]},{"id":"0196262d-1ed3-7335-a628-0d933f662cee","meta":null,"created_on":"2025-04-11T18:46:53.317Z","created_by_id":null,"modified_on":"2025-04-11T18:46:53.317Z","modified_by_id":null,"deleted_on":null,"deleted_by_id":null,"tenant_id":"00000000-0000-0000-0000-000000000000","user_id":"019372de-17ef-7cc2-8fc0-43fe11ba042f","status":"pending","referree_id":"0196262d-1e7c-7335-a628-068f158e1bce","referree_earning":"233.33","referrer_earning":"100.32","user":{"id":"019372de-17ef-7cc2-8fc0-43fe11ba042f","meta":{},"created_on":"2024-11-28T13:02:58.029Z","created_by_id":null,"modified_on":"2025-04-16T18:46:39.520Z","modified_by_id":"019372de-17ef-7cc2-8fc0-43fe11ba042f","deleted_on":null,"deleted_by_id":null,"tenant_id":"00000000-0000-0000-0000-000000000000","email":"ismael@mailinator.com","status":"active","first_name":"Sunday","last_name":"Testing","twofa_enabled":false,"last_active":"2025-04-16T18:46:30.489Z","last_ip":"52.234.38.122","allowed_ips":null,"last_timezone":"America/Los_Angeles","last_location":"San Jose","phone":"+2348089722636","review":null,"gender":"male","date_of_birth":null,"cba_id":"31","photo_id":null,"referral_code":"7LD1QN","referred_by":null},"referree":{"id":"0196262d-1e7c-7335-a628-068f158e1bce","meta":null,"created_on":"2025-04-11T18:46:53.309Z","created_by_id":null,"modified_on":"2025-04-11T18:46:53.412Z","modified_by_id":null,"deleted_on":null,"deleted_by_id":null,"tenant_id":"00000000-0000-0000-0000-000000000000","email":"UrbanPadbergoptical8@mailinator.com","status":"active","first_name":"Tillman","last_name":"Rhianna","twofa_enabled":false,"last_active":"2025-04-11T18:46:53.309Z","last_ip":"20.39.61.198","allowed_ips":null,"last_timezone":"America/New_York","last_location":"Tappahannock","phone":null,"review":null,"gender":null,"date_of_birth":null,"cba_id":null,"photo_id":null,"referral_code":"BGSHD4","referred_by":"019372de-17ef-7cc2-8fc0-43fe11ba042f"},"events":[]},{"id":"01961be0-5ec3-7aa9-8b92-df6b3d3af3ef","meta":null,"created_on":"2025-04-09T18:46:51.331Z","created_by_id":null,"modified_on":"2025-04-09T18:46:51.331Z","modified_by_id":null,"deleted_on":null,"deleted_by_id":null,"tenant_id":"00000000-0000-0000-0000-000000000000","user_id":"019372de-17ef-7cc2-8fc0-43fe11ba042f","status":"pending","referree_id":"01961be0-5ebb-7aa9-8b92-d70529515434","referree_earning":"233.33","referrer_earning":"100.32","user":{"id":"019372de-17ef-7cc2-8fc0-43fe11ba042f","meta":{},"created_on":"2024-11-28T13:02:58.029Z","created_by_id":null,"modified_on":"2025-04-16T18:46:39.520Z","modified_by_id":"019372de-17ef-7cc2-8fc0-43fe11ba042f","deleted_on":null,"deleted_by_id":null,"tenant_id":"00000000-0000-0000-0000-000000000000","email":"ismael@mailinator.com","status":"active","first_name":"Sunday","last_name":"Testing","twofa_enabled":false,"last_active":"2025-04-16T18:46:30.489Z","last_ip":"52.234.38.122","allowed_ips":null,"last_timezone":"America/Los_Angeles","last_location":"San Jose","phone":"+2348089722636","review":null,"gender":"male","date_of_birth":null,"cba_id":"31","photo_id":null,"referral_code":"7LD1QN","referred_by":null},"referree":{"id":"01961be0-5ebb-7aa9-8b92-d70529515434","meta":null,"created_on":"2025-04-09T18:46:51.323Z","created_by_id":null,"modified_on":"2025-04-09T18:46:51.343Z","modified_by_id":null,"deleted_on":null,"deleted_by_id":null,"tenant_id":"00000000-0000-0000-0000-000000000000","email":"TorranceWiegandMetal@mailinator.com","status":"active","first_name":"Abbott","last_name":"Juliana","twofa_enabled":false,"last_active":"2025-04-09T18:46:51.323Z","last_ip":"20.171.120.131","allowed_ips":null,"last_timezone":"America/Phoenix","last_location":"Phoenix","phone":null,"review":null,"gender":null,"date_of_birth":null,"cba_id":null,"photo_id":null,"referral_code":"SXDC4B","referred_by":"019372de-17ef-7cc2-8fc0-43fe11ba042f"},"events":[]},{"id":"01961bde-408e-7aa9-8b8e-a5cdaabf88c2","meta":null,"created_on":"2025-04-09T18:44:32.526Z","created_by_id":null,"modified_on":"2025-04-09T18:44:32.526Z","modified_by_id":null,"deleted_on":null,"deleted_by_id":null,"tenant_id":"00000000-0000-0000-0000-000000000000","user_id":"019372de-17ef-7cc2-8fc0-43fe11ba042f","status":"pending","referree_id":"01961bde-4086-7aa9-8b8e-9a8a09bbb95a","referree_earning":"233.33","referrer_earning":"100.32","user":{"id":"019372de-17ef-7cc2-8fc0-43fe11ba042f","meta":{},"created_on":"2024-11-28T13:02:58.029Z","created_by_id":null,"modified_on":"2025-04-16T18:46:39.520Z","modified_by_id":"019372de-17ef-7cc2-8fc0-43fe11ba042f","deleted_on":null,"deleted_by_id":null,"tenant_id":"00000000-0000-0000-0000-000000000000","email":"ismael@mailinator.com","status":"active","first_name":"Sunday","last_name":"Testing","twofa_enabled":false,"last_active":"2025-04-16T18:46:30.489Z","last_ip":"52.234.38.122","allowed_ips":null,"last_timezone":"America/Los_Angeles","last_location":"San Jose","phone":"+2348089722636","review":null,"gender":"male","date_of_birth":null,"cba_id":"31","photo_id":null,"referral_code":"7LD1QN","referred_by":null},"referree":{"id":"01961bde-4086-7aa9-8b8e-9a8a09bbb95a","meta":null,"created_on":"2025-04-09T18:44:32.442Z","created_by_id":null,"modified_on":"2025-04-09T18:44:32.540Z","modified_by_id":null,"deleted_on":null,"deleted_by_id":null,"tenant_id":"00000000-0000-0000-0000-000000000000","email":"AlejandrinQuitzonBalboa0@mailinator.com","status":"active","first_name":"Gorczany","last_name":"Casper","twofa_enabled":false,"last_active":"2025-04-09T18:44:32.442Z","last_ip":"52.225.37.48","allowed_ips":null,"last_timezone":"America/Los_Angeles","last_location":"San Jose","phone":null,"review":null,"gender":null,"date_of_birth":null,"cba_id":null,"photo_id":null,"referral_code":"THO6NH","referred_by":"019372de-17ef-7cc2-8fc0-43fe11ba042f"},"events":[]},{"id":"01961b11-3fbe-7aa9-8b8a-b95590c9e7a1","meta":null,"created_on":"2025-04-09T15:00:37.440Z","created_by_id":null,"modified_on":"2025-04-09T15:00:37.440Z","modified_by_id":null,"deleted_on":null,"deleted_by_id":null,"tenant_id":"00000000-0000-0000-0000-000000000000","user_id":"019372de-17ef-7cc2-8fc0-43fe11ba042f","status":"pending","referree_id":"01961b11-3fb8-7aa9-8b8a-b099dd26460d","referree_earning":"233.33","referrer_earning":"100.32","user":{"id":"019372de-17ef-7cc2-8fc0-43fe11ba042f","meta":{},"created_on":"2024-11-28T13:02:58.029Z","created_by_id":null,"modified_on":"2025-04-16T18:46:39.520Z","modified_by_id":"019372de-17ef-7cc2-8fc0-43fe11ba042f","deleted_on":null,"deleted_by_id":null,"tenant_id":"00000000-0000-0000-0000-000000000000","email":"ismael@mailinator.com","status":"active","first_name":"Sunday","last_name":"Testing","twofa_enabled":false,"last_active":"2025-04-16T18:46:30.489Z","last_ip":"52.234.38.122","allowed_ips":null,"last_timezone":"America/Los_Angeles","last_location":"San Jose","phone":"+2348089722636","review":null,"gender":"male","date_of_birth":null,"cba_id":"31","photo_id":null,"referral_code":"7LD1QN","referred_by":null},"referree":{"id":"01961b11-3fb8-7aa9-8b8a-b099dd26460d","meta":null,"created_on":"2025-04-09T15:00:37.434Z","created_by_id":null,"modified_on":"2025-04-09T15:00:37.522Z","modified_by_id":null,"deleted_on":null,"deleted_by_id":null,"tenant_id":"00000000-0000-0000-0000-000000000000","email":"AshleyKemmerfault-tolerante@mailinator.com","status":"active","first_name":"Dickens","last_name":"Hershel","twofa_enabled":false,"last_active":"2025-04-09T15:00:37.434Z","last_ip":"52.190.142.199","allowed_ips":null,"last_timezone":"America/Los_Angeles","last_location":"San Jose","phone":null,"review":null,"gender":null,"date_of_birth":null,"cba_id":null,"photo_id":null,"referral_code":"BLHGIZ","referred_by":"019372de-17ef-7cc2-8fc0-43fe11ba042f"},"events":[]},{"id":"01960e58-ac19-7993-88f3-405d0b6064b6","meta":null,"created_on":"2025-04-07T03:43:34.424Z","created_by_id":null,"modified_on":"2025-04-07T03:43:34.424Z","modified_by_id":null,"deleted_on":null,"deleted_by_id":null,"tenant_id":"00000000-0000-0000-0000-000000000000","user_id":"019372de-17ef-7cc2-8fc0-43fe11ba042f","status":"pending","referree_id":"01960e58-ac0f-7993-88f3-39e826b95e86","referree_earning":"233.33","referrer_earning":"100.32","user":{"id":"019372de-17ef-7cc2-8fc0-43fe11ba042f","meta":{},"created_on":"2024-11-28T13:02:58.029Z","created_by_id":null,"modified_on":"2025-04-16T18:46:39.520Z","modified_by_id":"019372de-17ef-7cc2-8fc0-43fe11ba042f","deleted_on":null,"deleted_by_id":null,"tenant_id":"00000000-0000-0000-0000-000000000000","email":"ismael@mailinator.com","status":"active","first_name":"Sunday","last_name":"Testing","twofa_enabled":false,"last_active":"2025-04-16T18:46:30.489Z","last_ip":"52.234.38.122","allowed_ips":null,"last_timezone":"America/Los_Angeles","last_location":"San Jose","phone":"+2348089722636","review":null,"gender":"male","date_of_birth":null,"cba_id":"31","photo_id":null,"referral_code":"7LD1QN","referred_by":null},"referree":{"id":"01960e58-ac0f-7993-88f3-39e826b95e86","meta":null,"created_on":"2025-04-07T03:43:34.414Z","created_by_id":null,"modified_on":"2025-04-07T03:43:34.441Z","modified_by_id":null,"deleted_on":null,"deleted_by_id":null,"tenant_id":"00000000-0000-0000-0000-000000000000","email":"ClaudieGoldnerengineerz@mailinator.com","status":"active","first_name":"Kerluke","last_name":"Amiya","twofa_enabled":false,"last_active":"2025-04-07T03:43:34.414Z","last_ip":"172.69.17.86","allowed_ips":null,"last_timezone":"Africa/Monrovia","last_location":"Monrovia","phone":null,"review":null,"gender":null,"date_of_birth":null,"cba_id":null,"photo_id":null,"referral_code":"UN8INR","referred_by":"019372de-17ef-7cc2-8fc0-43fe11ba042f"},"events":[]},{"id":"01960cc5-57d1-7993-88ec-5cc13b6e764d","meta":null,"created_on":"2025-04-06T20:23:01.840Z","created_by_id":null,"modified_on":"2025-04-06T20:23:01.840Z","modified_by_id":null,"deleted_on":null,"deleted_by_id":null,"tenant_id":"00000000-0000-0000-0000-000000000000","user_id":"019372de-17ef-7cc2-8fc0-43fe11ba042f","status":"pending","referree_id":"01960cc5-57b8-7993-88ec-5085fa88482e","referree_earning":"233.33","referrer_earning":"100.32","user":{"id":"019372de-17ef-7cc2-8fc0-43fe11ba042f","meta":{},"created_on":"2024-11-28T13:02:58.029Z","created_by_id":null,"modified_on":"2025-04-16T18:46:39.520Z","modified_by_id":"019372de-17ef-7cc2-8fc0-43fe11ba042f","deleted_on":null,"deleted_by_id":null,"tenant_id":"00000000-0000-0000-0000-000000000000","email":"ismael@mailinator.com","status":"active","first_name":"Sunday","last_name":"Testing","twofa_enabled":false,"last_active":"2025-04-16T18:46:30.489Z","last_ip":"52.234.38.122","allowed_ips":null,"last_timezone":"America/Los_Angeles","last_location":"San Jose","phone":"+2348089722636","review":null,"gender":"male","date_of_birth":null,"cba_id":"31","photo_id":null,"referral_code":"7LD1QN","referred_by":null},"referree":{"id":"01960cc5-57b8-7993-88ec-5085fa88482e","meta":null,"created_on":"2025-04-06T20:23:01.816Z","created_by_id":null,"modified_on":"2025-04-06T20:23:01.919Z","modified_by_id":null,"deleted_on":null,"deleted_by_id":null,"tenant_id":"00000000-0000-0000-0000-000000000000","email":"CarmineMcDermottinterface4@mailinator.com","status":"active","first_name":"Bergnaum","last_name":"Virginia","twofa_enabled":false,"last_active":"2025-04-06T20:23:01.816Z","last_ip":"172.69.22.81","allowed_ips":null,"last_timezone":"America/Los_Angeles","last_location":"San Jose","phone":null,"review":null,"gender":null,"date_of_birth":null,"cba_id":null,"photo_id":null,"referral_code":"CUBYF5","referred_by":"019372de-17ef-7cc2-8fc0-43fe11ba042f"},"events":[]}],"meta":{"page":1,"total_pages":8,"total_items":73}}