{"status":"success","data":[{"id":"0195002e-9d3f-7ffd-8a4d-2dc4044a2194","meta":{"rc-number":"4567876","business-name":"thank you","business-email":"frail@yopmail.com","business-phone":"+23438092111","business-types":"Cooperative (Co-op)","business-address":"2 kene street"},"created_on":"2025-02-13T16:40:09.791Z","created_by_id":"0195002e-2d89-7ffd-8a4c-f2bc56584db8","modified_on":"2025-02-13T16:40:09.791Z","modified_by_id":null,"deleted_on":null,"deleted_by_id":null,"tenant_id":"00000000-0000-0000-0000-000000000000","name":"Profile","type":"business","status":"active","review":null,"allowed_time_periods":null,"primary_user_id":"0195002e-2d89-7ffd-8a4c-f2bc56584db8","tier_id":null,"primary_user":{"id":"0195002e-2d89-7ffd-8a4c-f2bc56584db8","meta":null,"created_on":"2025-02-13T16:39:41.193Z","created_by_id":null,"modified_on":"2025-02-13T16:47:52.300Z","modified_by_id":"0195002e-2d89-7ffd-8a4c-f2bc56584db8","deleted_on":null,"deleted_by_id":null,"tenant_id":"00000000-0000-0000-0000-000000000000","email":"wait@yopmail.com","status":"active","first_name":"all","last_name":"Brown","twofa_enabled":false,"last_active":"2025-02-13T16:47:52.299Z","last_ip":"172.70.91.139","allowed_ips":null,"last_timezone":"Europe/London","last_location":"London","phone":"+2348138091122","review":null,"gender":null,"date_of_birth":null,"cba_id":null,"photo_id":null,"referral_code":"5LRQIP","allowed_locations":null,"referred_by":null},"tier":null},{"id":"0195002d-3929-7ffd-8a4c-b6da184664ea","meta":{"rc-number":"4567877","business-name":"pending","business-email":"fraiil@yopmail.com","business-phone":"+23438092991","business-types":"Limited Liability Partnership (LLP)","business-address":"2 kene street"},"created_on":"2025-02-13T16:38:38.633Z","created_by_id":"0195002c-a5cf-7ffd-8a4c-8a1759b09bd7","modified_on":"2025-02-13T16:38:38.633Z","modified_by_id":null,"deleted_on":null,"deleted_by_id":null,"tenant_id":"00000000-0000-0000-0000-000000000000","name":"Profile","type":"business","status":"active","review":null,"allowed_time_periods":null,"primary_user_id":"0195002c-a5cf-7ffd-8a4c-8a1759b09bd7","tier_id":null,"primary_user":{"id":"0195002c-a5cf-7ffd-8a4c-8a1759b09bd7","meta":null,"created_on":"2025-02-13T16:38:00.912Z","created_by_id":null,"modified_on":"2025-02-13T16:38:58.224Z","modified_by_id":"0195002c-a5cf-7ffd-8a4c-8a1759b09bd7","deleted_on":null,"deleted_by_id":null,"tenant_id":"00000000-0000-0000-0000-000000000000","email":"strange@yopmail.com","status":"active","first_name":"Slate","last_name":"Brown","twofa_enabled":false,"last_active":"2025-02-13T16:38:58.221Z","last_ip":"141.101.76.192","allowed_ips":null,"last_timezone":"Europe/Amsterdam","last_location":"Amsterdam","phone":"+2348138092212","review":null,"gender":null,"date_of_birth":null,"cba_id":null,"photo_id":null,"referral_code":"QI8C7Q","allowed_locations":null,"referred_by":null},"tier":null},{"id":"0195002b-aa45-7ffd-8a4c-4be7ae1bc266","meta":{"rc-number":"4567877","business-name":"Neem","business-email":"fuan@yopmail.com","business-phone":"+23438092122","business-types":"Nonprofit Organization","business-address":"2 kene street"},"created_on":"2025-02-13T16:36:56.517Z","created_by_id":"0195002b-275c-7ffd-8a4c-1782a05709b6","modified_on":"2025-02-13T16:36:56.517Z","modified_by_id":null,"deleted_on":null,"deleted_by_id":null,"tenant_id":"00000000-0000-0000-0000-000000000000","name":"Profile","type":"business","status":"active","review":null,"allowed_time_periods":null,"primary_user_id":"0195002b-275c-7ffd-8a4c-1782a05709b6","tier_id":null,"primary_user":{"id":"0195002b-275c-7ffd-8a4c-1782a05709b6","meta":null,"created_on":"2025-02-13T16:36:23.003Z","created_by_id":null,"modified_on":"2025-02-13T16:37:20.524Z","modified_by_id":"0195002b-275c-7ffd-8a4c-1782a05709b6","deleted_on":null,"deleted_by_id":null,"tenant_id":"00000000-0000-0000-0000-000000000000","email":"fuan@yopmail.com","status":"active","first_name":"Fuan","last_name":"Frett","twofa_enabled":false,"last_active":"2025-02-13T16:37:20.522Z","last_ip":"141.101.76.119","allowed_ips":null,"last_timezone":"Europe/Amsterdam","last_location":"Amsterdam","phone":"+2348123470912","review":null,"gender":null,"date_of_birth":null,"cba_id":null,"photo_id":null,"referral_code":"7EENHW","allowed_locations":null,"referred_by":null},"tier":null},{"id":"0195002a-3440-7ffd-8a4b-c37eddb6abba","meta":{"rc-number":"4567876","business-name":"leep","business-email":"frill@yopmail.com","business-phone":"+23438094262","business-types":"Corporation","business-address":"2 kene street"},"created_on":"2025-02-13T16:35:20.768Z","created_by_id":"01950028-e600-7ffd-8a4b-862631032bef","modified_on":"2025-02-13T16:35:20.768Z","modified_by_id":null,"deleted_on":null,"deleted_by_id":null,"tenant_id":"00000000-0000-0000-0000-000000000000","name":"Profile","type":"business","status":"active","review":null,"allowed_time_periods":null,"primary_user_id":"01950028-e600-7ffd-8a4b-862631032bef","tier_id":null,"primary_user":{"id":"01950028-e600-7ffd-8a4b-862631032bef","meta":null,"created_on":"2025-02-13T16:33:55.200Z","created_by_id":null,"modified_on":"2025-02-14T08:17:20.555Z","modified_by_id":"01950028-e600-7ffd-8a4b-862631032bef","deleted_on":null,"deleted_by_id":null,"tenant_id":"00000000-0000-0000-0000-000000000000","email":"Temi@yopmail.com","status":"active","first_name":"Temi","last_name":"Brown","twofa_enabled":false,"last_active":"2025-02-14T08:17:20.554Z","last_ip":"141.101.99.16","allowed_ips":null,"last_timezone":"Europe/London","last_location":"London","phone":"+2348138094356","review":null,"gender":null,"date_of_birth":null,"cba_id":null,"photo_id":null,"referral_code":"OJQJNR","allowed_locations":null,"referred_by":null},"tier":null},{"id":"0195002a-25e2-7ffd-8a4b-99785b302ffd","meta":{"rc-number":"4567876","business-name":"leep","business-email":"frill@yopmail.com","business-phone":"+23438094262","business-types":"Corporation","business-address":"2 kene street"},"created_on":"2025-02-13T16:35:17.058Z","created_by_id":"01950028-e600-7ffd-8a4b-862631032bef","modified_on":"2025-02-13T16:35:17.058Z","modified_by_id":null,"deleted_on":null,"deleted_by_id":null,"tenant_id":"00000000-0000-0000-0000-000000000000","name":"Profile","type":"business","status":"active","review":null,"allowed_time_periods":null,"primary_user_id":"01950028-e600-7ffd-8a4b-862631032bef","tier_id":null,"primary_user":{"id":"01950028-e600-7ffd-8a4b-862631032bef","meta":null,"created_on":"2025-02-13T16:33:55.200Z","created_by_id":null,"modified_on":"2025-02-14T08:17:20.555Z","modified_by_id":"01950028-e600-7ffd-8a4b-862631032bef","deleted_on":null,"deleted_by_id":null,"tenant_id":"00000000-0000-0000-0000-000000000000","email":"Temi@yopmail.com","status":"active","first_name":"Temi","last_name":"Brown","twofa_enabled":false,"last_active":"2025-02-14T08:17:20.554Z","last_ip":"141.101.99.16","allowed_ips":null,"last_timezone":"Europe/London","last_location":"London","phone":"+2348138094356","review":null,"gender":null,"date_of_birth":null,"cba_id":null,"photo_id":null,"referral_code":"OJQJNR","allowed_locations":null,"referred_by":null},"tier":null},{"id":"0194ff9d-8bdb-7aaa-ace9-01c88861d33c","meta":{"rc-number":"0000000","business-name":"Faill","business-email":"frail@yopmail.com","business-phone":"+23438096654","business-types":"Partnership","business-address":"2 kene street"},"created_on":"2025-02-13T14:01:42.620Z","created_by_id":"0194ff9c-7aba-7aaa-ace8-a924c42eeb97","modified_on":"2025-02-13T14:04:11.096Z","modified_by_id":"0194ff9c-7aba-7aaa-ace8-a924c42eeb97","deleted_on":null,"deleted_by_id":null,"tenant_id":"00000000-0000-0000-0000-000000000000","name":"Profile","type":"business","status":"active","review":null,"allowed_time_periods":null,"primary_user_id":"0194ff9c-7aba-7aaa-ace8-a924c42eeb97","tier_id":"0193b49c-a302-711f-a668-d685d243452a","primary_user":{"id":"0194ff9c-7aba-7aaa-ace8-a924c42eeb97","meta":null,"created_on":"2025-02-13T14:00:32.698Z","created_by_id":null,"modified_on":"2025-02-13T14:12:25.838Z","modified_by_id":"0194ff9c-7aba-7aaa-ace8-a924c42eeb97","deleted_on":null,"deleted_by_id":null,"tenant_id":"00000000-0000-0000-0000-000000000000","email":"slain@yopmail.com","status":"active","first_name":"light","last_name":"find","twofa_enabled":false,"last_active":"2025-02-13T14:12:25.836Z","last_ip":"197.234.242.161","allowed_ips":null,"last_timezone":"Africa/Johannesburg","last_location":"Johannesburg","phone":"+2348138096438","review":null,"gender":null,"date_of_birth":null,"cba_id":null,"photo_id":null,"referral_code":"CVEZZ5","allowed_locations":null,"referred_by":"019372de-17ef-7cc2-8fc0-43fe11ba042f"},"tier":{"id":"0193b49c-a302-711f-a668-d685d243452a","meta":null,"created_on":"2024-12-11T07:26:24.515Z","created_by_id":null,"modified_on":"2024-12-11T07:26:24.515Z","modified_by_id":null,"deleted_on":null,"deleted_by_id":null,"tenant_id":"00000000-0000-0000-0000-000000000001","profile_type":"business","name":"Tier 1","description":"Tier 1","level":1,"enabled":true,"balance_limit":0,"single_sending_limit":500000,"single_receiving_limit":500000,"period_sending_limit":500000,"period_sending_limit_time_unit":"day","period_receiving_limit":500000,"period_receiving_limit_time_unit":"day","requirements":[]}},{"id":"0194f660-c8b6-766a-8cc1-3417e913911a","meta":{"rc-number":"0000000","business-name":"Neem","business-email":"hi@neem.co","business-phone":"+2348089722636","business-types":"Sole Proprietorship","business-address":"LAGOS, NIGERIA, LAGOS, Ibeju-Lekki, LAGOS"},"created_on":"2025-02-11T18:58:45.558Z","created_by_id":"0194f65f-fd3a-766a-8cc1-1ceeb21872a2","modified_on":"2025-02-11T19:01:25.166Z","modified_by_id":"0194f65f-fd3a-766a-8cc1-1ceeb21872a2","deleted_on":null,"deleted_by_id":null,"tenant_id":"00000000-0000-0000-0000-000000000000","name":"Profile","type":"business","status":"active","review":null,"allowed_time_periods":null,"primary_user_id":"0194f65f-fd3a-766a-8cc1-1ceeb21872a2","tier_id":"0193b49c-a302-711f-a668-d685d243452a","primary_user":{"id":"0194f65f-fd3a-766a-8cc1-1ceeb21872a2","meta":null,"created_on":"2025-02-11T18:57:53.467Z","created_by_id":null,"modified_on":"2025-02-12T13:51:26.070Z","modified_by_id":"0194f65f-fd3a-766a-8cc1-1ceeb21872a2","deleted_on":null,"deleted_by_id":null,"tenant_id":"00000000-0000-0000-0000-000000000000","email":"adewunmi.akin.sanya@gmail.com","status":"active","first_name":"Adewunmi","last_name":"Akinsanya","twofa_enabled":false,"last_active":"2025-02-12T13:51:26.069Z","last_ip":"172.71.182.146","allowed_ips":null,"last_timezone":"Europe/Amsterdam","last_location":"Amsterdam","phone":"+2348012345678","review":null,"gender":null,"date_of_birth":null,"cba_id":null,"photo_id":null,"referral_code":"UJ8UMN","allowed_locations":null,"referred_by":null},"tier":{"id":"0193b49c-a302-711f-a668-d685d243452a","meta":null,"created_on":"2024-12-11T07:26:24.515Z","created_by_id":null,"modified_on":"2024-12-11T07:26:24.515Z","modified_by_id":null,"deleted_on":null,"deleted_by_id":null,"tenant_id":"00000000-0000-0000-0000-000000000001","profile_type":"business","name":"Tier 1","description":"Tier 1","level":1,"enabled":true,"balance_limit":0,"single_sending_limit":500000,"single_receiving_limit":500000,"period_sending_limit":500000,"period_sending_limit_time_unit":"day","period_receiving_limit":500000,"period_receiving_limit_time_unit":"day","requirements":[]}},{"id":"0194f550-eaa7-700c-a205-c9541ea505b2","meta":{"rc-number":"0000000","business-name":"Neem","business-email":"hi@neem.co","business-phone":"+2348163809677","business-types":"Sole Proprietorship","business-address":"LAGOS, NIGERIA, LAGOS, Ibeju-Lekki, LAGOS"},"created_on":"2025-02-11T14:01:48.456Z","created_by_id":"0194f54e-f4d4-700c-a205-59ef4c82f190","modified_on":"2025-02-11T14:03:24.862Z","modified_by_id":"0194f54e-f4d4-700c-a205-59ef4c82f190","deleted_on":null,"deleted_by_id":null,"tenant_id":"00000000-0000-0000-0000-000000000000","name":"Profile","type":"business","status":"active","review":null,"allowed_time_periods":null,"primary_user_id":"0194f54e-f4d4-700c-a205-59ef4c82f190","tier_id":"0193b49c-a302-711f-a668-d685d243452a","primary_user":{"id":"0194f54e-f4d4-700c-a205-59ef4c82f190","meta":null,"created_on":"2025-02-11T13:59:39.988Z","created_by_id":null,"modified_on":"2025-02-11T14:25:41.973Z","modified_by_id":"0194f54e-f4d4-700c-a205-59ef4c82f190","deleted_on":null,"deleted_by_id":null,"tenant_id":"00000000-0000-0000-0000-000000000000","email":"maryam@assurdly.com","status":"active","first_name":"May","last_name":"May","twofa_enabled":false,"last_active":"2025-02-11T14:25:41.970Z","last_ip":"172.69.43.130","allowed_ips":null,"last_timezone":"Europe/London","last_location":"London","phone":"+2348163809677","review":null,"gender":null,"date_of_birth":null,"cba_id":null,"photo_id":null,"referral_code":"B289F9","allowed_locations":null,"referred_by":null},"tier":{"id":"0193b49c-a302-711f-a668-d685d243452a","meta":null,"created_on":"2024-12-11T07:26:24.515Z","created_by_id":null,"modified_on":"2024-12-11T07:26:24.515Z","modified_by_id":null,"deleted_on":null,"deleted_by_id":null,"tenant_id":"00000000-0000-0000-0000-000000000001","profile_type":"business","name":"Tier 1","description":"Tier 1","level":1,"enabled":true,"balance_limit":0,"single_sending_limit":500000,"single_receiving_limit":500000,"period_sending_limit":500000,"period_sending_limit_time_unit":"day","period_receiving_limit":500000,"period_receiving_limit_time_unit":"day","requirements":[]}},{"id":"0194f539-6f3d-700c-a201-4b3a6e2e1e0b","meta":{"rc-number":"0000000","business-name":"Neem","business-email":"hi@neem.co","business-phone":"+2349137494362","business-types":"Limited Liability Partnership (LLP)","business-address":"LAGOS, NIGERIA, LAGOS, Ibeju-Lekki, LAGOS"},"created_on":"2025-02-11T13:36:09.533Z","created_by_id":"0194f52a-3a64-700c-a1fa-18f978a25ca5","modified_on":"2025-02-11T14:16:56.533Z","modified_by_id":"0194f52a-3a64-700c-a1fa-18f978a25ca5","deleted_on":null,"deleted_by_id":null,"tenant_id":"00000000-0000-0000-0000-000000000000","name":"Profile","type":"business","status":"active","review":null,"allowed_time_periods":null,"primary_user_id":"0194f52a-3a64-700c-a1fa-18f978a25ca5","tier_id":"0193b49c-a302-711f-a668-d685d243452a","primary_user":{"id":"0194f52a-3a64-700c-a1fa-18f978a25ca5","meta":null,"created_on":"2025-02-11T13:19:32.964Z","created_by_id":null,"modified_on":"2025-02-11T14:22:00.543Z","modified_by_id":"0194f52a-3a64-700c-a1fa-18f978a25ca5","deleted_on":null,"deleted_by_id":null,"tenant_id":"00000000-0000-0000-0000-000000000000","email":"Ayomideliasu@yopmail.com","status":"active","first_name":"Ayomide","last_name":"Liasu","twofa_enabled":false,"last_active":"2025-02-11T14:22:00.541Z","last_ip":"172.69.195.22","allowed_ips":null,"last_timezone":"Europe/London","last_location":"London","phone":"+2349137494362","review":null,"gender":null,"date_of_birth":null,"cba_id":null,"photo_id":null,"referral_code":"VQ2DAJ","allowed_locations":null,"referred_by":"019372de-17ef-7cc2-8fc0-43fe11ba042f"},"tier":{"id":"0193b49c-a302-711f-a668-d685d243452a","meta":null,"created_on":"2024-12-11T07:26:24.515Z","created_by_id":null,"modified_on":"2024-12-11T07:26:24.515Z","modified_by_id":null,"deleted_on":null,"deleted_by_id":null,"tenant_id":"00000000-0000-0000-0000-000000000001","profile_type":"business","name":"Tier 1","description":"Tier 1","level":1,"enabled":true,"balance_limit":0,"single_sending_limit":500000,"single_receiving_limit":500000,"period_sending_limit":500000,"period_sending_limit_time_unit":"day","period_receiving_limit":500000,"period_receiving_limit_time_unit":"day","requirements":[]}},{"id":"0194f536-ab1c-700c-a1ff-b0231bb25a86","meta":{"rc-number":"0000000","business-name":"Neem","business-email":"hi@neem.co","business-phone":"+23409033362914","business-types":"Franchise","business-address":"LAGOS, NIGERIA, LAGOS, Ibeju-Lekki, LAGOS"},"created_on":"2025-02-11T13:33:08.247Z","created_by_id":"0194f52f-ee32-700c-a1fc-7986f56d24ff","modified_on":"2025-02-11T14:10:21.077Z","modified_by_id":"0194f52f-ee32-700c-a1fc-7986f56d24ff","deleted_on":null,"deleted_by_id":null,"tenant_id":"00000000-0000-0000-0000-000000000000","name":"Profile","type":"business","status":"active","review":null,"allowed_time_periods":null,"primary_user_id":"0194f52f-ee32-700c-a1fc-7986f56d24ff","tier_id":"0193b49c-a302-711f-a668-d685d243452a","primary_user":{"id":"0194f52f-ee32-700c-a1fc-7986f56d24ff","meta":null,"created_on":"2025-02-11T13:25:46.674Z","created_by_id":null,"modified_on":"2025-02-13T12:43:11.117Z","modified_by_id":"0194f52f-ee32-700c-a1fc-7986f56d24ff","deleted_on":null,"deleted_by_id":null,"tenant_id":"00000000-0000-0000-0000-000000000000","email":"favour@yopmail.com","status":"active","first_name":"Favour","last_name":"Elijah","twofa_enabled":false,"last_active":"2025-02-13T12:43:11.115Z","last_ip":"197.234.242.160","allowed_ips":null,"last_timezone":"Africa/Johannesburg","last_location":"Johannesburg","phone":"+23409033362914","review":null,"gender":null,"date_of_birth":"1998-10-31","cba_id":"51","photo_id":null,"referral_code":"US4SPJ","allowed_locations":null,"referred_by":null},"tier":{"id":"0193b49c-a302-711f-a668-d685d243452a","meta":null,"created_on":"2024-12-11T07:26:24.515Z","created_by_id":null,"modified_on":"2024-12-11T07:26:24.515Z","modified_by_id":null,"deleted_on":null,"deleted_by_id":null,"tenant_id":"00000000-0000-0000-0000-000000000001","profile_type":"business","name":"Tier 1","description":"Tier 1","level":1,"enabled":true,"balance_limit":0,"single_sending_limit":500000,"single_receiving_limit":500000,"period_sending_limit":500000,"period_sending_limit_time_unit":"day","period_receiving_limit":500000,"period_receiving_limit_time_unit":"day","requirements":[]}}],"meta":{"page":1,"total_pages":13,"total_items":124}}