{"status":"success","data":[{"id":"01950ff9-2a43-7bbe-8a2e-b58d0f03e09e","meta":null,"created_on":"2025-02-16T18:15:42.404Z","created_by_id":"0194fffc-b707-7ffd-8a49-bade06ffdb55","modified_on":"2025-02-16T18:15:42.404Z","modified_by_id":null,"deleted_on":null,"deleted_by_id":null,"tenant_id":"00000000-0000-0000-0000-000000000000","profile_id":"0194fffd-02d8-7ffd-8a4a-16ddf6002a67","identifier":"b9729d86-020c-4454-8ce7-e94b4e6722c6","status":"pending","type_id":"019318f9-c895-744d-8f65-4636cc26dd1f"},{"id":"01950fec-b4be-7bbe-8a2e-8f824ef618f2","meta":null,"created_on":"2025-02-16T18:02:05.886Z","created_by_id":"0194fffc-b707-7ffd-8a49-bade06ffdb55","modified_on":"2025-02-16T18:02:05.886Z","modified_by_id":null,"deleted_on":null,"deleted_by_id":null,"tenant_id":"00000000-0000-0000-0000-000000000000","profile_id":"0194fffd-02d8-7ffd-8a4a-16ddf6002a67","identifier":"4f75c7b6-204e-44a7-849e-c123b15703de","status":"pending","type_id":"019318f9-c895-744d-8f65-4636cc26dd1f"},{"id":"01950fe1-332f-7bbe-8a2e-72f87f91d8a8","meta":null,"created_on":"2025-02-16T17:49:31.823Z","created_by_id":"0194fffc-b707-7ffd-8a49-bade06ffdb55","modified_on":"2025-02-16T17:49:31.823Z","modified_by_id":null,"deleted_on":null,"deleted_by_id":null,"tenant_id":"00000000-0000-0000-0000-000000000000","profile_id":"0194fffd-02d8-7ffd-8a4a-16ddf6002a67","identifier":"41aafd0a-0a87-43d0-b772-e9c5c071bbe2","status":"pending","type_id":"019318f9-c895-744d-8f65-4636cc26dd1f"},{"id":"01950fad-84c0-777a-afc9-efd9e454c865","meta":null,"created_on":"2025-02-16T16:53:04.832Z","created_by_id":"0194fffc-b707-7ffd-8a49-bade06ffdb55","modified_on":"2025-02-16T16:53:04.832Z","modified_by_id":null,"deleted_on":null,"deleted_by_id":null,"tenant_id":"00000000-0000-0000-0000-000000000000","profile_id":"0194fffd-02d8-7ffd-8a4a-16ddf6002a67","identifier":"6863202a-ea0c-4cb1-ad6d-b5c6911c198a","status":"pending","type_id":"019318f9-c895-744d-8f65-4636cc26dd1f"},{"id":"01950f34-fef3-777a-afc8-9e46d07a4505","meta":null,"created_on":"2025-02-16T14:41:26.259Z","created_by_id":"0194fffc-b707-7ffd-8a49-bade06ffdb55","modified_on":"2025-02-16T14:41:26.259Z","modified_by_id":null,"deleted_on":null,"deleted_by_id":null,"tenant_id":"00000000-0000-0000-0000-000000000000","profile_id":"0194fffd-02d8-7ffd-8a4a-16ddf6002a67","identifier":"c60431df-284a-4db3-93e7-11bdb8ffe80f","status":"pending","type_id":"019318f9-c895-744d-8f65-4636cc26dd1f"},{"id":"01950b95-fb2e-7773-bf64-e0a23fe2f030","meta":null,"created_on":"2025-02-15T21:48:53.423Z","created_by_id":"01950b95-c2dd-7773-bf64-ae6781b6bde7","modified_on":"2025-02-15T21:48:53.423Z","modified_by_id":null,"deleted_on":null,"deleted_by_id":null,"tenant_id":"00000000-0000-0000-0000-000000000000","profile_id":"01950b95-fadd-7773-bf64-c25a35f527ca","identifier":"ezekiel@assurdly.com","status":"approved","type_id":"019318f9-c895-744d-8f65-4636cc26dd1d"},{"id":"01950b95-fb2c-7773-bf64-dedbce54448e","meta":null,"created_on":"2025-02-15T21:48:53.421Z","created_by_id":"01950b95-c2dd-7773-bf64-ae6781b6bde7","modified_on":"2025-02-15T21:48:53.421Z","modified_by_id":null,"deleted_on":null,"deleted_by_id":null,"tenant_id":"00000000-0000-0000-0000-000000000000","profile_id":"01950b95-fadd-7773-bf64-c25a35f527ca","identifier":"+2348037492038","status":"approved","type_id":"019318f9-c895-744d-8f65-4636cc26dd1c"},{"id":"019503f9-1664-722d-940a-d33243dc7de1","meta":null,"created_on":"2025-02-14T10:20:10.724Z","created_by_id":"019503f8-cee9-722d-940a-99a5d7eacff6","modified_on":"2025-02-14T10:20:10.724Z","modified_by_id":null,"deleted_on":null,"deleted_by_id":null,"tenant_id":"00000000-0000-0000-0000-000000000000","profile_id":"019503f9-15ac-722d-940a-b20eeaf87a6e","identifier":"slayer@yopmail.com","status":"approved","type_id":"019318f9-c895-744d-8f65-4636cc26dd1d"},{"id":"019503f9-1662-722d-940a-c9e8af43514f","meta":null,"created_on":"2025-02-14T10:20:10.722Z","created_by_id":"019503f8-cee9-722d-940a-99a5d7eacff6","modified_on":"2025-02-14T10:20:10.722Z","modified_by_id":null,"deleted_on":null,"deleted_by_id":null,"tenant_id":"00000000-0000-0000-0000-000000000000","profile_id":"019503f9-15ac-722d-940a-b20eeaf87a6e","identifier":"+2348138092345","status":"approved","type_id":"019318f9-c895-744d-8f65-4636cc26dd1c"},{"id":"019501c1-b8ab-722d-9409-cfd1749c7bdb","meta":null,"created_on":"2025-02-14T00:00:27.816Z","created_by_id":"01940e4c-d7b1-7992-b128-833d506b072f","modified_on":"2025-02-14T00:00:27.816Z","modified_by_id":null,"deleted_on":null,"deleted_by_id":null,"tenant_id":"00000000-0000-0000-0000-000000000000","profile_id":"01940e4d-d7bf-7992-b128-94378cf60800","identifier":"d83a698c-5f39-4de6-aeb8-b3bbcdd0bd94","status":"pending","type_id":"019318f9-c895-744d-8f65-4636cc26dd1f"}],"meta":{"page":1,"total_pages":45,"total_items":441}}