{"status":"success","data":[{"id":"0195fb64-87d5-7887-ab31-f0809bfdb3cd","meta":null,"created_on":"2025-04-03T11:23:44.469Z","created_by_id":"019372de-17ef-7cc2-8fc0-43fe11ba042f","modified_on":"2025-04-03T11:23:44.469Z","modified_by_id":null,"deleted_on":null,"deleted_by_id":null,"tenant_id":"00000000-0000-0000-0000-000000000000","bank_code":"000014","bank_name":"Access Bank","account_number":"2105070812","account_name":"John Doe","profile_id":"0193a649-e3d0-7881-8b7f-2ef1d89a9aff"},{"id":"0195f7d3-01ce-7887-ab28-37e019e03ea2","meta":null,"created_on":"2025-04-02T18:45:55.787Z","created_by_id":"019372de-17ef-7cc2-8fc0-43fe11ba042f","modified_on":"2025-04-02T18:45:55.787Z","modified_by_id":null,"deleted_on":null,"deleted_by_id":null,"tenant_id":"00000000-0000-0000-0000-000000000000","bank_code":"000014","bank_name":"Access Bank","account_number":"9700928512","account_name":"John Doe","profile_id":"0193a649-e3d0-7881-8b7f-2ef1d89a9aff"},{"id":"0195f51d-9ef9-7887-ab17-cf83fd13f00c","meta":null,"created_on":"2025-04-02T06:08:34.042Z","created_by_id":"019372de-17ef-7cc2-8fc0-43fe11ba042f","modified_on":"2025-04-02T06:08:34.042Z","modified_by_id":null,"deleted_on":null,"deleted_by_id":null,"tenant_id":"00000000-0000-0000-0000-000000000000","bank_code":"000014","bank_name":"Access Bank","account_number":"5028534512","account_name":"John Doe","profile_id":"0193a649-e3d0-7881-8b7f-2ef1d89a9aff"},{"id":"0195f50e-481d-7887-ab14-87aeda8fc12d","meta":null,"created_on":"2025-04-02T05:51:48.766Z","created_by_id":"019372de-17ef-7cc2-8fc0-43fe11ba042f","modified_on":"2025-04-02T05:51:48.766Z","modified_by_id":null,"deleted_on":null,"deleted_by_id":null,"tenant_id":"00000000-0000-0000-0000-000000000000","bank_code":"000014","bank_name":"Access Bank","account_number":"3943498412","account_name":"John Doe","profile_id":"0193a649-e3d0-7881-8b7f-2ef1d89a9aff"},{"id":"0195f50e-46f7-7887-ab14-72ee9fa7d9d4","meta":null,"created_on":"2025-04-02T05:51:48.471Z","created_by_id":"019372de-17ef-7cc2-8fc0-43fe11ba042f","modified_on":"2025-04-02T05:51:48.471Z","modified_by_id":null,"deleted_on":null,"deleted_by_id":null,"tenant_id":"00000000-0000-0000-0000-000000000000","bank_code":"000014","bank_name":"Access Bank","account_number":"9731730512","account_name":"John Doe","profile_id":"0193a649-e3d0-7881-8b7f-2ef1d89a9aff"},{"id":"0195f4bd-1529-7553-b03b-368a5c2b1c4e","meta":null,"created_on":"2025-04-02T04:23:07.306Z","created_by_id":"019372de-17ef-7cc2-8fc0-43fe11ba042f","modified_on":"2025-04-02T04:23:07.306Z","modified_by_id":null,"deleted_on":null,"deleted_by_id":null,"tenant_id":"00000000-0000-0000-0000-000000000000","bank_code":"000014","bank_name":"Access Bank","account_number":"0083976212","account_name":"John Doe","profile_id":"0193a649-e3d0-7881-8b7f-2ef1d89a9aff"},{"id":"01956bd1-41d5-7229-a16c-1560b93d3a2e","meta":null,"created_on":"2025-03-06T14:17:10.856Z","created_by_id":"019372de-17ef-7cc2-8fc0-43fe11ba042f","modified_on":"2025-03-06T14:17:10.856Z","modified_by_id":null,"deleted_on":null,"deleted_by_id":null,"tenant_id":"00000000-0000-0000-0000-000000000000","bank_code":"050030","bank_name":"NORTHQUEST FINANCE COMPANY LIMITED ","account_number":"8134044030","account_name":"billy graam","profile_id":"0193a649-e3d0-7881-8b7f-2ef1d89a9aff"},{"id":"01956b05-1637-7cce-ae7f-e24c51066603","meta":null,"created_on":"2025-03-06T10:34:10.097Z","created_by_id":"019372de-17ef-7cc2-8fc0-43fe11ba042f","modified_on":"2025-03-06T10:34:10.097Z","modified_by_id":null,"deleted_on":null,"deleted_by_id":null,"tenant_id":"00000000-0000-0000-0000-000000000000","bank_code":"999998","bank_name":"vee test","account_number":"0112345678","account_name":"vee Test","profile_id":"0193a649-e3d0-7881-8b7f-2ef1d89a9aff"},{"id":"019566f6-a18f-722f-a14d-3e4c350bfefc","meta":null,"created_on":"2025-03-05T15:39:54.110Z","created_by_id":"019372de-17ef-7cc2-8fc0-43fe11ba042f","modified_on":"2025-03-05T15:39:54.110Z","modified_by_id":null,"deleted_on":null,"deleted_by_id":null,"tenant_id":"00000000-0000-0000-0000-000000000000","bank_code":"000014","bank_name":"Access Bank","account_number":"1111111111","account_name":"John Doe","profile_id":"0193a649-e3d0-7881-8b7f-2ef1d89a9aff"},{"id":"0195617a-e80c-7bb6-afe0-982d02f466ba","meta":null,"created_on":"2025-03-04T14:06:39.623Z","created_by_id":"019372de-17ef-7cc2-8fc0-43fe11ba042f","modified_on":"2025-03-04T14:06:39.623Z","modified_by_id":null,"deleted_on":null,"deleted_by_id":null,"tenant_id":"00000000-0000-0000-0000-000000000000","bank_code":"050030","bank_name":"NORTHQUEST FINANCE COMPANY LIMITED ","account_number":"0000000409","account_name":"Olayemi Victoria","profile_id":"0193a649-e3d0-7881-8b7f-2ef1d89a9aff"}],"meta":{"page":1,"total_pages":2,"total_items":12}}