{"status":"success","data":[{"id":"0194bcff-adbe-7448-b8f9-fda96f5257f4","meta":null,"created_on":"2025-01-31T15:34:20.351Z","created_by_id":"01940e4c-d7b1-7992-b128-833d506b072f","modified_on":"2025-01-31T15:34:20.351Z","modified_by_id":null,"deleted_on":null,"deleted_by_id":null,"tenant_id":"00000000-0000-0000-0000-000000000000","profile_id":"01940e4d-d7bf-7992-b128-94378cf60800","identifier":"e660a80f-0f00-4f2f-85f0-e54ff6a18333","status":"pending","type_id":"019318f9-c895-744d-8f65-4636cc26dd1f"},{"id":"0194bcff-ad83-7448-b8f9-f45a7d0121eb","meta":null,"created_on":"2025-01-31T15:34:20.291Z","created_by_id":"01940e4c-d7b1-7992-b128-833d506b072f","modified_on":"2025-01-31T15:34:20.291Z","modified_by_id":null,"deleted_on":null,"deleted_by_id":null,"tenant_id":"00000000-0000-0000-0000-000000000000","profile_id":"01940e4d-d7bf-7992-b128-94378cf60800","identifier":"b5dbed70-6e12-418e-9892-b0cb7892f1de","status":"pending","type_id":"019318f9-c895-744d-8f65-4636cc26dd1f"},{"id":"0194bcfb-e4bf-7448-b8f9-e99263680cec","meta":null,"created_on":"2025-01-31T15:30:12.287Z","created_by_id":"01940e4c-d7b1-7992-b128-833d506b072f","modified_on":"2025-01-31T15:30:12.287Z","modified_by_id":null,"deleted_on":null,"deleted_by_id":null,"tenant_id":"00000000-0000-0000-0000-000000000000","profile_id":"01940e4d-d7bf-7992-b128-94378cf60800","identifier":"0cb369a2-1182-4040-8443-881125f8464f","status":"pending","type_id":"019318f9-c895-744d-8f65-4636cc26dd1f"},{"id":"0194bcfb-e454-7448-b8f9-e387817e90f6","meta":null,"created_on":"2025-01-31T15:30:12.180Z","created_by_id":"01940e4c-d7b1-7992-b128-833d506b072f","modified_on":"2025-01-31T15:30:12.180Z","modified_by_id":null,"deleted_on":null,"deleted_by_id":null,"tenant_id":"00000000-0000-0000-0000-000000000000","profile_id":"01940e4d-d7bf-7992-b128-94378cf60800","identifier":"c451906b-101e-48b9-b5e2-3510f82f77a4","status":"pending","type_id":"019318f9-c895-744d-8f65-4636cc26dd1f"},{"id":"0194b9c8-f9d5-7448-8ea9-c9ea232549fb","meta":null,"created_on":"2025-01-31T00:35:43.700Z","created_by_id":"01940e4c-d7b1-7992-b128-833d506b072f","modified_on":"2025-01-31T00:35:43.700Z","modified_by_id":null,"deleted_on":null,"deleted_by_id":null,"tenant_id":"00000000-0000-0000-0000-000000000000","profile_id":"01940e4d-d7bf-7992-b128-94378cf60800","identifier":"9e844be2-11ac-4882-8158-6d68c52fa44f","status":"pending","type_id":"019318f9-c895-744d-8f65-4636cc26dd1f"},{"id":"0194b9c8-f8e3-7448-8ea9-c668feafc66c","meta":null,"created_on":"2025-01-31T00:35:43.451Z","created_by_id":"01940e4c-d7b1-7992-b128-833d506b072f","modified_on":"2025-01-31T00:35:43.451Z","modified_by_id":null,"deleted_on":null,"deleted_by_id":null,"tenant_id":"00000000-0000-0000-0000-000000000000","profile_id":"01940e4d-d7bf-7992-b128-94378cf60800","identifier":"c9b3a8d9-8299-4bd3-af16-7e7304e63997","status":"pending","type_id":"019318f9-c895-744d-8f65-4636cc26dd1f"},{"id":"0194b9c7-dcd3-7448-8ea9-ba18c960fbc4","meta":null,"created_on":"2025-01-31T00:34:30.739Z","created_by_id":"01940e4c-d7b1-7992-b128-833d506b072f","modified_on":"2025-01-31T00:34:30.739Z","modified_by_id":null,"deleted_on":null,"deleted_by_id":null,"tenant_id":"00000000-0000-0000-0000-000000000000","profile_id":"01940e4d-d7bf-7992-b128-94378cf60800","identifier":"ba8fc209-d887-4087-bce2-b6af3bd72964","status":"pending","type_id":"019318f9-c895-744d-8f65-4636cc26dd1f"},{"id":"0194b9c7-dc74-7448-8ea9-b0b988bfd193","meta":null,"created_on":"2025-01-31T00:34:30.644Z","created_by_id":"01940e4c-d7b1-7992-b128-833d506b072f","modified_on":"2025-01-31T00:34:30.644Z","modified_by_id":null,"deleted_on":null,"deleted_by_id":null,"tenant_id":"00000000-0000-0000-0000-000000000000","profile_id":"01940e4d-d7bf-7992-b128-94378cf60800","identifier":"3858507c-d8f5-4c8e-bae2-0890fe3c024e","status":"pending","type_id":"019318f9-c895-744d-8f65-4636cc26dd1f"},{"id":"0194b9c7-9065-7448-8ea9-aa440d525c92","meta":null,"created_on":"2025-01-31T00:34:11.173Z","created_by_id":"01940e4c-d7b1-7992-b128-833d506b072f","modified_on":"2025-01-31T00:34:11.173Z","modified_by_id":null,"deleted_on":null,"deleted_by_id":null,"tenant_id":"00000000-0000-0000-0000-000000000000","profile_id":"01940e4d-d7bf-7992-b128-94378cf60800","identifier":"5f35db28-f213-4972-9ebf-1c113edbac7b","status":"pending","type_id":"019318f9-c895-744d-8f65-4636cc26dd1f"},{"id":"0194b9c7-9033-7448-8ea9-a4536964753f","meta":null,"created_on":"2025-01-31T00:34:11.123Z","created_by_id":"01940e4c-d7b1-7992-b128-833d506b072f","modified_on":"2025-01-31T00:34:11.123Z","modified_by_id":null,"deleted_on":null,"deleted_by_id":null,"tenant_id":"00000000-0000-0000-0000-000000000000","profile_id":"01940e4d-d7bf-7992-b128-94378cf60800","identifier":"4d6ee8de-902c-4a2e-a053-51fe9987f821","status":"pending","type_id":"019318f9-c895-744d-8f65-4636cc26dd1f"}],"meta":{"page":1,"total_pages":25,"total_items":243}}